(kicad_pcb (version 20171130) (host pcbnew "(5.0.0)")

  (general
    (thickness 1.6)
    (drawings 16)
    (tracks 228)
    (zones 0)
    (modules 24)
    (nets 36)
  )

  (page A4)
  (layers
    (0 F.Cu signal)
    (31 B.Cu signal)
    (32 B.Adhes user)
    (33 F.Adhes user)
    (34 B.Paste user)
    (35 F.Paste user)
    (36 B.SilkS user)
    (37 F.SilkS user)
    (38 B.Mask user)
    (39 F.Mask user)
    (40 Dwgs.User user)
    (41 Cmts.User user)
    (42 Eco1.User user)
    (43 Eco2.User user hide)
    (44 Edge.Cuts user)
    (45 Margin user)
    (46 B.CrtYd user)
    (47 F.CrtYd user)
    (48 B.Fab user)
    (49 F.Fab user hide)
  )

  (setup
    (last_trace_width 0.25)
    (user_trace_width 1.5)
    (user_trace_width 2)
    (trace_clearance 0.2)
    (zone_clearance 0.508)
    (zone_45_only no)
    (trace_min 0.2)
    (segment_width 0.2)
    (edge_width 0.15)
    (via_size 0.8)
    (via_drill 0.4)
    (via_min_size 0.4)
    (via_min_drill 0.3)
    (uvia_size 0.3)
    (uvia_drill 0.1)
    (uvias_allowed no)
    (uvia_min_size 0.2)
    (uvia_min_drill 0.1)
    (pcb_text_width 0.3)
    (pcb_text_size 1.5 1.5)
    (mod_edge_width 0.15)
    (mod_text_size 1 1)
    (mod_text_width 0.15)
    (pad_size 1.524 1.524)
    (pad_drill 0.762)
    (pad_to_mask_clearance 0.2)
    (aux_axis_origin 0 0)
    (visible_elements 7FFFFFFF)
    (pcbplotparams
      (layerselection 0x010e0_ffffffff)
      (usegerberextensions false)
      (usegerberattributes false)
      (usegerberadvancedattributes false)
      (creategerberjobfile false)
      (excludeedgelayer true)
      (linewidth 0.100000)
      (plotframeref false)
      (viasonmask false)
      (mode 1)
      (useauxorigin false)
      (hpglpennumber 1)
      (hpglpenspeed 20)
      (hpglpendiameter 15.000000)
      (psnegative false)
      (psa4output false)
      (plotreference true)
      (plotvalue true)
      (plotinvisibletext false)
      (padsonsilk false)
      (subtractmaskfromsilk false)
      (outputformat 1)
      (mirror false)
      (drillshape 0)
      (scaleselection 1)
      (outputdirectory "FabOutput/"))
  )

  (net 0 "")
  (net 1 12V)
  (net 2 /SPARE)
  (net 3 GND)
  (net 4 5V)
  (net 5 "Net-(H1-Pad1)")
  (net 6 "Net-(H2-Pad1)")
  (net 7 "Net-(H3-Pad1)")
  (net 8 "Net-(H4-Pad1)")
  (net 9 /UART_RX)
  (net 10 /UART_TX)
  (net 11 /SWIM)
  (net 12 /NRST)
  (net 13 "Net-(U1-Pad5)")
  (net 14 "Net-(U1-Pad6)")
  (net 15 3V3)
  (net 16 "Net-(U1-Pad10)")
  (net 17 "Net-(U1-Pad13)")
  (net 18 "Net-(U1-Pad14)")
  (net 19 "Net-(U1-Pad15)")
  (net 20 "Net-(U1-Pad16)")
  (net 21 "Net-(U1-Pad17)")
  (net 22 "Net-(U1-Pad18)")
  (net 23 "Net-(U1-Pad19)")
  (net 24 "Net-(U1-Pad20)")
  (net 25 "Net-(D1-Pad2)")
  (net 26 /5V_In)
  (net 27 /CPU_TX)
  (net 28 /CPU_RX)
  (net 29 "Net-(U1-Pad12)")
  (net 30 /PWM)
  (net 31 "Net-(D4-Pad2)")
  (net 32 "Net-(C5-Pad1)")
  (net 33 "Net-(U1-Pad9)")
  (net 34 "Net-(J4-Pad3)")
  (net 35 "Net-(J4-Pad2)")

  (net_class Default "This is the default net class."
    (clearance 0.2)
    (trace_width 0.25)
    (via_dia 0.8)
    (via_drill 0.4)
    (uvia_dia 0.3)
    (uvia_drill 0.1)
    (add_net /5V_In)
    (add_net /CPU_RX)
    (add_net /CPU_TX)
    (add_net /NRST)
    (add_net /PWM)
    (add_net /SPARE)
    (add_net /SWIM)
    (add_net /UART_RX)
    (add_net /UART_TX)
    (add_net 12V)
    (add_net 3V3)
    (add_net 5V)
    (add_net GND)
    (add_net "Net-(C5-Pad1)")
    (add_net "Net-(D1-Pad2)")
    (add_net "Net-(D4-Pad2)")
    (add_net "Net-(H1-Pad1)")
    (add_net "Net-(H2-Pad1)")
    (add_net "Net-(H3-Pad1)")
    (add_net "Net-(H4-Pad1)")
    (add_net "Net-(J4-Pad2)")
    (add_net "Net-(J4-Pad3)")
    (add_net "Net-(U1-Pad10)")
    (add_net "Net-(U1-Pad12)")
    (add_net "Net-(U1-Pad13)")
    (add_net "Net-(U1-Pad14)")
    (add_net "Net-(U1-Pad15)")
    (add_net "Net-(U1-Pad16)")
    (add_net "Net-(U1-Pad17)")
    (add_net "Net-(U1-Pad18)")
    (add_net "Net-(U1-Pad19)")
    (add_net "Net-(U1-Pad20)")
    (add_net "Net-(U1-Pad5)")
    (add_net "Net-(U1-Pad6)")
    (add_net "Net-(U1-Pad9)")
  )

  (module Br:C_0805 (layer F.Cu) (tedit 5DE623F4) (tstamp 5E0CED31)
    (at 140.462 111.506 90)
    (descr "Capacitor SMD 0805, reflow soldering, AVX (see smccp.pdf)")
    (tags "capacitor 0805")
    (path /5E0D25C3)
    (attr smd)
    (fp_text reference C2 (at 3.3 0 90) (layer F.SilkS)
      (effects (font (size 1 1) (thickness 0.15)))
    )
    (fp_text value 100nF (at 0 2.1 90) (layer F.Fab)
      (effects (font (size 1 1) (thickness 0.15)))
    )
    (fp_line (start -0.5 0.85) (end 0.5 0.85) (layer F.SilkS) (width 0.15))
    (fp_line (start 0.5 -0.85) (end -0.5 -0.85) (layer F.SilkS) (width 0.15))
    (fp_line (start 1.8 -1) (end 1.8 1) (layer F.CrtYd) (width 0.05))
    (fp_line (start -1.8 -1) (end -1.8 1) (layer F.CrtYd) (width 0.05))
    (fp_line (start -1.8 1) (end 1.8 1) (layer F.CrtYd) (width 0.05))
    (fp_line (start -1.8 -1) (end 1.8 -1) (layer F.CrtYd) (width 0.05))
    (pad 2 smd rect (at 1 0 90) (size 1 1.25) (layers F.Cu F.Paste F.Mask)
      (net 3 GND))
    (pad 1 smd rect (at -1 0 90) (size 1 1.25) (layers F.Cu F.Paste F.Mask)
      (net 15 3V3))
    (model ${KISYS3DMOD}/C_0805.wrl
      (at (xyz 0 0 0))
      (scale (xyz 1 1 1))
      (rotate (xyz 0 0 0))
    )
  )

  (module Br:C_0805 (layer F.Cu) (tedit 5DE623F4) (tstamp 5E0CED10)
    (at 144.526 111.506 90)
    (descr "Capacitor SMD 0805, reflow soldering, AVX (see smccp.pdf)")
    (tags "capacitor 0805")
    (path /5E0D24CB)
    (attr smd)
    (fp_text reference C1 (at 3.429 0 90) (layer F.SilkS)
      (effects (font (size 1 1) (thickness 0.15)))
    )
    (fp_text value 100nF (at 0 2.1 90) (layer F.Fab)
      (effects (font (size 1 1) (thickness 0.15)))
    )
    (fp_line (start -0.5 0.85) (end 0.5 0.85) (layer F.SilkS) (width 0.15))
    (fp_line (start 0.5 -0.85) (end -0.5 -0.85) (layer F.SilkS) (width 0.15))
    (fp_line (start 1.8 -1) (end 1.8 1) (layer F.CrtYd) (width 0.05))
    (fp_line (start -1.8 -1) (end -1.8 1) (layer F.CrtYd) (width 0.05))
    (fp_line (start -1.8 1) (end 1.8 1) (layer F.CrtYd) (width 0.05))
    (fp_line (start -1.8 -1) (end 1.8 -1) (layer F.CrtYd) (width 0.05))
    (pad 2 smd rect (at 1 0 90) (size 1 1.25) (layers F.Cu F.Paste F.Mask)
      (net 3 GND))
    (pad 1 smd rect (at -1 0 90) (size 1 1.25) (layers F.Cu F.Paste F.Mask)
      (net 12 /NRST))
    (model ${KISYS3DMOD}/C_0805.wrl
      (at (xyz 0 0 0))
      (scale (xyz 1 1 1))
      (rotate (xyz 0 0 0))
    )
  )

  (module Br:R_1206 (layer F.Cu) (tedit 5B301BBD) (tstamp 5E0CE338)
    (at 138.43 105.41 180)
    (descr "Resistor SMD 1206 (3216 Metric), square (rectangular) end terminal, IPC_7351 nominal, (Body size source: http://www.tortai-tech.com/upload/download/2011102023233369053.pdf), generated with kicad-footprint-generator")
    (tags resistor)
    (path /5E0FA57E)
    (attr smd)
    (fp_text reference R1 (at 0 -1.82 180) (layer F.SilkS)
      (effects (font (size 1 1) (thickness 0.15)))
    )
    (fp_text value 1k (at 0 1.82 180) (layer F.Fab)
      (effects (font (size 1 1) (thickness 0.15)))
    )
    (fp_text user %R (at 0 0 180) (layer F.Fab)
      (effects (font (size 0.8 0.8) (thickness 0.12)))
    )
    (fp_line (start 2.28 1.12) (end -2.28 1.12) (layer F.CrtYd) (width 0.05))
    (fp_line (start 2.28 -1.12) (end 2.28 1.12) (layer F.CrtYd) (width 0.05))
    (fp_line (start -2.28 -1.12) (end 2.28 -1.12) (layer F.CrtYd) (width 0.05))
    (fp_line (start -2.28 1.12) (end -2.28 -1.12) (layer F.CrtYd) (width 0.05))
    (fp_line (start -0.602064 0.91) (end 0.602064 0.91) (layer F.SilkS) (width 0.12))
    (fp_line (start -0.602064 -0.91) (end 0.602064 -0.91) (layer F.SilkS) (width 0.12))
    (fp_line (start 1.6 0.8) (end -1.6 0.8) (layer F.Fab) (width 0.1))
    (fp_line (start 1.6 -0.8) (end 1.6 0.8) (layer F.Fab) (width 0.1))
    (fp_line (start -1.6 -0.8) (end 1.6 -0.8) (layer F.Fab) (width 0.1))
    (fp_line (start -1.6 0.8) (end -1.6 -0.8) (layer F.Fab) (width 0.1))
    (pad 2 smd roundrect (at 1.4 0 180) (size 1.25 1.75) (layers F.Cu F.Paste F.Mask) (roundrect_rratio 0.2)
      (net 9 /UART_RX))
    (pad 1 smd roundrect (at -1.4 0 180) (size 1.25 1.75) (layers F.Cu F.Paste F.Mask) (roundrect_rratio 0.2)
      (net 28 /CPU_RX))
    (model ${KISYS3DMOD}/Resistor_SMD.3dshapes/R_1206.wrl
      (at (xyz 0 0 0))
      (scale (xyz 1 1 1))
      (rotate (xyz 0 0 0))
    )
  )

  (module Br:R_1206 (layer F.Cu) (tedit 5B301BBD) (tstamp 5E0CE328)
    (at 162.052 113.03 180)
    (descr "Resistor SMD 1206 (3216 Metric), square (rectangular) end terminal, IPC_7351 nominal, (Body size source: http://www.tortai-tech.com/upload/download/2011102023233369053.pdf), generated with kicad-footprint-generator")
    (tags resistor)
    (path /5E0FA791)
    (attr smd)
    (fp_text reference R2 (at -3.302 0.254 180) (layer F.SilkS)
      (effects (font (size 1 1) (thickness 0.15)))
    )
    (fp_text value 1k (at 0 1.82 180) (layer F.Fab)
      (effects (font (size 1 1) (thickness 0.15)))
    )
    (fp_text user %R (at 0 0 180) (layer F.Fab)
      (effects (font (size 0.8 0.8) (thickness 0.12)))
    )
    (fp_line (start 2.28 1.12) (end -2.28 1.12) (layer F.CrtYd) (width 0.05))
    (fp_line (start 2.28 -1.12) (end 2.28 1.12) (layer F.CrtYd) (width 0.05))
    (fp_line (start -2.28 -1.12) (end 2.28 -1.12) (layer F.CrtYd) (width 0.05))
    (fp_line (start -2.28 1.12) (end -2.28 -1.12) (layer F.CrtYd) (width 0.05))
    (fp_line (start -0.602064 0.91) (end 0.602064 0.91) (layer F.SilkS) (width 0.12))
    (fp_line (start -0.602064 -0.91) (end 0.602064 -0.91) (layer F.SilkS) (width 0.12))
    (fp_line (start 1.6 0.8) (end -1.6 0.8) (layer F.Fab) (width 0.1))
    (fp_line (start 1.6 -0.8) (end 1.6 0.8) (layer F.Fab) (width 0.1))
    (fp_line (start -1.6 -0.8) (end 1.6 -0.8) (layer F.Fab) (width 0.1))
    (fp_line (start -1.6 0.8) (end -1.6 -0.8) (layer F.Fab) (width 0.1))
    (pad 2 smd roundrect (at 1.4 0 180) (size 1.25 1.75) (layers F.Cu F.Paste F.Mask) (roundrect_rratio 0.2)
      (net 27 /CPU_TX))
    (pad 1 smd roundrect (at -1.4 0 180) (size 1.25 1.75) (layers F.Cu F.Paste F.Mask) (roundrect_rratio 0.2)
      (net 10 /UART_TX))
    (model ${KISYS3DMOD}/Resistor_SMD.3dshapes/R_1206.wrl
      (at (xyz 0 0 0))
      (scale (xyz 1 1 1))
      (rotate (xyz 0 0 0))
    )
  )

  (module Br:SOT23 (layer F.Cu) (tedit 5DE6282D) (tstamp 5E0CE5C8)
    (at 160.909 108.839)
    (descr "SOT23, Standard")
    (tags SOT23)
    (path /5E0F1DC6)
    (attr smd)
    (fp_text reference Q1 (at 2.667 0.762 90) (layer F.SilkS)
      (effects (font (size 1 1) (thickness 0.15)))
    )
    (fp_text value TR_NMOS_5.7A_30V_AO3400A (at 2.29751 0.011692 90) (layer F.Fab)
      (effects (font (size 1 1) (thickness 0.15)))
    )
    (fp_line (start -0.65273 -1.488128) (end 0.04831 -1.488128) (layer F.SilkS) (width 0.15))
    (fp_line (start -0.65273 -1.287468) (end -0.65273 -1.488128) (layer F.SilkS) (width 0.15))
    (fp_line (start -0.65273 1.511512) (end -0.65273 1.262592) (layer F.SilkS) (width 0.15))
    (fp_line (start 0.04831 1.511512) (end -0.65273 1.511512) (layer F.SilkS) (width 0.15))
    (fp_line (start -0.65273 -1.287468) (end -0.65273 -1.239208) (layer F.SilkS) (width 0.15))
    (fp_line (start 1.59751 1.661692) (end -1.60249 1.661692) (layer F.CrtYd) (width 0.05))
    (fp_line (start 1.59751 -1.638308) (end 1.59751 1.661692) (layer F.CrtYd) (width 0.05))
    (fp_line (start -1.60249 -1.638308) (end 1.59751 -1.638308) (layer F.CrtYd) (width 0.05))
    (fp_line (start -1.60249 1.661692) (end -1.60249 -1.638308) (layer F.CrtYd) (width 0.05))
    (pad 3 smd rect (at -1.00071 0.011692 90) (size 0.8001 0.8001) (layers F.Cu F.Paste F.Mask)
      (net 31 "Net-(D4-Pad2)"))
    (pad 2 smd rect (at 0.99827 -0.938308 90) (size 0.8001 0.8001) (layers F.Cu F.Paste F.Mask)
      (net 3 GND))
    (pad 1 smd rect (at 0.99827 0.961692 90) (size 0.8001 0.8001) (layers F.Cu F.Paste F.Mask)
      (net 30 /PWM))
    (model ${KISYS3DMOD}/SOT-23.wrl
      (at (xyz 0 0 0))
      (scale (xyz 1 1 1))
      (rotate (xyz 0 0 180))
    )
  )

  (module Br:CN_USB_A_STRAIGHT_LUMBERG_2410_01 (layer F.Cu) (tedit 5E2D9003) (tstamp 5E0CD2C2)
    (at 152 102 270)
    (path /5E0D111D)
    (fp_text reference J4 (at 5.48 4.464) (layer F.SilkS)
      (effects (font (size 1 1) (thickness 0.15)))
    )
    (fp_text value CN_USB_A_STRAIGHT_LUMBERG_2410_01 (at 27 -21.4 270) (layer F.Fab)
      (effects (font (size 1 1) (thickness 0.15)))
    )
    (fp_line (start -7 -5.5) (end -7 3.5) (layer F.SilkS) (width 0.15))
    (fp_line (start 7 -5.5) (end -7 -5.5) (layer F.SilkS) (width 0.15))
    (fp_line (start 7 3.5) (end 7 -5.5) (layer F.SilkS) (width 0.15))
    (fp_line (start -7 3.5) (end 7 3.5) (layer F.SilkS) (width 0.15))
    (pad 4 thru_hole circle (at 3.5 -2.7 270) (size 1.45 1.45) (drill 0.95) (layers *.Cu *.Mask)
      (net 31 "Net-(D4-Pad2)"))
    (pad 3 thru_hole circle (at 1 -2.7 270) (size 1.45 1.45) (drill 0.95) (layers *.Cu *.Mask)
      (net 34 "Net-(J4-Pad3)"))
    (pad 2 thru_hole circle (at -1 -2.7 270) (size 1.45 1.45) (drill 0.95) (layers *.Cu *.Mask)
      (net 35 "Net-(J4-Pad2)"))
    (pad 1 thru_hole circle (at -3.5 -2.7 270) (size 1.45 1.45) (drill 0.95) (layers *.Cu *.Mask)
      (net 32 "Net-(C5-Pad1)"))
    (pad 5 thru_hole circle (at 6.6 0 270) (size 3 3) (drill 2.3) (layers *.Cu *.Mask)
      (net 3 GND))
    (pad 5 thru_hole circle (at -6.55 0 270) (size 3 3) (drill 2.3) (layers *.Cu *.Mask)
      (net 3 GND))
  )

  (module Br:C_0805 (layer F.Cu) (tedit 5DE623F4) (tstamp 5E090CF6)
    (at 138.938 95.758 180)
    (descr "Capacitor SMD 0805, reflow soldering, AVX (see smccp.pdf)")
    (tags "capacitor 0805")
    (path /5E09E64E)
    (attr smd)
    (fp_text reference C5 (at -3.248 0 180) (layer F.SilkS)
      (effects (font (size 1 1) (thickness 0.15)))
    )
    (fp_text value C_10U_0805_10%_25V (at 0 2.1 180) (layer F.Fab)
      (effects (font (size 1 1) (thickness 0.15)))
    )
    (fp_line (start -0.5 0.85) (end 0.5 0.85) (layer F.SilkS) (width 0.15))
    (fp_line (start 0.5 -0.85) (end -0.5 -0.85) (layer F.SilkS) (width 0.15))
    (fp_line (start 1.8 -1) (end 1.8 1) (layer F.CrtYd) (width 0.05))
    (fp_line (start -1.8 -1) (end -1.8 1) (layer F.CrtYd) (width 0.05))
    (fp_line (start -1.8 1) (end 1.8 1) (layer F.CrtYd) (width 0.05))
    (fp_line (start -1.8 -1) (end 1.8 -1) (layer F.CrtYd) (width 0.05))
    (pad 2 smd rect (at 1 0 180) (size 1 1.25) (layers F.Cu F.Paste F.Mask)
      (net 3 GND))
    (pad 1 smd rect (at -1 0 180) (size 1 1.25) (layers F.Cu F.Paste F.Mask)
      (net 32 "Net-(C5-Pad1)"))
    (model ${KISYS3DMOD}/C_0805.wrl
      (at (xyz 0 0 0))
      (scale (xyz 1 1 1))
      (rotate (xyz 0 0 0))
    )
  )

  (module Br:DO214AA (layer F.Cu) (tedit 5DC5A5A5) (tstamp 5E090CEA)
    (at 138.75 101.75 180)
    (path /5E09CD16)
    (attr smd)
    (fp_text reference D6 (at -3.998 -0.104 180) (layer F.SilkS)
      (effects (font (size 1 1) (thickness 0.15)))
    )
    (fp_text value D_TRANS_VOLT_SUPPRESSOR_6.5V (at 0 -2.5 180) (layer F.Fab)
      (effects (font (size 1 1) (thickness 0.15)))
    )
    (fp_line (start -2.3 -1.4) (end -2.3 1.4) (layer F.SilkS) (width 0.15))
    (fp_line (start -2.3 1.4) (end 2.3 1.4) (layer F.SilkS) (width 0.15))
    (fp_line (start 2.3 1.4) (end 2.3 -1.4) (layer F.SilkS) (width 0.15))
    (fp_line (start 2.3 -1.4) (end -2.3 -1.4) (layer F.SilkS) (width 0.15))
    (fp_line (start -1.3 -1.4) (end -1.3 1.4) (layer F.SilkS) (width 0.15))
    (fp_line (start -0.3 0) (end -0.3 -0.5) (layer F.SilkS) (width 0.15))
    (fp_line (start -0.3 0) (end -0.3 0.5) (layer F.SilkS) (width 0.15))
    (fp_line (start -0.3 0) (end 0.2 -0.5) (layer F.SilkS) (width 0.15))
    (fp_line (start 0.2 -0.5) (end 0.2 0.5) (layer F.SilkS) (width 0.15))
    (fp_line (start 0.2 0.5) (end -0.3 0) (layer F.SilkS) (width 0.15))
    (fp_line (start 0.2 0) (end 0.6 0) (layer F.SilkS) (width 0.15))
    (fp_line (start -0.3 0) (end -0.6 0) (layer F.SilkS) (width 0.15))
    (pad 2 smd rect (at 1.84 0 180) (size 1.724 2.38) (layers F.Cu F.Paste F.Mask)
      (net 3 GND))
    (pad 1 smd rect (at -1.84 0 180) (size 1.724 2.38) (layers F.Cu F.Paste F.Mask)
      (net 32 "Net-(C5-Pad1)"))
    (model do.3dshapes/DO214AA.wrl
      (at (xyz 0 0 0))
      (scale (xyz 1 1 1))
      (rotate (xyz 0 0 0))
    )
  )

  (module Br:DO214AC (layer F.Cu) (tedit 5DC5ABE4) (tstamp 5E090CD8)
    (at 161.163 102.87 270)
    (path /5E0A5C2B)
    (attr smd)
    (fp_text reference D4 (at 0.354 2.54 270) (layer F.SilkS)
      (effects (font (size 1 1) (thickness 0.15)))
    )
    (fp_text value D_SCHOTTKY_SS54 (at 0 -2.5 270) (layer F.Fab)
      (effects (font (size 1 1) (thickness 0.15)))
    )
    (fp_line (start -2.3 -1.4) (end -2.3 1.4) (layer F.SilkS) (width 0.15))
    (fp_line (start -2.3 1.4) (end 2.3 1.4) (layer F.SilkS) (width 0.15))
    (fp_line (start 2.3 1.4) (end 2.3 -1.4) (layer F.SilkS) (width 0.15))
    (fp_line (start 2.3 -1.4) (end -2.3 -1.4) (layer F.SilkS) (width 0.15))
    (fp_line (start -1.3 -1.4) (end -1.3 1.4) (layer F.SilkS) (width 0.15))
    (fp_line (start -0.3 0) (end -0.3 -0.5) (layer F.SilkS) (width 0.15))
    (fp_line (start -0.3 0) (end -0.3 0.5) (layer F.SilkS) (width 0.15))
    (fp_line (start -0.3 0) (end 0.2 -0.5) (layer F.SilkS) (width 0.15))
    (fp_line (start 0.2 -0.5) (end 0.2 0.5) (layer F.SilkS) (width 0.15))
    (fp_line (start 0.2 0.5) (end -0.3 0) (layer F.SilkS) (width 0.15))
    (fp_line (start 0.2 0) (end 0.6 0) (layer F.SilkS) (width 0.15))
    (fp_line (start -0.3 0) (end -0.6 0) (layer F.SilkS) (width 0.15))
    (pad 2 smd rect (at 1.75 0 270) (size 1.8 1.8) (layers F.Cu F.Paste F.Mask)
      (net 31 "Net-(D4-Pad2)"))
    (pad 1 smd rect (at -1.75 0) (size 1.8 1.8) (layers F.Cu F.Paste F.Mask)
      (net 32 "Net-(C5-Pad1)"))
  )

  (module Br:DO214AC (layer F.Cu) (tedit 5DC5ABE4) (tstamp 5E090CC6)
    (at 138.75 98.5 180)
    (path /5E09825B)
    (attr smd)
    (fp_text reference D5 (at -3.998 -0.052 180) (layer F.SilkS)
      (effects (font (size 1 1) (thickness 0.15)))
    )
    (fp_text value D_SCHOTTKY_SS54 (at 0 -2.5 180) (layer F.Fab)
      (effects (font (size 1 1) (thickness 0.15)))
    )
    (fp_line (start -2.3 -1.4) (end -2.3 1.4) (layer F.SilkS) (width 0.15))
    (fp_line (start -2.3 1.4) (end 2.3 1.4) (layer F.SilkS) (width 0.15))
    (fp_line (start 2.3 1.4) (end 2.3 -1.4) (layer F.SilkS) (width 0.15))
    (fp_line (start 2.3 -1.4) (end -2.3 -1.4) (layer F.SilkS) (width 0.15))
    (fp_line (start -1.3 -1.4) (end -1.3 1.4) (layer F.SilkS) (width 0.15))
    (fp_line (start -0.3 0) (end -0.3 -0.5) (layer F.SilkS) (width 0.15))
    (fp_line (start -0.3 0) (end -0.3 0.5) (layer F.SilkS) (width 0.15))
    (fp_line (start -0.3 0) (end 0.2 -0.5) (layer F.SilkS) (width 0.15))
    (fp_line (start 0.2 -0.5) (end 0.2 0.5) (layer F.SilkS) (width 0.15))
    (fp_line (start 0.2 0.5) (end -0.3 0) (layer F.SilkS) (width 0.15))
    (fp_line (start 0.2 0) (end 0.6 0) (layer F.SilkS) (width 0.15))
    (fp_line (start -0.3 0) (end -0.6 0) (layer F.SilkS) (width 0.15))
    (pad 2 smd rect (at 1.75 0 180) (size 1.8 1.8) (layers F.Cu F.Paste F.Mask)
      (net 4 5V))
    (pad 1 smd rect (at -1.75 0 270) (size 1.8 1.8) (layers F.Cu F.Paste F.Mask)
      (net 32 "Net-(C5-Pad1)"))
  )

  (module Br:SOT-89-3 (layer F.Cu) (tedit 5DE627C8) (tstamp 5D9F8A8C)
    (at 142.24 116.84 270)
    (descr SOT-89-3)
    (tags SOT-89-3)
    (path /5D9C8DBA)
    (attr smd)
    (fp_text reference U2 (at -0.001161 3.198491 90) (layer F.SilkS)
      (effects (font (size 1 1) (thickness 0.15)))
    )
    (fp_text value ICP_HT7533-1 (at -0.001161 -3.251509 90) (layer F.Fab)
      (effects (font (size 1 1) (thickness 0.15)))
    )
    (fp_line (start -2.928839 2.551509) (end -2.928839 -2.548491) (layer F.CrtYd) (width 0.05))
    (fp_line (start -2.928839 2.551509) (end 2.781161 2.551509) (layer F.CrtYd) (width 0.05))
    (fp_line (start 2.781161 -2.548491) (end -2.928839 -2.548491) (layer F.CrtYd) (width 0.05))
    (fp_line (start 2.781161 -2.548491) (end 2.781161 2.551509) (layer F.CrtYd) (width 0.05))
    (fp_line (start -0.578839 -2.298491) (end 1.231161 -2.298491) (layer F.Fab) (width 0.1))
    (fp_line (start -1.368839 2.301509) (end -1.368839 -1.508491) (layer F.Fab) (width 0.1))
    (fp_line (start 1.231161 2.301509) (end -1.368839 2.301509) (layer F.Fab) (width 0.1))
    (fp_line (start 1.231161 -2.298491) (end 1.231161 2.301509) (layer F.Fab) (width 0.1))
    (fp_line (start -1.368839 -1.508491) (end -0.578839 -2.298491) (layer F.Fab) (width 0.1))
    (fp_line (start 1.331161 -2.398491) (end 1.331161 -1.198491) (layer F.SilkS) (width 0.12))
    (fp_line (start -2.668839 -2.398491) (end 1.331161 -2.398491) (layer F.SilkS) (width 0.12))
    (fp_line (start 1.331161 2.401509) (end -1.368839 2.401509) (layer F.SilkS) (width 0.12))
    (fp_line (start 1.331161 1.201509) (end 1.331161 2.401509) (layer F.SilkS) (width 0.12))
    (fp_text user %R (at -0.068839 0.001509) (layer F.Fab)
      (effects (font (size 0.6 0.6) (thickness 0.09)))
    )
    (pad 2 smd rect (at 0.51 0 180) (size 1.933 3.03) (layers F.Cu F.Paste F.Mask)
      (net 26 /5V_In))
    (pad 3 smd rect (at -1.635 1.5 180) (size 0.58 1.73) (layers F.Cu F.Paste F.Mask)
      (net 15 3V3))
    (pad 2 smd rect (at -1.75 0 180) (size 0.76 1.5) (layers F.Cu F.Paste F.Mask)
      (net 26 /5V_In))
    (pad 1 smd rect (at -1.635 -1.5 180) (size 0.58 1.73) (layers F.Cu F.Paste F.Mask)
      (net 3 GND))
    (model ${KISYS3DMOD}/SOT-89-3.wrl
      (at (xyz 0 0 0))
      (scale (xyz 1 1 1))
      (rotate (xyz 0 0 0))
    )
  )

  (module Br:TSSOP20 (layer F.Cu) (tedit 5DE62754) (tstamp 5D9D2AEC)
    (at 154.432 114.046 270)
    (path /5D9D4765)
    (solder_mask_margin 0.0762)
    (solder_paste_margin -0.0254)
    (attr smd)
    (fp_text reference U1 (at -4.064 -0.254) (layer F.SilkS)
      (effects (font (size 0.762 0.762) (thickness 0.1524)))
    )
    (fp_text value ICD_STM8L051F3P6 (at 4.200396 0.098286) (layer F.Fab)
      (effects (font (size 0.762 0.762) (thickness 0.1524)))
    )
    (fp_line (start 3.400396 2.198286) (end 3.300396 2.198286) (layer F.SilkS) (width 0.15))
    (fp_line (start 3.400396 2.198286) (end 3.400396 -2.201714) (layer F.SilkS) (width 0.15))
    (fp_line (start 3.400396 -2.201714) (end 3.300396 -2.201714) (layer F.SilkS) (width 0.15))
    (fp_line (start -3.299604 -2.201714) (end -3.399604 -2.201714) (layer F.SilkS) (width 0.15))
    (fp_line (start -3.399604 -2.201714) (end -3.399604 2.198286) (layer F.SilkS) (width 0.15))
    (fp_line (start -3.399604 2.198286) (end -3.299604 2.198286) (layer F.SilkS) (width 0.15))
    (fp_line (start -3.299604 2.198286) (end -3.299604 2.998286) (layer F.SilkS) (width 0.15))
    (pad 20 smd rect (at -2.924604 -2.876714) (size 1.35 0.4) (layers F.Cu F.Paste F.SilkS F.Mask)
      (net 24 "Net-(U1-Pad20)"))
    (pad 19 smd rect (at -2.274604 -2.876714) (size 1.35 0.4) (layers F.Cu F.Paste F.SilkS F.Mask)
      (net 23 "Net-(U1-Pad19)"))
    (pad 18 smd rect (at -1.624604 -2.876714) (size 1.35 0.4) (layers F.Cu F.Paste F.SilkS F.Mask)
      (net 22 "Net-(U1-Pad18)"))
    (pad 17 smd rect (at -0.974604 -2.876714) (size 1.35 0.4) (layers F.Cu F.Paste F.SilkS F.Mask)
      (net 21 "Net-(U1-Pad17)"))
    (pad 16 smd rect (at -0.324604 -2.876714) (size 1.35 0.4) (layers F.Cu F.Paste F.SilkS F.Mask)
      (net 20 "Net-(U1-Pad16)"))
    (pad 15 smd rect (at 0.325396 -2.876714) (size 1.35 0.4) (layers F.Cu F.Paste F.SilkS F.Mask)
      (net 19 "Net-(U1-Pad15)"))
    (pad 14 smd rect (at 0.975396 -2.876714) (size 1.35 0.4) (layers F.Cu F.Paste F.SilkS F.Mask)
      (net 18 "Net-(U1-Pad14)"))
    (pad 13 smd rect (at 1.625396 -2.876714) (size 1.35 0.4) (layers F.Cu F.Paste F.SilkS F.Mask)
      (net 17 "Net-(U1-Pad13)"))
    (pad 12 smd rect (at 2.275396 -2.876714) (size 1.35 0.4) (layers F.Cu F.Paste F.SilkS F.Mask)
      (net 29 "Net-(U1-Pad12)"))
    (pad 11 smd rect (at 2.925396 -2.876714) (size 1.35 0.4) (layers F.Cu F.Paste F.SilkS F.Mask)
      (net 30 /PWM))
    (pad 10 smd rect (at 2.925396 2.873286) (size 1.35 0.4) (layers F.Cu F.Paste F.SilkS F.Mask)
      (net 16 "Net-(U1-Pad10)"))
    (pad 9 smd rect (at 2.275396 2.873286) (size 1.35 0.4) (layers F.Cu F.Paste F.SilkS F.Mask)
      (net 33 "Net-(U1-Pad9)"))
    (pad 8 smd rect (at 1.625396 2.873286) (size 1.35 0.4) (layers F.Cu F.Paste F.SilkS F.Mask)
      (net 15 3V3))
    (pad 7 smd rect (at 0.975396 2.873286) (size 1.35 0.4) (layers F.Cu F.Paste F.SilkS F.Mask)
      (net 3 GND))
    (pad 6 smd rect (at 0.325396 2.873286) (size 1.35 0.4) (layers F.Cu F.Paste F.SilkS F.Mask)
      (net 14 "Net-(U1-Pad6)"))
    (pad 5 smd rect (at -0.324604 2.873286) (size 1.35 0.4) (layers F.Cu F.Paste F.SilkS F.Mask)
      (net 13 "Net-(U1-Pad5)"))
    (pad 4 smd rect (at -0.974604 2.873286) (size 1.35 0.4) (layers F.Cu F.Paste F.SilkS F.Mask)
      (net 12 /NRST))
    (pad 3 smd rect (at -1.624604 2.873286) (size 1.35 0.4) (layers F.Cu F.Paste F.SilkS F.Mask)
      (net 11 /SWIM))
    (pad 2 smd rect (at -2.274604 2.873286) (size 1.35 0.4) (layers F.Cu F.Paste F.SilkS F.Mask)
      (net 28 /CPU_RX))
    (pad 1 smd rect (at -2.924604 2.873286) (size 1.35 0.4) (layers F.Cu F.Paste F.SilkS F.Mask)
      (net 27 /CPU_TX))
    (model ${KISYS3DMOD}/TSSOP-20_4.4x6.5mm_P0.65mm.wrl
      (at (xyz 0 0 0))
      (scale (xyz 1 1 1))
      (rotate (xyz 0 0 -90))
    )
  )

  (module Br:SOT23 (layer F.Cu) (tedit 5DE6282D) (tstamp 5D9D1491)
    (at 162.306 116.332)
    (descr "SOT23, Standard")
    (tags SOT23)
    (path /5D9CF778)
    (attr smd)
    (fp_text reference D3 (at 2.794 0.011692 90) (layer F.SilkS)
      (effects (font (size 1 1) (thickness 0.15)))
    )
    (fp_text value D_BAV99.215 (at 2.29751 0.011692 90) (layer F.Fab)
      (effects (font (size 1 1) (thickness 0.15)))
    )
    (fp_line (start -0.65273 -1.488128) (end 0.04831 -1.488128) (layer F.SilkS) (width 0.15))
    (fp_line (start -0.65273 -1.287468) (end -0.65273 -1.488128) (layer F.SilkS) (width 0.15))
    (fp_line (start -0.65273 1.511512) (end -0.65273 1.262592) (layer F.SilkS) (width 0.15))
    (fp_line (start 0.04831 1.511512) (end -0.65273 1.511512) (layer F.SilkS) (width 0.15))
    (fp_line (start -0.65273 -1.287468) (end -0.65273 -1.239208) (layer F.SilkS) (width 0.15))
    (fp_line (start 1.59751 1.661692) (end -1.60249 1.661692) (layer F.CrtYd) (width 0.05))
    (fp_line (start 1.59751 -1.638308) (end 1.59751 1.661692) (layer F.CrtYd) (width 0.05))
    (fp_line (start -1.60249 -1.638308) (end 1.59751 -1.638308) (layer F.CrtYd) (width 0.05))
    (fp_line (start -1.60249 1.661692) (end -1.60249 -1.638308) (layer F.CrtYd) (width 0.05))
    (pad 3 smd rect (at -1.00071 0.011692 90) (size 0.8001 0.8001) (layers F.Cu F.Paste F.Mask)
      (net 27 /CPU_TX))
    (pad 2 smd rect (at 0.99827 -0.938308 90) (size 0.8001 0.8001) (layers F.Cu F.Paste F.Mask)
      (net 15 3V3))
    (pad 1 smd rect (at 0.99827 0.961692 90) (size 0.8001 0.8001) (layers F.Cu F.Paste F.Mask)
      (net 3 GND))
    (model ${KISYS3DMOD}/SOT-23.wrl
      (at (xyz 0 0 0))
      (scale (xyz 1 1 1))
      (rotate (xyz 0 0 180))
    )
  )

  (module Br:SOT23 (layer F.Cu) (tedit 5DE6282D) (tstamp 5D9D1481)
    (at 135.89 108.966 180)
    (descr "SOT23, Standard")
    (tags SOT23)
    (path /5D9CDB0F)
    (attr smd)
    (fp_text reference D2 (at 2.794 -0.254) (layer F.SilkS)
      (effects (font (size 1 1) (thickness 0.15)))
    )
    (fp_text value D_BAV99.215 (at 2.29751 0.011692 270) (layer F.Fab)
      (effects (font (size 1 1) (thickness 0.15)))
    )
    (fp_line (start -0.65273 -1.488128) (end 0.04831 -1.488128) (layer F.SilkS) (width 0.15))
    (fp_line (start -0.65273 -1.287468) (end -0.65273 -1.488128) (layer F.SilkS) (width 0.15))
    (fp_line (start -0.65273 1.511512) (end -0.65273 1.262592) (layer F.SilkS) (width 0.15))
    (fp_line (start 0.04831 1.511512) (end -0.65273 1.511512) (layer F.SilkS) (width 0.15))
    (fp_line (start -0.65273 -1.287468) (end -0.65273 -1.239208) (layer F.SilkS) (width 0.15))
    (fp_line (start 1.59751 1.661692) (end -1.60249 1.661692) (layer F.CrtYd) (width 0.05))
    (fp_line (start 1.59751 -1.638308) (end 1.59751 1.661692) (layer F.CrtYd) (width 0.05))
    (fp_line (start -1.60249 -1.638308) (end 1.59751 -1.638308) (layer F.CrtYd) (width 0.05))
    (fp_line (start -1.60249 1.661692) (end -1.60249 -1.638308) (layer F.CrtYd) (width 0.05))
    (pad 3 smd rect (at -1.00071 0.011692 270) (size 0.8001 0.8001) (layers F.Cu F.Paste F.Mask)
      (net 28 /CPU_RX))
    (pad 2 smd rect (at 0.99827 -0.938308 270) (size 0.8001 0.8001) (layers F.Cu F.Paste F.Mask)
      (net 15 3V3))
    (pad 1 smd rect (at 0.99827 0.961692 270) (size 0.8001 0.8001) (layers F.Cu F.Paste F.Mask)
      (net 3 GND))
    (model ${KISYS3DMOD}/SOT-23.wrl
      (at (xyz 0 0 0))
      (scale (xyz 1 1 1))
      (rotate (xyz 0 0 180))
    )
  )

  (module Br:SOT23 (layer F.Cu) (tedit 5DE6282D) (tstamp 5D9D1471)
    (at 135.89 112.522 180)
    (descr "SOT23, Standard")
    (tags SOT23)
    (path /5D9CB918)
    (attr smd)
    (fp_text reference D1 (at 2.794 0) (layer F.SilkS)
      (effects (font (size 1 1) (thickness 0.15)))
    )
    (fp_text value D_BAV99.215 (at 2.29751 0.011692 270) (layer F.Fab)
      (effects (font (size 1 1) (thickness 0.15)))
    )
    (fp_line (start -0.65273 -1.488128) (end 0.04831 -1.488128) (layer F.SilkS) (width 0.15))
    (fp_line (start -0.65273 -1.287468) (end -0.65273 -1.488128) (layer F.SilkS) (width 0.15))
    (fp_line (start -0.65273 1.511512) (end -0.65273 1.262592) (layer F.SilkS) (width 0.15))
    (fp_line (start 0.04831 1.511512) (end -0.65273 1.511512) (layer F.SilkS) (width 0.15))
    (fp_line (start -0.65273 -1.287468) (end -0.65273 -1.239208) (layer F.SilkS) (width 0.15))
    (fp_line (start 1.59751 1.661692) (end -1.60249 1.661692) (layer F.CrtYd) (width 0.05))
    (fp_line (start 1.59751 -1.638308) (end 1.59751 1.661692) (layer F.CrtYd) (width 0.05))
    (fp_line (start -1.60249 -1.638308) (end 1.59751 -1.638308) (layer F.CrtYd) (width 0.05))
    (fp_line (start -1.60249 1.661692) (end -1.60249 -1.638308) (layer F.CrtYd) (width 0.05))
    (pad 3 smd rect (at -1.00071 0.011692 270) (size 0.8001 0.8001) (layers F.Cu F.Paste F.Mask)
      (net 26 /5V_In))
    (pad 2 smd rect (at 0.99827 -0.938308 270) (size 0.8001 0.8001) (layers F.Cu F.Paste F.Mask)
      (net 25 "Net-(D1-Pad2)"))
    (pad 1 smd rect (at 0.99827 0.961692 270) (size 0.8001 0.8001) (layers F.Cu F.Paste F.Mask)
      (net 4 5V))
    (model ${KISYS3DMOD}/SOT-23.wrl
      (at (xyz 0 0 0))
      (scale (xyz 1 1 1))
      (rotate (xyz 0 0 180))
    )
  )

  (module Br:CN_P_01x04_1.27MM_STRAIGHT_ZL319-4P (layer F.Cu) (tedit 59FED6E3) (tstamp 5D9E3DBF)
    (at 146.558 114.808)
    (descr "Through hole straight pin header, 1x04, 1.27mm pitch, single row")
    (tags "Through hole pin header THT 1x04 1.27mm single row")
    (path /5D9D92B3)
    (fp_text reference J2 (at 0 -1.695) (layer F.SilkS)
      (effects (font (size 1 1) (thickness 0.15)))
    )
    (fp_text value CN_P_01x04_1.27MM_STRAIGHT_ZL319-4P (at 0 5.505) (layer F.Fab)
      (effects (font (size 1 1) (thickness 0.15)))
    )
    (fp_text user %R (at 0 1.905 90) (layer F.Fab)
      (effects (font (size 1 1) (thickness 0.15)))
    )
    (fp_line (start 1.55 -1.15) (end -1.55 -1.15) (layer F.CrtYd) (width 0.05))
    (fp_line (start 1.55 4.95) (end 1.55 -1.15) (layer F.CrtYd) (width 0.05))
    (fp_line (start -1.55 4.95) (end 1.55 4.95) (layer F.CrtYd) (width 0.05))
    (fp_line (start -1.55 -1.15) (end -1.55 4.95) (layer F.CrtYd) (width 0.05))
    (fp_line (start -1.11 -0.76) (end 0 -0.76) (layer F.SilkS) (width 0.12))
    (fp_line (start -1.11 0) (end -1.11 -0.76) (layer F.SilkS) (width 0.12))
    (fp_line (start 0.563471 0.76) (end 1.11 0.76) (layer F.SilkS) (width 0.12))
    (fp_line (start -1.11 0.76) (end -0.563471 0.76) (layer F.SilkS) (width 0.12))
    (fp_line (start 1.11 0.76) (end 1.11 4.505) (layer F.SilkS) (width 0.12))
    (fp_line (start -1.11 0.76) (end -1.11 4.505) (layer F.SilkS) (width 0.12))
    (fp_line (start 0.30753 4.505) (end 1.11 4.505) (layer F.SilkS) (width 0.12))
    (fp_line (start -1.11 4.505) (end -0.30753 4.505) (layer F.SilkS) (width 0.12))
    (fp_line (start -1.05 -0.11) (end -0.525 -0.635) (layer F.Fab) (width 0.1))
    (fp_line (start -1.05 4.445) (end -1.05 -0.11) (layer F.Fab) (width 0.1))
    (fp_line (start 1.05 4.445) (end -1.05 4.445) (layer F.Fab) (width 0.1))
    (fp_line (start 1.05 -0.635) (end 1.05 4.445) (layer F.Fab) (width 0.1))
    (fp_line (start -0.525 -0.635) (end 1.05 -0.635) (layer F.Fab) (width 0.1))
    (pad 4 thru_hole oval (at 0 3.81) (size 1 1) (drill 0.65) (layers *.Cu *.Mask)
      (net 15 3V3))
    (pad 3 thru_hole oval (at 0 2.54) (size 1 1) (drill 0.65) (layers *.Cu *.Mask)
      (net 11 /SWIM))
    (pad 2 thru_hole oval (at 0 1.27) (size 1 1) (drill 0.65) (layers *.Cu *.Mask)
      (net 3 GND))
    (pad 1 thru_hole rect (at 0 0) (size 1 1) (drill 0.65) (layers *.Cu *.Mask)
      (net 12 /NRST))
    (model ${KISYS3DMOD}/Connector_PinHeader_1.27mm.3dshapes/CN_P_01x04_1.27MM_STRAIGHT_ZL319-4P.wrl
      (at (xyz 0 0 0))
      (scale (xyz 1 1 1))
      (rotate (xyz 0 0 0))
    )
  )

  (module Br:C_0603 (layer F.Cu) (tedit 5DE623DC) (tstamp 5D9CF6BF)
    (at 142.494 111.506 90)
    (descr "Capacitor SMD 0603, reflow soldering, AVX (see smccp.pdf)")
    (tags "capacitor 0603")
    (path /5D9EACB1)
    (attr smd)
    (fp_text reference C3 (at 3.302 0 90) (layer F.SilkS)
      (effects (font (size 1 1) (thickness 0.15)))
    )
    (fp_text value 1uF (at 0.1 1.5 90) (layer F.Fab)
      (effects (font (size 1 1) (thickness 0.15)))
    )
    (fp_line (start 0.35 0.6) (end -0.35 0.6) (layer F.SilkS) (width 0.15))
    (fp_line (start -0.35 -0.6) (end 0.35 -0.6) (layer F.SilkS) (width 0.15))
    (fp_line (start 1.45 -0.75) (end 1.45 0.75) (layer F.CrtYd) (width 0.05))
    (fp_line (start -1.45 -0.75) (end -1.45 0.75) (layer F.CrtYd) (width 0.05))
    (fp_line (start -1.45 0.75) (end 1.45 0.75) (layer F.CrtYd) (width 0.05))
    (fp_line (start -1.45 -0.75) (end 1.45 -0.75) (layer F.CrtYd) (width 0.05))
    (pad 2 smd rect (at 0.75 0 90) (size 0.8 0.75) (layers F.Cu F.Paste F.Mask)
      (net 3 GND))
    (pad 1 smd rect (at -0.75 0 90) (size 0.8 0.75) (layers F.Cu F.Paste F.Mask)
      (net 26 /5V_In))
    (model ${KISYS3DMOD}/C_0603.wrl
      (at (xyz 0 0 0))
      (scale (xyz 1 1 1))
      (rotate (xyz 0 0 0))
    )
  )

  (module Br:C_0603 (layer F.Cu) (tedit 5DE623DC) (tstamp 5D9CF6B3)
    (at 146.558 111.506 90)
    (descr "Capacitor SMD 0603, reflow soldering, AVX (see smccp.pdf)")
    (tags "capacitor 0603")
    (path /5D9C8EED)
    (attr smd)
    (fp_text reference C4 (at 0 1.524 90) (layer F.SilkS)
      (effects (font (size 1 1) (thickness 0.15)))
    )
    (fp_text value 1uF (at 0.1 1.5 90) (layer F.Fab)
      (effects (font (size 1 1) (thickness 0.15)))
    )
    (fp_line (start 0.35 0.6) (end -0.35 0.6) (layer F.SilkS) (width 0.15))
    (fp_line (start -0.35 -0.6) (end 0.35 -0.6) (layer F.SilkS) (width 0.15))
    (fp_line (start 1.45 -0.75) (end 1.45 0.75) (layer F.CrtYd) (width 0.05))
    (fp_line (start -1.45 -0.75) (end -1.45 0.75) (layer F.CrtYd) (width 0.05))
    (fp_line (start -1.45 0.75) (end 1.45 0.75) (layer F.CrtYd) (width 0.05))
    (fp_line (start -1.45 -0.75) (end 1.45 -0.75) (layer F.CrtYd) (width 0.05))
    (pad 2 smd rect (at 0.75 0 90) (size 0.8 0.75) (layers F.Cu F.Paste F.Mask)
      (net 3 GND))
    (pad 1 smd rect (at -0.75 0 90) (size 0.8 0.75) (layers F.Cu F.Paste F.Mask)
      (net 15 3V3))
    (model ${KISYS3DMOD}/C_0603.wrl
      (at (xyz 0 0 0))
      (scale (xyz 1 1 1))
      (rotate (xyz 0 0 0))
    )
  )

  (module Br:Br_CN_IN (layer F.Cu) (tedit 5E2D90D7) (tstamp 5D9C2C9E)
    (at 128 102)
    (path /5D978D2E)
    (fp_text reference J1 (at -1 -8 180) (layer F.SilkS)
      (effects (font (size 1 1) (thickness 0.15)))
    )
    (fp_text value Br_CN_IN (at 0 -0.5) (layer F.Fab)
      (effects (font (size 1 1) (thickness 0.15)))
    )
    (fp_line (start 2.3 6.3) (end -2.1 6.3) (layer F.SilkS) (width 0.15))
    (fp_line (start 2.3 -6.3) (end 2.3 6.3) (layer F.SilkS) (width 0.15))
    (fp_line (start -2.2 -6.3) (end 2.3 -6.3) (layer F.SilkS) (width 0.15))
    (pad 9 smd rect (at 0 4.155) (size 4.5 1.5) (layers B.Cu B.Paste B.Mask)
      (net 4 5V))
    (pad 8 smd rect (at 0 1.385) (size 4.5 1.5) (layers B.Cu B.Paste B.Mask)
      (net 3 GND))
    (pad 7 smd rect (at 0 -1.385) (size 4.5 1.5) (layers B.Cu B.Paste B.Mask)
      (net 3 GND))
    (pad 6 smd rect (at 0 -4.155) (size 4.5 1.5) (layers B.Cu B.Paste B.Mask)
      (net 1 12V))
    (pad 5 smd rect (at 0 5.54) (size 4.5 1.5) (layers F.Cu F.Paste F.Mask)
      (net 3 GND))
    (pad 4 smd rect (at 0 2.77) (size 4.5 1.5) (layers F.Cu F.Paste F.Mask)
      (net 4 5V))
    (pad 3 smd rect (at 0 0) (size 4.5 1.5) (layers F.Cu F.Paste F.Mask)
      (net 9 /UART_RX))
    (pad 2 smd rect (at 0 -2.77) (size 4.5 1.5) (layers F.Cu F.Paste F.Mask)
      (net 2 /SPARE))
    (pad 1 smd rect (at 0 -5.54) (size 4.5 1.5) (layers F.Cu F.Paste F.Mask)
      (net 1 12V))
  )

  (module Br:Br_CN_OUT (layer F.Cu) (tedit 5DB9F56D) (tstamp 5D9C2C7E)
    (at 169.5 102)
    (path /5D9C46C3)
    (fp_text reference J3 (at 1 8 180) (layer F.SilkS)
      (effects (font (size 1 1) (thickness 0.15)))
    )
    (fp_text value Br_CN_OUT (at 0 -0.5) (layer F.Fab)
      (effects (font (size 1 1) (thickness 0.15)))
    )
    (fp_line (start -2.3 6.3) (end 2.2 6.3) (layer F.SilkS) (width 0.15))
    (fp_line (start -2.3 -6.3) (end -2.3 6.3) (layer F.SilkS) (width 0.15))
    (fp_line (start 2.2 -6.3) (end -2.3 -6.3) (layer F.SilkS) (width 0.15))
    (pad 9 smd rect (at 0 4.155) (size 4.5 1.5) (layers B.Cu B.Paste B.Mask)
      (net 4 5V))
    (pad 8 smd rect (at 0 1.385) (size 4.5 1.5) (layers B.Cu B.Paste B.Mask)
      (net 3 GND))
    (pad 7 smd rect (at 0 -1.385) (size 4.5 1.5) (layers B.Cu B.Paste B.Mask)
      (net 3 GND))
    (pad 6 smd rect (at 0 -4.155) (size 4.5 1.5) (layers B.Cu B.Paste B.Mask)
      (net 1 12V))
    (pad 5 smd rect (at 0 5.54) (size 4.5 1.5) (layers F.Cu F.Paste F.Mask)
      (net 3 GND))
    (pad 4 smd rect (at 0 2.77) (size 4.5 1.5) (layers F.Cu F.Paste F.Mask)
      (net 4 5V))
    (pad 3 smd rect (at 0 0) (size 4.5 1.5) (layers F.Cu F.Paste F.Mask)
      (net 10 /UART_TX))
    (pad 2 smd rect (at 0 -2.77) (size 4.5 1.5) (layers F.Cu F.Paste F.Mask)
      (net 2 /SPARE))
    (pad 1 smd rect (at 0 -5.54) (size 4.5 1.5) (layers F.Cu F.Paste F.Mask)
      (net 1 12V))
  )

  (module Br:Hole3mm (layer F.Cu) (tedit 5D015E75) (tstamp 5D9C2C5E)
    (at 136 118)
    (path /5D9D6266)
    (fp_text reference H4 (at 0 0.5) (layer F.SilkS)
      (effects (font (size 1 1) (thickness 0.15)))
    )
    (fp_text value Hole3mm (at 0 -0.5) (layer F.Fab)
      (effects (font (size 1 1) (thickness 0.15)))
    )
    (pad 1 thru_hole circle (at 0 0) (size 3.5 3.5) (drill 3) (layers *.Cu *.Mask)
      (net 8 "Net-(H4-Pad1)"))
  )

  (module Br:Hole3mm (layer F.Cu) (tedit 5D015E75) (tstamp 5D9C2C59)
    (at 168 118)
    (path /5D9D37B0)
    (fp_text reference H3 (at 0 0.5) (layer F.SilkS)
      (effects (font (size 1 1) (thickness 0.15)))
    )
    (fp_text value Hole3mm (at 0 -0.5) (layer F.Fab)
      (effects (font (size 1 1) (thickness 0.15)))
    )
    (pad 1 thru_hole circle (at 0 0) (size 3.5 3.5) (drill 3) (layers *.Cu *.Mask)
      (net 7 "Net-(H3-Pad1)"))
  )

  (module Br:Hole3mm (layer F.Cu) (tedit 5D015E75) (tstamp 5D9C2C54)
    (at 168 86)
    (path /5D9D6260)
    (fp_text reference H2 (at 0 0.5) (layer F.SilkS)
      (effects (font (size 1 1) (thickness 0.15)))
    )
    (fp_text value Hole3mm (at 0 -0.5) (layer F.Fab)
      (effects (font (size 1 1) (thickness 0.15)))
    )
    (pad 1 thru_hole circle (at 0 0) (size 3.5 3.5) (drill 3) (layers *.Cu *.Mask)
      (net 6 "Net-(H2-Pad1)"))
  )

  (module Br:Hole3mm (layer F.Cu) (tedit 5D015E75) (tstamp 5D9C2C4F)
    (at 136 86)
    (path /5D9D377A)
    (fp_text reference H1 (at 0 0.5) (layer F.SilkS)
      (effects (font (size 1 1) (thickness 0.15)))
    )
    (fp_text value Hole3mm (at 0 -0.5) (layer F.Fab)
      (effects (font (size 1 1) (thickness 0.15)))
    )
    (pad 1 thru_hole circle (at 0 0) (size 3.5 3.5) (drill 3) (layers *.Cu *.Mask)
      (net 5 "Net-(H1-Pad1)"))
  )

  (gr_line (start 149 102) (end 155 102) (layer Eco2.User) (width 0.2))
  (gr_line (start 152 99) (end 152 105) (layer Eco2.User) (width 0.2))
  (gr_circle (center 129.794 85.852) (end 131.318 87.884) (layer F.SilkS) (width 0.2))
  (gr_text "006\n" (at 129.794 85.852) (layer F.SilkS)
    (effects (font (size 1.5 1.5) (thickness 0.3)))
  )
  (gr_text Female (at 171 91 90) (layer F.SilkS) (tstamp 5D9C2EBA)
    (effects (font (size 1.5 1.5) (thickness 0.3)))
  )
  (gr_text Male (at 128.016 111.506 270) (layer F.SilkS)
    (effects (font (size 1.5 1.5) (thickness 0.3)))
  )
  (gr_line (start 126 122) (end 126 82) (layer Edge.Cuts) (width 0.15))
  (gr_line (start 172 122) (end 126 122) (layer Edge.Cuts) (width 0.15))
  (gr_line (start 172 82) (end 172 122) (layer Edge.Cuts) (width 0.15))
  (gr_line (start 126 82) (end 172 82) (layer Edge.Cuts) (width 0.15))
  (gr_text "Brick middle" (at 160 104) (layer Eco2.User)
    (effects (font (size 1.5 1.5) (thickness 0.3)))
  )
  (gr_text "Duplo_size\n" (at 181 68) (layer Eco2.User)
    (effects (font (size 1.5 1.5) (thickness 0.3)))
  )
  (gr_line (start 120 134) (end 120 70) (layer Eco2.User) (width 0.2))
  (gr_line (start 184 134) (end 120 134) (layer Eco2.User) (width 0.2))
  (gr_line (start 184 70) (end 184 134) (layer Eco2.User) (width 0.2))
  (gr_line (start 120 70) (end 184 70) (layer Eco2.User) (width 0.2))

  (via (at 167 96.46) (size 0.8) (drill 0.4) (layers F.Cu B.Cu) (net 1))
  (segment (start 170 97.845) (end 168.385 97.845) (width 1.5) (layer B.Cu) (net 1))
  (segment (start 168.385 97.845) (end 167 96.46) (width 1.5) (layer B.Cu) (net 1))
  (segment (start 170 96.46) (end 167 96.46) (width 1.5) (layer F.Cu) (net 1))
  (via (at 131.826 97.036) (size 0.8) (drill 0.4) (layers F.Cu B.Cu) (net 1))
  (segment (start 131.25 96.46) (end 128 96.46) (width 1.5) (layer F.Cu) (net 1))
  (segment (start 131.826 97.036) (end 131.25 96.46) (width 1.5) (layer F.Cu) (net 1))
  (segment (start 128 97.845) (end 131.017 97.845) (width 1.5) (layer B.Cu) (net 1))
  (segment (start 131.017 97.845) (end 131.826 97.036) (width 1.5) (layer B.Cu) (net 1))
  (segment (start 164.846 86.106) (end 164.846 92.459705) (width 1.5) (layer F.Cu) (net 1))
  (segment (start 162.039999 83.299999) (end 164.846 86.106) (width 1.5) (layer F.Cu) (net 1))
  (segment (start 134.703999 83.299999) (end 162.039999 83.299999) (width 1.5) (layer F.Cu) (net 1))
  (segment (start 165.862 95.758) (end 166.564 96.46) (width 1.5) (layer F.Cu) (net 1))
  (segment (start 164.846 92.459705) (end 165.862 93.475705) (width 1.5) (layer F.Cu) (net 1))
  (segment (start 131.826 86.177998) (end 134.703999 83.299999) (width 1.5) (layer F.Cu) (net 1))
  (segment (start 131.826 97.036) (end 131.826 86.177998) (width 1.5) (layer F.Cu) (net 1))
  (segment (start 165.862 93.475705) (end 165.862 95.758) (width 1.5) (layer F.Cu) (net 1))
  (segment (start 166.564 96.46) (end 167 96.46) (width 1.5) (layer F.Cu) (net 1))
  (segment (start 131.152293 99.23) (end 145.292293 85.09) (width 0.25) (layer F.Cu) (net 2))
  (segment (start 166.794 99.23) (end 170 99.23) (width 0.25) (layer F.Cu) (net 2))
  (segment (start 128 99.23) (end 131.152293 99.23) (width 0.25) (layer F.Cu) (net 2))
  (segment (start 145.292293 85.09) (end 161.544 85.09) (width 0.25) (layer F.Cu) (net 2))
  (segment (start 161.544 85.09) (end 163.576 87.122) (width 0.25) (layer F.Cu) (net 2))
  (segment (start 163.576 87.122) (end 163.576 96.012) (width 0.25) (layer F.Cu) (net 2))
  (segment (start 163.576 96.012) (end 166.794 99.23) (width 0.25) (layer F.Cu) (net 2))
  (via (at 167 108) (size 0.8) (drill 0.4) (layers F.Cu B.Cu) (net 3))
  (segment (start 170 107.54) (end 167.46 107.54) (width 1.5) (layer F.Cu) (net 3))
  (segment (start 167.46 107.54) (end 167 108) (width 1.5) (layer F.Cu) (net 3))
  (via (at 131 108) (size 0.8) (drill 0.4) (layers F.Cu B.Cu) (net 3))
  (segment (start 128 107.54) (end 130.54 107.54) (width 1.5) (layer F.Cu) (net 3))
  (segment (start 130.54 107.54) (end 131 108) (width 1.5) (layer F.Cu) (net 3))
  (segment (start 134.24168 108.004308) (end 133.858 107.620628) (width 0.25) (layer F.Cu) (net 3))
  (segment (start 134.89173 108.004308) (end 134.24168 108.004308) (width 0.25) (layer F.Cu) (net 3))
  (via (at 134.112 106.68) (size 0.8) (drill 0.4) (layers F.Cu B.Cu) (net 3))
  (segment (start 133.858 107.620628) (end 133.858 106.934) (width 0.25) (layer F.Cu) (net 3))
  (segment (start 133.858 106.934) (end 134.112 106.68) (width 0.25) (layer F.Cu) (net 3))
  (via (at 149.86 114.808) (size 0.8) (drill 0.4) (layers F.Cu B.Cu) (net 3))
  (segment (start 151.558714 115.021396) (end 150.073396 115.021396) (width 0.25) (layer F.Cu) (net 3))
  (segment (start 150.073396 115.021396) (end 149.86 114.808) (width 0.25) (layer F.Cu) (net 3))
  (segment (start 162.65422 117.293692) (end 162.2286 117.719312) (width 0.25) (layer F.Cu) (net 3))
  (segment (start 162.2286 117.719312) (end 162.2286 117.94272) (width 0.25) (layer F.Cu) (net 3))
  (segment (start 163.30427 117.293692) (end 162.65422 117.293692) (width 0.25) (layer F.Cu) (net 3))
  (via (at 162.2286 117.94272) (size 0.8) (drill 0.4) (layers F.Cu B.Cu) (net 3))
  (segment (start 170 102.385) (end 170 100.615) (width 0.25) (layer B.Cu) (net 3))
  (segment (start 170 103.385) (end 170 102.385) (width 0.25) (layer B.Cu) (net 3))
  (segment (start 167.5 103.385) (end 166.491 104.394) (width 0.25) (layer B.Cu) (net 3))
  (segment (start 170 103.385) (end 167.5 103.385) (width 0.25) (layer B.Cu) (net 3))
  (segment (start 166.491 104.394) (end 165.1 104.394) (width 0.25) (layer B.Cu) (net 3))
  (segment (start 165.1 104.394) (end 164.338 105.156) (width 0.25) (layer B.Cu) (net 3))
  (segment (start 164.338 105.156) (end 164.338 107.188) (width 0.25) (layer B.Cu) (net 3))
  (segment (start 165.15 108) (end 167 108) (width 0.25) (layer B.Cu) (net 3))
  (segment (start 164.338 107.188) (end 165.15 108) (width 0.25) (layer B.Cu) (net 3))
  (via (at 135.128 101.854) (size 0.8) (drill 0.4) (layers F.Cu B.Cu) (net 3))
  (segment (start 136.91 101.75) (end 135.232 101.75) (width 1.5) (layer F.Cu) (net 3))
  (segment (start 135.232 101.75) (end 135.128 101.854) (width 1.5) (layer F.Cu) (net 3))
  (via (at 140.462 109.347) (size 0.8) (drill 0.4) (layers F.Cu B.Cu) (net 3))
  (segment (start 140.462 110.506) (end 140.462 109.347) (width 0.25) (layer F.Cu) (net 3))
  (via (at 142.494 109.601) (size 0.8) (drill 0.4) (layers F.Cu B.Cu) (net 3))
  (segment (start 142.494 110.756) (end 142.494 109.601) (width 0.25) (layer F.Cu) (net 3))
  (via (at 144.526 109.347) (size 0.8) (drill 0.4) (layers F.Cu B.Cu) (net 3))
  (segment (start 144.526 110.506) (end 144.526 109.347) (width 0.25) (layer F.Cu) (net 3))
  (via (at 146.558 109.601) (size 0.8) (drill 0.4) (layers F.Cu B.Cu) (net 3))
  (segment (start 146.558 110.756) (end 146.558 109.601) (width 0.25) (layer F.Cu) (net 3))
  (via (at 143.256 113.665) (size 0.8) (drill 0.4) (layers F.Cu B.Cu) (net 3))
  (segment (start 143.74 115.205) (end 143.74 114.149) (width 0.25) (layer F.Cu) (net 3))
  (segment (start 143.74 114.149) (end 143.256 113.665) (width 0.25) (layer F.Cu) (net 3))
  (via (at 136.525 95.758) (size 0.8) (drill 0.4) (layers F.Cu B.Cu) (net 3))
  (segment (start 137.938 95.758) (end 136.525 95.758) (width 0.25) (layer F.Cu) (net 3))
  (via (at 163.068 107.95) (size 0.8) (drill 0.4) (layers F.Cu B.Cu) (net 3))
  (segment (start 161.90727 107.900692) (end 163.018692 107.900692) (width 0.25) (layer F.Cu) (net 3))
  (segment (start 163.018692 107.900692) (end 163.068 107.95) (width 0.25) (layer F.Cu) (net 3))
  (via (at 131.89 105.41) (size 0.8) (drill 0.4) (layers F.Cu B.Cu) (net 4))
  (segment (start 131.25 104.77) (end 128 104.77) (width 1.5) (layer F.Cu) (net 4))
  (segment (start 131.89 105.41) (end 131.25 104.77) (width 1.5) (layer F.Cu) (net 4))
  (segment (start 131.145 106.155) (end 131.89 105.41) (width 1.5) (layer B.Cu) (net 4))
  (segment (start 128 106.155) (end 131.145 106.155) (width 1.5) (layer B.Cu) (net 4))
  (via (at 165.862 105.658) (size 0.8) (drill 0.4) (layers F.Cu B.Cu) (net 4))
  (segment (start 166.359 106.155) (end 165.862 105.658) (width 1.5) (layer B.Cu) (net 4))
  (segment (start 170 106.155) (end 166.359 106.155) (width 1.5) (layer B.Cu) (net 4))
  (segment (start 165.1 106.42) (end 165.862 105.658) (width 1.5) (layer F.Cu) (net 4))
  (segment (start 165.1 118.618) (end 165.1 106.42) (width 1.5) (layer F.Cu) (net 4))
  (segment (start 131.89 106.485823) (end 132.700009 107.295833) (width 1.5) (layer F.Cu) (net 4))
  (segment (start 131.89 105.41) (end 131.89 106.485823) (width 1.5) (layer F.Cu) (net 4))
  (segment (start 132.700009 118.696011) (end 134.703999 120.700001) (width 1.5) (layer F.Cu) (net 4))
  (segment (start 134.703999 120.700001) (end 163.017999 120.700001) (width 1.5) (layer F.Cu) (net 4))
  (segment (start 163.017999 120.700001) (end 165.1 118.618) (width 1.5) (layer F.Cu) (net 4))
  (segment (start 132.700009 107.295833) (end 132.700009 113.03) (width 1.5) (layer F.Cu) (net 4))
  (segment (start 132.700009 113.03) (end 132.700009 118.696011) (width 1.5) (layer F.Cu) (net 4))
  (segment (start 132.899701 111.560308) (end 132.700009 111.76) (width 0.25) (layer F.Cu) (net 4))
  (segment (start 134.89173 111.560308) (end 132.899701 111.560308) (width 0.25) (layer F.Cu) (net 4))
  (segment (start 167.033762 104.77) (end 170 104.77) (width 1.5) (layer F.Cu) (net 4))
  (segment (start 166.821761 104.982001) (end 167.033762 104.77) (width 1.5) (layer F.Cu) (net 4))
  (segment (start 165.862 105.658) (end 166.537999 104.982001) (width 1.5) (layer F.Cu) (net 4))
  (segment (start 166.537999 104.982001) (end 166.821761 104.982001) (width 1.5) (layer F.Cu) (net 4))
  (segment (start 134.6 98.5) (end 133.096 100.004) (width 1.5) (layer F.Cu) (net 4))
  (segment (start 137 98.5) (end 134.6 98.5) (width 1.5) (layer F.Cu) (net 4))
  (via (at 133.096 101.6) (size 0.8) (drill 0.4) (layers F.Cu B.Cu) (net 4))
  (segment (start 133.096 100.004) (end 133.096 101.6) (width 1.5) (layer F.Cu) (net 4))
  (segment (start 133.096 104.204) (end 131.89 105.41) (width 1.5) (layer B.Cu) (net 4))
  (segment (start 133.096 101.6) (end 133.096 104.204) (width 1.5) (layer B.Cu) (net 4))
  (segment (start 130 102) (end 128 102) (width 0.25) (layer F.Cu) (net 9))
  (segment (start 131.464 102) (end 130 102) (width 0.25) (layer F.Cu) (net 9))
  (segment (start 131.975707 102) (end 131.464 102) (width 0.25) (layer F.Cu) (net 9))
  (segment (start 132.650717 102.67501) (end 131.975707 102) (width 0.25) (layer F.Cu) (net 9))
  (segment (start 133.57001 102.67501) (end 132.650717 102.67501) (width 0.25) (layer F.Cu) (net 9))
  (segment (start 136.305 105.41) (end 133.57001 102.67501) (width 0.25) (layer F.Cu) (net 9))
  (segment (start 137.03 105.41) (end 136.305 105.41) (width 0.25) (layer F.Cu) (net 9))
  (segment (start 168 102) (end 170 102) (width 0.25) (layer F.Cu) (net 10))
  (segment (start 165.661238 102) (end 168 102) (width 0.25) (layer F.Cu) (net 10))
  (segment (start 163.83 103.831238) (end 165.661238 102) (width 0.25) (layer F.Cu) (net 10))
  (segment (start 163.83 111.677) (end 163.83 103.831238) (width 0.25) (layer F.Cu) (net 10))
  (segment (start 163.452 113.03) (end 163.452 112.055) (width 0.25) (layer F.Cu) (net 10))
  (segment (start 163.452 112.055) (end 163.83 111.677) (width 0.25) (layer F.Cu) (net 10))
  (segment (start 147.283001 118.073001) (end 147.057999 117.847999) (width 0.25) (layer F.Cu) (net 11))
  (segment (start 148.176001 118.073001) (end 147.283001 118.073001) (width 0.25) (layer F.Cu) (net 11))
  (segment (start 148.401003 117.847999) (end 148.176001 118.073001) (width 0.25) (layer F.Cu) (net 11))
  (segment (start 152.142113 117.847999) (end 148.401003 117.847999) (width 0.25) (layer F.Cu) (net 11))
  (segment (start 153.67 116.320112) (end 152.142113 117.847999) (width 0.25) (layer F.Cu) (net 11))
  (segment (start 153.67 113.607682) (end 153.67 116.320112) (width 0.25) (layer F.Cu) (net 11))
  (segment (start 152.483714 112.421396) (end 153.67 113.607682) (width 0.25) (layer F.Cu) (net 11))
  (segment (start 151.558714 112.421396) (end 152.483714 112.421396) (width 0.25) (layer F.Cu) (net 11))
  (segment (start 147.057999 117.847999) (end 146.558 117.348) (width 0.25) (layer F.Cu) (net 11))
  (segment (start 144.018 112.256) (end 144.018 112.281) (width 0.25) (layer F.Cu) (net 12))
  (via (at 148.336 114.046) (size 0.8) (drill 0.4) (layers F.Cu B.Cu) (net 12))
  (segment (start 146.558 114.808) (end 147.574 114.808) (width 0.25) (layer B.Cu) (net 12))
  (segment (start 147.574 114.808) (end 148.336 114.046) (width 0.25) (layer B.Cu) (net 12))
  (segment (start 149.310604 113.071396) (end 151.558714 113.071396) (width 0.25) (layer F.Cu) (net 12))
  (segment (start 148.336 114.046) (end 149.310604 113.071396) (width 0.25) (layer F.Cu) (net 12))
  (segment (start 144.526 112.506) (end 144.526 113.538) (width 0.25) (layer F.Cu) (net 12))
  (segment (start 145.796 114.808) (end 146.558 114.808) (width 0.25) (layer F.Cu) (net 12))
  (segment (start 144.526 113.538) (end 145.796 114.808) (width 0.25) (layer F.Cu) (net 12))
  (via (at 147.828 117.348) (size 0.8) (drill 0.4) (layers F.Cu B.Cu) (net 15))
  (segment (start 146.558 118.618) (end 147.828 117.348) (width 0.25) (layer B.Cu) (net 15))
  (segment (start 149.504604 115.671396) (end 151.558714 115.671396) (width 0.25) (layer F.Cu) (net 15))
  (segment (start 148.932396 115.671396) (end 149.504604 115.671396) (width 0.25) (layer F.Cu) (net 15))
  (segment (start 148.227999 115.157001) (end 148.323 115.062) (width 0.25) (layer F.Cu) (net 15))
  (segment (start 148.227999 116.948001) (end 148.227999 115.157001) (width 0.25) (layer F.Cu) (net 15))
  (segment (start 147.828 117.348) (end 148.227999 116.948001) (width 0.25) (layer F.Cu) (net 15))
  (segment (start 148.323 115.062) (end 148.932396 115.671396) (width 0.25) (layer F.Cu) (net 15))
  (segment (start 147.265106 118.618) (end 146.558 118.618) (width 0.25) (layer F.Cu) (net 15))
  (segment (start 160.528 118.618) (end 147.265106 118.618) (width 0.25) (layer F.Cu) (net 15))
  (segment (start 163.30427 115.393692) (end 163.30427 115.84173) (width 0.25) (layer F.Cu) (net 15))
  (segment (start 163.30427 115.84173) (end 160.528 118.618) (width 0.25) (layer F.Cu) (net 15))
  (segment (start 140.738491 113.792) (end 140.738491 114.911161) (width 0.25) (layer F.Cu) (net 15))
  (segment (start 138.55559 113.792) (end 140.738491 113.792) (width 0.25) (layer F.Cu) (net 15))
  (segment (start 137.979991 113.216401) (end 138.55559 113.792) (width 0.25) (layer F.Cu) (net 15))
  (segment (start 137.979991 111.055991) (end 137.979991 113.216401) (width 0.25) (layer F.Cu) (net 15))
  (segment (start 134.89173 109.904308) (end 136.828308 109.904308) (width 0.25) (layer F.Cu) (net 15))
  (segment (start 136.828308 109.904308) (end 137.979991 111.055991) (width 0.25) (layer F.Cu) (net 15))
  (segment (start 148.323 115.062) (end 148.082 115.062) (width 0.25) (layer F.Cu) (net 15))
  (segment (start 148.082 115.062) (end 147.574 114.554) (width 0.25) (layer F.Cu) (net 15))
  (segment (start 147.574 114.554) (end 147.574 114.3) (width 0.25) (layer F.Cu) (net 15))
  (segment (start 146.558 113.284) (end 146.558 112.256) (width 0.25) (layer F.Cu) (net 15))
  (segment (start 147.574 114.3) (end 146.558 113.284) (width 0.25) (layer F.Cu) (net 15))
  (segment (start 140.462 113.515509) (end 140.462 112.506) (width 0.25) (layer F.Cu) (net 15))
  (segment (start 140.738491 113.792) (end 140.462 113.515509) (width 0.25) (layer F.Cu) (net 15))
  (segment (start 146.558 111.606) (end 146.558 112.256) (width 0.25) (layer F.Cu) (net 15))
  (segment (start 146.458 111.506) (end 146.558 111.606) (width 0.25) (layer F.Cu) (net 15))
  (segment (start 141.587 111.506) (end 146.458 111.506) (width 0.25) (layer F.Cu) (net 15))
  (segment (start 140.587 112.506) (end 141.587 111.506) (width 0.25) (layer F.Cu) (net 15))
  (segment (start 140.462 112.506) (end 140.587 112.506) (width 0.25) (layer F.Cu) (net 15))
  (segment (start 142.238491 115.057661) (end 142.238491 119.058161) (width 0.25) (layer F.Cu) (net 26))
  (segment (start 142.238491 117.724661) (end 140.076661 117.724661) (width 0.25) (layer F.Cu) (net 26))
  (segment (start 138.030352 115.678352) (end 138.030352 114.3) (width 0.25) (layer F.Cu) (net 26))
  (segment (start 140.076661 117.724661) (end 138.030352 115.678352) (width 0.25) (layer F.Cu) (net 26))
  (segment (start 137.922 114.191648) (end 138.030352 114.3) (width 0.25) (layer F.Cu) (net 26))
  (segment (start 136.89071 113.160358) (end 137.922 114.191648) (width 0.25) (layer F.Cu) (net 26))
  (segment (start 136.89071 112.510308) (end 136.89071 113.160358) (width 0.25) (layer F.Cu) (net 26))
  (segment (start 142.494 112.256) (end 142.494 113.792) (width 0.25) (layer F.Cu) (net 26))
  (segment (start 142.24 114.046) (end 142.24 115.09) (width 0.25) (layer F.Cu) (net 26))
  (segment (start 142.494 113.792) (end 142.24 114.046) (width 0.25) (layer F.Cu) (net 26))
  (segment (start 160.412932 116.586) (end 160.274 116.586) (width 0.25) (layer F.Cu) (net 27))
  (segment (start 160.65524 116.343692) (end 160.412932 116.586) (width 0.25) (layer F.Cu) (net 27))
  (segment (start 161.30529 116.343692) (end 160.65524 116.343692) (width 0.25) (layer F.Cu) (net 27))
  (segment (start 153.866011 112.503693) (end 152.483714 111.121396) (width 0.25) (layer F.Cu) (net 27))
  (segment (start 153.866011 116.760512) (end 154.120011 116.506512) (width 0.25) (layer F.Cu) (net 27))
  (segment (start 153.866011 117.093015) (end 153.866011 116.760512) (width 0.25) (layer F.Cu) (net 27))
  (segment (start 154.120011 113.421282) (end 153.866011 113.167282) (width 0.25) (layer F.Cu) (net 27))
  (segment (start 160.274 116.586) (end 158.692011 118.167989) (width 0.25) (layer F.Cu) (net 27))
  (segment (start 154.120011 116.506512) (end 154.120011 113.421282) (width 0.25) (layer F.Cu) (net 27))
  (segment (start 153.866011 113.167282) (end 153.866011 112.503693) (width 0.25) (layer F.Cu) (net 27))
  (segment (start 154.940985 118.167989) (end 153.866011 117.093015) (width 0.25) (layer F.Cu) (net 27))
  (segment (start 152.483714 111.121396) (end 151.558714 111.121396) (width 0.25) (layer F.Cu) (net 27))
  (segment (start 158.692011 118.167989) (end 154.940985 118.167989) (width 0.25) (layer F.Cu) (net 27))
  (segment (start 160.274 114.383) (end 160.274 116.586) (width 0.25) (layer F.Cu) (net 27))
  (segment (start 160.652 114.005) (end 160.274 114.383) (width 0.25) (layer F.Cu) (net 27))
  (segment (start 160.652 113.03) (end 160.652 114.005) (width 0.25) (layer F.Cu) (net 27))
  (segment (start 139.83 105.41) (end 139.83 106.385) (width 0.25) (layer F.Cu) (net 28))
  (segment (start 140.52571 106.10571) (end 144.20571 106.10571) (width 0.25) (layer F.Cu) (net 28))
  (segment (start 139.83 105.41) (end 140.52571 106.10571) (width 0.25) (layer F.Cu) (net 28))
  (segment (start 149.871396 111.771396) (end 151.558714 111.771396) (width 0.25) (layer F.Cu) (net 28))
  (segment (start 144.20571 106.10571) (end 149.871396 111.771396) (width 0.25) (layer F.Cu) (net 28))
  (segment (start 138.773 107.722068) (end 138.773 107.442) (width 0.25) (layer F.Cu) (net 28))
  (segment (start 137.54076 108.954308) (end 138.773 107.722068) (width 0.25) (layer F.Cu) (net 28))
  (segment (start 136.89071 108.954308) (end 137.54076 108.954308) (width 0.25) (layer F.Cu) (net 28))
  (segment (start 139.83 106.385) (end 138.773 107.442) (width 0.25) (layer F.Cu) (net 28))
  (segment (start 158.233714 116.971396) (end 158.877 116.32811) (width 0.25) (layer F.Cu) (net 30))
  (segment (start 157.308714 116.971396) (end 158.233714 116.971396) (width 0.25) (layer F.Cu) (net 30))
  (segment (start 158.877 116.32811) (end 158.877 112.141) (width 0.25) (layer F.Cu) (net 30))
  (segment (start 158.877 112.141) (end 159.766 111.252) (width 0.25) (layer F.Cu) (net 30))
  (segment (start 159.766 111.252) (end 162.56 111.252) (width 0.25) (layer F.Cu) (net 30))
  (segment (start 162.56 111.252) (end 163.195 110.617) (width 0.25) (layer F.Cu) (net 30))
  (segment (start 163.195 110.617) (end 163.195 109.982) (width 0.25) (layer F.Cu) (net 30))
  (segment (start 163.013692 109.800692) (end 161.90727 109.800692) (width 0.25) (layer F.Cu) (net 30))
  (segment (start 163.195 109.982) (end 163.013692 109.800692) (width 0.25) (layer F.Cu) (net 30))
  (segment (start 155.424999 106.224999) (end 155.424999 106.910999) (width 1.5) (layer F.Cu) (net 31))
  (segment (start 154.7 105.5) (end 155.424999 106.224999) (width 1.5) (layer F.Cu) (net 31))
  (segment (start 155.424999 106.910999) (end 157.48 108.966) (width 1.5) (layer F.Cu) (net 31))
  (segment (start 157.48 108.966) (end 158.115 108.966) (width 1.5) (layer F.Cu) (net 31))
  (segment (start 157.595308 108.850692) (end 159.90829 108.850692) (width 0.25) (layer F.Cu) (net 31))
  (segment (start 157.48 108.966) (end 157.595308 108.850692) (width 0.25) (layer F.Cu) (net 31))
  (segment (start 161.163 105.77) (end 160.253 106.68) (width 0.25) (layer F.Cu) (net 31))
  (segment (start 161.163 104.62) (end 161.163 105.77) (width 0.25) (layer F.Cu) (net 31))
  (segment (start 160.253 106.68) (end 159.258 106.68) (width 0.25) (layer F.Cu) (net 31))
  (segment (start 158.115 107.823) (end 158.115 108.966) (width 0.25) (layer F.Cu) (net 31))
  (segment (start 159.258 106.68) (end 158.115 107.823) (width 0.25) (layer F.Cu) (net 31))
  (segment (start 143.764 100.938) (end 143.764 98.5) (width 1.5) (layer F.Cu) (net 32))
  (segment (start 142.952 101.75) (end 143.764 100.938) (width 1.5) (layer F.Cu) (net 32))
  (segment (start 140.59 101.75) (end 142.952 101.75) (width 1.5) (layer F.Cu) (net 32))
  (segment (start 140.5 98.5) (end 142.494 98.5) (width 1.5) (layer F.Cu) (net 32))
  (segment (start 142.494 98.5) (end 143.764 98.5) (width 1.5) (layer F.Cu) (net 32))
  (segment (start 139.938 95.758) (end 141.478 95.758) (width 0.25) (layer F.Cu) (net 32))
  (segment (start 142.494 96.774) (end 142.494 98.5) (width 0.25) (layer F.Cu) (net 32))
  (segment (start 141.478 95.758) (end 142.494 96.774) (width 0.25) (layer F.Cu) (net 32))
  (segment (start 143.764 98.5) (end 154.7 98.5) (width 1.5) (layer F.Cu) (net 32))
  (segment (start 159.693 98.5) (end 154.7 98.5) (width 0.25) (layer F.Cu) (net 32))
  (segment (start 161.163 101.12) (end 161.163 99.97) (width 0.25) (layer F.Cu) (net 32))
  (segment (start 161.163 99.97) (end 159.693 98.5) (width 0.25) (layer F.Cu) (net 32))

  (zone (net 3) (net_name GND) (layer B.Cu) (tstamp 5E7535CD) (hatch edge 0.508)
    (connect_pads (clearance 0.508))
    (min_thickness 0.254)
    (fill yes (arc_segments 16) (thermal_gap 0.508) (thermal_bridge_width 0.508))
    (polygon
      (pts
        (xy 126 82) (xy 126 122) (xy 172 122) (xy 172 82)
      )
    )
    (filled_polygon
      (pts
        (xy 171.29 96.44756) (xy 168.946246 96.44756) (xy 167.882888 95.384203) (xy 167.540399 95.155359) (xy 167 95.047867)
        (xy 166.459601 95.155359) (xy 166.001472 95.461472) (xy 165.695359 95.919601) (xy 165.587867 96.46) (xy 165.695359 97.000399)
        (xy 165.924203 97.342888) (xy 166.60256 98.021245) (xy 166.60256 98.595) (xy 166.651843 98.842765) (xy 166.792191 99.052809)
        (xy 167.002235 99.193157) (xy 167.187459 99.23) (xy 167.123691 99.23) (xy 166.890302 99.326673) (xy 166.711673 99.505301)
        (xy 166.615 99.73869) (xy 166.615 100.32925) (xy 166.77375 100.488) (xy 169.373 100.488) (xy 169.373 100.468)
        (xy 169.627 100.468) (xy 169.627 100.488) (xy 169.647 100.488) (xy 169.647 100.742) (xy 169.627 100.742)
        (xy 169.627 101.84125) (xy 169.78575 102) (xy 169.627 102.15875) (xy 169.627 103.258) (xy 169.647 103.258)
        (xy 169.647 103.512) (xy 169.627 103.512) (xy 169.627 103.532) (xy 169.373 103.532) (xy 169.373 103.512)
        (xy 166.77375 103.512) (xy 166.615 103.67075) (xy 166.615 104.26131) (xy 166.711673 104.494699) (xy 166.890302 104.673327)
        (xy 167.123691 104.77) (xy 166.932685 104.77) (xy 166.744888 104.582203) (xy 166.402399 104.353359) (xy 165.862 104.245867)
        (xy 165.321601 104.353359) (xy 164.863472 104.659472) (xy 164.557359 105.117601) (xy 164.449867 105.658) (xy 164.557359 106.198399)
        (xy 164.786203 106.540888) (xy 165.2832 107.037885) (xy 165.360471 107.153529) (xy 165.8186 107.459641) (xy 166.222593 107.54)
        (xy 166.358999 107.567133) (xy 166.495405 107.54) (xy 167.187459 107.54) (xy 167.25 107.55244) (xy 171.290001 107.55244)
        (xy 171.290001 121.29) (xy 126.71 121.29) (xy 126.71 117.525594) (xy 133.615 117.525594) (xy 133.615 118.474406)
        (xy 133.978095 119.350994) (xy 134.649006 120.021905) (xy 135.525594 120.385) (xy 136.474406 120.385) (xy 137.350994 120.021905)
        (xy 138.021905 119.350994) (xy 138.385 118.474406) (xy 138.385 117.525594) (xy 138.311439 117.348) (xy 145.400765 117.348)
        (xy 145.488854 117.790855) (xy 145.617241 117.983) (xy 145.488854 118.175145) (xy 145.400765 118.618) (xy 145.488854 119.060855)
        (xy 145.739711 119.436289) (xy 146.115145 119.687146) (xy 146.446217 119.753) (xy 146.669783 119.753) (xy 147.000855 119.687146)
        (xy 147.376289 119.436289) (xy 147.627146 119.060855) (xy 147.715235 118.618) (xy 147.701558 118.549243) (xy 147.867802 118.383)
        (xy 148.033874 118.383) (xy 148.41428 118.225431) (xy 148.705431 117.93428) (xy 148.863 117.553874) (xy 148.863 117.525594)
        (xy 165.615 117.525594) (xy 165.615 118.474406) (xy 165.978095 119.350994) (xy 166.649006 120.021905) (xy 167.525594 120.385)
        (xy 168.474406 120.385) (xy 169.350994 120.021905) (xy 170.021905 119.350994) (xy 170.385 118.474406) (xy 170.385 117.525594)
        (xy 170.021905 116.649006) (xy 169.350994 115.978095) (xy 168.474406 115.615) (xy 167.525594 115.615) (xy 166.649006 115.978095)
        (xy 165.978095 116.649006) (xy 165.615 117.525594) (xy 148.863 117.525594) (xy 148.863 117.142126) (xy 148.705431 116.76172)
        (xy 148.41428 116.470569) (xy 148.033874 116.313) (xy 147.622126 116.313) (xy 147.608072 116.318821) (xy 147.525954 116.205)
        (xy 146.685 116.205) (xy 146.685 116.216027) (xy 146.669783 116.213) (xy 146.446217 116.213) (xy 146.431 116.216027)
        (xy 146.431 116.205) (xy 145.590046 116.205) (xy 145.463881 116.379874) (xy 145.570873 116.638209) (xy 145.625199 116.70109)
        (xy 145.488854 116.905145) (xy 145.400765 117.348) (xy 138.311439 117.348) (xy 138.021905 116.649006) (xy 137.350994 115.978095)
        (xy 136.474406 115.615) (xy 135.525594 115.615) (xy 134.649006 115.978095) (xy 133.978095 116.649006) (xy 133.615 117.525594)
        (xy 126.71 117.525594) (xy 126.71 114.308) (xy 145.41056 114.308) (xy 145.41056 115.308) (xy 145.459843 115.555765)
        (xy 145.518678 115.643817) (xy 145.463881 115.776126) (xy 145.590046 115.951) (xy 146.035678 115.951) (xy 146.058 115.95544)
        (xy 147.058 115.95544) (xy 147.080322 115.951) (xy 147.525954 115.951) (xy 147.652119 115.776126) (xy 147.597322 115.643817)
        (xy 147.647849 115.568198) (xy 147.648847 115.568) (xy 147.648852 115.568) (xy 147.870537 115.523904) (xy 148.121929 115.355929)
        (xy 148.164331 115.29247) (xy 148.375801 115.081) (xy 148.541874 115.081) (xy 148.92228 114.923431) (xy 149.213431 114.63228)
        (xy 149.371 114.251874) (xy 149.371 113.840126) (xy 149.213431 113.45972) (xy 148.92228 113.168569) (xy 148.541874 113.011)
        (xy 148.130126 113.011) (xy 147.74972 113.168569) (xy 147.458569 113.45972) (xy 147.3443 113.735591) (xy 147.305765 113.709843)
        (xy 147.058 113.66056) (xy 146.058 113.66056) (xy 145.810235 113.709843) (xy 145.600191 113.850191) (xy 145.459843 114.060235)
        (xy 145.41056 114.308) (xy 126.71 114.308) (xy 126.71 110.11397) (xy 150.665635 110.11397) (xy 150.825418 110.432739)
        (xy 151.616187 110.742723) (xy 152.465387 110.726497) (xy 153.174582 110.432739) (xy 153.334365 110.11397) (xy 152 108.779605)
        (xy 150.665635 110.11397) (xy 126.71 110.11397) (xy 126.71 108.216187) (xy 149.857277 108.216187) (xy 149.873503 109.065387)
        (xy 150.167261 109.774582) (xy 150.48603 109.934365) (xy 151.820395 108.6) (xy 152.179605 108.6) (xy 153.51397 109.934365)
        (xy 153.832739 109.774582) (xy 154.142723 108.983813) (xy 154.126497 108.134613) (xy 153.832739 107.425418) (xy 153.51397 107.265635)
        (xy 152.179605 108.6) (xy 151.820395 108.6) (xy 150.48603 107.265635) (xy 150.167261 107.425418) (xy 149.857277 108.216187)
        (xy 126.71 108.216187) (xy 126.71 107.55244) (xy 130.25 107.55244) (xy 130.312541 107.54) (xy 131.008593 107.54)
        (xy 131.145 107.567133) (xy 131.281407 107.54) (xy 131.6854 107.459641) (xy 132.143529 107.153529) (xy 132.18863 107.08603)
        (xy 150.665635 107.08603) (xy 152 108.420395) (xy 153.334365 107.08603) (xy 153.174582 106.767261) (xy 152.383813 106.457277)
        (xy 151.534613 106.473503) (xy 150.825418 106.767261) (xy 150.665635 107.08603) (xy 132.18863 107.08603) (xy 132.2208 107.037885)
        (xy 132.965797 106.292888) (xy 133.978888 105.279798) (xy 134.094529 105.202529) (xy 134.400641 104.7444) (xy 134.443862 104.527112)
        (xy 134.508133 104.204) (xy 134.481 104.067593) (xy 134.481 101.463593) (xy 134.400641 101.0596) (xy 134.094528 100.601471)
        (xy 133.636399 100.295359) (xy 133.096 100.187867) (xy 132.5556 100.295359) (xy 132.097471 100.601472) (xy 131.791359 101.059601)
        (xy 131.711 101.463594) (xy 131.711001 103.630314) (xy 130.571315 104.77) (xy 130.376309 104.77) (xy 130.609698 104.673327)
        (xy 130.788327 104.494699) (xy 130.885 104.26131) (xy 130.885 103.67075) (xy 130.72625 103.512) (xy 128.127 103.512)
        (xy 128.127 103.532) (xy 127.873 103.532) (xy 127.873 103.512) (xy 127.853 103.512) (xy 127.853 103.258)
        (xy 127.873 103.258) (xy 127.873 102.15875) (xy 127.71425 102) (xy 127.873 101.84125) (xy 127.873 100.742)
        (xy 128.127 100.742) (xy 128.127 101.84125) (xy 128.28575 102) (xy 128.127 102.15875) (xy 128.127 103.258)
        (xy 130.72625 103.258) (xy 130.885 103.09925) (xy 130.885 102.50869) (xy 130.788327 102.275301) (xy 130.609698 102.096673)
        (xy 130.376309 102) (xy 130.609698 101.903327) (xy 130.788327 101.724699) (xy 130.885 101.49131) (xy 130.885 100.90075)
        (xy 130.72625 100.742) (xy 128.127 100.742) (xy 127.873 100.742) (xy 127.853 100.742) (xy 127.853 100.488)
        (xy 127.873 100.488) (xy 127.873 100.468) (xy 128.127 100.468) (xy 128.127 100.488) (xy 130.72625 100.488)
        (xy 130.885 100.32925) (xy 130.885 99.73869) (xy 130.788327 99.505301) (xy 130.609698 99.326673) (xy 130.376309 99.23)
        (xy 130.880593 99.23) (xy 131.017 99.257133) (xy 131.153407 99.23) (xy 131.5574 99.149641) (xy 132.015529 98.843529)
        (xy 132.0928 98.727885) (xy 132.591206 98.229479) (xy 153.34 98.229479) (xy 153.34 98.770521) (xy 153.547048 99.270378)
        (xy 153.929622 99.652952) (xy 154.163916 99.75) (xy 153.929622 99.847048) (xy 153.547048 100.229622) (xy 153.34 100.729479)
        (xy 153.34 101.270521) (xy 153.547048 101.770378) (xy 153.77667 102) (xy 153.547048 102.229622) (xy 153.34 102.729479)
        (xy 153.34 103.270521) (xy 153.547048 103.770378) (xy 153.929622 104.152952) (xy 154.163916 104.25) (xy 153.929622 104.347048)
        (xy 153.547048 104.729622) (xy 153.34 105.229479) (xy 153.34 105.770521) (xy 153.547048 106.270378) (xy 153.929622 106.652952)
        (xy 154.429479 106.86) (xy 154.970521 106.86) (xy 155.470378 106.652952) (xy 155.852952 106.270378) (xy 156.06 105.770521)
        (xy 156.06 105.229479) (xy 155.852952 104.729622) (xy 155.470378 104.347048) (xy 155.236084 104.25) (xy 155.470378 104.152952)
        (xy 155.852952 103.770378) (xy 156.06 103.270521) (xy 156.06 102.729479) (xy 155.852952 102.229622) (xy 155.62333 102)
        (xy 155.852952 101.770378) (xy 156.06 101.270521) (xy 156.06 100.90075) (xy 166.615 100.90075) (xy 166.615 101.49131)
        (xy 166.711673 101.724699) (xy 166.890302 101.903327) (xy 167.123691 102) (xy 166.890302 102.096673) (xy 166.711673 102.275301)
        (xy 166.615 102.50869) (xy 166.615 103.09925) (xy 166.77375 103.258) (xy 169.373 103.258) (xy 169.373 102.15875)
        (xy 169.21425 102) (xy 169.373 101.84125) (xy 169.373 100.742) (xy 166.77375 100.742) (xy 166.615 100.90075)
        (xy 156.06 100.90075) (xy 156.06 100.729479) (xy 155.852952 100.229622) (xy 155.470378 99.847048) (xy 155.236084 99.75)
        (xy 155.470378 99.652952) (xy 155.852952 99.270378) (xy 156.06 98.770521) (xy 156.06 98.229479) (xy 155.852952 97.729622)
        (xy 155.470378 97.347048) (xy 154.970521 97.14) (xy 154.429479 97.14) (xy 153.929622 97.347048) (xy 153.547048 97.729622)
        (xy 153.34 98.229479) (xy 132.591206 98.229479) (xy 132.901797 97.918888) (xy 133.130641 97.5764) (xy 133.238133 97.036)
        (xy 133.223806 96.96397) (xy 150.665635 96.96397) (xy 150.825418 97.282739) (xy 151.616187 97.592723) (xy 152.465387 97.576497)
        (xy 153.174582 97.282739) (xy 153.334365 96.96397) (xy 152 95.629605) (xy 150.665635 96.96397) (xy 133.223806 96.96397)
        (xy 133.130641 96.4956) (xy 132.824528 96.037472) (xy 132.3664 95.731359) (xy 131.826 95.623867) (xy 131.2856 95.731359)
        (xy 130.943112 95.960203) (xy 130.443315 96.46) (xy 130.312541 96.46) (xy 130.25 96.44756) (xy 126.71 96.44756)
        (xy 126.71 95.066187) (xy 149.857277 95.066187) (xy 149.873503 95.915387) (xy 150.167261 96.624582) (xy 150.48603 96.784365)
        (xy 151.820395 95.45) (xy 152.179605 95.45) (xy 153.51397 96.784365) (xy 153.832739 96.624582) (xy 154.142723 95.833813)
        (xy 154.126497 94.984613) (xy 153.832739 94.275418) (xy 153.51397 94.115635) (xy 152.179605 95.45) (xy 151.820395 95.45)
        (xy 150.48603 94.115635) (xy 150.167261 94.275418) (xy 149.857277 95.066187) (xy 126.71 95.066187) (xy 126.71 93.93603)
        (xy 150.665635 93.93603) (xy 152 95.270395) (xy 153.334365 93.93603) (xy 153.174582 93.617261) (xy 152.383813 93.307277)
        (xy 151.534613 93.323503) (xy 150.825418 93.617261) (xy 150.665635 93.93603) (xy 126.71 93.93603) (xy 126.71 85.525594)
        (xy 133.615 85.525594) (xy 133.615 86.474406) (xy 133.978095 87.350994) (xy 134.649006 88.021905) (xy 135.525594 88.385)
        (xy 136.474406 88.385) (xy 137.350994 88.021905) (xy 138.021905 87.350994) (xy 138.385 86.474406) (xy 138.385 85.525594)
        (xy 165.615 85.525594) (xy 165.615 86.474406) (xy 165.978095 87.350994) (xy 166.649006 88.021905) (xy 167.525594 88.385)
        (xy 168.474406 88.385) (xy 169.350994 88.021905) (xy 170.021905 87.350994) (xy 170.385 86.474406) (xy 170.385 85.525594)
        (xy 170.021905 84.649006) (xy 169.350994 83.978095) (xy 168.474406 83.615) (xy 167.525594 83.615) (xy 166.649006 83.978095)
        (xy 165.978095 84.649006) (xy 165.615 85.525594) (xy 138.385 85.525594) (xy 138.021905 84.649006) (xy 137.350994 83.978095)
        (xy 136.474406 83.615) (xy 135.525594 83.615) (xy 134.649006 83.978095) (xy 133.978095 84.649006) (xy 133.615 85.525594)
        (xy 126.71 85.525594) (xy 126.71 82.71) (xy 171.29 82.71)
      )
    )
  )
)
