EESchema Schematic File Version 4
LIBS:005_6x4_4xAA_power_supply-cache
EELAYER 26 0
EELAYER END
$Descr A4 11693 8268
encoding utf-8
Sheet 1 1
Title ""
Date ""
Rev ""
Comp ""
Comment1 ""
Comment2 ""
Comment3 ""
Comment4 ""
$EndDescr
Text Notes 10200 4050 0    50   ~ 0
Female\n
Text Label 4700 1600 0    50   ~ 0
UART_TX
$Comp
L Br:Br_CN_OUT J3
U 1 1 5D9C46C3
P 10450 4650
F 0 "J3" H 10627 4696 50  0000 L CNN
F 1 "Br_CN_OUT" H 10627 4605 50  0000 L CNN
F 2 "Br:DSUB-9_Female_Vertical_P2.77x2.84mm" H 10450 5200 50  0001 C CNN
F 3 "" H 10450 5200 50  0001 C CNN
	1    10450 4650
	1    0    0    -1  
$EndComp
Text Label 10050 4650 2    50   ~ 0
UART_TX
Wire Wire Line
	10150 4950 10000 4950
Wire Wire Line
	10150 4850 10000 4850
Wire Wire Line
	10000 4850 10000 4950
Connection ~ 10000 4950
Wire Wire Line
	9550 4550 9550 4750
Wire Wire Line
	9550 4550 10150 4550
Wire Wire Line
	9700 4650 10150 4650
Wire Wire Line
	10150 4750 9550 4750
Connection ~ 9550 4750
Wire Wire Line
	9550 4750 9550 5050
Wire Wire Line
	10150 5050 9550 5050
Connection ~ 9550 5050
Wire Wire Line
	9550 5050 9550 5350
$Comp
L Br:D_BAV99.215 D1
U 1 1 5D9CB918
P 1400 1600
F 0 "D1" H 1478 1646 50  0000 L CNN
F 1 "D_BAV99.215" H 1478 1555 50  0000 L CNN
F 2 "Br:SOT23" V 1400 1750 50  0001 C CNN
F 3 "../library_doc/D_BAV99.215.pdf" H 1478 1555 50  0001 L CNN
F 4 "C2500" H 1477 1509 50  0001 L CNN "LCSC"
	1    1400 1600
	-1   0    0    -1  
$EndComp
$Comp
L Br:5V #PWR0107
U 1 1 5D9CBEE0
P 1400 1200
F 0 "#PWR0107" H 1400 1050 50  0001 C CNN
F 1 "5V" V 1415 1328 50  0000 L CNN
F 2 "" H 1400 1200 50  0000 C CNN
F 3 "" H 1400 1200 50  0000 C CNN
	1    1400 1200
	1    0    0    -1  
$EndComp
Wire Wire Line
	1400 1300 1400 1200
$Comp
L Br:D_BAV99.215 D3
U 1 1 5D9CF778
P 3900 1600
F 0 "D3" H 3978 1554 50  0000 L CNN
F 1 "D_BAV99.215" H 3350 1850 50  0000 L CNN
F 2 "Br:SOT23" V 3900 1750 50  0001 C CNN
F 3 "../library_doc/D_BAV99.215.pdf" H 3978 1555 50  0001 L CNN
F 4 "C2500" H 3977 1509 50  0001 L CNN "LCSC"
	1    3900 1600
	-1   0    0    1   
$EndComp
Wire Wire Line
	5000 1600 4600 1600
$Comp
L Br:GND #PWR0109
U 1 1 5D9CF78E
P 3900 1950
F 0 "#PWR0109" H 3900 1700 50  0001 C CNN
F 1 "GND" H 3905 1777 50  0000 C CNN
F 2 "" H 3900 1950 50  0000 C CNN
F 3 "" H 3900 1950 50  0000 C CNN
	1    3900 1950
	1    0    0    -1  
$EndComp
Wire Wire Line
	3900 1950 3900 1900
$Comp
L Br:3V3 #PWR0110
U 1 1 5D9D1287
P 3900 1200
F 0 "#PWR0110" H 3900 1050 50  0001 C CNN
F 1 "3V3" H 3915 1373 50  0000 C CNN
F 2 "" H 3900 1200 50  0000 C CNN
F 3 "" H 3900 1200 50  0000 C CNN
	1    3900 1200
	1    0    0    -1  
$EndComp
Wire Wire Line
	3900 1200 3900 1300
Text Notes 4300 1000 0    50   ~ 0
UART protection
$Comp
L Br:3V3 #PWR0112
U 1 1 5D9D2D75
P 3150 1150
F 0 "#PWR0112" H 3150 1000 50  0001 C CNN
F 1 "3V3" H 3165 1323 50  0000 C CNN
F 2 "" H 3150 1150 50  0000 C CNN
F 3 "" H 3150 1150 50  0000 C CNN
	1    3150 1150
	1    0    0    -1  
$EndComp
Text Notes 1650 800  0    50   ~ 0
Power regulator
$Comp
L Br:GND #PWR0113
U 1 1 5D9D4876
P 1350 5400
F 0 "#PWR0113" H 1350 5150 50  0001 C CNN
F 1 "GND" H 1355 5227 50  0000 C CNN
F 2 "" H 1350 5400 50  0000 C CNN
F 3 "" H 1350 5400 50  0000 C CNN
	1    1350 5400
	-1   0    0    -1  
$EndComp
Wire Wire Line
	1900 4300 2300 4300
Text Label 1900 4500 0    50   ~ 0
SWIM
Text Label 1900 4600 0    50   ~ 0
NRST
Wire Wire Line
	1900 4500 2300 4500
Text Label 950  6500 0    50   ~ 0
SWIM
Text Label 950  6300 0    50   ~ 0
NRST
$Comp
L Br:3V3 #PWR0114
U 1 1 5D9D7743
P 1800 5000
F 0 "#PWR0114" H 1800 4850 50  0001 C CNN
F 1 "3V3" V 1815 5128 50  0000 L CNN
F 2 "" H 1800 5000 50  0000 C CNN
F 3 "" H 1800 5000 50  0000 C CNN
	1    1800 5000
	0    -1   -1   0   
$EndComp
Wire Wire Line
	1350 4900 2300 4900
$Comp
L Br:GND #PWR0115
U 1 1 5D9D82DF
P 950 6400
F 0 "#PWR0115" H 950 6150 50  0001 C CNN
F 1 "GND" H 955 6227 50  0000 C CNN
F 2 "" H 950 6400 50  0000 C CNN
F 3 "" H 950 6400 50  0000 C CNN
	1    950  6400
	0    1    -1   0   
$EndComp
$Comp
L Br:3V3 #PWR0116
U 1 1 5D9D8302
P 1000 6600
F 0 "#PWR0116" H 1000 6450 50  0001 C CNN
F 1 "3V3" V 1015 6728 50  0000 L CNN
F 2 "" H 1000 6600 50  0000 C CNN
F 3 "" H 1000 6600 50  0000 C CNN
	1    1000 6600
	0    -1   -1   0   
$EndComp
$Comp
L Br:CN_P_01x04_1.27MM_STRAIGHT_ZL319-4P J2
U 1 1 5D9D92B3
P 1350 6450
F 0 "J2" H 1428 6455 50  0000 L CNN
F 1 "CN_P_01x04_1.27MM_STRAIGHT_ZL319-4P" H 1427 6410 50  0001 L CNN
F 2 "Br:CN_P_01x04_1.27MM_STRAIGHT_ZL319-4P" H 1300 6500 50  0001 C CNN
F 3 "" H 1300 6500 50  0001 C CNN
	1    1350 6450
	1    0    0    -1  
$EndComp
Wire Wire Line
	950  6300 1200 6300
Wire Wire Line
	950  6400 1200 6400
Wire Wire Line
	950  6500 1200 6500
Wire Wire Line
	1000 6600 1200 6600
Wire Wire Line
	1900 5050 1900 5000
Wire Wire Line
	1900 5000 1800 5000
Wire Wire Line
	2300 5000 1900 5000
Connection ~ 1900 5000
$Comp
L Br:GND #PWR0117
U 1 1 5D9DFBBB
P 1900 5400
F 0 "#PWR0117" H 1900 5150 50  0001 C CNN
F 1 "GND" H 1905 5227 50  0000 C CNN
F 2 "" H 1900 5400 50  0000 C CNN
F 3 "" H 1900 5400 50  0000 C CNN
	1    1900 5400
	-1   0    0    -1  
$EndComp
Wire Wire Line
	1900 5400 1900 5350
Wire Wire Line
	1350 4900 1350 5400
Wire Wire Line
	900  4600 2300 4600
$Comp
L Br:GND #PWR0118
U 1 1 5D9E54AE
P 900 5400
F 0 "#PWR0118" H 900 5150 50  0001 C CNN
F 1 "GND" H 905 5227 50  0000 C CNN
F 2 "" H 900 5400 50  0000 C CNN
F 3 "" H 900 5400 50  0000 C CNN
	1    900  5400
	-1   0    0    -1  
$EndComp
Wire Wire Line
	900  4600 900  5050
Wire Wire Line
	900  5350 900  5400
$Comp
L Br:GND #PWR0119
U 1 1 5D9EADC4
P 1800 2150
F 0 "#PWR0119" H 1800 1900 50  0001 C CNN
F 1 "GND" H 1805 1977 50  0000 C CNN
F 2 "" H 1800 2150 50  0000 C CNN
F 3 "" H 1800 2150 50  0000 C CNN
	1    1800 2150
	-1   0    0    -1  
$EndComp
Wire Wire Line
	1800 2150 1800 2000
Wire Wire Line
	1450 1600 1800 1600
Wire Wire Line
	1800 1600 1800 1700
$Comp
L Br:ICP_HT7533-1 U2
U 1 1 5D9C8DBA
P 2500 1600
F 0 "U2" H 2525 1956 50  0000 C CNN
F 1 "ICP_HT7533-1" H 2525 1865 50  0000 C CNN
F 2 "Br:SOT-89-3" H 2500 1600 50  0001 C CNN
F 3 "" H 2500 1600 50  0001 C CNN
F 4 "C14289" H 2525 1774 50  0001 C CNN "LCSC"
	1    2500 1600
	1    0    0    -1  
$EndComp
Wire Wire Line
	2900 1600 3150 1600
Wire Wire Line
	3150 1600 3150 1700
Wire Wire Line
	3150 1600 3150 1150
Connection ~ 3150 1600
$Comp
L Br:GND #PWR0120
U 1 1 5D9CB24A
P 2500 2150
F 0 "#PWR0120" H 2500 1900 50  0001 C CNN
F 1 "GND" H 2505 1977 50  0000 C CNN
F 2 "" H 2500 2150 50  0000 C CNN
F 3 "" H 2500 2150 50  0000 C CNN
	1    2500 2150
	-1   0    0    -1  
$EndComp
Wire Wire Line
	2500 2150 2500 1900
Wire Wire Line
	2150 1600 1800 1600
Connection ~ 1800 1600
$Comp
L Br:GND #PWR0121
U 1 1 5D9CD6CE
P 3150 2150
F 0 "#PWR0121" H 3150 1900 50  0001 C CNN
F 1 "GND" H 3155 1977 50  0000 C CNN
F 2 "" H 3150 2150 50  0000 C CNN
F 3 "" H 3150 2150 50  0000 C CNN
	1    3150 2150
	-1   0    0    -1  
$EndComp
Wire Wire Line
	3150 2150 3150 2000
NoConn ~ 1400 1900
Wire Wire Line
	1800 1200 1800 1600
NoConn ~ 6150 4850
NoConn ~ 6150 4750
NoConn ~ 6150 4650
NoConn ~ 6150 4550
NoConn ~ 6150 4350
NoConn ~ 2300 5200
$Comp
L Br:12V #PWR0129
U 1 1 5D9E7FDB
P 5700 1250
F 0 "#PWR0129" H 5700 1100 50  0001 C CNN
F 1 "12V" H 5650 1450 50  0000 L CNN
F 2 "" H 5700 1250 50  0000 C CNN
F 3 "" H 5700 1250 50  0000 C CNN
	1    5700 1250
	1    0    0    -1  
$EndComp
$Comp
L Br:5V #PWR0130
U 1 1 5D9E801C
P 5900 1250
F 0 "#PWR0130" H 5900 1100 50  0001 C CNN
F 1 "5V" H 5850 1450 50  0000 L CNN
F 2 "" H 5900 1250 50  0000 C CNN
F 3 "" H 5900 1250 50  0000 C CNN
	1    5900 1250
	1    0    0    -1  
$EndComp
$Comp
L Br:GND #PWR0131
U 1 1 5D9E816B
P 5500 1400
F 0 "#PWR0131" H 5500 1150 50  0001 C CNN
F 1 "GND" H 5505 1227 50  0000 C CNN
F 2 "" H 5500 1400 50  0000 C CNN
F 3 "" H 5500 1400 50  0000 C CNN
	1    5500 1400
	-1   0    0    -1  
$EndComp
$Comp
L Br:PWR #FLG0101
U 1 1 5D9E856C
P 5500 1250
F 0 "#FLG0101" H 5500 1345 50  0001 C CNN
F 1 "PWR" H 5500 1474 50  0000 C CNN
F 2 "" H 5500 1250 50  0000 C CNN
F 3 "" H 5500 1250 50  0000 C CNN
	1    5500 1250
	1    0    0    -1  
$EndComp
$Comp
L Br:PWR #FLG0102
U 1 1 5D9E85C4
P 5700 1400
F 0 "#FLG0102" H 5700 1495 50  0001 C CNN
F 1 "PWR" H 5700 1623 50  0000 C CNN
F 2 "" H 5700 1400 50  0000 C CNN
F 3 "" H 5700 1400 50  0000 C CNN
	1    5700 1400
	-1   0    0    1   
$EndComp
$Comp
L Br:PWR #FLG0103
U 1 1 5D9E8649
P 5900 1400
F 0 "#FLG0103" H 5900 1495 50  0001 C CNN
F 1 "PWR" H 5900 1623 50  0000 C CNN
F 2 "" H 5900 1400 50  0000 C CNN
F 3 "" H 5900 1400 50  0000 C CNN
	1    5900 1400
	-1   0    0    1   
$EndComp
Wire Wire Line
	5900 1400 5900 1250
Wire Wire Line
	5700 1400 5700 1250
Wire Wire Line
	5500 1400 5500 1250
Text Label 1800 1400 1    50   ~ 0
5V_In
Wire Wire Line
	3950 1600 4300 1600
Text Label 1950 4300 0    50   ~ 0
CPU_TX
Text Label 4000 1600 0    50   ~ 0
CPU_TX
Text Label 6100 1250 1    50   ~ 0
5V_In
$Comp
L Br:PWR #FLG0104
U 1 1 5DA0B14B
P 6100 1400
F 0 "#FLG0104" H 6100 1495 50  0001 C CNN
F 1 "PWR" H 6100 1623 50  0000 C CNN
F 2 "" H 6100 1400 50  0000 C CNN
F 3 "" H 6100 1400 50  0000 C CNN
	1    6100 1400
	-1   0    0    1   
$EndComp
Wire Wire Line
	6100 1400 6100 1050
NoConn ~ 2300 4400
Text Label 1900 4700 0    50   ~ 0
HSE_IN
Text Label 1900 4800 0    50   ~ 0
HSE_OUT
Wire Wire Line
	1900 4700 2300 4700
Wire Wire Line
	1900 4800 2300 4800
Text Label 2100 6600 0    50   ~ 0
HSE_IN
Text Label 2750 6600 0    50   ~ 0
HSE_OUT
$Comp
L Br:CR_16MHZ_10PPM_X322516MLB4SI X1
U 1 1 5DCD4D2D
P 2550 6600
F 0 "X1" H 2550 6781 60  0000 C CNN
F 1 "CR_16MHZ_10PPM_X322516MLB4SI" H 2550 6872 60  0001 C CNN
F 2 "Br:CR_16MHZ_X322516MLB4SI" H 2550 6600 60  0001 C CNN
F 3 "" H 2550 6600 60  0001 C CNN
F 4 "C13738" H 2550 6774 50  0001 C CNN "LCSC"
	1    2550 6600
	1    0    0    -1  
$EndComp
Wire Wire Line
	2700 6600 3100 6600
$Comp
L Br:GND #PWR0101
U 1 1 5DCD68C4
P 2650 7050
F 0 "#PWR0101" H 2650 6800 50  0001 C CNN
F 1 "GND" H 2655 6877 50  0000 C CNN
F 2 "" H 2650 7050 50  0000 C CNN
F 3 "" H 2650 7050 50  0000 C CNN
	1    2650 7050
	-1   0    0    -1  
$EndComp
$Comp
L Br:C_4P7_0402_50V C5
U 1 1 5DCDA179
P 2050 6850
F 0 "C5" H 2165 6896 50  0000 L CNN
F 1 "4.7pF" H 2165 6805 50  0000 L CNN
F 2 "Br:C_0402" V 1980 6850 50  0001 C CNN
F 3 "" V 2150 6750 50  0000 C CNN
F 4 " C1569" H 2165 6759 50  0001 L CNN "LCSC"
	1    2050 6850
	1    0    0    -1  
$EndComp
Wire Wire Line
	2050 6700 2050 6600
Wire Wire Line
	2050 6600 2400 6600
$Comp
L Br:GND #PWR0102
U 1 1 5DCDB131
P 2050 7050
F 0 "#PWR0102" H 2050 6800 50  0001 C CNN
F 1 "GND" H 2055 6877 50  0000 C CNN
F 2 "" H 2050 7050 50  0000 C CNN
F 3 "" H 2050 7050 50  0000 C CNN
	1    2050 7050
	-1   0    0    -1  
$EndComp
Wire Wire Line
	2050 7050 2050 7000
Wire Wire Line
	2650 6750 2650 7050
$Comp
L Br:C_4P7_0402_50V C6
U 1 1 5DCDCFAE
P 3100 6850
F 0 "C6" H 3215 6896 50  0000 L CNN
F 1 "4.7pF" H 3215 6805 50  0000 L CNN
F 2 "Br:C_0402" V 3030 6850 50  0001 C CNN
F 3 "" V 3200 6750 50  0000 C CNN
F 4 " C1569" H 3215 6759 50  0001 L CNN "LCSC"
	1    3100 6850
	1    0    0    -1  
$EndComp
$Comp
L Br:GND #PWR0103
U 1 1 5DCDEDC3
P 3100 7050
F 0 "#PWR0103" H 3100 6800 50  0001 C CNN
F 1 "GND" H 3105 6877 50  0000 C CNN
F 2 "" H 3100 7050 50  0000 C CNN
F 3 "" H 3100 7050 50  0000 C CNN
	1    3100 7050
	-1   0    0    -1  
$EndComp
Wire Wire Line
	3100 7050 3100 7000
Wire Wire Line
	3100 6700 3100 6600
$Comp
L Br:C_100N_0402_16V C1
U 1 1 5DCCDFE7
P 900 5200
F 0 "C1" H 1015 5246 50  0000 L CNN
F 1 "100nF" H 1015 5155 50  0000 L CNN
F 2 "Br:C_0402" V 830 5200 50  0001 C CNN
F 3 "" V 1000 5100 50  0000 C CNN
F 4 "C1525" H 1015 5109 50  0001 L CNN "LCSC"
	1    900  5200
	1    0    0    -1  
$EndComp
$Comp
L Br:C_100N_0402_16V C2
U 1 1 5DCCE0C4
P 1900 5200
F 0 "C2" H 2015 5246 50  0000 L CNN
F 1 "100nF" H 2015 5155 50  0000 L CNN
F 2 "Br:C_0402" V 1830 5200 50  0001 C CNN
F 3 "" V 2000 5100 50  0000 C CNN
F 4 "C1525" H 2015 5109 50  0001 L CNN "LCSC"
	1    1900 5200
	1    0    0    -1  
$EndComp
$Comp
L Br:D_SCHOTTKY_SS54 D2
U 1 1 5DCCE7A5
P 9100 1150
F 0 "D2" H 9100 1027 50  0000 C CNN
F 1 "D_SCHOTTKY_SS54" H 9100 1026 50  0001 C CNN
F 2 "Br:DO214AC" H 9100 1150 50  0001 C CNN
F 3 "" H 9100 1250 50  0000 C CNN
F 4 "C22452" H 9100 1027 50  0001 C CNN "LCSC"
	1    9100 1150
	-1   0    0    1   
$EndComp
$Comp
L Br:D_SCHOTTKY_SS54 D4
U 1 1 5DCD1E97
P 9500 1150
F 0 "D4" H 9500 1027 50  0000 C CNN
F 1 "D_SCHOTTKY_SS54" H 9500 1026 50  0001 C CNN
F 2 "Br:DO214AC" H 9500 1150 50  0001 C CNN
F 3 "" H 9500 1250 50  0000 C CNN
F 4 "C22452" H 9500 1027 50  0001 C CNN "LCSC"
	1    9500 1150
	-1   0    0    1   
$EndComp
$Comp
L Br:D_SCHOTTKY_SS54 D5
U 1 1 5DCD1ED7
P 9950 1150
F 0 "D5" H 9950 1027 50  0000 C CNN
F 1 "D_SCHOTTKY_SS54" H 9950 1026 50  0001 C CNN
F 2 "Br:DO214AC" H 9950 1150 50  0001 C CNN
F 3 "" H 9950 1250 50  0000 C CNN
F 4 "C22452" H 9950 1027 50  0001 C CNN "LCSC"
	1    9950 1150
	-1   0    0    1   
$EndComp
Wire Wire Line
	9800 1150 9650 1150
Wire Wire Line
	9350 1150 9300 1150
Text Notes 7150 2400 1    50   ~ 0
Input voltage 4.8 to 6.0V\n
$Comp
L Br:TR_NMOS_5.7A_30V_AO3400A Q2
U 1 1 5DCD65D7
P 9450 5550
F 0 "Q2" H 9685 5550 50  0000 L CNN
F 1 "TR_NMOS_5.7A_30V_AO3400A" H 9685 5505 50  0001 L CNN
F 2 "Br:SOT23" H 9650 5650 50  0001 C CNN
F 3 "" H 9750 5600 50  0000 C CNN
F 4 "C20917" H 9685 5459 50  0001 L CNN "LCSC"
	1    9450 5550
	1    0    0    -1  
$EndComp
$Comp
L Br:TR_PMOS_3.1A_20V_SI2301CDS-T1-GE3 Q1
U 1 1 5DCCCF15
P 9700 1550
F 0 "Q1" V 9600 1350 50  0000 C CNN
F 1 "TR_PMOS_3.1A_20V_SI2301CDS-T1-GE3" V 9982 1550 50  0001 C CNN
F 2 "Br:SOT23" H 9900 1650 50  0001 C CNN
F 3 "" H 9700 1550 50  0000 C CNN
F 4 "C10487" V 9982 1550 50  0001 C CNN "LCSC"
	1    9700 1550
	0    -1   -1   0   
$EndComp
Wire Wire Line
	9500 1450 9300 1450
Wire Wire Line
	9300 1450 9300 1150
Connection ~ 9300 1150
Wire Wire Line
	9300 1150 9250 1150
Wire Wire Line
	9900 1450 10150 1450
Wire Wire Line
	10150 1450 10150 1150
Wire Wire Line
	10150 1150 10100 1150
$Comp
L Br:R_1K_0402_1% R9
U 1 1 5DCDF09D
P 4450 1600
F 0 "R9" V 4350 1600 50  0000 C CNN
F 1 "1k" V 4450 1600 50  0000 C CNN
F 2 "Br:R_0402" V 4380 1600 50  0001 C CNN
F 3 "" H 4450 1600 50  0000 C CNN
F 4 "C11702" V 4335 1600 50  0001 C CNN "LCSC"
	1    4450 1600
	0    1    1    0   
$EndComp
$Comp
L Br:R_100K_0402_1%_0 R8
U 1 1 5DCE16B5
P 9100 5850
F 0 "R8" H 9170 5896 50  0000 L CNN
F 1 "100k" V 9100 5750 50  0000 L CNN
F 2 "Br:R_0402" V 9030 5850 50  0001 C CNN
F 3 "" H 9100 5850 50  0000 C CNN
F 4 "C25741" H 9170 5759 50  0001 L CNN "LCSC"
	1    9100 5850
	1    0    0    -1  
$EndComp
Wire Wire Line
	9100 5700 9100 5550
Wire Wire Line
	9100 5550 9250 5550
$Comp
L Br:GND #PWR0104
U 1 1 5DCE2F9E
P 9550 6100
F 0 "#PWR0104" H 9550 5850 50  0001 C CNN
F 1 "GND" H 9555 5927 50  0000 C CNN
F 2 "" H 9550 6100 50  0000 C CNN
F 3 "" H 9550 6100 50  0000 C CNN
	1    9550 6100
	-1   0    0    -1  
$EndComp
Wire Wire Line
	9550 6100 9550 5750
$Comp
L Br:GND #PWR0105
U 1 1 5DCE479E
P 9100 6100
F 0 "#PWR0105" H 9100 5850 50  0001 C CNN
F 1 "GND" H 9105 5927 50  0000 C CNN
F 2 "" H 9100 6100 50  0000 C CNN
F 3 "" H 9100 6100 50  0000 C CNN
	1    9100 6100
	-1   0    0    -1  
$EndComp
Wire Wire Line
	9100 6100 9100 6000
Wire Wire Line
	9100 5550 8850 5550
Connection ~ 9100 5550
Text Label 8850 5550 0    50   ~ 0
POW_EN
Text Label 6200 5150 0    50   ~ 0
POW_EN
$Comp
L Br:R_100K_0402_1%_0 R3
U 1 1 5DCEAD2B
P 9300 1700
F 0 "R3" H 9370 1746 50  0000 L CNN
F 1 "100k" V 9300 1600 50  0000 L CNN
F 2 "Br:R_0402" V 9230 1700 50  0001 C CNN
F 3 "" H 9300 1700 50  0000 C CNN
F 4 "C25741" H 9370 1609 50  0001 L CNN "LCSC"
	1    9300 1700
	1    0    0    -1  
$EndComp
Wire Wire Line
	9700 1750 9700 1950
Wire Wire Line
	9700 1950 9300 1950
Wire Wire Line
	9300 1950 9300 1850
Wire Wire Line
	9300 1550 9300 1450
Connection ~ 9300 1450
Text Label 9300 2450 1    50   ~ 0
VOLT_INCREASE
Text Label 6200 4450 0    50   ~ 0
VOLT_INCREASE
Wire Wire Line
	5250 3050 5250 2950
Wire Wire Line
	5250 3450 5250 3350
Text Label 6200 4950 0    50   ~ 0
VBAT_MEAS
$Comp
L Br:R_100K_0402_1%_0 R4
U 1 1 5DD0348A
P 10400 1700
F 0 "R4" H 10470 1746 50  0000 L CNN
F 1 "100k" V 10400 1600 50  0000 L CNN
F 2 "Br:R_0402" V 10330 1700 50  0001 C CNN
F 3 "" H 10400 1700 50  0000 C CNN
F 4 "C25741" H 10470 1609 50  0001 L CNN "LCSC"
	1    10400 1700
	1    0    0    -1  
$EndComp
$Comp
L Br:R_100K_0402_1%_0 R5
U 1 1 5DD03491
P 10400 2150
F 0 "R5" H 10470 2196 50  0000 L CNN
F 1 "100k" V 10400 2050 50  0000 L CNN
F 2 "Br:R_0402" V 10330 2150 50  0001 C CNN
F 3 "" H 10400 2150 50  0000 C CNN
F 4 "C25741" H 10470 2059 50  0001 L CNN "LCSC"
	1    10400 2150
	1    0    0    -1  
$EndComp
$Comp
L Br:GND #PWR0111
U 1 1 5DD03498
P 10400 2400
F 0 "#PWR0111" H 10400 2150 50  0001 C CNN
F 1 "GND" H 10405 2227 50  0000 C CNN
F 2 "" H 10400 2400 50  0000 C CNN
F 3 "" H 10400 2400 50  0000 C CNN
	1    10400 2400
	-1   0    0    -1  
$EndComp
Wire Wire Line
	10400 2400 10400 2300
Wire Wire Line
	10650 2000 10650 1900
Wire Wire Line
	10650 1900 10400 1900
$Comp
L Br:GND #PWR0122
U 1 1 5DD034AA
P 10650 2400
F 0 "#PWR0122" H 10650 2150 50  0001 C CNN
F 1 "GND" H 10655 2227 50  0000 C CNN
F 2 "" H 10650 2400 50  0000 C CNN
F 3 "" H 10650 2400 50  0000 C CNN
	1    10650 2400
	-1   0    0    -1  
$EndComp
Wire Wire Line
	10650 2400 10650 2300
Text Label 10450 1900 0    50   ~ 0
VOUT_MEAS
Connection ~ 10150 1150
$Comp
L Br:C_100N_0402_16V C4
U 1 1 5DD0EC7B
P 10650 2150
F 0 "C4" H 10765 2196 50  0000 L CNN
F 1 "100nF" H 10765 2105 50  0000 L CNN
F 2 "Br:C_0402" V 10580 2150 50  0001 C CNN
F 3 "" V 10750 2050 50  0000 C CNN
F 4 "C1525" H 10765 2059 50  0001 L CNN "LCSC"
	1    10650 2150
	1    0    0    -1  
$EndComp
Text Label 10550 1150 0    50   ~ 0
VOUT
Text Label 9700 4950 0    50   ~ 0
VOUT
Wire Wire Line
	9700 4950 10000 4950
NoConn ~ 10150 4450
NoConn ~ 10150 4350
NoConn ~ 10150 4250
$Comp
L Br:C_10U_0805_10%_25V C7
U 1 1 5DD20765
P 1800 1850
F 0 "C7" H 1915 1896 50  0000 L CNN
F 1 "10uF" H 1915 1805 50  0000 L CNN
F 2 "Br:C_0805" V 1730 1850 50  0001 C CNN
F 3 "" V 1900 1750 50  0000 C CNN
F 4 "C15850" H 1915 1759 50  0001 L CNN "LCSC"
	1    1800 1850
	1    0    0    -1  
$EndComp
$Comp
L Br:C_10U_0805_10%_25V C8
U 1 1 5DD208A7
P 3150 1850
F 0 "C8" H 3265 1896 50  0000 L CNN
F 1 "10uF" H 3265 1805 50  0000 L CNN
F 2 "Br:C_0805" V 3080 1850 50  0001 C CNN
F 3 "" V 3250 1750 50  0000 C CNN
F 4 "C15850" H 3265 1759 50  0001 L CNN "LCSC"
	1    3150 1850
	1    0    0    -1  
$EndComp
Text Label 6200 5050 0    50   ~ 0
VOUT_MEAS
Text Label 7900 3400 0    50   ~ 0
VOUT
$Comp
L Br:C_10U_0805_10%_25V C9
U 1 1 5DD20E82
P 9000 4050
F 0 "C9" H 9115 4096 50  0000 L CNN
F 1 "10uF" H 9115 4005 50  0000 L CNN
F 2 "Br:C_0805" V 8930 4050 50  0001 C CNN
F 3 "" V 9100 3950 50  0000 C CNN
F 4 "C15850" H 9115 3959 50  0001 L CNN "LCSC"
	1    9000 4050
	1    0    0    -1  
$EndComp
Wire Wire Line
	9550 4550 9400 4550
Connection ~ 9550 4550
Wire Wire Line
	9000 4200 9000 4550
Wire Wire Line
	9000 3900 9000 3400
Wire Wire Line
	9000 3400 8600 3400
$Comp
L Br:C_10U_0805_10%_25V C10
U 1 1 5DD28CDA
P 9400 4050
F 0 "C10" H 9515 4096 50  0000 L CNN
F 1 "10uF" H 9515 4005 50  0000 L CNN
F 2 "Br:C_0805" V 9330 4050 50  0001 C CNN
F 3 "" V 9500 3950 50  0000 C CNN
F 4 "C15850" H 9515 3959 50  0001 L CNN "LCSC"
	1    9400 4050
	1    0    0    -1  
$EndComp
Wire Wire Line
	9400 4200 9400 4550
Connection ~ 9400 4550
Wire Wire Line
	9400 4550 9000 4550
Wire Wire Line
	9400 3900 9400 3400
Wire Wire Line
	9400 3400 9000 3400
Connection ~ 9000 3400
$Comp
L Br:R_300R_0402_1% R7
U 1 1 5DD315F5
P 8600 4300
F 0 "R7" H 8670 4346 50  0000 L CNN
F 1 "300R" V 8600 4200 50  0000 L CNN
F 2 "Br:R_0402" V 8530 4300 50  0001 C CNN
F 3 "" H 8600 4300 50  0000 C CNN
F 4 "C25102" H 8670 4209 50  0001 L CNN "LCSC"
	1    8600 4300
	1    0    0    -1  
$EndComp
Wire Wire Line
	9000 4550 8600 4550
Wire Wire Line
	8600 4550 8600 4450
Connection ~ 9000 4550
$Comp
L Br:ICD_STM8L051F3P6 U1
U 1 1 5D9D4765
P 4700 4300
F 0 "U1" H 4225 4587 60  0000 C CNN
F 1 "ICD_STM8L051F3P6" H 4225 4481 60  0000 C CNN
F 2 "Br:TSSOP20" H 2300 4400 60  0001 C CNN
F 3 "" H 2300 4400 60  0000 C CNN
F 4 "C18088" H 4225 4473 50  0001 C CNN "LCSC"
	1    4700 4300
	1    0    0    -1  
$EndComp
Text Label 6200 5250 0    50   ~ 0
LED_RED
$Comp
L Br:R_300R_0402_1% R6
U 1 1 5DD34B18
P 8150 4200
F 0 "R6" H 8220 4246 50  0000 L CNN
F 1 "300R" V 8150 4100 50  0000 L CNN
F 2 "Br:R_0402" V 8080 4200 50  0001 C CNN
F 3 "" H 8150 4200 50  0000 C CNN
F 4 "C25102" H 8220 4109 50  0001 L CNN "LCSC"
	1    8150 4200
	1    0    0    -1  
$EndComp
Text Label 7700 4650 2    50   ~ 0
LED_RED
$Comp
L Br:GND #PWR0124
U 1 1 5DD34CCA
P 8150 5150
F 0 "#PWR0124" H 8150 4900 50  0001 C CNN
F 1 "GND" H 8155 4977 50  0000 C CNN
F 2 "" H 8150 5150 50  0000 C CNN
F 3 "" H 8150 5150 50  0000 C CNN
	1    8150 5150
	-1   0    0    -1  
$EndComp
Wire Wire Line
	8150 4450 8150 4350
Wire Wire Line
	8600 3650 8600 3400
Connection ~ 8600 3400
Wire Wire Line
	8600 4000 8600 4150
Text Notes 8450 4000 1    50   ~ 0
Green LED\n
Wire Wire Line
	8150 4000 8150 4050
$Comp
L Br:CN_P_01x02_2.54MM_HEADER J1
U 1 1 5DD5889A
P 7150 1250
F 0 "J1" H 7119 1119 60  0000 C CNN
F 1 "CN_P_01x02_2.54MM_HEADER" H 7119 1119 60  0001 C CNN
F 2 "Br:CN_P_01x02_2.54MM_HEADER" H 7200 950 60  0001 C CNN
F 3 "" H 7200 950 60  0001 C CNN
	1    7150 1250
	-1   0    0    1   
$EndComp
Connection ~ 10400 1900
Wire Wire Line
	10400 1900 10400 1850
Wire Wire Line
	10400 2000 10400 1900
$Comp
L Br:GND #PWR0125
U 1 1 5DD724B4
P 7500 2500
F 0 "#PWR0125" H 7500 2250 50  0001 C CNN
F 1 "GND" H 7505 2327 50  0000 C CNN
F 2 "" H 7500 2500 50  0000 C CNN
F 3 "" H 7500 2500 50  0000 C CNN
	1    7500 2500
	-1   0    0    -1  
$EndComp
Wire Wire Line
	7500 2500 7500 1350
Wire Wire Line
	7500 1350 7350 1350
$Comp
L Br:D_LED_RED_THT_3MM_generic D7
U 1 1 5DCE441F
P 8600 3800
F 0 "D7" H 8700 3650 50  0000 L CNN
F 1 "D_LED_RED_THT_3MM_generic" H 8748 3730 50  0001 L CNN
F 2 "Br:LED_THT_3MM_PCB_SIDE" H 8600 3800 50  0001 C CNN
F 3 "" H 8600 3800 50  0001 C CNN
	1    8600 3800
	1    0    0    -1  
$EndComp
$Comp
L Br:D_LED_RED_THT_3MM_generic D6
U 1 1 5DCE4541
P 8150 3800
F 0 "D6" H 8200 3650 50  0000 L CNN
F 1 "D_LED_RED_THT_3MM_generic" H 8298 3730 50  0001 L CNN
F 2 "Br:LED_THT_3MM_PCB_SIDE" H 8150 3800 50  0001 C CNN
F 3 "" H 8150 3800 50  0001 C CNN
	1    8150 3800
	1    0    0    -1  
$EndComp
Text Notes 8000 4000 1    50   ~ 0
Red LED\n
Wire Wire Line
	8150 3650 8150 3400
Wire Wire Line
	8150 3400 8600 3400
Wire Wire Line
	8150 3400 7900 3400
Connection ~ 8150 3400
$Comp
L Br:TR_NMOS_0.36A_60V_2N7002P Q3
U 1 1 5DD5BA3B
P 8050 4650
F 0 "Q3" H 8285 4650 50  0000 L CNN
F 1 "TR_NMOS_0.36A_60V_2N7002P" H 8285 4605 50  0001 L CNN
F 2 "Br:SOT23" H 8250 4750 50  0001 C CNN
F 3 "" H 8350 4700 50  0000 C CNN
F 4 "C8545" H 8285 4559 50  0001 L CNN "LCSC"
	1    8050 4650
	1    0    0    -1  
$EndComp
$Comp
L Br:R_100K_0402_1%_0 R10
U 1 1 5DD5EBCB
P 7750 4900
F 0 "R10" H 7820 4946 50  0000 L CNN
F 1 "100k" V 7750 4800 50  0000 L CNN
F 2 "Br:R_0402" V 7680 4900 50  0001 C CNN
F 3 "" H 7750 4900 50  0000 C CNN
F 4 "C25741" H 7820 4809 50  0001 L CNN "LCSC"
	1    7750 4900
	1    0    0    -1  
$EndComp
Wire Wire Line
	8150 4850 8150 5100
Wire Wire Line
	7750 5050 7750 5100
Wire Wire Line
	7750 5100 8150 5100
Connection ~ 8150 5100
Wire Wire Line
	8150 5100 8150 5150
Wire Wire Line
	7750 4750 7750 4650
Wire Wire Line
	7750 4650 7850 4650
Connection ~ 7750 4650
Wire Wire Line
	7400 4650 7750 4650
Wire Notes Line
	6900 1000 6900 6700
Text Notes 7100 1000 0    50   ~ 0
PCB_right\n
Text Notes 6300 950  0    50   ~ 0
PCB_left
Wire Wire Line
	9300 1950 9300 2450
Connection ~ 9300 1950
Text Notes 6650 5250 0    50   ~ 0
Board interconnect
$Comp
L Br:5V #PWR0123
U 1 1 5DD0F0FA
P 5000 2500
F 0 "#PWR0123" H 5000 2350 50  0001 C CNN
F 1 "5V" V 5015 2628 50  0000 L CNN
F 2 "" H 5000 2500 50  0000 C CNN
F 3 "" H 5000 2500 50  0000 C CNN
	1    5000 2500
	1    0    0    -1  
$EndComp
$Comp
L Br:C_100N_0402_16V C3
U 1 1 5DD0EB09
P 5250 3200
F 0 "C3" H 5365 3246 50  0000 L CNN
F 1 "100nF" H 5365 3155 50  0000 L CNN
F 2 "Br:C_0402" V 5180 3200 50  0001 C CNN
F 3 "" V 5350 3100 50  0000 C CNN
F 4 "C1525" H 5365 3109 50  0001 L CNN "LCSC"
	1    5250 3200
	1    0    0    -1  
$EndComp
Text Label 5050 2950 0    50   ~ 0
VBAT_MEAS
$Comp
L Br:GND #PWR0108
U 1 1 5DD0089F
P 5250 3450
F 0 "#PWR0108" H 5250 3200 50  0001 C CNN
F 1 "GND" H 5255 3277 50  0000 C CNN
F 2 "" H 5250 3450 50  0000 C CNN
F 3 "" H 5250 3450 50  0000 C CNN
	1    5250 3450
	-1   0    0    -1  
$EndComp
Wire Wire Line
	5000 2950 5000 2900
Wire Wire Line
	5250 2950 5000 2950
Wire Wire Line
	5000 3450 5000 3350
$Comp
L Br:GND #PWR0106
U 1 1 5DCF9C6A
P 5000 3450
F 0 "#PWR0106" H 5000 3200 50  0001 C CNN
F 1 "GND" H 5005 3277 50  0000 C CNN
F 2 "" H 5000 3450 50  0000 C CNN
F 3 "" H 5000 3450 50  0000 C CNN
	1    5000 3450
	-1   0    0    -1  
$EndComp
Connection ~ 5000 2950
Wire Wire Line
	5000 3050 5000 2950
$Comp
L Br:R_100K_0402_1%_0 R2
U 1 1 5DCF7C8D
P 5000 3200
F 0 "R2" H 5070 3246 50  0000 L CNN
F 1 "100k" V 5000 3100 50  0000 L CNN
F 2 "Br:R_0402" V 4930 3200 50  0001 C CNN
F 3 "" H 5000 3200 50  0000 C CNN
F 4 "C25741" H 5070 3109 50  0001 L CNN "LCSC"
	1    5000 3200
	1    0    0    -1  
$EndComp
$Comp
L Br:R_100K_0402_1%_0 R1
U 1 1 5DCF2318
P 5000 2750
F 0 "R1" H 5070 2796 50  0000 L CNN
F 1 "100k" V 5000 2650 50  0000 L CNN
F 2 "Br:R_0402" V 4930 2750 50  0001 C CNN
F 3 "" H 5000 2750 50  0000 C CNN
F 4 "C25741" H 5070 2659 50  0001 L CNN "LCSC"
	1    5000 2750
	1    0    0    -1  
$EndComp
$Comp
L Br:5V #PWR0126
U 1 1 5DD98F85
P 8750 1050
F 0 "#PWR0126" H 8750 900 50  0001 C CNN
F 1 "5V" V 8765 1178 50  0000 L CNN
F 2 "" H 8750 1050 50  0000 C CNN
F 3 "" H 8750 1050 50  0000 C CNN
	1    8750 1050
	1    0    0    -1  
$EndComp
Wire Wire Line
	8950 1150 8750 1150
Wire Wire Line
	8750 1150 8750 1050
Wire Wire Line
	5000 2600 5000 2500
Wire Wire Line
	10400 1550 10400 1150
Wire Wire Line
	10150 1150 10400 1150
Wire Wire Line
	7350 1250 7700 1250
$Comp
L Br:M_SWITCH_5MS1S102AM6QE U3
U 1 1 5DDCEDDA
P 7900 1250
F 0 "U3" H 7925 1484 50  0000 C CNN
F 1 "M_SWITCH_5MS1S102AM6QE" H 7925 1484 50  0001 C CNN
F 2 "Br:M_SWITCH_5MS1S102AM6QE" H 7900 1250 50  0001 C CNN
F 3 "" H 7900 1250 50  0001 C CNN
	1    7900 1250
	1    0    0    -1  
$EndComp
Wire Wire Line
	8150 1150 8750 1150
Connection ~ 8750 1150
$Comp
L Br:GND #PWR0127
U 1 1 5DDD2C52
P 7900 2500
F 0 "#PWR0127" H 7900 2250 50  0001 C CNN
F 1 "GND" H 7905 2327 50  0000 C CNN
F 2 "" H 7900 2500 50  0000 C CNN
F 3 "" H 7900 2500 50  0000 C CNN
	1    7900 2500
	-1   0    0    -1  
$EndComp
Wire Wire Line
	7900 2500 7900 1500
Wire Wire Line
	6150 4450 6750 4450
$Comp
L Br:CN_P_01x08_2.54MM_HEADER J4
U 1 1 5DD4A356
P 6500 5900
F 0 "J4" H 6444 5419 60  0000 C CNN
F 1 "CN_P_01x08_2.54MM_HEADER" H 6444 5419 60  0001 C CNN
F 2 "Br:CN_P_01x08_2.54MM_HEADER" H 6550 5750 60  0001 C CNN
F 3 "" H 6550 5750 60  0001 C CNN
	1    6500 5900
	-1   0    0    1   
$EndComp
$Comp
L Br:CN_P_01x08_2.54MM_HEADER J5
U 1 1 5DD4A546
P 7450 5900
F 0 "J5" H 7393 5419 60  0000 C CNN
F 1 "CN_P_01x08_2.54MM_HEADER" H 7394 5419 60  0001 C CNN
F 2 "Br:CN_P_01x08_2.54MM_HEADER" H 7500 5750 60  0001 C CNN
F 3 "" H 7500 5750 60  0001 C CNN
	1    7450 5900
	1    0    0    1   
$EndComp
$Comp
L Br:GND #PWR0128
U 1 1 5DD4A692
P 6950 6350
F 0 "#PWR0128" H 6950 6100 50  0001 C CNN
F 1 "GND" H 6955 6177 50  0000 C CNN
F 2 "" H 6950 6350 50  0000 C CNN
F 3 "" H 6950 6350 50  0000 C CNN
	1    6950 6350
	-1   0    0    -1  
$EndComp
Wire Wire Line
	6700 6250 6950 6250
Wire Wire Line
	6950 6350 6950 6250
Connection ~ 6950 6250
Wire Wire Line
	6950 6250 7250 6250
$Comp
L Br:5V #PWR0132
U 1 1 5DD52092
P 6950 5500
F 0 "#PWR0132" H 6950 5350 50  0001 C CNN
F 1 "5V" V 6965 5628 50  0000 L CNN
F 2 "" H 6950 5500 50  0000 C CNN
F 3 "" H 6950 5500 50  0000 C CNN
	1    6950 5500
	1    0    0    -1  
$EndComp
Wire Wire Line
	6700 5550 6950 5550
Wire Wire Line
	6950 5500 6950 5550
Connection ~ 6950 5550
Wire Wire Line
	6950 5550 7250 5550
Text Label 6700 5650 0    50   ~ 0
VOLT_INCREASE
Text Label 7050 5850 2    50   ~ 0
LED_RED
Text Label 6750 5950 0    50   ~ 0
POW_EN
Text Label 7100 6150 2    50   ~ 0
UART_TX
Connection ~ 10400 1150
Wire Wire Line
	10400 1150 10850 1150
Text Label 6750 6050 0    50   ~ 0
VOUT_MEAS
Wire Wire Line
	6700 5650 7250 5650
Wire Wire Line
	6700 5850 7250 5850
Wire Wire Line
	6700 5950 7250 5950
Wire Wire Line
	6700 6050 7250 6050
Wire Wire Line
	6150 4950 6600 4950
Wire Wire Line
	6150 5050 6600 5050
Wire Wire Line
	6150 5150 6600 5150
Wire Wire Line
	6150 5250 6600 5250
NoConn ~ 2300 5100
NoConn ~ 8150 1350
Wire Wire Line
	6700 6150 7250 6150
NoConn ~ 7250 5750
NoConn ~ 6700 5750
$EndSCHEMATC
