EESchema Schematic File Version 4
LIBS:016_4x4_Programmer-cache
EELAYER 26 0
EELAYER END
$Descr A4 11693 8268
encoding utf-8
Sheet 1 1
Title ""
Date ""
Rev ""
Comp ""
Comment1 ""
Comment2 ""
Comment3 ""
Comment4 ""
$EndDescr
$Comp
L Br:Br_CN_IN J1
U 1 1 5D978D2E
P 1650 1800
F 0 "J1" H 1272 1747 60  0000 R CNN
F 1 "Br_CN_IN" H 1272 1853 60  0000 R CNN
F 2 "Br:Br_CN_IN" H 1525 1900 60  0001 C CNN
F 3 "" H 1525 1900 60  0001 C CNN
	1    1650 1800
	1    0    0    1   
$EndComp
$Comp
L Br:GND #PWR0101
U 1 1 5D979092
P 2300 2500
F 0 "#PWR0101" H 2300 2250 50  0001 C CNN
F 1 "GND" H 2305 2327 50  0000 C CNN
F 2 "" H 2300 2500 50  0000 C CNN
F 3 "" H 2300 2500 50  0000 C CNN
	1    2300 2500
	1    0    0    -1  
$EndComp
$Comp
L Br:5V #PWR0102
U 1 1 5D97912B
P 2000 2100
F 0 "#PWR0102" H 2000 1950 50  0001 C CNN
F 1 "5V" V 2015 2228 50  0000 L CNN
F 2 "" H 2000 2100 50  0000 C CNN
F 3 "" H 2000 2100 50  0000 C CNN
	1    2000 2100
	0    1    1    0   
$EndComp
Text Notes 3400 1200 0    50   ~ 0
Female\n
Text Notes 1400 1200 0    50   ~ 0
Male\n
Text Label 1850 1800 0    50   ~ 0
UART_RX
Wire Wire Line
	1750 2100 1900 2100
Wire Wire Line
	1750 2000 1900 2000
Wire Wire Line
	1900 2000 1900 2100
Connection ~ 1900 2100
Wire Wire Line
	1900 2100 2000 2100
Wire Wire Line
	1750 1600 2200 1600
Text Label 7500 1500 0    50   ~ 0
UART_RX
Text Label 10400 1500 0    50   ~ 0
UART_TX
$Comp
L Br:Br_CN_OUT J3
U 1 1 5D9C46C3
P 3650 1800
F 0 "J3" H 3827 1846 50  0000 L CNN
F 1 "Br_CN_OUT" H 3827 1755 50  0000 L CNN
F 2 "Br:Br_CN_OUT" H 3650 2350 50  0001 C CNN
F 3 "" H 3650 2350 50  0001 C CNN
	1    3650 1800
	1    0    0    -1  
$EndComp
$Comp
L Br:Hole3mm H1
U 1 1 5D9D377A
P 5600 6600
F 0 "H1" H 5677 6651 50  0000 L CNN
F 1 "Hole3mm" H 5677 6560 50  0000 L CNN
F 2 "Br:Hole3mm" H 5600 6600 50  0001 C CNN
F 3 "" H 5600 6600 50  0001 C CNN
	1    5600 6600
	1    0    0    -1  
$EndComp
$Comp
L Br:Hole3mm H3
U 1 1 5D9D37B0
P 6300 6600
F 0 "H3" H 6377 6651 50  0000 L CNN
F 1 "Hole3mm" H 6377 6560 50  0000 L CNN
F 2 "Br:Hole3mm" H 6300 6600 50  0001 C CNN
F 3 "" H 6300 6600 50  0001 C CNN
	1    6300 6600
	1    0    0    -1  
$EndComp
$Comp
L Br:Hole3mm H2
U 1 1 5D9D6260
P 5600 6850
F 0 "H2" H 5677 6901 50  0000 L CNN
F 1 "Hole3mm" H 5677 6810 50  0000 L CNN
F 2 "Br:Hole3mm" H 5600 6850 50  0001 C CNN
F 3 "" H 5600 6850 50  0001 C CNN
	1    5600 6850
	1    0    0    -1  
$EndComp
$Comp
L Br:Hole3mm H4
U 1 1 5D9D6266
P 6300 6850
F 0 "H4" H 6377 6901 50  0000 L CNN
F 1 "Hole3mm" H 6377 6810 50  0000 L CNN
F 2 "Br:Hole3mm" H 6300 6850 50  0001 C CNN
F 3 "" H 6300 6850 50  0001 C CNN
	1    6300 6850
	1    0    0    -1  
$EndComp
Wire Wire Line
	2300 1900 2300 2200
Wire Wire Line
	1750 1900 2300 1900
Wire Wire Line
	2300 1900 2300 1700
Wire Wire Line
	1750 1700 2300 1700
Wire Wire Line
	1750 1800 2200 1800
Connection ~ 2300 1900
Wire Wire Line
	1750 2200 2300 2200
Connection ~ 2300 2200
Wire Wire Line
	2300 2200 2300 2500
$Comp
L Br:GND #PWR0104
U 1 1 5D9E7626
P 2750 2500
F 0 "#PWR0104" H 2750 2250 50  0001 C CNN
F 1 "GND" H 2755 2327 50  0000 C CNN
F 2 "" H 2750 2500 50  0000 C CNN
F 3 "" H 2750 2500 50  0000 C CNN
	1    2750 2500
	-1   0    0    -1  
$EndComp
$Comp
L Br:5V #PWR0105
U 1 1 5D9E762C
P 3100 2100
F 0 "#PWR0105" H 3100 1950 50  0001 C CNN
F 1 "5V" V 3115 2228 50  0000 L CNN
F 2 "" H 3100 2100 50  0000 C CNN
F 3 "" H 3100 2100 50  0000 C CNN
	1    3100 2100
	0    -1   1    0   
$EndComp
Text Label 3250 1800 2    50   ~ 0
UART_TX
Wire Wire Line
	3350 2100 3200 2100
Wire Wire Line
	3350 2000 3200 2000
Wire Wire Line
	3200 2000 3200 2100
Connection ~ 3200 2100
Wire Wire Line
	3200 2100 3100 2100
Wire Wire Line
	3350 1600 2900 1600
Wire Wire Line
	2750 1700 2750 1900
Wire Wire Line
	2750 1700 3350 1700
Wire Wire Line
	2900 1800 3350 1800
Wire Wire Line
	3350 1900 2750 1900
Connection ~ 2750 1900
Wire Wire Line
	2750 1900 2750 2200
Wire Wire Line
	3350 2200 2750 2200
Connection ~ 2750 2200
Wire Wire Line
	2750 2200 2750 2500
$Comp
L Br:5V #PWR0107
U 1 1 5D9CBEE0
P 5350 1100
F 0 "#PWR0107" H 5350 950 50  0001 C CNN
F 1 "5V" V 5365 1228 50  0000 L CNN
F 2 "" H 5350 1100 50  0000 C CNN
F 3 "" H 5350 1100 50  0000 C CNN
	1    5350 1100
	1    0    0    -1  
$EndComp
Wire Wire Line
	5350 1200 5350 1100
$Comp
L Br:D_BAV99.215 D2
U 1 1 5D9CDB0F
P 8650 1500
F 0 "D2" H 8727 1454 50  0000 L CNN
F 1 "D_BAV99.215" H 8100 1800 50  0000 L CNN
F 2 "Br:SOT23" V 8650 1650 50  0001 C CNN
F 3 "../library_doc/D_BAV99.215.pdf" H 8728 1455 50  0001 L CNN
F 4 "C2500" H 8727 1409 50  0001 L CNN "LCSC"
	1    8650 1500
	1    0    0    1   
$EndComp
Wire Wire Line
	7500 1500 7900 1500
$Comp
L Br:GND #PWR0108
U 1 1 5D9CF159
P 8650 1850
F 0 "#PWR0108" H 8650 1600 50  0001 C CNN
F 1 "GND" H 8655 1677 50  0000 C CNN
F 2 "" H 8650 1850 50  0000 C CNN
F 3 "" H 8650 1850 50  0000 C CNN
	1    8650 1850
	-1   0    0    -1  
$EndComp
Wire Wire Line
	8650 1850 8650 1800
$Comp
L Br:D_BAV99.215 D3
U 1 1 5D9CF778
P 9600 1500
F 0 "D3" H 9678 1454 50  0000 L CNN
F 1 "D_BAV99.215" H 9050 1750 50  0000 L CNN
F 2 "Br:SOT23" V 9600 1650 50  0001 C CNN
F 3 "../library_doc/D_BAV99.215.pdf" H 9678 1455 50  0001 L CNN
F 4 "C2500" H 9677 1409 50  0001 L CNN "LCSC"
	1    9600 1500
	-1   0    0    1   
$EndComp
Wire Wire Line
	10700 1500 10300 1500
$Comp
L Br:GND #PWR0109
U 1 1 5D9CF78E
P 9600 1850
F 0 "#PWR0109" H 9600 1600 50  0001 C CNN
F 1 "GND" H 9605 1677 50  0000 C CNN
F 2 "" H 9600 1850 50  0000 C CNN
F 3 "" H 9600 1850 50  0000 C CNN
	1    9600 1850
	1    0    0    -1  
$EndComp
Wire Wire Line
	9600 1850 9600 1800
$Comp
L Br:3V3 #PWR0110
U 1 1 5D9D1287
P 9600 1100
F 0 "#PWR0110" H 9600 950 50  0001 C CNN
F 1 "3V3" H 9615 1273 50  0000 C CNN
F 2 "" H 9600 1100 50  0000 C CNN
F 3 "" H 9600 1100 50  0000 C CNN
	1    9600 1100
	1    0    0    -1  
$EndComp
$Comp
L Br:3V3 #PWR0111
U 1 1 5D9D12BD
P 8650 1100
F 0 "#PWR0111" H 8650 950 50  0001 C CNN
F 1 "3V3" H 8665 1273 50  0000 C CNN
F 2 "" H 8650 1100 50  0000 C CNN
F 3 "" H 8650 1100 50  0000 C CNN
	1    8650 1100
	1    0    0    -1  
$EndComp
Wire Wire Line
	8650 1100 8650 1200
Wire Wire Line
	9600 1100 9600 1200
Text Notes 8700 700  0    50   ~ 0
UART protection
$Comp
L Br:3V3 #PWR0112
U 1 1 5D9D2D75
P 7100 1050
F 0 "#PWR0112" H 7100 900 50  0001 C CNN
F 1 "3V3" H 7115 1223 50  0000 C CNN
F 2 "" H 7100 1050 50  0000 C CNN
F 3 "" H 7100 1050 50  0000 C CNN
	1    7100 1050
	1    0    0    -1  
$EndComp
Text Notes 5600 700  0    50   ~ 0
Power regulator
$Comp
L Br:GND #PWR0113
U 1 1 5D9D4876
P 1600 4450
F 0 "#PWR0113" H 1600 4200 50  0001 C CNN
F 1 "GND" H 1605 4277 50  0000 C CNN
F 2 "" H 1600 4450 50  0000 C CNN
F 3 "" H 1600 4450 50  0000 C CNN
	1    1600 4450
	-1   0    0    -1  
$EndComp
Wire Wire Line
	2150 3350 2550 3350
Wire Wire Line
	2150 3450 2550 3450
Text Label 2150 3550 0    50   ~ 0
SWIM
Text Label 2150 3650 0    50   ~ 0
NRST
Wire Wire Line
	2150 3550 2550 3550
Text Label 1000 3150 0    50   ~ 0
SWIM
Text Label 1000 2950 0    50   ~ 0
NRST
$Comp
L Br:3V3 #PWR0114
U 1 1 5D9D7743
P 2050 4050
F 0 "#PWR0114" H 2050 3900 50  0001 C CNN
F 1 "3V3" V 2065 4178 50  0000 L CNN
F 2 "" H 2050 4050 50  0000 C CNN
F 3 "" H 2050 4050 50  0000 C CNN
	1    2050 4050
	0    -1   -1   0   
$EndComp
Wire Wire Line
	1600 3950 2550 3950
$Comp
L Br:GND #PWR0115
U 1 1 5D9D82DF
P 1000 3050
F 0 "#PWR0115" H 1000 2800 50  0001 C CNN
F 1 "GND" H 1005 2877 50  0000 C CNN
F 2 "" H 1000 3050 50  0000 C CNN
F 3 "" H 1000 3050 50  0000 C CNN
	1    1000 3050
	0    1    -1   0   
$EndComp
$Comp
L Br:3V3 #PWR0116
U 1 1 5D9D8302
P 1050 3250
F 0 "#PWR0116" H 1050 3100 50  0001 C CNN
F 1 "3V3" V 1065 3378 50  0000 L CNN
F 2 "" H 1050 3250 50  0000 C CNN
F 3 "" H 1050 3250 50  0000 C CNN
	1    1050 3250
	0    -1   -1   0   
$EndComp
$Comp
L Br:CN_P_01x04_1.27MM_STRAIGHT_ZL319-4P J2
U 1 1 5D9D92B3
P 1400 3100
F 0 "J2" H 1478 3105 50  0000 L CNN
F 1 "CN_P_01x04_1.27MM_STRAIGHT_ZL319-4P" H 1477 3060 50  0001 L CNN
F 2 "Br:CN_P_01x04_1.27MM_STRAIGHT_ZL319-4P" H 1350 3150 50  0001 C CNN
F 3 "" H 1350 3150 50  0001 C CNN
	1    1400 3100
	1    0    0    -1  
$EndComp
Wire Wire Line
	1000 2950 1250 2950
Wire Wire Line
	1000 3050 1250 3050
Wire Wire Line
	1000 3150 1250 3150
Wire Wire Line
	1050 3250 1250 3250
Wire Wire Line
	2150 4100 2150 4050
Wire Wire Line
	2150 4050 2050 4050
Wire Wire Line
	2550 4050 2150 4050
Connection ~ 2150 4050
$Comp
L Br:GND #PWR0117
U 1 1 5D9DFBBB
P 2150 4450
F 0 "#PWR0117" H 2150 4200 50  0001 C CNN
F 1 "GND" H 2155 4277 50  0000 C CNN
F 2 "" H 2150 4450 50  0000 C CNN
F 3 "" H 2150 4450 50  0000 C CNN
	1    2150 4450
	-1   0    0    -1  
$EndComp
Wire Wire Line
	2150 4450 2150 4400
Wire Wire Line
	1600 3950 1600 4450
Wire Wire Line
	1150 3650 2550 3650
$Comp
L Br:GND #PWR0118
U 1 1 5D9E54AE
P 1150 4450
F 0 "#PWR0118" H 1150 4200 50  0001 C CNN
F 1 "GND" H 1155 4277 50  0000 C CNN
F 2 "" H 1150 4450 50  0000 C CNN
F 3 "" H 1150 4450 50  0000 C CNN
	1    1150 4450
	-1   0    0    -1  
$EndComp
Wire Wire Line
	1150 3650 1150 4100
Wire Wire Line
	1150 4400 1150 4450
$Comp
L Br:C_1U_0603_10%_50V_X5R C3
U 1 1 5D9EACB1
P 5750 1750
F 0 "C3" H 5865 1796 50  0000 L CNN
F 1 "1uF" H 5865 1705 50  0000 L CNN
F 2 "Br:C_0603" V 5680 1750 50  0001 C CNN
F 3 "" V 5850 1650 50  0000 C CNN
F 4 "C15849" H 5865 1659 50  0001 L CNN "LCSC"
	1    5750 1750
	1    0    0    -1  
$EndComp
$Comp
L Br:GND #PWR0119
U 1 1 5D9EADC4
P 5750 2050
F 0 "#PWR0119" H 5750 1800 50  0001 C CNN
F 1 "GND" H 5755 1877 50  0000 C CNN
F 2 "" H 5750 2050 50  0000 C CNN
F 3 "" H 5750 2050 50  0000 C CNN
	1    5750 2050
	-1   0    0    -1  
$EndComp
Wire Wire Line
	5750 2050 5750 1900
Wire Wire Line
	5750 1500 5750 1600
$Comp
L Br:ICP_HT7533-1 U2
U 1 1 5D9C8DBA
P 6450 1500
F 0 "U2" H 6475 1856 50  0000 C CNN
F 1 "ICP_HT7533-1" H 6475 1765 50  0000 C CNN
F 2 "Br:SOT-89-3" H 6450 1500 50  0001 C CNN
F 3 "" H 6450 1500 50  0001 C CNN
F 4 "C14289" H 6475 1674 50  0001 C CNN "LCSC"
	1    6450 1500
	1    0    0    -1  
$EndComp
Wire Wire Line
	6850 1500 7100 1500
Wire Wire Line
	7100 1500 7100 1600
Wire Wire Line
	7100 1500 7100 1050
Connection ~ 7100 1500
$Comp
L Br:GND #PWR0120
U 1 1 5D9CB24A
P 6450 2050
F 0 "#PWR0120" H 6450 1800 50  0001 C CNN
F 1 "GND" H 6455 1877 50  0000 C CNN
F 2 "" H 6450 2050 50  0000 C CNN
F 3 "" H 6450 2050 50  0000 C CNN
	1    6450 2050
	-1   0    0    -1  
$EndComp
Wire Wire Line
	6450 2050 6450 1800
Wire Wire Line
	6100 1500 5750 1500
Connection ~ 5750 1500
$Comp
L Br:GND #PWR0121
U 1 1 5D9CD6CE
P 7100 2050
F 0 "#PWR0121" H 7100 1800 50  0001 C CNN
F 1 "GND" H 7105 1877 50  0000 C CNN
F 2 "" H 7100 2050 50  0000 C CNN
F 3 "" H 7100 2050 50  0000 C CNN
	1    7100 2050
	-1   0    0    -1  
$EndComp
Wire Wire Line
	7100 2050 7100 1900
Wire Wire Line
	5750 1100 5750 1500
NoConn ~ 5500 6600
NoConn ~ 5500 6850
NoConn ~ 6200 6850
NoConn ~ 6200 6600
$Comp
L Br:12V #PWR0129
U 1 1 5D9E7FDB
P 4450 1000
F 0 "#PWR0129" H 4450 850 50  0001 C CNN
F 1 "12V" H 4400 1200 50  0000 L CNN
F 2 "" H 4450 1000 50  0000 C CNN
F 3 "" H 4450 1000 50  0000 C CNN
	1    4450 1000
	1    0    0    -1  
$EndComp
$Comp
L Br:5V #PWR0130
U 1 1 5D9E801C
P 4650 1000
F 0 "#PWR0130" H 4650 850 50  0001 C CNN
F 1 "5V" H 4600 1200 50  0000 L CNN
F 2 "" H 4650 1000 50  0000 C CNN
F 3 "" H 4650 1000 50  0000 C CNN
	1    4650 1000
	1    0    0    -1  
$EndComp
$Comp
L Br:GND #PWR0131
U 1 1 5D9E816B
P 4250 1150
F 0 "#PWR0131" H 4250 900 50  0001 C CNN
F 1 "GND" H 4255 977 50  0000 C CNN
F 2 "" H 4250 1150 50  0000 C CNN
F 3 "" H 4250 1150 50  0000 C CNN
	1    4250 1150
	-1   0    0    -1  
$EndComp
$Comp
L Br:PWR #FLG0101
U 1 1 5D9E856C
P 4250 1000
F 0 "#FLG0101" H 4250 1095 50  0001 C CNN
F 1 "PWR" H 4250 1224 50  0000 C CNN
F 2 "" H 4250 1000 50  0000 C CNN
F 3 "" H 4250 1000 50  0000 C CNN
	1    4250 1000
	1    0    0    -1  
$EndComp
$Comp
L Br:PWR #FLG0102
U 1 1 5D9E85C4
P 4450 1150
F 0 "#FLG0102" H 4450 1245 50  0001 C CNN
F 1 "PWR" H 4450 1373 50  0000 C CNN
F 2 "" H 4450 1150 50  0000 C CNN
F 3 "" H 4450 1150 50  0000 C CNN
	1    4450 1150
	-1   0    0    1   
$EndComp
$Comp
L Br:PWR #FLG0103
U 1 1 5D9E8649
P 4650 1150
F 0 "#FLG0103" H 4650 1245 50  0001 C CNN
F 1 "PWR" H 4650 1373 50  0000 C CNN
F 2 "" H 4650 1150 50  0000 C CNN
F 3 "" H 4650 1150 50  0000 C CNN
	1    4650 1150
	-1   0    0    1   
$EndComp
Wire Wire Line
	4650 1150 4650 1000
Wire Wire Line
	4450 1150 4450 1000
Wire Wire Line
	4250 1150 4250 1000
Text Label 5750 1300 1    50   ~ 0
5V_In
Wire Wire Line
	9650 1500 10000 1500
Text Label 2200 3350 0    50   ~ 0
CPU_TX
Text Label 2200 3450 0    50   ~ 0
CPU_RX
Text Label 9700 1500 0    50   ~ 0
CPU_TX
Text Label 8250 1500 0    50   ~ 0
CPU_RX
Wire Wire Line
	8200 1500 8600 1500
Text Label 4850 1000 1    50   ~ 0
5V_In
$Comp
L Br:PWR #FLG0104
U 1 1 5DA0B14B
P 4850 1150
F 0 "#FLG0104" H 4850 1245 50  0001 C CNN
F 1 "PWR" H 4850 1373 50  0000 C CNN
F 2 "" H 4850 1150 50  0000 C CNN
F 3 "" H 4850 1150 50  0000 C CNN
	1    4850 1150
	-1   0    0    1   
$EndComp
Wire Wire Line
	4850 1150 4850 800 
$Comp
L Br:C_10U_0805_10%_25V C11
U 1 1 5ECA9A59
P 7100 1750
F 0 "C11" V 6950 1650 50  0000 C CNN
F 1 "10uF" V 7000 1900 50  0000 C CNN
F 2 "Br:C_0805" V 7030 1750 50  0001 C CNN
F 3 "" V 7200 1650 50  0000 C CNN
F 4 "C15850" V 6940 1750 50  0001 C CNN "LCSC"
	1    7100 1750
	-1   0    0    -1  
$EndComp
Text Notes 1800 1000 0    50   ~ 0
After Audio blocks - it is not possible \nto connect devices at 12V
$Comp
L Br:12V #PWR0103
U 1 1 5EC0AC4B
P 1900 1400
F 0 "#PWR0103" H 1900 1250 50  0001 C CNN
F 1 "12V" V 1915 1528 50  0000 L CNN
F 2 "" H 1900 1400 50  0000 C CNN
F 3 "" H 1900 1400 50  0000 C CNN
	1    1900 1400
	0    1    -1   0   
$EndComp
Wire Wire Line
	1750 1400 1850 1400
Wire Wire Line
	1750 1500 1850 1500
Wire Wire Line
	1850 1500 1850 1400
Connection ~ 1850 1400
Wire Wire Line
	1850 1400 1900 1400
Wire Wire Line
	3100 1400 3200 1400
Wire Wire Line
	3350 1500 3200 1500
Wire Wire Line
	3200 1500 3200 1400
Connection ~ 3200 1400
Wire Wire Line
	3200 1400 3350 1400
Text Label 1850 1600 0    50   ~ 0
spare
$Comp
L Br:12V #PWR0147
U 1 1 5EDE153E
P 3100 1400
F 0 "#PWR0147" H 3100 1250 50  0001 C CNN
F 1 "12V" V 3115 1528 50  0000 L CNN
F 2 "" H 3100 1400 50  0000 C CNN
F 3 "" H 3100 1400 50  0000 C CNN
	1    3100 1400
	0    -1   1    0   
$EndComp
$Comp
L Br:R_1k_0402_1% R1
U 1 1 5EC83CAA
P 8050 1500
F 0 "R1" V 7950 1500 50  0000 C CNN
F 1 "1k" V 8050 1500 50  0000 C CNN
F 2 "Br:R_0402" V 7980 1500 50  0001 C CNN
F 3 "" H 8050 1500 50  0000 C CNN
F 4 "C11702" V 7800 1350 50  0001 C CNN "LCSC"
	1    8050 1500
	0    1    1    0   
$EndComp
$Comp
L Br:R_1k_0402_1% R2
U 1 1 5EC8436C
P 10150 1500
F 0 "R2" V 10050 1500 50  0000 C CNN
F 1 "1k" V 10150 1500 50  0000 C CNN
F 2 "Br:R_0402" V 10080 1500 50  0001 C CNN
F 3 "" H 10150 1500 50  0000 C CNN
F 4 "C11702" V 9900 1350 50  0001 C CNN "LCSC"
	1    10150 1500
	0    1    1    0   
$EndComp
$Comp
L Br:C_100N_0402_16V C1
U 1 1 5EC917A5
P 1150 4250
F 0 "C1" H 1265 4296 50  0000 L CNN
F 1 "100nF" H 1200 4100 50  0000 L CNN
F 2 "Br:C_0402" V 1080 4250 50  0001 C CNN
F 3 "" V 1250 4150 50  0000 C CNN
F 4 "C1525" H 1265 4159 50  0001 L CNN "LCSC"
	1    1150 4250
	1    0    0    -1  
$EndComp
$Comp
L Br:C_100N_0402_16V C2
U 1 1 5EC91A66
P 2150 4250
F 0 "C2" H 2265 4296 50  0000 L CNN
F 1 "100nF" H 2200 4100 50  0000 L CNN
F 2 "Br:C_0402" V 2080 4250 50  0001 C CNN
F 3 "" V 2250 4150 50  0000 C CNN
F 4 "C1525" H 2265 4159 50  0001 L CNN "LCSC"
	1    2150 4250
	1    0    0    -1  
$EndComp
$Comp
L Br:ICD_STM8L051F3P6 U1
U 1 1 5D9D4765
P 4950 3350
F 0 "U1" H 4475 3637 60  0000 C CNN
F 1 "ICD_STM8L051F3P6" H 4475 3531 60  0000 C CNN
F 2 "Br:TSSOP20" H 2550 3450 60  0001 C CNN
F 3 "" H 2550 3450 60  0000 C CNN
F 4 "C18088" H 4475 3523 50  0001 C CNN "LCSC"
	1    4950 3350
	1    0    0    -1  
$EndComp
Text Label 3000 1600 0    50   ~ 0
spare
$Comp
L Br:D_SCHOTTKY_B5819W D1
U 1 1 5EEC4D2B
P 5350 1350
F 0 "D1" V 5350 1272 50  0000 R CNN
F 1 "D_SCHOTTKY_B5819W" H 5350 1474 50  0001 C CNN
F 2 "Br:D_SOD-123" H 5350 1350 50  0001 C CNN
F 3 "" H 5350 1450 50  0000 C CNN
F 4 "C8598" H 5350 1473 50  0001 C CNN "LCSC"
	1    5350 1350
	0    -1   -1   0   
$EndComp
Wire Wire Line
	5350 1500 5750 1500
$Comp
L Br:3V3 #PWR0106
U 1 1 5EEAB53B
P 6250 5150
F 0 "#PWR0106" H 6250 5000 50  0001 C CNN
F 1 "3V3" H 6265 5323 50  0000 C CNN
F 2 "" H 6250 5150 50  0000 C CNN
F 3 "" H 6250 5150 50  0000 C CNN
	1    6250 5150
	1    0    0    -1  
$EndComp
$Comp
L Br:C_100N_0402_16V C4
U 1 1 5EEAB7D8
P 6450 5250
F 0 "C4" V 6500 5350 50  0000 L CNN
F 1 "100nF" V 6350 5350 50  0000 L CNN
F 2 "Br:C_0402" V 6380 5250 50  0001 C CNN
F 3 "" V 6550 5150 50  0000 C CNN
F 4 "C1525" H 6565 5159 50  0001 L CNN "LCSC"
	1    6450 5250
	0    1    1    0   
$EndComp
Wire Wire Line
	6100 5250 6250 5250
Wire Wire Line
	6250 5250 6250 5150
Wire Wire Line
	6250 5250 6300 5250
Connection ~ 6250 5250
$Comp
L Br:GND #PWR0122
U 1 1 5EEAE699
P 5200 5650
F 0 "#PWR0122" H 5200 5400 50  0001 C CNN
F 1 "GND" H 5205 5477 50  0000 C CNN
F 2 "" H 5200 5650 50  0000 C CNN
F 3 "" H 5200 5650 50  0000 C CNN
	1    5200 5650
	1    0    0    -1  
$EndComp
Wire Wire Line
	5200 5650 5200 5550
Wire Wire Line
	5200 5550 5300 5550
Text Label 6200 5450 0    50   ~ 0
SPI_CLK
NoConn ~ 6100 5350
NoConn ~ 5300 5450
Text Label 4900 5350 0    50   ~ 0
SPI_MISO
Text Label 6200 5550 0    50   ~ 0
SPI_MOSI
Wire Wire Line
	6100 5450 6550 5450
Wire Wire Line
	6100 5550 6550 5550
Wire Wire Line
	5300 5350 4900 5350
Text Label 6500 4000 0    50   ~ 0
SPI_ENn_Flash
Text Label 6500 3700 0    50   ~ 0
SPI_MISO
Text Label 6500 3900 0    50   ~ 0
SPI_CLK
Text Label 6500 3800 0    50   ~ 0
SPI_MOSI
Text Label 4750 5250 0    50   ~ 0
SPI_ENn_Flash
Wire Wire Line
	4750 5250 5300 5250
Wire Wire Line
	6400 3700 6850 3700
Wire Wire Line
	6400 3800 6850 3800
Wire Wire Line
	6400 3900 6850 3900
Wire Wire Line
	6400 4000 7050 4000
$Comp
L Br:C_100N_0402_16V C6
U 1 1 5EEC927F
P 3100 6400
F 0 "C6" V 3150 6500 50  0000 L CNN
F 1 "100nF" V 3000 6500 50  0000 L CNN
F 2 "Br:C_0402" V 3030 6400 50  0001 C CNN
F 3 "" V 3200 6300 50  0000 C CNN
F 4 "C1525" H 3215 6309 50  0001 L CNN "LCSC"
	1    3100 6400
	0    1    1    0   
$EndComp
$Comp
L Br:GND #PWR0123
U 1 1 5EEC93E2
P 2050 7400
F 0 "#PWR0123" H 2050 7150 50  0001 C CNN
F 1 "GND" H 2055 7227 50  0000 C CNN
F 2 "" H 2050 7400 50  0000 C CNN
F 3 "" H 2050 7400 50  0000 C CNN
	1    2050 7400
	1    0    0    -1  
$EndComp
Wire Wire Line
	2050 7400 2050 7300
Wire Wire Line
	2050 7300 2150 7300
$Comp
L Br:3V3 #PWR0124
U 1 1 5EECB20B
P 2850 6300
F 0 "#PWR0124" H 2850 6150 50  0001 C CNN
F 1 "3V3" H 2865 6473 50  0000 C CNN
F 2 "" H 2850 6300 50  0000 C CNN
F 3 "" H 2850 6300 50  0000 C CNN
	1    2850 6300
	1    0    0    -1  
$EndComp
Wire Wire Line
	2950 6400 2850 6400
Wire Wire Line
	2850 6400 2850 6300
Wire Wire Line
	2800 6600 2850 6600
Wire Wire Line
	2850 6600 2850 6400
Connection ~ 2850 6400
$Comp
L Br:GND #PWR0125
U 1 1 5EECF204
P 3400 6400
F 0 "#PWR0125" H 3400 6150 50  0001 C CNN
F 1 "GND" V 3400 6200 50  0000 C CNN
F 2 "" H 3400 6400 50  0000 C CNN
F 3 "" H 3400 6400 50  0000 C CNN
	1    3400 6400
	0    -1   -1   0   
$EndComp
Wire Wire Line
	3400 6400 3250 6400
$Comp
L Br:GND #PWR0126
U 1 1 5EED142E
P 6750 5250
F 0 "#PWR0126" H 6750 5000 50  0001 C CNN
F 1 "GND" H 6755 5077 50  0000 C CNN
F 2 "" H 6750 5250 50  0000 C CNN
F 3 "" H 6750 5250 50  0000 C CNN
	1    6750 5250
	0    -1   -1   0   
$EndComp
Wire Wire Line
	6750 5250 6600 5250
$Comp
L Br:3V3 #PWR0127
U 1 1 5EED37B0
P 2950 7200
F 0 "#PWR0127" H 2950 7050 50  0001 C CNN
F 1 "3V3" V 2950 7400 50  0000 C CNN
F 2 "" H 2950 7200 50  0000 C CNN
F 3 "" H 2950 7200 50  0000 C CNN
	1    2950 7200
	0    1    1    0   
$EndComp
Wire Wire Line
	2950 7200 2800 7200
Text Label 2900 7100 0    50   ~ 0
SPI_CLK
$Comp
L Br:GND #PWR0128
U 1 1 5EED5D94
P 3250 6900
F 0 "#PWR0128" H 3250 6650 50  0001 C CNN
F 1 "GND" V 3250 6700 50  0000 C CNN
F 2 "" H 3250 6900 50  0000 C CNN
F 3 "" H 3250 6900 50  0000 C CNN
	1    3250 6900
	0    -1   -1   0   
$EndComp
Wire Wire Line
	3250 6900 2800 6900
Wire Wire Line
	2800 7100 3200 7100
Wire Wire Line
	2800 6800 3250 6800
Text Label 2900 7000 0    50   ~ 0
STCP
Wire Wire Line
	2800 7000 3250 7000
Text Label 6500 4100 0    50   ~ 0
STCP
Wire Wire Line
	6400 4100 7050 4100
$Comp
L Br:R_180R_0603_1% R10
U 1 1 5EEE43A5
P 1800 6600
F 0 "R10" V 1750 6750 50  0000 L CNN
F 1 "180R" V 1800 6500 50  0000 L CNN
F 2 "Br:R_0603" V 1730 6600 50  0001 C CNN
F 3 "" H 1800 6600 50  0000 C CNN
F 4 "C22828" H 1870 6509 50  0001 L CNN "LCSC"
	1    1800 6600
	0    1    1    0   
$EndComp
$Comp
L Br:R_180R_0603_1% R11
U 1 1 5EEE6E0A
P 1800 6700
F 0 "R11" V 1750 6850 50  0000 L CNN
F 1 "180R" V 1800 6600 50  0000 L CNN
F 2 "Br:R_0603" V 1730 6700 50  0001 C CNN
F 3 "" H 1800 6700 50  0000 C CNN
F 4 "C22828" H 1870 6609 50  0001 L CNN "LCSC"
	1    1800 6700
	0    1    1    0   
$EndComp
$Comp
L Br:R_180R_0603_1% R12
U 1 1 5EEE6E4C
P 1800 6800
F 0 "R12" V 1750 6950 50  0000 L CNN
F 1 "180R" V 1800 6700 50  0000 L CNN
F 2 "Br:R_0603" V 1730 6800 50  0001 C CNN
F 3 "" H 1800 6800 50  0000 C CNN
F 4 "C22828" H 1870 6709 50  0001 L CNN "LCSC"
	1    1800 6800
	0    1    1    0   
$EndComp
$Comp
L Br:R_180R_0603_1% R13
U 1 1 5EEE6E90
P 1800 6900
F 0 "R13" V 1750 7050 50  0000 L CNN
F 1 "180R" V 1800 6800 50  0000 L CNN
F 2 "Br:R_0603" V 1730 6900 50  0001 C CNN
F 3 "" H 1800 6900 50  0000 C CNN
F 4 "C22828" H 1870 6809 50  0001 L CNN "LCSC"
	1    1800 6900
	0    1    1    0   
$EndComp
$Comp
L Br:R_180R_0603_1% R14
U 1 1 5EEE6ED6
P 1800 7000
F 0 "R14" V 1750 7150 50  0000 L CNN
F 1 "180R" V 1800 6900 50  0000 L CNN
F 2 "Br:R_0603" V 1730 7000 50  0001 C CNN
F 3 "" H 1800 7000 50  0000 C CNN
F 4 "C22828" H 1870 6909 50  0001 L CNN "LCSC"
	1    1800 7000
	0    1    1    0   
$EndComp
$Comp
L Br:R_180R_0603_1% R15
U 1 1 5EEE6F1E
P 1800 7100
F 0 "R15" V 1750 7250 50  0000 L CNN
F 1 "180R" V 1800 7000 50  0000 L CNN
F 2 "Br:R_0603" V 1730 7100 50  0001 C CNN
F 3 "" H 1800 7100 50  0000 C CNN
F 4 "C22828" H 1870 7009 50  0001 L CNN "LCSC"
	1    1800 7100
	0    1    1    0   
$EndComp
$Comp
L Br:R_180R_0603_1% R16
U 1 1 5EEE6F68
P 1800 7200
F 0 "R16" V 1750 7350 50  0000 L CNN
F 1 "180R" V 1800 7100 50  0000 L CNN
F 2 "Br:R_0603" V 1730 7200 50  0001 C CNN
F 3 "" H 1800 7200 50  0000 C CNN
F 4 "C22828" H 1870 7109 50  0001 L CNN "LCSC"
	1    1800 7200
	0    1    1    0   
$EndComp
$Comp
L Br:R_180R_0603_1% R18
U 1 1 5EEE6FB4
P 3500 6700
F 0 "R18" V 3450 6850 50  0000 L CNN
F 1 "180R" V 3500 6600 50  0000 L CNN
F 2 "Br:R_0603" V 3430 6700 50  0001 C CNN
F 3 "" H 3500 6700 50  0000 C CNN
F 4 "C22828" H 3570 6609 50  0001 L CNN "LCSC"
	1    3500 6700
	0    1    1    0   
$EndComp
Wire Wire Line
	2150 6600 1950 6600
Wire Wire Line
	1950 6700 2150 6700
Wire Wire Line
	1950 6800 2150 6800
Wire Wire Line
	1950 6900 2150 6900
Wire Wire Line
	1950 7000 2150 7000
Wire Wire Line
	1950 7100 2150 7100
Wire Wire Line
	1950 7200 2150 7200
Wire Wire Line
	3350 6700 2800 6700
Text Notes 1650 6300 0    50   ~ 0
All LEDS green
$Comp
L Br:C_100N_0402_16V C5
U 1 1 5EFC3BA2
P 3100 4900
F 0 "C5" V 3150 5000 50  0000 L CNN
F 1 "100nF" V 3000 5000 50  0000 L CNN
F 2 "Br:C_0402" V 3030 4900 50  0001 C CNN
F 3 "" V 3200 4800 50  0000 C CNN
F 4 "C1525" H 3215 4809 50  0001 L CNN "LCSC"
	1    3100 4900
	0    1    1    0   
$EndComp
$Comp
L Br:GND #PWR0134
U 1 1 5EFC3BA8
P 2050 5900
F 0 "#PWR0134" H 2050 5650 50  0001 C CNN
F 1 "GND" H 2055 5727 50  0000 C CNN
F 2 "" H 2050 5900 50  0000 C CNN
F 3 "" H 2050 5900 50  0000 C CNN
	1    2050 5900
	1    0    0    -1  
$EndComp
Wire Wire Line
	2050 5900 2050 5800
Wire Wire Line
	2050 5800 2150 5800
$Comp
L Br:3V3 #PWR0135
U 1 1 5EFC3BB0
P 2850 4800
F 0 "#PWR0135" H 2850 4650 50  0001 C CNN
F 1 "3V3" H 2865 4973 50  0000 C CNN
F 2 "" H 2850 4800 50  0000 C CNN
F 3 "" H 2850 4800 50  0000 C CNN
	1    2850 4800
	1    0    0    -1  
$EndComp
Wire Wire Line
	2950 4900 2850 4900
Wire Wire Line
	2850 4900 2850 4800
Wire Wire Line
	2800 5100 2850 5100
Wire Wire Line
	2850 5100 2850 4900
Connection ~ 2850 4900
$Comp
L Br:GND #PWR0136
U 1 1 5EFC3BBB
P 3400 4900
F 0 "#PWR0136" H 3400 4650 50  0001 C CNN
F 1 "GND" V 3400 4700 50  0000 C CNN
F 2 "" H 3400 4900 50  0000 C CNN
F 3 "" H 3400 4900 50  0000 C CNN
	1    3400 4900
	0    -1   -1   0   
$EndComp
Wire Wire Line
	3400 4900 3250 4900
$Comp
L Br:3V3 #PWR0137
U 1 1 5EFC3BC2
P 2950 5700
F 0 "#PWR0137" H 2950 5550 50  0001 C CNN
F 1 "3V3" V 2950 5900 50  0000 C CNN
F 2 "" H 2950 5700 50  0000 C CNN
F 3 "" H 2950 5700 50  0000 C CNN
	1    2950 5700
	0    1    1    0   
$EndComp
Wire Wire Line
	2950 5700 2800 5700
Text Label 2900 5300 0    50   ~ 0
SPI_MOSI
Text Label 2900 5600 0    50   ~ 0
SPI_CLK
$Comp
L Br:GND #PWR0138
U 1 1 5EFC3BCB
P 3250 5400
F 0 "#PWR0138" H 3250 5150 50  0001 C CNN
F 1 "GND" V 3250 5200 50  0000 C CNN
F 2 "" H 3250 5400 50  0000 C CNN
F 3 "" H 3250 5400 50  0000 C CNN
	1    3250 5400
	0    -1   -1   0   
$EndComp
Wire Wire Line
	3250 5400 2800 5400
Wire Wire Line
	2800 5600 3200 5600
Wire Wire Line
	2800 5300 3250 5300
Text Label 2900 5500 0    50   ~ 0
STCP
Wire Wire Line
	2800 5500 3250 5500
$Comp
L Br:R_180R_0603_1% R3
U 1 1 5EFC3BD7
P 1800 5100
F 0 "R3" V 1750 5250 50  0000 L CNN
F 1 "180R" V 1800 5000 50  0000 L CNN
F 2 "Br:R_0603" V 1730 5100 50  0001 C CNN
F 3 "" H 1800 5100 50  0000 C CNN
F 4 "C22828" H 1870 5009 50  0001 L CNN "LCSC"
	1    1800 5100
	0    1    1    0   
$EndComp
$Comp
L Br:R_180R_0603_1% R4
U 1 1 5EFC3BDE
P 1800 5200
F 0 "R4" V 1750 5350 50  0000 L CNN
F 1 "180R" V 1800 5100 50  0000 L CNN
F 2 "Br:R_0603" V 1730 5200 50  0001 C CNN
F 3 "" H 1800 5200 50  0000 C CNN
F 4 "C22828" H 1870 5109 50  0001 L CNN "LCSC"
	1    1800 5200
	0    1    1    0   
$EndComp
$Comp
L Br:R_180R_0603_1% R5
U 1 1 5EFC3BE5
P 1800 5300
F 0 "R5" V 1750 5450 50  0000 L CNN
F 1 "180R" V 1800 5200 50  0000 L CNN
F 2 "Br:R_0603" V 1730 5300 50  0001 C CNN
F 3 "" H 1800 5300 50  0000 C CNN
F 4 "C22828" H 1870 5209 50  0001 L CNN "LCSC"
	1    1800 5300
	0    1    1    0   
$EndComp
$Comp
L Br:R_180R_0603_1% R6
U 1 1 5EFC3BEC
P 1800 5400
F 0 "R6" V 1750 5550 50  0000 L CNN
F 1 "180R" V 1800 5300 50  0000 L CNN
F 2 "Br:R_0603" V 1730 5400 50  0001 C CNN
F 3 "" H 1800 5400 50  0000 C CNN
F 4 "C22828" H 1870 5309 50  0001 L CNN "LCSC"
	1    1800 5400
	0    1    1    0   
$EndComp
$Comp
L Br:R_180R_0603_1% R7
U 1 1 5EFC3BF3
P 1800 5500
F 0 "R7" V 1750 5650 50  0000 L CNN
F 1 "180R" V 1800 5400 50  0000 L CNN
F 2 "Br:R_0603" V 1730 5500 50  0001 C CNN
F 3 "" H 1800 5500 50  0000 C CNN
F 4 "C22828" H 1870 5409 50  0001 L CNN "LCSC"
	1    1800 5500
	0    1    1    0   
$EndComp
$Comp
L Br:R_180R_0603_1% R8
U 1 1 5EFC3BFA
P 1800 5600
F 0 "R8" V 1750 5750 50  0000 L CNN
F 1 "180R" V 1800 5500 50  0000 L CNN
F 2 "Br:R_0603" V 1730 5600 50  0001 C CNN
F 3 "" H 1800 5600 50  0000 C CNN
F 4 "C22828" H 1870 5509 50  0001 L CNN "LCSC"
	1    1800 5600
	0    1    1    0   
$EndComp
$Comp
L Br:R_180R_0603_1% R9
U 1 1 5EFC3C01
P 1800 5700
F 0 "R9" V 1750 5850 50  0000 L CNN
F 1 "180R" V 1800 5600 50  0000 L CNN
F 2 "Br:R_0603" V 1730 5700 50  0001 C CNN
F 3 "" H 1800 5700 50  0000 C CNN
F 4 "C22828" H 1870 5609 50  0001 L CNN "LCSC"
	1    1800 5700
	0    1    1    0   
$EndComp
$Comp
L Br:R_180R_0603_1% R17
U 1 1 5EFC3C08
P 3500 5200
F 0 "R17" V 3450 5350 50  0000 L CNN
F 1 "180R" V 3500 5100 50  0000 L CNN
F 2 "Br:R_0603" V 3430 5200 50  0001 C CNN
F 3 "" H 3500 5200 50  0000 C CNN
F 4 "C22828" H 3570 5109 50  0001 L CNN "LCSC"
	1    3500 5200
	0    1    1    0   
$EndComp
Wire Wire Line
	2150 5100 1950 5100
Wire Wire Line
	1950 5200 2150 5200
Wire Wire Line
	1950 5300 2150 5300
Wire Wire Line
	1950 5400 2150 5400
Wire Wire Line
	1950 5500 2150 5500
Wire Wire Line
	1950 5600 2150 5600
Wire Wire Line
	1950 5700 2150 5700
Wire Wire Line
	3350 5200 2800 5200
Text Notes 1650 4800 0    50   ~ 0
All LEDS green
Text Label 2900 5800 0    50   ~ 0
SER_DATA
Wire Wire Line
	2800 5800 3450 5800
Text Notes 5650 4750 0    50   ~ 0
FLASH\n
Text Label 2850 6800 0    50   ~ 0
SER_DATA
NoConn ~ 2800 7300
$Comp
L Br:GND #PWR0133
U 1 1 5EEBEDD8
P 7850 6300
F 0 "#PWR0133" H 7850 6050 50  0001 C CNN
F 1 "GND" H 7855 6127 50  0000 C CNN
F 2 "" H 7850 6300 50  0000 C CNN
F 3 "" H 7850 6300 50  0000 C CNN
	1    7850 6300
	-1   0    0    -1  
$EndComp
Text Label 7850 5850 1    50   ~ 0
B_PLAY
Wire Wire Line
	7850 5900 7850 5600
$Comp
L Br:ME_MICROSWITCH_SPST_NO_6x6MM_TH SW5
U 1 1 5EF09570
P 8550 6100
F 0 "SW5" H 8550 6261 60  0000 C CNN
F 1 "ME_MICROSWITCH_SPST_NO_6x6MM_TH" H 8550 6261 60  0001 C CNN
F 2 "Br:ME_MICROSWITCH_SPST_NO_6x6MM_TH" H 8540 6100 60  0001 C CNN
F 3 "" H 8540 6100 60  0001 C CNN
	1    8550 6100
	0    1    1    0   
$EndComp
$Comp
L Br:GND #PWR0140
U 1 1 5EF09576
P 8550 6300
F 0 "#PWR0140" H 8550 6050 50  0001 C CNN
F 1 "GND" H 8555 6127 50  0000 C CNN
F 2 "" H 8550 6300 50  0000 C CNN
F 3 "" H 8550 6300 50  0000 C CNN
	1    8550 6300
	-1   0    0    -1  
$EndComp
Text Label 8550 5850 1    50   ~ 0
B_STOP
Wire Wire Line
	8550 5900 8550 5600
$Comp
L Br:ME_MICROSWITCH_SPST_NO_6x6MM_TH SW6
U 1 1 5EF13B32
P 9200 6100
F 0 "SW6" H 9200 6261 60  0000 C CNN
F 1 "ME_MICROSWITCH_SPST_NO_6x6MM_TH" H 9200 6261 60  0001 C CNN
F 2 "Br:ME_MICROSWITCH_SPST_NO_6x6MM_TH" H 9190 6100 60  0001 C CNN
F 3 "" H 9190 6100 60  0001 C CNN
	1    9200 6100
	0    1    1    0   
$EndComp
$Comp
L Br:GND #PWR0141
U 1 1 5EF13B38
P 9200 6300
F 0 "#PWR0141" H 9200 6050 50  0001 C CNN
F 1 "GND" H 9205 6127 50  0000 C CNN
F 2 "" H 9200 6300 50  0000 C CNN
F 3 "" H 9200 6300 50  0000 C CNN
	1    9200 6300
	-1   0    0    -1  
$EndComp
Text Label 9200 5850 1    50   ~ 0
B_RECORD
Wire Wire Line
	9200 5900 9200 5600
$Comp
L Br:ME_MICROSWITCH_SPST_NO_6x6MM_TH SW7
U 1 1 5EF13B40
P 9900 6100
F 0 "SW7" H 9900 6261 60  0000 C CNN
F 1 "ME_MICROSWITCH_SPST_NO_6x6MM_TH" H 9900 6261 60  0001 C CNN
F 2 "Br:ME_MICROSWITCH_SPST_NO_6x6MM_TH" H 9890 6100 60  0001 C CNN
F 3 "" H 9890 6100 60  0001 C CNN
	1    9900 6100
	0    1    1    0   
$EndComp
$Comp
L Br:GND #PWR0142
U 1 1 5EF13B46
P 9900 6300
F 0 "#PWR0142" H 9900 6050 50  0001 C CNN
F 1 "GND" H 9905 6127 50  0000 C CNN
F 2 "" H 9900 6300 50  0000 C CNN
F 3 "" H 9900 6300 50  0000 C CNN
	1    9900 6300
	-1   0    0    -1  
$EndComp
Text Label 9900 5850 1    50   ~ 0
B_CANCEL
Wire Wire Line
	9900 5900 9900 5600
$Comp
L Br:ME_MICROSWITCH_SPST_NO_6x6MM_TH SW3
U 1 1 5EF1E5CB
P 7850 4950
F 0 "SW3" H 7850 5111 60  0000 C CNN
F 1 "ME_MICROSWITCH_SPST_NO_6x6MM_TH" H 7850 5111 60  0001 C CNN
F 2 "Br:ME_MICROSWITCH_SPST_NO_6x6MM_TH" H 7840 4950 60  0001 C CNN
F 3 "" H 7840 4950 60  0001 C CNN
	1    7850 4950
	0    1    1    0   
$EndComp
$Comp
L Br:GND #PWR0143
U 1 1 5EF1E5D1
P 7850 5150
F 0 "#PWR0143" H 7850 4900 50  0001 C CNN
F 1 "GND" H 7855 4977 50  0000 C CNN
F 2 "" H 7850 5150 50  0000 C CNN
F 3 "" H 7850 5150 50  0000 C CNN
	1    7850 5150
	-1   0    0    -1  
$EndComp
Text Label 7850 4700 1    50   ~ 0
B_TRG
Wire Wire Line
	7850 4750 7850 4450
$Comp
L Br:ME_MICROSWITCH_SPST_NO_6x6MM_TH SW2
U 1 1 5EF337A2
P 7850 3950
F 0 "SW2" H 7850 4111 60  0000 C CNN
F 1 "ME_MICROSWITCH_SPST_NO_6x6MM_TH" H 7850 4111 60  0001 C CNN
F 2 "Br:ME_MICROSWITCH_SPST_NO_6x6MM_TH" H 7840 3950 60  0001 C CNN
F 3 "" H 7840 3950 60  0001 C CNN
	1    7850 3950
	0    1    1    0   
$EndComp
$Comp
L Br:GND #PWR0144
U 1 1 5EF337A8
P 7850 4150
F 0 "#PWR0144" H 7850 3900 50  0001 C CNN
F 1 "GND" H 7855 3977 50  0000 C CNN
F 2 "" H 7850 4150 50  0000 C CNN
F 3 "" H 7850 4150 50  0000 C CNN
	1    7850 4150
	-1   0    0    -1  
$EndComp
Text Label 7850 3700 1    50   ~ 0
B_SPEED
Wire Wire Line
	7850 3750 7850 3450
$Comp
L Br:ME_MICROSWITCH_SPST_NO_6x6MM_TH SW4
U 1 1 5EEBE96B
P 7850 6100
F 0 "SW4" H 7850 6261 60  0000 C CNN
F 1 "ME_MICROSWITCH_SPST_NO_6x6MM_TH" H 7850 6261 60  0001 C CNN
F 2 "Br:ME_MICROSWITCH_SPST_NO_6x6MM_TH" H 7840 6100 60  0001 C CNN
F 3 "" H 7840 6100 60  0001 C CNN
	1    7850 6100
	0    1    1    0   
$EndComp
$Comp
L Br:ME_MICROSWITCH_SPST_NO_6x6MM_TH SW1
U 1 1 5EF3E231
P 7850 2900
F 0 "SW1" H 7850 3061 60  0000 C CNN
F 1 "ME_MICROSWITCH_SPST_NO_6x6MM_TH" H 7850 3061 60  0001 C CNN
F 2 "Br:ME_MICROSWITCH_SPST_NO_6x6MM_TH" H 7840 2900 60  0001 C CNN
F 3 "" H 7840 2900 60  0001 C CNN
	1    7850 2900
	0    1    1    0   
$EndComp
$Comp
L Br:GND #PWR0145
U 1 1 5EF3E237
P 7850 3100
F 0 "#PWR0145" H 7850 2850 50  0001 C CNN
F 1 "GND" H 7855 2927 50  0000 C CNN
F 2 "" H 7850 3100 50  0000 C CNN
F 3 "" H 7850 3100 50  0000 C CNN
	1    7850 3100
	-1   0    0    -1  
$EndComp
Text Label 7850 2650 1    50   ~ 0
B_PROG
Wire Wire Line
	7850 2700 7850 2400
$Comp
L Br:D_LED_GREEN_SMD_0603 D4
U 1 1 5EF53DE7
P 8200 6100
F 0 "D4" V 8250 5950 50  0000 C CNN
F 1 "D_LED_GREEN_SMD_0603" V 8394 6075 50  0001 C CNN
F 2 "Br:LED_0603" H 8200 6100 50  0001 C CNN
F 3 "" H 8200 6100 50  0001 C CNN
F 4 "C72043" V 8393 6075 50  0001 C CNN "LCSC"
	1    8200 6100
	-1   0    0    -1  
$EndComp
$Comp
L Br:GND #PWR0146
U 1 1 5EF540E0
P 8200 6300
F 0 "#PWR0146" H 8200 6050 50  0001 C CNN
F 1 "GND" H 8205 6127 50  0000 C CNN
F 2 "" H 8200 6300 50  0000 C CNN
F 3 "" H 8200 6300 50  0000 C CNN
	1    8200 6300
	1    0    0    -1  
$EndComp
Text Notes 8650 2250 0    50   ~ 0
ALL LEDS green except couple of..
Text Label 8200 5850 1    50   ~ 0
L_PLAY
$Comp
L Br:D_LED_GREEN_SMD_0603 D8
U 1 1 5EF5F34A
P 8900 6100
F 0 "D8" V 8950 5950 50  0000 C CNN
F 1 "D_LED_GREEN_SMD_0603" V 9094 6075 50  0001 C CNN
F 2 "Br:LED_0603" H 8900 6100 50  0001 C CNN
F 3 "" H 8900 6100 50  0001 C CNN
F 4 "C72043" V 9093 6075 50  0001 C CNN "LCSC"
	1    8900 6100
	-1   0    0    -1  
$EndComp
$Comp
L Br:GND #PWR0148
U 1 1 5EF5F4C6
P 8900 6300
F 0 "#PWR0148" H 8900 6050 50  0001 C CNN
F 1 "GND" H 9000 6150 50  0000 C CNN
F 2 "" H 8900 6300 50  0000 C CNN
F 3 "" H 8900 6300 50  0000 C CNN
	1    8900 6300
	1    0    0    -1  
$EndComp
Wire Wire Line
	8200 5950 8200 5600
Text Label 8900 5850 1    50   ~ 0
L_STOP
Wire Wire Line
	8900 5950 8900 5600
$Comp
L Br:GND #PWR0149
U 1 1 5EFE1002
P 9550 6300
F 0 "#PWR0149" H 9550 6050 50  0001 C CNN
F 1 "GND" H 9650 6150 50  0000 C CNN
F 2 "" H 9550 6300 50  0000 C CNN
F 3 "" H 9550 6300 50  0000 C CNN
	1    9550 6300
	1    0    0    -1  
$EndComp
Text Label 9550 5900 1    50   ~ 0
L_RECORD
Wire Wire Line
	9550 5950 9550 5600
$Comp
L Br:D_LED_GREEN_SMD_0603 D20
U 1 1 5EFF6927
P 10300 6100
F 0 "D20" V 10350 5950 50  0000 C CNN
F 1 "D_LED_GREEN_SMD_0603" V 10494 6075 50  0001 C CNN
F 2 "Br:LED_0603" H 10300 6100 50  0001 C CNN
F 3 "" H 10300 6100 50  0001 C CNN
F 4 "C72043" V 10493 6075 50  0001 C CNN "LCSC"
	1    10300 6100
	-1   0    0    -1  
$EndComp
$Comp
L Br:GND #PWR0150
U 1 1 5EFF692D
P 10300 6300
F 0 "#PWR0150" H 10300 6050 50  0001 C CNN
F 1 "GND" H 10400 6150 50  0000 C CNN
F 2 "" H 10300 6300 50  0000 C CNN
F 3 "" H 10300 6300 50  0000 C CNN
	1    10300 6300
	1    0    0    -1  
$EndComp
Text Label 10300 5900 1    50   ~ 0
L_CANCEL
Wire Wire Line
	10300 5950 10300 5600
Text Notes 9650 6050 1    50   ~ 0
RED LED
$Comp
L Br:D_LED_RED_SMD_0603 D15
U 1 1 5F02D490
P 9550 6100
F 0 "D15" V 9600 5900 50  0000 L CNN
F 1 "D_LED_RED_SMD_0603" H 9698 6030 50  0001 L CNN
F 2 "Br:LED_0603" H 9550 6100 50  0001 C CNN
F 3 "" H 9550 6100 50  0001 C CNN
F 4 "C2286" H 9698 5984 50  0001 L CNN "LCSC"
	1    9550 6100
	1    0    0    -1  
$EndComp
$Comp
L Br:D_LED_GREEN_SMD_0603 D7
U 1 1 5F02D978
P 8550 4950
F 0 "D7" V 8600 4800 50  0000 C CNN
F 1 "D_LED_GREEN_SMD_0603" V 8744 4925 50  0001 C CNN
F 2 "Br:LED_0603" H 8550 4950 50  0001 C CNN
F 3 "" H 8550 4950 50  0001 C CNN
F 4 "C72043" V 8743 4925 50  0001 C CNN "LCSC"
	1    8550 4950
	-1   0    0    -1  
$EndComp
$Comp
L Br:GND #PWR0151
U 1 1 5F02D97E
P 8550 5150
F 0 "#PWR0151" H 8550 4900 50  0001 C CNN
F 1 "GND" H 8650 5000 50  0000 C CNN
F 2 "" H 8550 5150 50  0000 C CNN
F 3 "" H 8550 5150 50  0000 C CNN
	1    8550 5150
	1    0    0    -1  
$EndComp
Text Label 8550 4750 1    50   ~ 0
L_TRG1
Wire Wire Line
	8550 4800 8550 4450
$Comp
L Br:D_LED_GREEN_SMD_0603 D11
U 1 1 5F0433CD
P 9000 4950
F 0 "D11" V 9050 4800 50  0000 C CNN
F 1 "D_LED_GREEN_SMD_0603" V 9194 4925 50  0001 C CNN
F 2 "Br:LED_0603" H 9000 4950 50  0001 C CNN
F 3 "" H 9000 4950 50  0001 C CNN
F 4 "C72043" V 9193 4925 50  0001 C CNN "LCSC"
	1    9000 4950
	-1   0    0    -1  
$EndComp
$Comp
L Br:GND #PWR0152
U 1 1 5F0433D3
P 9000 5150
F 0 "#PWR0152" H 9000 4900 50  0001 C CNN
F 1 "GND" H 9100 5000 50  0000 C CNN
F 2 "" H 9000 5150 50  0000 C CNN
F 3 "" H 9000 5150 50  0000 C CNN
	1    9000 5150
	1    0    0    -1  
$EndComp
Wire Wire Line
	9000 4800 9000 4450
$Comp
L Br:D_LED_GREEN_SMD_0603 D14
U 1 1 5F04E1FC
P 9450 4950
F 0 "D14" V 9500 4800 50  0000 C CNN
F 1 "D_LED_GREEN_SMD_0603" V 9644 4925 50  0001 C CNN
F 2 "Br:LED_0603" H 9450 4950 50  0001 C CNN
F 3 "" H 9450 4950 50  0001 C CNN
F 4 "C72043" V 9643 4925 50  0001 C CNN "LCSC"
	1    9450 4950
	-1   0    0    -1  
$EndComp
$Comp
L Br:GND #PWR0153
U 1 1 5F04E202
P 9450 5150
F 0 "#PWR0153" H 9450 4900 50  0001 C CNN
F 1 "GND" H 9550 5000 50  0000 C CNN
F 2 "" H 9450 5150 50  0000 C CNN
F 3 "" H 9450 5150 50  0000 C CNN
	1    9450 5150
	1    0    0    -1  
$EndComp
Wire Wire Line
	9450 4800 9450 4450
$Comp
L Br:GND #PWR0154
U 1 1 5F059670
P 8550 4150
F 0 "#PWR0154" H 8550 3900 50  0001 C CNN
F 1 "GND" H 8650 4000 50  0000 C CNN
F 2 "" H 8550 4150 50  0000 C CNN
F 3 "" H 8550 4150 50  0000 C CNN
	1    8550 4150
	1    0    0    -1  
$EndComp
Text Label 8550 3700 1    50   ~ 0
L_SPEED1
Wire Wire Line
	8550 3800 8550 3450
$Comp
L Br:D_LED_GREEN_SMD_0603 D10
U 1 1 5F059679
P 9000 3950
F 0 "D10" V 9050 3800 50  0000 C CNN
F 1 "D_LED_GREEN_SMD_0603" V 9194 3925 50  0001 C CNN
F 2 "Br:LED_0603" H 9000 3950 50  0001 C CNN
F 3 "" H 9000 3950 50  0001 C CNN
F 4 "C72043" V 9193 3925 50  0001 C CNN "LCSC"
	1    9000 3950
	-1   0    0    -1  
$EndComp
$Comp
L Br:GND #PWR0155
U 1 1 5F05967F
P 9000 4150
F 0 "#PWR0155" H 9000 3900 50  0001 C CNN
F 1 "GND" H 9100 4000 50  0000 C CNN
F 2 "" H 9000 4150 50  0000 C CNN
F 3 "" H 9000 4150 50  0000 C CNN
	1    9000 4150
	1    0    0    -1  
$EndComp
Wire Wire Line
	9000 3800 9000 3450
$Comp
L Br:D_LED_GREEN_SMD_0603 D13
U 1 1 5F059687
P 9450 3950
F 0 "D13" V 9500 3800 50  0000 C CNN
F 1 "D_LED_GREEN_SMD_0603" V 9644 3925 50  0001 C CNN
F 2 "Br:LED_0603" H 9450 3950 50  0001 C CNN
F 3 "" H 9450 3950 50  0001 C CNN
F 4 "C72043" V 9643 3925 50  0001 C CNN "LCSC"
	1    9450 3950
	-1   0    0    -1  
$EndComp
$Comp
L Br:GND #PWR0156
U 1 1 5F05968D
P 9450 4150
F 0 "#PWR0156" H 9450 3900 50  0001 C CNN
F 1 "GND" H 9550 4000 50  0000 C CNN
F 2 "" H 9450 4150 50  0000 C CNN
F 3 "" H 9450 4150 50  0000 C CNN
	1    9450 4150
	1    0    0    -1  
$EndComp
Wire Wire Line
	9450 3800 9450 3450
$Comp
L Br:D_LED_GREEN_SMD_0603 D17
U 1 1 5F0650C5
P 9950 3950
F 0 "D17" V 10000 3800 50  0000 C CNN
F 1 "D_LED_GREEN_SMD_0603" V 10144 3925 50  0001 C CNN
F 2 "Br:LED_0603" H 9950 3950 50  0001 C CNN
F 3 "" H 9950 3950 50  0001 C CNN
F 4 "C72043" V 10143 3925 50  0001 C CNN "LCSC"
	1    9950 3950
	-1   0    0    -1  
$EndComp
$Comp
L Br:GND #PWR0157
U 1 1 5F0650CB
P 9950 4150
F 0 "#PWR0157" H 9950 3900 50  0001 C CNN
F 1 "GND" H 10050 4000 50  0000 C CNN
F 2 "" H 9950 4150 50  0000 C CNN
F 3 "" H 9950 4150 50  0000 C CNN
	1    9950 4150
	1    0    0    -1  
$EndComp
Wire Wire Line
	9950 3800 9950 3450
Text Label 9000 3700 1    50   ~ 0
L_SPEED2
Text Label 9450 3700 1    50   ~ 0
L_SPEED3
Text Label 9950 3700 1    50   ~ 0
L_SPEED4
Text Label 9000 4750 1    50   ~ 0
L_TRG2
Text Label 9450 4750 1    50   ~ 0
L_TRG3
$Comp
L Br:D_LED_YELLOW_SMD_0603 D6
U 1 1 5F07C3DA
P 8550 3950
F 0 "D6" V 8500 3750 50  0000 L CNN
F 1 "D_LED_YELLOW_SMD_0603" H 8698 3880 50  0001 L CNN
F 2 "Br:LED_0603" H 8550 3950 50  0001 C CNN
F 3 "" H 8550 3950 50  0001 C CNN
F 4 "C72038" H 8698 3834 50  0001 L CNN "LCSC"
	1    8550 3950
	1    0    0    -1  
$EndComp
Text Notes 8650 3900 1    50   ~ 0
YELLOW
$Comp
L Br:GND #PWR0158
U 1 1 5F07CB1A
P 8550 3100
F 0 "#PWR0158" H 8550 2850 50  0001 C CNN
F 1 "GND" H 8650 2950 50  0000 C CNN
F 2 "" H 8550 3100 50  0000 C CNN
F 3 "" H 8550 3100 50  0000 C CNN
	1    8550 3100
	1    0    0    -1  
$EndComp
Text Label 8550 2650 1    50   ~ 0
L_PROG1
Wire Wire Line
	8550 2750 8550 2400
$Comp
L Br:D_LED_GREEN_SMD_0603 D9
U 1 1 5F07CB23
P 9000 2900
F 0 "D9" V 9050 2750 50  0000 C CNN
F 1 "D_LED_GREEN_SMD_0603" V 9194 2875 50  0001 C CNN
F 2 "Br:LED_0603" H 9000 2900 50  0001 C CNN
F 3 "" H 9000 2900 50  0001 C CNN
F 4 "C72043" V 9193 2875 50  0001 C CNN "LCSC"
	1    9000 2900
	-1   0    0    -1  
$EndComp
$Comp
L Br:GND #PWR0159
U 1 1 5F07CB29
P 9000 3100
F 0 "#PWR0159" H 9000 2850 50  0001 C CNN
F 1 "GND" H 9100 2950 50  0000 C CNN
F 2 "" H 9000 3100 50  0000 C CNN
F 3 "" H 9000 3100 50  0000 C CNN
	1    9000 3100
	1    0    0    -1  
$EndComp
Wire Wire Line
	9000 2750 9000 2400
$Comp
L Br:D_LED_GREEN_SMD_0603 D12
U 1 1 5F07CB31
P 9450 2900
F 0 "D12" V 9500 2750 50  0000 C CNN
F 1 "D_LED_GREEN_SMD_0603" V 9644 2875 50  0001 C CNN
F 2 "Br:LED_0603" H 9450 2900 50  0001 C CNN
F 3 "" H 9450 2900 50  0001 C CNN
F 4 "C72043" V 9643 2875 50  0001 C CNN "LCSC"
	1    9450 2900
	-1   0    0    -1  
$EndComp
$Comp
L Br:GND #PWR0160
U 1 1 5F07CB37
P 9450 3100
F 0 "#PWR0160" H 9450 2850 50  0001 C CNN
F 1 "GND" H 9550 2950 50  0000 C CNN
F 2 "" H 9450 3100 50  0000 C CNN
F 3 "" H 9450 3100 50  0000 C CNN
	1    9450 3100
	1    0    0    -1  
$EndComp
Wire Wire Line
	9450 2750 9450 2400
$Comp
L Br:D_LED_GREEN_SMD_0603 D16
U 1 1 5F07CB3F
P 9950 2900
F 0 "D16" V 10000 2750 50  0000 C CNN
F 1 "D_LED_GREEN_SMD_0603" V 10144 2875 50  0001 C CNN
F 2 "Br:LED_0603" H 9950 2900 50  0001 C CNN
F 3 "" H 9950 2900 50  0001 C CNN
F 4 "C72043" V 10143 2875 50  0001 C CNN "LCSC"
	1    9950 2900
	-1   0    0    -1  
$EndComp
$Comp
L Br:GND #PWR0161
U 1 1 5F07CB45
P 9950 3100
F 0 "#PWR0161" H 9950 2850 50  0001 C CNN
F 1 "GND" H 10050 2950 50  0000 C CNN
F 2 "" H 9950 3100 50  0000 C CNN
F 3 "" H 9950 3100 50  0000 C CNN
	1    9950 3100
	1    0    0    -1  
$EndComp
Wire Wire Line
	9950 2750 9950 2400
$Comp
L Br:D_LED_GREEN_SMD_0603 D5
U 1 1 5F0881F4
P 8550 2900
F 0 "D5" V 8600 2750 50  0000 C CNN
F 1 "D_LED_GREEN_SMD_0603" V 8744 2875 50  0001 C CNN
F 2 "Br:LED_0603" H 8550 2900 50  0001 C CNN
F 3 "" H 8550 2900 50  0001 C CNN
F 4 "C72043" V 8743 2875 50  0001 C CNN "LCSC"
	1    8550 2900
	-1   0    0    -1  
$EndComp
Text Label 9000 2650 1    50   ~ 0
L_PROG2
Text Label 9450 2650 1    50   ~ 0
L_PROG3
Text Label 9950 2650 1    50   ~ 0
L_PROG4
Text Label 1450 7200 2    50   ~ 0
L_PROG1
Text Label 1450 7100 2    50   ~ 0
L_PROG2
Text Label 1450 7000 2    50   ~ 0
L_PROG3
Text Label 1450 6900 2    50   ~ 0
L_PROG4
Text Label 1450 6800 2    50   ~ 0
L_SPEED4
Text Label 1450 6700 2    50   ~ 0
L_SPEED3
Text Label 1450 6600 2    50   ~ 0
L_SPEED2
Text Label 4200 6700 2    50   ~ 0
L_SPEED1
Text Label 1550 5500 2    50   ~ 0
L_TRG3
Text Label 1550 5600 2    50   ~ 0
L_TRG2
Text Label 1550 5700 2    50   ~ 0
L_TRG1
Text Label 6700 3400 2    50   ~ 0
B_PROG
Text Label 6700 3500 2    50   ~ 0
B_SPEED
Text Label 6700 3600 2    50   ~ 0
B_TRG
Text Label 6700 4200 2    50   ~ 0
B_PLAY
Text Label 6700 4300 2    50   ~ 0
B_STOP
Text Label 2450 3850 2    50   ~ 0
B_RECORD
Text Label 2450 3750 2    50   ~ 0
B_CANCEL
Text Label 1450 5100 2    50   ~ 0
L_PLAY
Text Label 4100 5200 2    50   ~ 0
L_STOP
Text Label 1550 5200 2    50   ~ 0
L_RECORD
Text Label 1550 5300 2    50   ~ 0
L_CANCEL
$Comp
L Br:D_LED_GREEN_SMD_0603 D21
U 1 1 5F0D9B3D
P 9950 4950
F 0 "D21" V 10000 4800 50  0000 C CNN
F 1 "D_LED_GREEN_SMD_0603" V 10144 4925 50  0001 C CNN
F 2 "Br:LED_0603" H 9950 4950 50  0001 C CNN
F 3 "" H 9950 4950 50  0001 C CNN
F 4 "C72043" V 10143 4925 50  0001 C CNN "LCSC"
	1    9950 4950
	-1   0    0    -1  
$EndComp
$Comp
L Br:GND #PWR0162
U 1 1 5F0D9B43
P 9950 5150
F 0 "#PWR0162" H 9950 4900 50  0001 C CNN
F 1 "GND" H 10050 5000 50  0000 C CNN
F 2 "" H 9950 5150 50  0000 C CNN
F 3 "" H 9950 5150 50  0000 C CNN
	1    9950 5150
	1    0    0    -1  
$EndComp
Wire Wire Line
	9950 4800 9950 4450
Text Label 9950 4750 1    50   ~ 0
L_TRG4
$Comp
L Br:R_100K_0402_1%_0 R19
U 1 1 5EED43C2
P 1900 3750
F 0 "R19" V 1850 3500 50  0000 C CNN
F 1 "100k" V 1900 3750 50  0000 C CNN
F 2 "Br:R_0402" V 1830 3750 50  0001 C CNN
F 3 "" H 1900 3750 50  0000 C CNN
F 4 "C25741" V 1785 3750 50  0001 C CNN "LCSC"
	1    1900 3750
	0    1    1    0   
$EndComp
Wire Wire Line
	2050 3750 2550 3750
$Comp
L Br:R_100K_0402_1%_0 R20
U 1 1 5EEDBEAC
P 1900 3850
F 0 "R20" V 1850 3600 50  0000 C CNN
F 1 "100k" V 1900 3850 50  0000 C CNN
F 2 "Br:R_0402" V 1830 3850 50  0001 C CNN
F 3 "" H 1900 3850 50  0000 C CNN
F 4 "C25741" V 1785 3850 50  0001 C CNN "LCSC"
	1    1900 3850
	0    1    1    0   
$EndComp
Wire Wire Line
	2550 3850 2050 3850
$Comp
L Br:3V3 #PWR0132
U 1 1 5EEE36FA
P 1500 3750
F 0 "#PWR0132" H 1500 3600 50  0001 C CNN
F 1 "3V3" V 1515 3878 50  0000 L CNN
F 2 "" H 1500 3750 50  0000 C CNN
F 3 "" H 1500 3750 50  0000 C CNN
	1    1500 3750
	0    -1   -1   0   
$EndComp
Wire Wire Line
	1750 3850 1550 3850
Wire Wire Line
	1550 3850 1550 3750
Wire Wire Line
	1550 3750 1500 3750
Wire Wire Line
	1550 3750 1750 3750
Connection ~ 1550 3750
$Comp
L Br:R_100K_0402_1%_0 R24
U 1 1 5EEF3473
P 6900 4200
F 0 "R24" V 6850 4400 50  0000 C CNN
F 1 "100k" V 6900 4200 50  0000 C CNN
F 2 "Br:R_0402" V 6830 4200 50  0001 C CNN
F 3 "" H 6900 4200 50  0000 C CNN
F 4 "C25741" V 6785 4200 50  0001 C CNN "LCSC"
	1    6900 4200
	0    1    1    0   
$EndComp
$Comp
L Br:R_100K_0402_1%_0 R25
U 1 1 5EEF37B7
P 6900 4300
F 0 "R25" V 6850 4500 50  0000 C CNN
F 1 "100k" V 6900 4300 50  0000 C CNN
F 2 "Br:R_0402" V 6830 4300 50  0001 C CNN
F 3 "" H 6900 4300 50  0000 C CNN
F 4 "C25741" V 6785 4300 50  0001 C CNN "LCSC"
	1    6900 4300
	0    1    1    0   
$EndComp
Wire Wire Line
	6400 4200 6750 4200
Wire Wire Line
	6750 4300 6400 4300
$Comp
L Br:R_100K_0402_1%_0 R21
U 1 1 5EF03B80
P 6900 3400
F 0 "R21" V 6850 3600 50  0000 C CNN
F 1 "100k" V 6900 3400 50  0000 C CNN
F 2 "Br:R_0402" V 6830 3400 50  0001 C CNN
F 3 "" H 6900 3400 50  0000 C CNN
F 4 "C25741" V 6785 3400 50  0001 C CNN "LCSC"
	1    6900 3400
	0    1    1    0   
$EndComp
$Comp
L Br:R_100K_0402_1%_0 R22
U 1 1 5EF03C28
P 6900 3500
F 0 "R22" V 6850 3700 50  0000 C CNN
F 1 "100k" V 6900 3500 50  0000 C CNN
F 2 "Br:R_0402" V 6830 3500 50  0001 C CNN
F 3 "" H 6900 3500 50  0000 C CNN
F 4 "C25741" V 6785 3500 50  0001 C CNN "LCSC"
	1    6900 3500
	0    1    1    0   
$EndComp
$Comp
L Br:R_100K_0402_1%_0 R23
U 1 1 5EF03EEC
P 6900 3600
F 0 "R23" V 6850 3800 50  0000 C CNN
F 1 "100k" V 6900 3600 50  0000 C CNN
F 2 "Br:R_0402" V 6830 3600 50  0001 C CNN
F 3 "" H 6900 3600 50  0000 C CNN
F 4 "C25741" V 6785 3600 50  0001 C CNN "LCSC"
	1    6900 3600
	0    1    1    0   
$EndComp
Wire Wire Line
	6750 3600 6400 3600
Wire Wire Line
	6400 3500 6750 3500
Wire Wire Line
	6750 3400 6400 3400
$Comp
L Br:3V3 #PWR0139
U 1 1 5EF1D09A
P 7300 3400
F 0 "#PWR0139" H 7300 3250 50  0001 C CNN
F 1 "3V3" V 7315 3528 50  0000 L CNN
F 2 "" H 7300 3400 50  0000 C CNN
F 3 "" H 7300 3400 50  0000 C CNN
	1    7300 3400
	0    1    1    0   
$EndComp
Wire Wire Line
	7050 3400 7250 3400
Wire Wire Line
	7050 3500 7250 3500
Wire Wire Line
	7250 3500 7250 3400
Connection ~ 7250 3400
Wire Wire Line
	7250 3400 7300 3400
Wire Wire Line
	7050 3600 7250 3600
Wire Wire Line
	7250 3600 7250 3500
Connection ~ 7250 3500
$Comp
L Br:3V3 #PWR0163
U 1 1 5EF37532
P 7300 4200
F 0 "#PWR0163" H 7300 4050 50  0001 C CNN
F 1 "3V3" V 7315 4328 50  0000 L CNN
F 2 "" H 7300 4200 50  0000 C CNN
F 3 "" H 7300 4200 50  0000 C CNN
	1    7300 4200
	0    1    1    0   
$EndComp
Wire Wire Line
	7250 4200 7050 4200
Wire Wire Line
	7050 4300 7250 4300
Wire Wire Line
	7250 4300 7250 4200
Connection ~ 7250 4200
Wire Wire Line
	7300 4200 7250 4200
$Comp
L Br:C_1U_0603_10%_50V_X5R C7
U 1 1 5EF534F9
P 7400 1750
F 0 "C7" H 7515 1796 50  0000 L CNN
F 1 "1uF" H 7515 1705 50  0000 L CNN
F 2 "Br:C_0603" V 7330 1750 50  0001 C CNN
F 3 "" V 7500 1650 50  0000 C CNN
F 4 "C15849" H 7515 1659 50  0001 L CNN "LCSC"
	1    7400 1750
	1    0    0    -1  
$EndComp
Wire Wire Line
	7400 1600 7400 1500
Wire Wire Line
	7400 1500 7100 1500
$Comp
L Br:GND #PWR0164
U 1 1 5EF5CDDB
P 7400 2050
F 0 "#PWR0164" H 7400 1800 50  0001 C CNN
F 1 "GND" H 7405 1877 50  0000 C CNN
F 2 "" H 7400 2050 50  0000 C CNN
F 3 "" H 7400 2050 50  0000 C CNN
	1    7400 2050
	-1   0    0    -1  
$EndComp
Wire Wire Line
	7400 2050 7400 1900
Wire Wire Line
	1650 6900 1100 6900
Wire Wire Line
	1100 7000 1650 7000
Wire Wire Line
	1650 7100 1100 7100
Wire Wire Line
	1100 7200 1650 7200
Wire Wire Line
	3650 6700 4200 6700
Wire Wire Line
	1100 6600 1650 6600
Wire Wire Line
	1100 6700 1650 6700
Wire Wire Line
	1100 6800 1650 6800
Text Label 1550 5400 2    50   ~ 0
L_TRG4
Wire Wire Line
	1650 5400 1300 5400
Wire Wire Line
	1300 5500 1650 5500
Wire Wire Line
	1650 5600 1300 5600
Wire Wire Line
	1300 5700 1650 5700
Wire Wire Line
	3650 5200 4100 5200
Wire Wire Line
	1200 5100 1650 5100
Wire Wire Line
	1650 5200 1200 5200
Wire Wire Line
	1200 5300 1650 5300
NoConn ~ 2550 4150
NoConn ~ 2550 4250
$Comp
L Br:MEM_W25Q128JVSIQ_SPI_FLASH_128MB U3
U 1 1 5EEFE7F4
P 5700 5400
F 0 "U3" H 5700 5723 50  0000 C CNN
F 1 "MEM_W25Q128JVSIQ_SPI_FLASH_128MB" H 5700 5724 50  0001 C CNN
F 2 "Br:SOIC-8" H 6000 5300 50  0001 C CNN
F 3 "" H 6000 5300 50  0001 C CNN
F 4 "C97521" H 5750 5100 50  0001 C CNN "LCSC"
	1    5700 5400
	1    0    0    -1  
$EndComp
$Comp
L Br:ICD_74HC595_SERIAL_IN_PAR_OUT U4
U 1 1 5EF0AFBB
P 2500 5500
F 0 "U4" H 2475 6073 50  0000 C CNN
F 1 "ICD_74HC595_SERIAL_IN_PAR_OUT" H 2475 6074 50  0001 C CNN
F 2 "Br:SOIC-16" H 2350 5350 50  0001 C CNN
F 3 "" H 2350 5350 50  0001 C CNN
F 4 "C5947" H 2475 6073 50  0001 C CNN "LCSC"
	1    2500 5500
	1    0    0    -1  
$EndComp
$Comp
L Br:ICD_74HC595_SERIAL_IN_PAR_OUT U5
U 1 1 5EF0B347
P 2500 7000
F 0 "U5" H 2475 7573 50  0000 C CNN
F 1 "ICD_74HC595_SERIAL_IN_PAR_OUT" H 2475 7574 50  0001 C CNN
F 2 "Br:SOIC-16" H 2350 6850 50  0001 C CNN
F 3 "" H 2350 6850 50  0001 C CNN
F 4 "C5947" H 2475 7573 50  0001 C CNN "LCSC"
	1    2500 7000
	1    0    0    -1  
$EndComp
$EndSCHEMATC
