EESchema Schematic File Version 4
LIBS:009_5x6_2x_DC_motor_R2-cache
EELAYER 26 0
EELAYER END
$Descr A4 11693 8268
encoding utf-8
Sheet 1 1
Title ""
Date ""
Rev ""
Comp ""
Comment1 ""
Comment2 ""
Comment3 ""
Comment4 ""
$EndDescr
$Comp
L Br:Br_CN_IN J1
U 1 1 5D978D2E
P 1650 1800
F 0 "J1" H 1272 1747 60  0000 R CNN
F 1 "Br_CN_IN" H 1272 1853 60  0000 R CNN
F 2 "Br:Br_CN_IN" H 1525 1900 60  0001 C CNN
F 3 "" H 1525 1900 60  0001 C CNN
	1    1650 1800
	1    0    0    1   
$EndComp
$Comp
L Br:GND #PWR0101
U 1 1 5D979092
P 2300 2500
F 0 "#PWR0101" H 2300 2250 50  0001 C CNN
F 1 "GND" H 2305 2327 50  0000 C CNN
F 2 "" H 2300 2500 50  0000 C CNN
F 3 "" H 2300 2500 50  0000 C CNN
	1    2300 2500
	1    0    0    -1  
$EndComp
$Comp
L Br:5V #PWR0102
U 1 1 5D97912B
P 2000 2100
F 0 "#PWR0102" H 2000 1950 50  0001 C CNN
F 1 "5V" V 2015 2228 50  0000 L CNN
F 2 "" H 2000 2100 50  0000 C CNN
F 3 "" H 2000 2100 50  0000 C CNN
	1    2000 2100
	0    1    1    0   
$EndComp
$Comp
L Br:12V #PWR0103
U 1 1 5D97916E
P 1900 1400
F 0 "#PWR0103" H 1900 1250 50  0001 C CNN
F 1 "12V" V 1915 1528 50  0000 L CNN
F 2 "" H 1900 1400 50  0000 C CNN
F 3 "" H 1900 1400 50  0000 C CNN
	1    1900 1400
	0    1    1    0   
$EndComp
Text Notes 3400 1200 0    50   ~ 0
Female\n
Text Notes 1400 1200 0    50   ~ 0
Male\n
Text Label 1850 1800 0    50   ~ 0
UART_RX
Text Label 1850 1600 0    50   ~ 0
SPARE
Wire Wire Line
	1750 2100 1900 2100
Wire Wire Line
	1750 2000 1900 2000
Wire Wire Line
	1900 2000 1900 2100
Connection ~ 1900 2100
Wire Wire Line
	1900 2100 2000 2100
Wire Wire Line
	1800 1500 1800 1400
Wire Wire Line
	1800 1400 1900 1400
Wire Wire Line
	1750 1600 2200 1600
Text Label 7350 1400 0    50   ~ 0
UART_RX
Text Label 10250 1400 0    50   ~ 0
UART_TX
$Comp
L Br:Br_CN_OUT J3
U 1 1 5D9C46C3
P 3650 1800
F 0 "J3" H 3827 1846 50  0000 L CNN
F 1 "Br_CN_OUT" H 3827 1755 50  0000 L CNN
F 2 "Br:Br_CN_OUT" H 3650 2350 50  0001 C CNN
F 3 "" H 3650 2350 50  0001 C CNN
	1    3650 1800
	1    0    0    -1  
$EndComp
$Comp
L Br:Hole3mm H1
U 1 1 5D9D377A
P 5600 6600
F 0 "H1" H 5677 6651 50  0000 L CNN
F 1 "Hole3mm" H 5677 6560 50  0000 L CNN
F 2 "Br:Hole3mm" H 5600 6600 50  0001 C CNN
F 3 "" H 5600 6600 50  0001 C CNN
	1    5600 6600
	1    0    0    -1  
$EndComp
$Comp
L Br:Hole3mm H2
U 1 1 5D9D6260
P 5600 6850
F 0 "H2" H 5677 6901 50  0000 L CNN
F 1 "Hole3mm" H 5677 6810 50  0000 L CNN
F 2 "Br:Hole3mm" H 5600 6850 50  0001 C CNN
F 3 "" H 5600 6850 50  0001 C CNN
	1    5600 6850
	1    0    0    -1  
$EndComp
$Comp
L Br:Hole3mm H4
U 1 1 5D9D6266
P 6300 6850
F 0 "H4" H 6377 6901 50  0000 L CNN
F 1 "Hole3mm" H 6377 6810 50  0000 L CNN
F 2 "Br:Hole3mm" H 6300 6850 50  0001 C CNN
F 3 "" H 6300 6850 50  0001 C CNN
	1    6300 6850
	1    0    0    -1  
$EndComp
Wire Wire Line
	1800 1500 1750 1500
Wire Wire Line
	1750 1400 1800 1400
Connection ~ 1800 1400
Wire Wire Line
	2300 1900 2300 2200
Wire Wire Line
	1750 1900 2300 1900
Wire Wire Line
	2300 1900 2300 1700
Wire Wire Line
	1750 1700 2300 1700
Wire Wire Line
	1750 1800 2200 1800
Connection ~ 2300 1900
Wire Wire Line
	1750 2200 2300 2200
Connection ~ 2300 2200
Wire Wire Line
	2300 2200 2300 2500
$Comp
L Br:GND #PWR0104
U 1 1 5D9E7626
P 2750 2500
F 0 "#PWR0104" H 2750 2250 50  0001 C CNN
F 1 "GND" H 2755 2327 50  0000 C CNN
F 2 "" H 2750 2500 50  0000 C CNN
F 3 "" H 2750 2500 50  0000 C CNN
	1    2750 2500
	-1   0    0    -1  
$EndComp
$Comp
L Br:5V #PWR0105
U 1 1 5D9E762C
P 3100 2100
F 0 "#PWR0105" H 3100 1950 50  0001 C CNN
F 1 "5V" V 3115 2228 50  0000 L CNN
F 2 "" H 3100 2100 50  0000 C CNN
F 3 "" H 3100 2100 50  0000 C CNN
	1    3100 2100
	0    -1   1    0   
$EndComp
$Comp
L Br:12V #PWR0106
U 1 1 5D9E7632
P 3100 1400
F 0 "#PWR0106" H 3100 1250 50  0001 C CNN
F 1 "12V" V 3115 1528 50  0000 L CNN
F 2 "" H 3100 1400 50  0000 C CNN
F 3 "" H 3100 1400 50  0000 C CNN
	1    3100 1400
	0    -1   1    0   
$EndComp
Text Label 3250 1800 2    50   ~ 0
UART_TX
Text Label 3250 1600 2    50   ~ 0
SPARE
Wire Wire Line
	3350 2100 3200 2100
Wire Wire Line
	3350 2000 3200 2000
Wire Wire Line
	3200 2000 3200 2100
Connection ~ 3200 2100
Wire Wire Line
	3200 2100 3100 2100
Wire Wire Line
	3200 1500 3200 1400
Connection ~ 3200 1400
Wire Wire Line
	3200 1400 3100 1400
Wire Wire Line
	3350 1500 3200 1500
Wire Wire Line
	3350 1400 3200 1400
Wire Wire Line
	3350 1600 2900 1600
Wire Wire Line
	2750 1700 2750 1900
Wire Wire Line
	2750 1700 3350 1700
Wire Wire Line
	2900 1800 3350 1800
Wire Wire Line
	3350 1900 2750 1900
Connection ~ 2750 1900
Wire Wire Line
	2750 1900 2750 2200
Wire Wire Line
	3350 2200 2750 2200
Connection ~ 2750 2200
Wire Wire Line
	2750 2200 2750 2500
$Comp
L Br:5V #PWR0107
U 1 1 5D9CBEE0
P 5200 1000
F 0 "#PWR0107" H 5200 850 50  0001 C CNN
F 1 "5V" V 5215 1128 50  0000 L CNN
F 2 "" H 5200 1000 50  0000 C CNN
F 3 "" H 5200 1000 50  0000 C CNN
	1    5200 1000
	1    0    0    -1  
$EndComp
Wire Wire Line
	5200 1100 5200 1000
$Comp
L Br:D_BAV99.215 D2
U 1 1 5D9CDB0F
P 8500 1400
F 0 "D2" H 8577 1354 50  0000 L CNN
F 1 "D_BAV99.215" H 7950 1700 50  0000 L CNN
F 2 "Br:SOT23" V 8500 1550 50  0001 C CNN
F 3 "../library_doc/D_BAV99.215.pdf" H 8578 1355 50  0001 L CNN
F 4 "C2500" H 8577 1309 50  0001 L CNN "LCSC"
	1    8500 1400
	1    0    0    1   
$EndComp
Wire Wire Line
	7350 1400 7750 1400
$Comp
L Br:GND #PWR0108
U 1 1 5D9CF159
P 8500 1750
F 0 "#PWR0108" H 8500 1500 50  0001 C CNN
F 1 "GND" H 8505 1577 50  0000 C CNN
F 2 "" H 8500 1750 50  0000 C CNN
F 3 "" H 8500 1750 50  0000 C CNN
	1    8500 1750
	-1   0    0    -1  
$EndComp
Wire Wire Line
	8500 1750 8500 1700
$Comp
L Br:D_BAV99.215 D3
U 1 1 5D9CF778
P 9450 1400
F 0 "D3" H 9528 1354 50  0000 L CNN
F 1 "D_BAV99.215" H 8900 1650 50  0000 L CNN
F 2 "Br:SOT23" V 9450 1550 50  0001 C CNN
F 3 "../library_doc/D_BAV99.215.pdf" H 9528 1355 50  0001 L CNN
F 4 "C2500" H 9527 1309 50  0001 L CNN "LCSC"
	1    9450 1400
	-1   0    0    1   
$EndComp
Wire Wire Line
	10550 1400 10150 1400
$Comp
L Br:GND #PWR0109
U 1 1 5D9CF78E
P 9450 1750
F 0 "#PWR0109" H 9450 1500 50  0001 C CNN
F 1 "GND" H 9455 1577 50  0000 C CNN
F 2 "" H 9450 1750 50  0000 C CNN
F 3 "" H 9450 1750 50  0000 C CNN
	1    9450 1750
	1    0    0    -1  
$EndComp
Wire Wire Line
	9450 1750 9450 1700
$Comp
L Br:3V3 #PWR0110
U 1 1 5D9D1287
P 9450 1000
F 0 "#PWR0110" H 9450 850 50  0001 C CNN
F 1 "3V3" H 9465 1173 50  0000 C CNN
F 2 "" H 9450 1000 50  0000 C CNN
F 3 "" H 9450 1000 50  0000 C CNN
	1    9450 1000
	1    0    0    -1  
$EndComp
$Comp
L Br:3V3 #PWR0111
U 1 1 5D9D12BD
P 8500 1000
F 0 "#PWR0111" H 8500 850 50  0001 C CNN
F 1 "3V3" H 8515 1173 50  0000 C CNN
F 2 "" H 8500 1000 50  0000 C CNN
F 3 "" H 8500 1000 50  0000 C CNN
	1    8500 1000
	1    0    0    -1  
$EndComp
Wire Wire Line
	8500 1000 8500 1100
Wire Wire Line
	9450 1000 9450 1100
Text Notes 8550 600  0    50   ~ 0
UART protection
$Comp
L Br:3V3 #PWR0112
U 1 1 5D9D2D75
P 6950 950
F 0 "#PWR0112" H 6950 800 50  0001 C CNN
F 1 "3V3" H 6965 1123 50  0000 C CNN
F 2 "" H 6950 950 50  0000 C CNN
F 3 "" H 6950 950 50  0000 C CNN
	1    6950 950 
	1    0    0    -1  
$EndComp
Text Notes 5450 600  0    50   ~ 0
Power regulator
$Comp
L Br:ICD_STM8L051F3P6 U1
U 1 1 5D9D4765
P 4700 5350
F 0 "U1" H 4225 5637 60  0000 C CNN
F 1 "ICD_STM8L051F3P6" H 4225 5531 60  0000 C CNN
F 2 "Br:TSSOP20" H 2300 5450 60  0001 C CNN
F 3 "" H 2300 5450 60  0000 C CNN
F 4 "C18088" H 4225 5523 50  0001 C CNN "LCSC"
	1    4700 5350
	1    0    0    -1  
$EndComp
$Comp
L Br:GND #PWR0113
U 1 1 5D9D4876
P 1350 6450
F 0 "#PWR0113" H 1350 6200 50  0001 C CNN
F 1 "GND" H 1355 6277 50  0000 C CNN
F 2 "" H 1350 6450 50  0000 C CNN
F 3 "" H 1350 6450 50  0000 C CNN
	1    1350 6450
	-1   0    0    -1  
$EndComp
Wire Wire Line
	1900 5350 2300 5350
Wire Wire Line
	1900 5450 2300 5450
Text Label 1900 5550 0    50   ~ 0
SWIM
Text Label 1900 5650 0    50   ~ 0
NRST
Wire Wire Line
	1900 5550 2300 5550
Text Label 1100 7300 0    50   ~ 0
SWIM
Text Label 1100 7100 0    50   ~ 0
NRST
$Comp
L Br:3V3 #PWR0114
U 1 1 5D9D7743
P 1700 6050
F 0 "#PWR0114" H 1700 5900 50  0001 C CNN
F 1 "3V3" V 1715 6178 50  0000 L CNN
F 2 "" H 1700 6050 50  0000 C CNN
F 3 "" H 1700 6050 50  0000 C CNN
	1    1700 6050
	0    -1   -1   0   
$EndComp
Wire Wire Line
	1350 5950 2300 5950
$Comp
L Br:GND #PWR0115
U 1 1 5D9D82DF
P 1100 7200
F 0 "#PWR0115" H 1100 6950 50  0001 C CNN
F 1 "GND" H 1105 7027 50  0000 C CNN
F 2 "" H 1100 7200 50  0000 C CNN
F 3 "" H 1100 7200 50  0000 C CNN
	1    1100 7200
	0    1    -1   0   
$EndComp
$Comp
L Br:3V3 #PWR0116
U 1 1 5D9D8302
P 1150 7400
F 0 "#PWR0116" H 1150 7250 50  0001 C CNN
F 1 "3V3" V 1165 7528 50  0000 L CNN
F 2 "" H 1150 7400 50  0000 C CNN
F 3 "" H 1150 7400 50  0000 C CNN
	1    1150 7400
	0    -1   -1   0   
$EndComp
$Comp
L Br:CN_P_01x04_1.27MM_STRAIGHT_ZL319-4P J2
U 1 1 5D9D92B3
P 1500 7250
F 0 "J2" H 1578 7255 50  0000 L CNN
F 1 "CN_P_01x04_1.27MM_STRAIGHT_ZL319-4P" H 1577 7210 50  0001 L CNN
F 2 "Br:CN_P_01x04_1.27MM_STRAIGHT_ZL319-4P" H 1450 7300 50  0001 C CNN
F 3 "" H 1450 7300 50  0001 C CNN
	1    1500 7250
	1    0    0    -1  
$EndComp
Wire Wire Line
	1100 7100 1350 7100
Wire Wire Line
	1100 7200 1350 7200
Wire Wire Line
	1100 7300 1350 7300
Wire Wire Line
	1150 7400 1350 7400
Wire Wire Line
	1800 6100 1800 6050
Wire Wire Line
	1800 6050 1700 6050
Connection ~ 1800 6050
$Comp
L Br:GND #PWR0117
U 1 1 5D9DFBBB
P 1800 6450
F 0 "#PWR0117" H 1800 6200 50  0001 C CNN
F 1 "GND" H 1805 6277 50  0000 C CNN
F 2 "" H 1800 6450 50  0000 C CNN
F 3 "" H 1800 6450 50  0000 C CNN
	1    1800 6450
	-1   0    0    -1  
$EndComp
Wire Wire Line
	1800 6450 1800 6400
Wire Wire Line
	1350 5950 1350 6450
Wire Wire Line
	900  5650 2300 5650
$Comp
L Br:GND #PWR0118
U 1 1 5D9E54AE
P 900 6450
F 0 "#PWR0118" H 900 6200 50  0001 C CNN
F 1 "GND" H 905 6277 50  0000 C CNN
F 2 "" H 900 6450 50  0000 C CNN
F 3 "" H 900 6450 50  0000 C CNN
	1    900  6450
	-1   0    0    -1  
$EndComp
Wire Wire Line
	900  5650 900  6100
Wire Wire Line
	900  6400 900  6450
$Comp
L Br:C_1U_0603_10%_50V_X5R C3
U 1 1 5D9EACB1
P 5600 1650
F 0 "C3" H 5715 1696 50  0000 L CNN
F 1 "1uF" H 5715 1605 50  0000 L CNN
F 2 "Br:C_0603" V 5530 1650 50  0001 C CNN
F 3 "" V 5700 1550 50  0000 C CNN
F 4 "C15849" H 5715 1559 50  0001 L CNN "LCSC"
	1    5600 1650
	1    0    0    -1  
$EndComp
$Comp
L Br:GND #PWR0119
U 1 1 5D9EADC4
P 5600 1950
F 0 "#PWR0119" H 5600 1700 50  0001 C CNN
F 1 "GND" H 5605 1777 50  0000 C CNN
F 2 "" H 5600 1950 50  0000 C CNN
F 3 "" H 5600 1950 50  0000 C CNN
	1    5600 1950
	-1   0    0    -1  
$EndComp
Wire Wire Line
	5600 1950 5600 1800
Wire Wire Line
	5600 1400 5600 1500
$Comp
L Br:ICP_HT7533-1 U2
U 1 1 5D9C8DBA
P 6300 1400
F 0 "U2" H 6325 1756 50  0000 C CNN
F 1 "ICP_HT7533-1" H 6325 1665 50  0000 C CNN
F 2 "Br:SOT-89-3" H 6300 1400 50  0001 C CNN
F 3 "" H 6300 1400 50  0001 C CNN
F 4 "C14289" H 6325 1574 50  0001 C CNN "LCSC"
	1    6300 1400
	1    0    0    -1  
$EndComp
$Comp
L Br:C_1U_0603_10%_50V_X5R C4
U 1 1 5D9C8EED
P 6950 1650
F 0 "C4" H 7065 1696 50  0000 L CNN
F 1 "1uF" H 7065 1605 50  0000 L CNN
F 2 "Br:C_0603" V 6880 1650 50  0001 C CNN
F 3 "" V 7050 1550 50  0000 C CNN
F 4 "C15849" H 7065 1559 50  0001 L CNN "LCSC"
	1    6950 1650
	1    0    0    -1  
$EndComp
Wire Wire Line
	6700 1400 6950 1400
Wire Wire Line
	6950 1400 6950 1500
Wire Wire Line
	6950 1400 6950 950 
Connection ~ 6950 1400
$Comp
L Br:GND #PWR0120
U 1 1 5D9CB24A
P 6300 1950
F 0 "#PWR0120" H 6300 1700 50  0001 C CNN
F 1 "GND" H 6305 1777 50  0000 C CNN
F 2 "" H 6300 1950 50  0000 C CNN
F 3 "" H 6300 1950 50  0000 C CNN
	1    6300 1950
	-1   0    0    -1  
$EndComp
Wire Wire Line
	6300 1950 6300 1700
Wire Wire Line
	5950 1400 5600 1400
Connection ~ 5600 1400
$Comp
L Br:GND #PWR0121
U 1 1 5D9CD6CE
P 6950 1950
F 0 "#PWR0121" H 6950 1700 50  0001 C CNN
F 1 "GND" H 6955 1777 50  0000 C CNN
F 2 "" H 6950 1950 50  0000 C CNN
F 3 "" H 6950 1950 50  0000 C CNN
	1    6950 1950
	-1   0    0    -1  
$EndComp
Wire Wire Line
	6950 1950 6950 1800
Wire Wire Line
	5600 1000 5600 1400
NoConn ~ 6150 5600
NoConn ~ 6150 5500
NoConn ~ 5500 6600
NoConn ~ 5500 6850
NoConn ~ 6200 6850
$Comp
L Br:12V #PWR0129
U 1 1 5D9E7FDB
P 4450 1000
F 0 "#PWR0129" H 4450 850 50  0001 C CNN
F 1 "12V" H 4400 1200 50  0000 L CNN
F 2 "" H 4450 1000 50  0000 C CNN
F 3 "" H 4450 1000 50  0000 C CNN
	1    4450 1000
	1    0    0    -1  
$EndComp
$Comp
L Br:5V #PWR0130
U 1 1 5D9E801C
P 4650 1000
F 0 "#PWR0130" H 4650 850 50  0001 C CNN
F 1 "5V" H 4600 1200 50  0000 L CNN
F 2 "" H 4650 1000 50  0000 C CNN
F 3 "" H 4650 1000 50  0000 C CNN
	1    4650 1000
	1    0    0    -1  
$EndComp
$Comp
L Br:GND #PWR0131
U 1 1 5D9E816B
P 4250 1150
F 0 "#PWR0131" H 4250 900 50  0001 C CNN
F 1 "GND" H 4255 977 50  0000 C CNN
F 2 "" H 4250 1150 50  0000 C CNN
F 3 "" H 4250 1150 50  0000 C CNN
	1    4250 1150
	-1   0    0    -1  
$EndComp
$Comp
L Br:PWR #FLG0101
U 1 1 5D9E856C
P 4250 1000
F 0 "#FLG0101" H 4250 1095 50  0001 C CNN
F 1 "PWR" H 4250 1224 50  0000 C CNN
F 2 "" H 4250 1000 50  0000 C CNN
F 3 "" H 4250 1000 50  0000 C CNN
	1    4250 1000
	1    0    0    -1  
$EndComp
$Comp
L Br:PWR #FLG0102
U 1 1 5D9E85C4
P 4450 1150
F 0 "#FLG0102" H 4450 1245 50  0001 C CNN
F 1 "PWR" H 4450 1373 50  0000 C CNN
F 2 "" H 4450 1150 50  0000 C CNN
F 3 "" H 4450 1150 50  0000 C CNN
	1    4450 1150
	-1   0    0    1   
$EndComp
$Comp
L Br:PWR #FLG0103
U 1 1 5D9E8649
P 4650 1150
F 0 "#FLG0103" H 4650 1245 50  0001 C CNN
F 1 "PWR" H 4650 1373 50  0000 C CNN
F 2 "" H 4650 1150 50  0000 C CNN
F 3 "" H 4650 1150 50  0000 C CNN
	1    4650 1150
	-1   0    0    1   
$EndComp
Wire Wire Line
	4650 1150 4650 1000
Wire Wire Line
	4450 1150 4450 1000
Wire Wire Line
	4250 1150 4250 1000
Text Label 5600 1200 1    50   ~ 0
5V_In
Wire Wire Line
	9500 1400 9850 1400
Text Label 1950 5350 0    50   ~ 0
CPU_TX
Text Label 1950 5450 0    50   ~ 0
CPU_RX
Text Label 9550 1400 0    50   ~ 0
CPU_TX
Text Label 8100 1400 0    50   ~ 0
CPU_RX
Wire Wire Line
	8050 1400 8450 1400
Text Label 4850 1000 1    50   ~ 0
5V_In
$Comp
L Br:PWR #FLG0104
U 1 1 5DA0B14B
P 4850 1150
F 0 "#FLG0104" H 4850 1245 50  0001 C CNN
F 1 "PWR" H 4850 1373 50  0000 C CNN
F 2 "" H 4850 1150 50  0000 C CNN
F 3 "" H 4850 1150 50  0000 C CNN
	1    4850 1150
	-1   0    0    1   
$EndComp
Wire Wire Line
	4850 1150 4850 800 
Wire Wire Line
	1800 6050 2300 6050
Wire Wire Line
	1950 6150 2300 6150
Wire Wire Line
	1950 6250 2300 6250
Wire Wire Line
	6150 6200 6550 6200
Wire Wire Line
	6150 6300 6550 6300
$Comp
L Br:ICP_DRV8837CDSGR U3
U 1 1 5E10DE57
P 8700 3500
F 0 "U3" H 8775 4056 50  0000 C CNN
F 1 "ICP_DRV8837CDSGR" H 8775 3965 50  0000 C CNN
F 2 "Br:WSON-8-1EP_2x2mm_P0.5mm_EP0.9x1.6mm_ThermalVias" H 8700 3500 50  0001 C CNN
F 3 "" H 8700 3500 50  0001 C CNN
F 4 "C191000" V 8700 3600 50  0001 C CNN "LCSC"
	1    8700 3500
	1    0    0    -1  
$EndComp
$Comp
L Br:D_SCHOTTKY_SS54 D4
U 1 1 5E10E07F
P 1150 3350
F 0 "D4" V 1196 3272 50  0000 R CNN
F 1 "D_SCHOTTKY_SS54" V 1105 3272 50  0000 R CNN
F 2 "Br:DO214AC" H 1150 3350 50  0001 C CNN
F 3 "" H 1150 3450 50  0000 C CNN
F 4 "C22452" V 1059 3272 50  0001 R CNN "LCSC"
	1    1150 3350
	0    -1   -1   0   
$EndComp
$Comp
L Br:5V #PWR0122
U 1 1 5E1115B6
P 1150 3100
F 0 "#PWR0122" H 1150 2950 50  0001 C CNN
F 1 "5V" V 1165 3228 50  0000 L CNN
F 2 "" H 1150 3100 50  0000 C CNN
F 3 "" H 1150 3100 50  0000 C CNN
	1    1150 3100
	1    0    0    -1  
$EndComp
Wire Wire Line
	1150 3200 1150 3100
$Comp
L Br:D_TRANS_VOLT_SUPPRESSOR_6.5V D5
U 1 1 5E112F7D
P 1150 3900
F 0 "D5" V 1150 4028 50  0000 L CNN
F 1 "D_VOLT_SUPPRESSOR" V 1195 4028 50  0001 L CNN
F 2 "Br:DO214AA" H 1150 3900 50  0001 C CNN
F 3 "" H 1150 4050 50  0000 C CNN
F 4 "C78395" V 1241 4028 50  0001 L CNN "LCSC"
	1    1150 3900
	0    1    1    0   
$EndComp
$Comp
L Br:GND #PWR0123
U 1 1 5E113059
P 1150 4150
F 0 "#PWR0123" H 1150 3900 50  0001 C CNN
F 1 "GND" H 1155 3977 50  0000 C CNN
F 2 "" H 1150 4150 50  0000 C CNN
F 3 "" H 1150 4150 50  0000 C CNN
	1    1150 4150
	-1   0    0    -1  
$EndComp
Wire Wire Line
	1150 4150 1150 4050
Wire Wire Line
	1150 3750 1150 3600
Connection ~ 1150 3600
Wire Wire Line
	1150 3600 1150 3500
$Comp
L Br:C_10U_0805_10%_25V C5
U 1 1 5E117DE0
P 1650 3850
F 0 "C5" H 1765 3896 50  0000 L CNN
F 1 "10uF" H 1765 3805 50  0000 L CNN
F 2 "Br:C_0805" V 1580 3850 50  0001 C CNN
F 3 "" V 1750 3750 50  0000 C CNN
F 4 "C15850" H 1765 3759 50  0001 L CNN "LCSC"
	1    1650 3850
	1    0    0    -1  
$EndComp
$Comp
L Br:C_10U_0805_10%_25V C6
U 1 1 5E117F1F
P 2100 3850
F 0 "C6" H 2215 3896 50  0000 L CNN
F 1 "10uF" H 2215 3805 50  0000 L CNN
F 2 "Br:C_0805" V 2030 3850 50  0001 C CNN
F 3 "" V 2200 3750 50  0000 C CNN
F 4 "C15850" H 2215 3759 50  0001 L CNN "LCSC"
	1    2100 3850
	1    0    0    -1  
$EndComp
Wire Wire Line
	2100 3700 2100 3600
Wire Wire Line
	1150 3600 1650 3600
Wire Wire Line
	1650 3700 1650 3600
Connection ~ 1650 3600
Wire Wire Line
	1650 3600 2100 3600
$Comp
L Br:GND #PWR0124
U 1 1 5E11B6C0
P 1650 4150
F 0 "#PWR0124" H 1650 3900 50  0001 C CNN
F 1 "GND" H 1655 3977 50  0000 C CNN
F 2 "" H 1650 4150 50  0000 C CNN
F 3 "" H 1650 4150 50  0000 C CNN
	1    1650 4150
	-1   0    0    -1  
$EndComp
$Comp
L Br:GND #PWR0125
U 1 1 5E11B6F9
P 2100 4150
F 0 "#PWR0125" H 2100 3900 50  0001 C CNN
F 1 "GND" H 2105 3977 50  0000 C CNN
F 2 "" H 2100 4150 50  0000 C CNN
F 3 "" H 2100 4150 50  0000 C CNN
	1    2100 4150
	-1   0    0    -1  
$EndComp
Wire Wire Line
	2100 4150 2100 4000
Wire Wire Line
	1650 4150 1650 4000
Connection ~ 2100 3600
$Comp
L Br:PWR #FLG0105
U 1 1 5E120FEA
P 2100 3150
F 0 "#FLG0105" H 2100 3245 50  0001 C CNN
F 1 "PWR" H 2100 3373 50  0000 C CNN
F 2 "" H 2100 3150 50  0000 C CNN
F 3 "" H 2100 3150 50  0000 C CNN
	1    2100 3150
	1    0    0    -1  
$EndComp
Wire Wire Line
	2100 3600 2100 3150
Text Label 3350 3600 0    50   ~ 0
5V_motor
$Comp
L Br:GND #PWR0126
U 1 1 5E128D27
P 8800 3900
F 0 "#PWR0126" H 8800 3650 50  0001 C CNN
F 1 "GND" H 8805 3727 50  0000 C CNN
F 2 "" H 8800 3900 50  0000 C CNN
F 3 "" H 8800 3900 50  0000 C CNN
	1    8800 3900
	-1   0    0    -1  
$EndComp
Wire Wire Line
	8800 3900 8800 3800
$Comp
L Br:GND #PWR0127
U 1 1 5E12AC6D
P 8150 3900
F 0 "#PWR0127" H 8150 3650 50  0001 C CNN
F 1 "GND" H 8155 3727 50  0000 C CNN
F 2 "" H 8150 3900 50  0000 C CNN
F 3 "" H 8150 3900 50  0000 C CNN
	1    8150 3900
	-1   0    0    -1  
$EndComp
Wire Wire Line
	8150 3900 8150 3550
Wire Wire Line
	8150 3550 8250 3550
Text Label 7900 3250 0    50   ~ 0
5V_motor
$Comp
L Br:GND #PWR0128
U 1 1 5E12F119
P 2600 4150
F 0 "#PWR0128" H 2600 3900 50  0001 C CNN
F 1 "GND" H 2605 3977 50  0000 C CNN
F 2 "" H 2600 4150 50  0000 C CNN
F 3 "" H 2600 4150 50  0000 C CNN
	1    2600 4150
	-1   0    0    -1  
$EndComp
Wire Wire Line
	2600 4150 2600 4000
$Comp
L Br:GND #PWR0132
U 1 1 5E1311F1
P 3100 4150
F 0 "#PWR0132" H 3100 3900 50  0001 C CNN
F 1 "GND" H 3105 3977 50  0000 C CNN
F 2 "" H 3100 4150 50  0000 C CNN
F 3 "" H 3100 4150 50  0000 C CNN
	1    3100 4150
	-1   0    0    -1  
$EndComp
Wire Wire Line
	3100 4150 3100 4000
Wire Wire Line
	2600 3600 2600 3700
Wire Wire Line
	2100 3600 2600 3600
Wire Wire Line
	2600 3600 3100 3600
Wire Wire Line
	3100 3600 3100 3700
Connection ~ 2600 3600
Wire Wire Line
	3100 3600 3700 3600
Connection ~ 3100 3600
Wire Wire Line
	9300 3450 9700 3450
Wire Wire Line
	9300 3550 9700 3550
Wire Wire Line
	7900 3250 8250 3250
$Comp
L Br:3V3 #PWR0133
U 1 1 5E1434AD
P 9450 3150
F 0 "#PWR0133" H 9450 3000 50  0001 C CNN
F 1 "3V3" V 9465 3278 50  0000 L CNN
F 2 "" H 9450 3150 50  0000 C CNN
F 3 "" H 9450 3150 50  0000 C CNN
	1    9450 3150
	1    0    0    -1  
$EndComp
Wire Wire Line
	9450 3250 9450 3150
Text Notes 2500 3250 0    50   ~ 0
Motor driver decoupling
$Comp
L Br:ICP_DRV8837CDSGR U4
U 1 1 5E1657AB
P 8650 5250
F 0 "U4" H 8725 5806 50  0000 C CNN
F 1 "ICP_DRV8837CDSGR" H 8725 5715 50  0000 C CNN
F 2 "Br:WSON-8-1EP_2x2mm_P0.5mm_EP0.9x1.6mm_ThermalVias" H 8650 5250 50  0001 C CNN
F 3 "" H 8650 5250 50  0001 C CNN
F 4 "C191000" V 8650 5350 50  0001 C CNN "LCSC"
	1    8650 5250
	1    0    0    -1  
$EndComp
$Comp
L Br:GND #PWR0138
U 1 1 5E1657B1
P 8750 5650
F 0 "#PWR0138" H 8750 5400 50  0001 C CNN
F 1 "GND" H 8755 5477 50  0000 C CNN
F 2 "" H 8750 5650 50  0000 C CNN
F 3 "" H 8750 5650 50  0000 C CNN
	1    8750 5650
	-1   0    0    -1  
$EndComp
Wire Wire Line
	8750 5650 8750 5550
$Comp
L Br:GND #PWR0139
U 1 1 5E1657B8
P 8100 5650
F 0 "#PWR0139" H 8100 5400 50  0001 C CNN
F 1 "GND" H 8105 5477 50  0000 C CNN
F 2 "" H 8100 5650 50  0000 C CNN
F 3 "" H 8100 5650 50  0000 C CNN
	1    8100 5650
	-1   0    0    -1  
$EndComp
Wire Wire Line
	8100 5650 8100 5300
Wire Wire Line
	8100 5300 8200 5300
Text Label 7850 5000 0    50   ~ 0
5V_motor
Wire Wire Line
	9250 5200 9650 5200
Wire Wire Line
	9250 5300 9650 5300
Wire Wire Line
	7850 5000 8200 5000
$Comp
L Br:3V3 #PWR0140
U 1 1 5E1657C7
P 9400 4900
F 0 "#PWR0140" H 9400 4750 50  0001 C CNN
F 1 "3V3" V 9415 5028 50  0000 L CNN
F 2 "" H 9400 4900 50  0000 C CNN
F 3 "" H 9400 4900 50  0000 C CNN
	1    9400 4900
	1    0    0    -1  
$EndComp
Wire Wire Line
	9250 5000 9400 5000
Wire Wire Line
	9400 5000 9400 4900
$Comp
L Br:CN_P_01x02_2.54MM_HEADER J4
U 1 1 5E16C1C5
P 10550 4250
F 0 "J4" H 10728 4305 60  0000 L CNN
F 1 "CN_P_01x02_2.54MM_HEADER" H 10728 4252 60  0001 L CNN
F 2 "Br:CN_P_01x02_2.54MM_HEADER" H 10600 3950 60  0001 C CNN
F 3 "" H 10600 3950 60  0001 C CNN
	1    10550 4250
	1    0    0    -1  
$EndComp
Text Label 10000 4150 0    50   ~ 0
M1_OUT1
Text Label 10000 4250 0    50   ~ 0
M1_OUT2
Wire Wire Line
	10000 4150 10350 4150
Wire Wire Line
	10000 4250 10350 4250
$Comp
L Br:CN_P_01x02_2.54MM_HEADER J5
U 1 1 5E172EC2
P 10550 6000
F 0 "J5" H 10728 6055 60  0000 L CNN
F 1 "CN_P_01x02_2.54MM_HEADER" H 10728 6002 60  0001 L CNN
F 2 "Br:CN_P_01x02_2.54MM_HEADER" H 10600 5700 60  0001 C CNN
F 3 "" H 10600 5700 60  0001 C CNN
	1    10550 6000
	1    0    0    -1  
$EndComp
Text Label 10000 5900 0    50   ~ 0
M2_OUT1
Text Label 10000 6000 0    50   ~ 0
M2_OUT2
Wire Wire Line
	10000 5900 10350 5900
Wire Wire Line
	10000 6000 10350 6000
Wire Wire Line
	10250 3250 10250 3300
Connection ~ 9450 3250
Connection ~ 9400 5000
Wire Wire Line
	9400 3250 9450 3250
Wire Wire Line
	9300 3250 9450 3250
$Comp
L Br:D_SCHOTTKY_B5819W D1
U 1 1 5F4EECDF
P 5200 1250
F 0 "D1" V 5200 1172 50  0000 R CNN
F 1 "D_SCHOTTKY_B5819W" V 5155 1172 50  0001 R CNN
F 2 "Br:D_SOD-123" H 5200 1250 50  0001 C CNN
F 3 "" H 5200 1350 50  0000 C CNN
F 4 "C8598" H 5300 1450 50  0001 C CNN "LCSC"
	1    5200 1250
	0    -1   -1   0   
$EndComp
Wire Wire Line
	5200 1400 5600 1400
$Comp
L Br:ICD_74HC08D_4xAND U5
U 1 1 5F510409
P 5700 2900
F 0 "U5" H 5675 3175 50  0000 C CNN
F 1 "ICD_74HC08D_4xAND" H 5675 3084 50  0000 C CNN
F 2 "Br:SOIC-14" H 4800 2050 50  0001 C CNN
F 3 "" H 4800 2050 50  0001 C CNN
F 4 " C5593" H 5800 3200 50  0001 C CNN "LCSC"
	1    5700 2900
	1    0    0    -1  
$EndComp
$Comp
L Br:ICD_74HC08D_4xAND U5
U 2 1 5F5104B0
P 5700 3350
F 0 "U5" H 5675 3625 50  0000 C CNN
F 1 "ICD_74HC08D_4xAND" H 5675 3534 50  0000 C CNN
F 2 "Br:SOIC-14" H 4800 2500 50  0001 C CNN
F 3 "" H 4800 2500 50  0001 C CNN
F 4 " C5593" H 5800 3650 50  0001 C CNN "LCSC"
	2    5700 3350
	1    0    0    -1  
$EndComp
$Comp
L Br:ICD_74HC08D_4xAND U5
U 3 1 5F51061A
P 7100 2900
F 0 "U5" H 7075 3175 50  0000 C CNN
F 1 "ICD_74HC08D_4xAND" H 7075 3084 50  0000 C CNN
F 2 "Br:SOIC-14" H 6200 2050 50  0001 C CNN
F 3 "" H 6200 2050 50  0001 C CNN
F 4 " C5593" H 7200 3200 50  0001 C CNN "LCSC"
	3    7100 2900
	1    0    0    -1  
$EndComp
$Comp
L Br:ICD_74HC08D_4xAND U5
U 4 1 5F51074F
P 7100 3350
F 0 "U5" H 7075 3625 50  0000 C CNN
F 1 "ICD_74HC08D_4xAND" H 7075 3534 50  0000 C CNN
F 2 "Br:SOIC-14" H 6200 2500 50  0001 C CNN
F 3 "" H 6200 2500 50  0001 C CNN
F 4 " C5593" H 7200 3650 50  0001 C CNN "LCSC"
	4    7100 3350
	1    0    0    -1  
$EndComp
$Comp
L Br:ICD_74HC08D_4xAND U5
U 5 1 5F5107E8
P 4300 3100
F 0 "U5" H 4350 2800 50  0000 L CNN
F 1 "ICD_74HC08D_4xAND" V 4550 2550 50  0000 L CNN
F 2 "Br:SOIC-14" H 3400 2250 50  0001 C CNN
F 3 "" H 3400 2250 50  0001 C CNN
F 4 " C5593" H 4400 3400 50  0001 C CNN "LCSC"
	5    4300 3100
	1    0    0    -1  
$EndComp
$Comp
L Br:C_100N_0402_16V C7
U 1 1 5F51CCE5
P 2600 3850
F 0 "C7" H 2715 3896 50  0000 L CNN
F 1 "100nF" H 2715 3805 50  0000 L CNN
F 2 "Br:C_0402" V 2530 3850 50  0001 C CNN
F 3 "" V 2700 3750 50  0000 C CNN
F 4 "C1525" V 2800 3850 50  0001 C CNN "LCSC"
	1    2600 3850
	1    0    0    -1  
$EndComp
$Comp
L Br:C_100N_0402_16V C9
U 1 1 5F51CD9E
P 3100 3850
F 0 "C9" H 3215 3896 50  0000 L CNN
F 1 "100nF" H 3215 3805 50  0000 L CNN
F 2 "Br:C_0402" V 3030 3850 50  0001 C CNN
F 3 "" V 3200 3750 50  0000 C CNN
F 4 "C1525" V 3300 3850 50  0001 C CNN "LCSC"
	1    3100 3850
	1    0    0    -1  
$EndComp
$Comp
L Br:C_100N_0402_16V C1
U 1 1 5F51CDEE
P 900 6250
F 0 "C1" H 1015 6296 50  0000 L CNN
F 1 "100nF" H 1015 6205 50  0000 L CNN
F 2 "Br:C_0402" V 830 6250 50  0001 C CNN
F 3 "" V 1000 6150 50  0000 C CNN
F 4 "C1525" V 1100 6250 50  0001 C CNN "LCSC"
	1    900  6250
	1    0    0    -1  
$EndComp
$Comp
L Br:C_100N_0402_16V C2
U 1 1 5F51CE54
P 1800 6250
F 0 "C2" H 1600 6350 50  0000 L CNN
F 1 "100nF" H 1450 6150 50  0000 L CNN
F 2 "Br:C_0402" V 1730 6250 50  0001 C CNN
F 3 "" V 1900 6150 50  0000 C CNN
F 4 "C1525" V 2000 6250 50  0001 C CNN "LCSC"
	1    1800 6250
	1    0    0    -1  
$EndComp
Wire Wire Line
	7850 5200 8200 5200
Text Label 7850 5200 0    50   ~ 0
M2_OUT2
Wire Wire Line
	8200 5100 7850 5100
Text Label 7850 5100 0    50   ~ 0
M2_OUT1
Wire Wire Line
	7900 3450 8250 3450
Text Label 7900 3450 0    50   ~ 0
M1_OUT2
Wire Wire Line
	8250 3350 7900 3350
Text Label 7900 3350 0    50   ~ 0
M1_OUT1
Text Label 2000 6150 0    50   ~ 0
M1_PWM
Text Label 6200 6300 0    50   ~ 0
M2_PWM
$Comp
L Br:C_100N_0402_16V C8
U 1 1 5F51E2CF
P 4000 3050
F 0 "C8" H 3800 3150 50  0000 L CNN
F 1 "100nF" H 3650 2950 50  0000 L CNN
F 2 "Br:C_0402" V 3930 3050 50  0001 C CNN
F 3 "" V 4100 2950 50  0000 C CNN
F 4 "C1525" V 4200 3050 50  0001 C CNN "LCSC"
	1    4000 3050
	1    0    0    -1  
$EndComp
Text Label 9350 3450 0    50   ~ 0
M1_POS
Text Label 9300 5200 0    50   ~ 0
M2_POS
Text Label 9350 3550 0    50   ~ 0
M1_NEG
Text Label 9300 5300 0    50   ~ 0
M2_NEG
Text Label 6000 2900 0    50   ~ 0
M1_POS
Text Label 6000 3350 0    50   ~ 0
M1_NEG
Text Label 7350 2900 0    50   ~ 0
M2_POS
Text Label 7350 3350 0    50   ~ 0
M2_NEG
Wire Wire Line
	7300 3350 7650 3350
Wire Wire Line
	7300 2900 7650 2900
Wire Wire Line
	5900 2900 6300 2900
Wire Wire Line
	5900 3350 6300 3350
Text Label 5100 2850 0    50   ~ 0
M1_PWM
Text Label 5100 3300 0    50   ~ 0
M1_PWM
Text Label 6500 2850 0    50   ~ 0
M2_PWM
Text Label 6500 3300 0    50   ~ 0
M2_PWM
Wire Wire Line
	5100 2850 5450 2850
Wire Wire Line
	5100 3300 5450 3300
Wire Wire Line
	6500 3300 6850 3300
Wire Wire Line
	6500 2850 6850 2850
$Comp
L Br:3V3 #PWR0134
U 1 1 5F54F8BC
P 4300 2600
F 0 "#PWR0134" H 4300 2450 50  0001 C CNN
F 1 "3V3" V 4315 2728 50  0000 L CNN
F 2 "" H 4300 2600 50  0000 C CNN
F 3 "" H 4300 2600 50  0000 C CNN
	1    4300 2600
	1    0    0    -1  
$EndComp
Wire Wire Line
	4300 2750 4300 2650
Wire Wire Line
	4300 2650 4000 2650
Wire Wire Line
	4000 2650 4000 2900
Connection ~ 4300 2650
Wire Wire Line
	4300 2650 4300 2600
$Comp
L Br:GND #PWR0136
U 1 1 5F5592B8
P 4300 3600
F 0 "#PWR0136" H 4300 3350 50  0001 C CNN
F 1 "GND" H 4305 3427 50  0000 C CNN
F 2 "" H 4300 3600 50  0000 C CNN
F 3 "" H 4300 3600 50  0000 C CNN
	1    4300 3600
	-1   0    0    -1  
$EndComp
Wire Wire Line
	4300 3600 4300 3500
Wire Wire Line
	4300 3500 4000 3500
Wire Wire Line
	4000 3500 4000 3200
Connection ~ 4300 3500
Wire Wire Line
	4300 3500 4300 3400
Text Label 6200 5400 0    50   ~ 0
M1_POS_EN
Text Label 6200 5800 0    50   ~ 0
M2_POS_EN
Text Label 6200 5700 0    50   ~ 0
M1_NEG_EN
Text Label 6200 5900 0    50   ~ 0
M2_NEG_EN
Wire Wire Line
	6150 5700 6650 5700
Wire Wire Line
	6150 5800 6650 5800
Wire Wire Line
	6150 5900 6650 5900
Text Label 5000 2950 0    50   ~ 0
M1_POS_EN
Text Label 5000 3400 0    50   ~ 0
M1_NEG_EN
Text Label 6400 3400 0    50   ~ 0
M2_NEG_EN
Text Label 6400 2950 0    50   ~ 0
M2_POS_EN
Wire Wire Line
	6400 2950 6850 2950
Wire Wire Line
	6400 3400 6850 3400
Wire Wire Line
	6150 5400 6650 5400
Wire Wire Line
	5450 2950 5000 2950
Wire Wire Line
	5450 3400 5000 3400
$Comp
L Br:D_TCST1230_OPTO_COUPLER U6
U 1 1 5F5B153D
P 4650 4600
F 0 "U6" H 4750 4300 50  0000 C CNN
F 1 "D_TCST1230_OPTO_COUPLER" H 4650 5000 50  0001 C CNN
F 2 "Br:D_TCST1230_OPTO_COUPLER_PCB_EDGE" H 4650 4575 50  0001 C CNN
F 3 "" H 4650 4575 50  0001 C CNN
	1    4650 4600
	1    0    0    -1  
$EndComp
Wire Wire Line
	4300 4450 4250 4450
Wire Wire Line
	4300 4750 4200 4750
$Comp
L Br:GND #PWR0141
U 1 1 5F5CB67B
P 3750 4850
F 0 "#PWR0141" H 3750 4600 50  0001 C CNN
F 1 "GND" H 3755 4677 50  0000 C CNN
F 2 "" H 3750 4850 50  0000 C CNN
F 3 "" H 3750 4850 50  0000 C CNN
	1    3750 4850
	-1   0    0    -1  
$EndComp
Wire Wire Line
	3750 4750 3900 4750
Wire Wire Line
	5000 4450 4950 4450
$Comp
L Br:R_1k_0402_1% R3
U 1 1 5F5FD1E1
P 4050 4750
F 0 "R3" V 4150 4650 50  0000 C CNN
F 1 "1k" V 4050 4750 50  0000 C CNN
F 2 "Br:R_0402" V 3980 4750 50  0001 C CNN
F 3 "" H 4050 4750 50  0000 C CNN
F 4 "C11702" V 4230 4850 50  0001 C CNN "LCSC"
	1    4050 4750
	0    1    1    0   
$EndComp
Wire Wire Line
	4750 4200 5000 4200
Wire Wire Line
	5000 4200 5000 4450
Wire Wire Line
	4250 4200 4450 4200
Wire Wire Line
	4250 4200 4250 4450
$Comp
L Br:GND #PWR0142
U 1 1 5F613716
P 5100 4850
F 0 "#PWR0142" H 5100 4600 50  0001 C CNN
F 1 "GND" H 5105 4677 50  0000 C CNN
F 2 "" H 5100 4850 50  0000 C CNN
F 3 "" H 5100 4850 50  0000 C CNN
	1    5100 4850
	-1   0    0    -1  
$EndComp
Wire Wire Line
	5100 4850 5100 4750
Wire Wire Line
	4950 4750 5100 4750
Connection ~ 5000 4450
Text Label 5050 4450 0    50   ~ 0
M1_SPEED
Wire Wire Line
	5000 4450 5450 4450
Text Label 6200 6200 0    50   ~ 0
M1_SPEED
Text Label 2000 6250 0    50   ~ 0
M2_SPEED
$Comp
L Br:D_TCST1230_OPTO_COUPLER U7
U 1 1 5F62A523
P 6600 4600
F 0 "U7" H 6700 4300 50  0000 C CNN
F 1 "D_TCST1230_OPTO_COUPLER" H 6600 5000 50  0001 C CNN
F 2 "Br:D_TCST1230_OPTO_COUPLER_PCB_EDGE" H 6600 4575 50  0001 C CNN
F 3 "" H 6600 4575 50  0001 C CNN
	1    6600 4600
	1    0    0    -1  
$EndComp
Wire Wire Line
	6250 4450 6200 4450
Wire Wire Line
	6250 4750 6150 4750
$Comp
L Br:GND #PWR0143
U 1 1 5F62A52C
P 5700 4850
F 0 "#PWR0143" H 5700 4600 50  0001 C CNN
F 1 "GND" H 5705 4677 50  0000 C CNN
F 2 "" H 5700 4850 50  0000 C CNN
F 3 "" H 5700 4850 50  0000 C CNN
	1    5700 4850
	-1   0    0    -1  
$EndComp
Wire Wire Line
	5700 4750 5850 4750
Wire Wire Line
	6950 4450 6900 4450
$Comp
L Br:R_1k_0402_1% R5
U 1 1 5F62A538
P 6000 4750
F 0 "R5" V 6100 4650 50  0000 C CNN
F 1 "1k" V 6000 4750 50  0000 C CNN
F 2 "Br:R_0402" V 5930 4750 50  0001 C CNN
F 3 "" H 6000 4750 50  0000 C CNN
F 4 "C11702" V 6180 4850 50  0001 C CNN "LCSC"
	1    6000 4750
	0    1    1    0   
$EndComp
Wire Wire Line
	6700 4200 6950 4200
Wire Wire Line
	6950 4200 6950 4450
Wire Wire Line
	6200 4200 6400 4200
Wire Wire Line
	6200 4200 6200 4450
$Comp
L Br:GND #PWR0144
U 1 1 5F62A549
P 7050 4850
F 0 "#PWR0144" H 7050 4600 50  0001 C CNN
F 1 "GND" H 7055 4677 50  0000 C CNN
F 2 "" H 7050 4850 50  0000 C CNN
F 3 "" H 7050 4850 50  0000 C CNN
	1    7050 4850
	-1   0    0    -1  
$EndComp
Wire Wire Line
	7050 4850 7050 4750
Wire Wire Line
	6900 4750 7050 4750
Connection ~ 6950 4450
Text Label 7000 4450 0    50   ~ 0
M2_SPEED
Wire Wire Line
	6950 4450 7400 4450
Text Notes 5800 2550 0    50   ~ 0
Select direction of movement
Text Notes 5250 4000 0    50   ~ 0
Speed measurement
$Comp
L Br:3V3 #PWR0145
U 1 1 5F51C906
P 4100 4450
F 0 "#PWR0145" H 4100 4300 50  0001 C CNN
F 1 "3V3" V 4115 4578 50  0000 L CNN
F 2 "" H 4100 4450 50  0000 C CNN
F 3 "" H 4100 4450 50  0000 C CNN
	1    4100 4450
	0    -1   -1   0   
$EndComp
Wire Wire Line
	4100 4450 4250 4450
Connection ~ 4250 4450
$Comp
L Br:3V3 #PWR0146
U 1 1 5F52523A
P 6100 4450
F 0 "#PWR0146" H 6100 4300 50  0001 C CNN
F 1 "3V3" V 6115 4578 50  0000 L CNN
F 2 "" H 6100 4450 50  0000 C CNN
F 3 "" H 6100 4450 50  0000 C CNN
	1    6100 4450
	0    -1   -1   0   
$EndComp
Wire Wire Line
	6100 4450 6200 4450
Connection ~ 6200 4450
Wire Wire Line
	9250 5100 9400 5100
Wire Wire Line
	9400 5100 9400 5000
Wire Wire Line
	9300 3350 9450 3350
Wire Wire Line
	9450 3350 9450 3250
NoConn ~ 6150 6100
NoConn ~ 6150 6000
NoConn ~ 2300 5850
NoConn ~ 2300 5750
NoConn ~ 2050 1350
Text Notes 8800 2500 0    50   ~ 0
Motor drivers
$Comp
L Br:R_1k_0402_1% R1
U 1 1 5F583E7D
P 7900 1400
F 0 "R1" V 8000 1300 50  0000 C CNN
F 1 "1k" V 7900 1400 50  0000 C CNN
F 2 "Br:R_0402" V 7830 1400 50  0001 C CNN
F 3 "" H 7900 1400 50  0000 C CNN
F 4 "C11702" V 8080 1500 50  0001 C CNN "LCSC"
	1    7900 1400
	0    1    1    0   
$EndComp
$Comp
L Br:R_1k_0402_1% R2
U 1 1 5F583F61
P 10000 1400
F 0 "R2" V 10100 1300 50  0000 C CNN
F 1 "1k" V 10000 1400 50  0000 C CNN
F 2 "Br:R_0402" V 9930 1400 50  0001 C CNN
F 3 "" H 10000 1400 50  0000 C CNN
F 4 "C11702" V 10180 1500 50  0001 C CNN "LCSC"
	1    10000 1400
	0    1    1    0   
$EndComp
$Comp
L Br:R_20K_0402_1% R4
U 1 1 5F582442
P 4600 4200
F 0 "R4" V 4500 4350 50  0000 C CNN
F 1 "20k" V 4600 4200 50  0000 C CNN
F 2 "Br:R_0402" V 4530 4200 50  0001 C CNN
F 3 "" H 4600 4200 50  0000 C CNN
F 4 "C25765" V 4780 4300 50  0001 C CNN "LCSC"
	1    4600 4200
	0    1    1    0   
$EndComp
$Comp
L Br:R_20K_0402_1% R6
U 1 1 5F5827E8
P 6550 4200
F 0 "R6" V 6450 4350 50  0000 C CNN
F 1 "20k" V 6550 4200 50  0000 C CNN
F 2 "Br:R_0402" V 6480 4200 50  0001 C CNN
F 3 "" H 6550 4200 50  0000 C CNN
F 4 "C25765" V 6730 4300 50  0001 C CNN "LCSC"
	1    6550 4200
	0    1    1    0   
$EndComp
$Comp
L Br:C_10N_0402_50V C13
U 1 1 5F58BF85
P 7400 4650
F 0 "C13" H 7515 4696 50  0000 L CNN
F 1 "10nF" H 7515 4605 50  0000 L CNN
F 2 "Br:C_0402" V 7330 4650 50  0001 C CNN
F 3 "" V 7500 4550 50  0000 C CNN
F 4 "C15195" V 7600 4650 50  0001 C CNN "LCSC"
	1    7400 4650
	1    0    0    -1  
$EndComp
Wire Wire Line
	7400 4500 7400 4450
$Comp
L Br:GND #PWR0147
U 1 1 5F594432
P 7400 4850
F 0 "#PWR0147" H 7400 4600 50  0001 C CNN
F 1 "GND" H 7405 4677 50  0000 C CNN
F 2 "" H 7400 4850 50  0000 C CNN
F 3 "" H 7400 4850 50  0000 C CNN
	1    7400 4850
	-1   0    0    -1  
$EndComp
Wire Wire Line
	7400 4850 7400 4800
$Comp
L Br:C_10N_0402_50V C12
U 1 1 5F59C962
P 5450 4650
F 0 "C12" H 5565 4696 50  0000 L CNN
F 1 "10nF" H 5565 4605 50  0000 L CNN
F 2 "Br:C_0402" V 5380 4650 50  0001 C CNN
F 3 "" V 5550 4550 50  0000 C CNN
F 4 "C15195" V 5650 4650 50  0001 C CNN "LCSC"
	1    5450 4650
	1    0    0    -1  
$EndComp
$Comp
L Br:GND #PWR0148
U 1 1 5F59CAE7
P 5450 4850
F 0 "#PWR0148" H 5450 4600 50  0001 C CNN
F 1 "GND" H 5455 4677 50  0000 C CNN
F 2 "" H 5450 4850 50  0000 C CNN
F 3 "" H 5450 4850 50  0000 C CNN
	1    5450 4850
	-1   0    0    -1  
$EndComp
Wire Wire Line
	5450 4850 5450 4800
Wire Wire Line
	5450 4500 5450 4450
Wire Wire Line
	5700 4750 5700 4850
Wire Wire Line
	3750 4750 3750 4850
Wire Wire Line
	10300 5450 10300 5400
$Comp
L Br:GND #PWR0137
U 1 1 5E15AAC6
P 10300 5450
F 0 "#PWR0137" H 10300 5200 50  0001 C CNN
F 1 "GND" H 10305 5277 50  0000 C CNN
F 2 "" H 10300 5450 50  0000 C CNN
F 3 "" H 10300 5450 50  0000 C CNN
	1    10300 5450
	-1   0    0    -1  
$EndComp
Wire Wire Line
	10300 5000 10300 5100
$Comp
L Br:C_100N_0402_16V C11
U 1 1 5F51CEB8
P 10300 5250
F 0 "C11" H 10415 5296 50  0000 L CNN
F 1 "100nF" H 10415 5205 50  0000 L CNN
F 2 "Br:C_0402" V 10230 5250 50  0001 C CNN
F 3 "" V 10400 5150 50  0000 C CNN
F 4 "C1525" V 10500 5250 50  0001 C CNN "LCSC"
	1    10300 5250
	1    0    0    -1  
$EndComp
Wire Wire Line
	9400 5000 10300 5000
Wire Wire Line
	9450 3250 10250 3250
$Comp
L Br:GND #PWR0135
U 1 1 5E1488A5
P 10250 3650
F 0 "#PWR0135" H 10250 3400 50  0001 C CNN
F 1 "GND" H 10255 3477 50  0000 C CNN
F 2 "" H 10250 3650 50  0000 C CNN
F 3 "" H 10250 3650 50  0000 C CNN
	1    10250 3650
	-1   0    0    -1  
$EndComp
Wire Wire Line
	10250 3650 10250 3600
$Comp
L Br:C_100N_0402_16V C10
U 1 1 5F51D079
P 10250 3450
F 0 "C10" H 10365 3496 50  0000 L CNN
F 1 "100nF" H 10365 3405 50  0000 L CNN
F 2 "Br:C_0402" V 10180 3450 50  0001 C CNN
F 3 "" V 10350 3350 50  0000 C CNN
F 4 "C1525" V 10450 3450 50  0001 C CNN "LCSC"
	1    10250 3450
	1    0    0    -1  
$EndComp
$EndSCHEMATC
