EESchema Schematic File Version 4
LIBS:Cable2Connector-cache
EELAYER 26 0
EELAYER END
$Descr A4 11693 8268
encoding utf-8
Sheet 1 1
Title ""
Date ""
Rev ""
Comp ""
Comment1 ""
Comment2 ""
Comment3 ""
Comment4 ""
$EndDescr
$Comp
L Br:GND #PWR0101
U 1 1 5D979092
P 2300 2500
F 0 "#PWR0101" H 2300 2250 50  0001 C CNN
F 1 "GND" H 2305 2327 50  0000 C CNN
F 2 "" H 2300 2500 50  0000 C CNN
F 3 "" H 2300 2500 50  0000 C CNN
	1    2300 2500
	1    0    0    -1  
$EndComp
$Comp
L Br:5V #PWR0102
U 1 1 5D97912B
P 2000 2100
F 0 "#PWR0102" H 2000 1950 50  0001 C CNN
F 1 "5V" V 2015 2228 50  0000 L CNN
F 2 "" H 2000 2100 50  0000 C CNN
F 3 "" H 2000 2100 50  0000 C CNN
	1    2000 2100
	0    1    1    0   
$EndComp
$Comp
L Br:12V #PWR0103
U 1 1 5D97916E
P 1900 1400
F 0 "#PWR0103" H 1900 1250 50  0001 C CNN
F 1 "12V" V 1915 1528 50  0000 L CNN
F 2 "" H 1900 1400 50  0000 C CNN
F 3 "" H 1900 1400 50  0000 C CNN
	1    1900 1400
	0    1    1    0   
$EndComp
Text Notes 1400 1200 0    50   ~ 0
Female\n
Text Label 1850 1800 0    50   ~ 0
UART_RX
Text Label 1850 1600 0    50   ~ 0
SPARE
Wire Wire Line
	1750 2100 1900 2100
Wire Wire Line
	1750 2000 1900 2000
Wire Wire Line
	1900 2000 1900 2100
Connection ~ 1900 2100
Wire Wire Line
	1900 2100 2000 2100
Wire Wire Line
	1800 1500 1800 1400
Wire Wire Line
	1800 1400 1900 1400
Wire Wire Line
	1750 1600 2200 1600
Wire Wire Line
	1800 1500 1750 1500
Wire Wire Line
	1750 1400 1800 1400
Connection ~ 1800 1400
Wire Wire Line
	2300 1900 2300 2200
Wire Wire Line
	1750 1900 2300 1900
Wire Wire Line
	2300 1900 2300 1700
Wire Wire Line
	1750 1700 2300 1700
Wire Wire Line
	1750 1800 2200 1800
Connection ~ 2300 1900
Wire Wire Line
	1750 2200 2300 2200
Connection ~ 2300 2200
Wire Wire Line
	2300 2200 2300 2500
$Comp
L Br:CN_P_01x05_2.54MM_HEADER J2
U 1 1 5E97C7AB
P 3650 1800
F 0 "J2" H 3828 1805 60  0000 L CNN
F 1 "CN_P_01x05_2.54MM_HEADER" H 3828 1752 60  0001 L CNN
F 2 "Br:CN_P_01x05_2.54MM_HEADER" H 3700 1500 60  0001 C CNN
F 3 "" H 3700 1500 60  0001 C CNN
	1    3650 1800
	1    0    0    -1  
$EndComp
$Comp
L Br:12V #PWR0104
U 1 1 5E97CB6B
P 3350 2000
F 0 "#PWR0104" H 3350 1850 50  0001 C CNN
F 1 "12V" V 3365 2128 50  0000 L CNN
F 2 "" H 3350 2000 50  0000 C CNN
F 3 "" H 3350 2000 50  0000 C CNN
	1    3350 2000
	0    -1   -1   0   
$EndComp
Wire Wire Line
	3350 2000 3450 2000
$Comp
L Br:5V #PWR0105
U 1 1 5E97CCD2
P 3350 1600
F 0 "#PWR0105" H 3350 1450 50  0001 C CNN
F 1 "5V" V 3365 1728 50  0000 L CNN
F 2 "" H 3350 1600 50  0000 C CNN
F 3 "" H 3350 1600 50  0000 C CNN
	1    3350 1600
	0    -1   -1   0   
$EndComp
Wire Wire Line
	3350 1600 3450 1600
$Comp
L Br:GND #PWR0106
U 1 1 5E97CE6D
P 3350 1700
F 0 "#PWR0106" H 3350 1450 50  0001 C CNN
F 1 "GND" V 3350 1500 50  0000 C CNN
F 2 "" H 3350 1700 50  0000 C CNN
F 3 "" H 3350 1700 50  0000 C CNN
	1    3350 1700
	0    1    1    0   
$EndComp
Wire Wire Line
	3350 1700 3450 1700
Text Label 2900 1800 0    50   ~ 0
UART_RX
Text Label 2900 1900 0    50   ~ 0
SPARE
Wire Wire Line
	2900 1800 3450 1800
Wire Wire Line
	2900 1900 3450 1900
$Comp
L Br:Br_CN_OUT J1
U 1 1 5E97D929
P 1450 1800
F 0 "J1" H 1450 1200 50  0000 C CNN
F 1 "Br_CN_OUT" H 1369 2349 50  0001 C CNN
F 2 "Br:Br_CN_OUT" H 1450 2350 50  0001 C CNN
F 3 "" H 1450 2350 50  0001 C CNN
	1    1450 1800
	-1   0    0    -1  
$EndComp
$EndSCHEMATC
