(kicad_pcb (version 20171130) (host pcbnew "(5.0.0)")

  (general
    (thickness 1.6)
    (drawings 13)
    (tracks 18)
    (zones 0)
    (modules 2)
    (nets 6)
  )

  (page A4)
  (layers
    (0 F.Cu signal)
    (31 B.Cu signal)
    (32 B.Adhes user)
    (33 F.Adhes user hide)
    (34 B.Paste user)
    (35 F.Paste user)
    (36 B.SilkS user)
    (37 F.SilkS user)
    (38 B.Mask user)
    (39 F.Mask user)
    (40 Dwgs.User user)
    (41 Cmts.User user)
    (42 Eco1.User user)
    (43 Eco2.User user hide)
    (44 Edge.Cuts user)
    (45 Margin user)
    (46 B.CrtYd user)
    (47 F.CrtYd user)
    (48 B.Fab user)
    (49 F.Fab user hide)
  )

  (setup
    (last_trace_width 1.5)
    (user_trace_width 0.5)
    (user_trace_width 1.5)
    (user_trace_width 2)
    (trace_clearance 0.2)
    (zone_clearance 0.508)
    (zone_45_only no)
    (trace_min 0.2)
    (segment_width 0.2)
    (edge_width 0.15)
    (via_size 0.8)
    (via_drill 0.4)
    (via_min_size 0.4)
    (via_min_drill 0.3)
    (uvia_size 0.3)
    (uvia_drill 0.1)
    (uvias_allowed no)
    (uvia_min_size 0.2)
    (uvia_min_drill 0.1)
    (pcb_text_width 0.3)
    (pcb_text_size 1.5 1.5)
    (mod_edge_width 0.15)
    (mod_text_size 1 1)
    (mod_text_width 0.15)
    (pad_size 1.524 1.524)
    (pad_drill 0.762)
    (pad_to_mask_clearance 0.2)
    (aux_axis_origin 0 0)
    (visible_elements 7FFFFFFF)
    (pcbplotparams
      (layerselection 0x010e0_ffffffff)
      (usegerberextensions false)
      (usegerberattributes false)
      (usegerberadvancedattributes false)
      (creategerberjobfile false)
      (excludeedgelayer true)
      (linewidth 0.100000)
      (plotframeref false)
      (viasonmask false)
      (mode 1)
      (useauxorigin false)
      (hpglpennumber 1)
      (hpglpenspeed 20)
      (hpglpendiameter 15.000000)
      (psnegative false)
      (psa4output false)
      (plotreference true)
      (plotvalue true)
      (plotinvisibletext false)
      (padsonsilk false)
      (subtractmaskfromsilk false)
      (outputformat 1)
      (mirror false)
      (drillshape 0)
      (scaleselection 1)
      (outputdirectory "FabOutput/"))
  )

  (net 0 "")
  (net 1 12V)
  (net 2 /SPARE)
  (net 3 GND)
  (net 4 5V)
  (net 5 /UART_RX)

  (net_class Default "This is the default net class."
    (clearance 0.2)
    (trace_width 0.25)
    (via_dia 0.8)
    (via_drill 0.4)
    (uvia_dia 0.3)
    (uvia_drill 0.1)
    (add_net /SPARE)
    (add_net /UART_RX)
    (add_net 12V)
    (add_net 5V)
    (add_net GND)
  )

  (module Br:Br_CN_OUT (layer B.Cu) (tedit 5DB9F56D) (tstamp 5E976E7E)
    (at 141.5 83 180)
    (path /5E97D929)
    (fp_text reference J1 (at 2.7 -4 90) (layer B.SilkS)
      (effects (font (size 1 1) (thickness 0.15)) (justify mirror))
    )
    (fp_text value Br_CN_OUT (at 0 0.5 180) (layer B.Fab)
      (effects (font (size 1 1) (thickness 0.15)) (justify mirror))
    )
    (fp_line (start 2.2 6.3) (end -2.3 6.3) (layer B.SilkS) (width 0.15))
    (fp_line (start -2.3 6.3) (end -2.3 -6.3) (layer B.SilkS) (width 0.15))
    (fp_line (start -2.3 -6.3) (end 2.2 -6.3) (layer B.SilkS) (width 0.15))
    (pad 1 smd rect (at 0 5.54 180) (size 4.5 1.5) (layers B.Cu B.Paste B.Mask)
      (net 1 12V))
    (pad 2 smd rect (at 0 2.77 180) (size 4.5 1.5) (layers B.Cu B.Paste B.Mask)
      (net 2 /SPARE))
    (pad 3 smd rect (at 0 0 180) (size 4.5 1.5) (layers B.Cu B.Paste B.Mask)
      (net 5 /UART_RX))
    (pad 4 smd rect (at 0 -2.77 180) (size 4.5 1.5) (layers B.Cu B.Paste B.Mask)
      (net 4 5V))
    (pad 5 smd rect (at 0 -5.54 180) (size 4.5 1.5) (layers B.Cu B.Paste B.Mask)
      (net 3 GND))
    (pad 6 smd rect (at 0 4.155 180) (size 4.5 1.5) (layers F.Cu F.Paste F.Mask)
      (net 1 12V))
    (pad 7 smd rect (at 0 1.385 180) (size 4.5 1.5) (layers F.Cu F.Paste F.Mask)
      (net 3 GND))
    (pad 8 smd rect (at 0 -1.385 180) (size 4.5 1.5) (layers F.Cu F.Paste F.Mask)
      (net 3 GND))
    (pad 9 smd rect (at 0 -4.155 180) (size 4.5 1.5) (layers F.Cu F.Paste F.Mask)
      (net 4 5V))
  )

  (module Br:CN_P_01x05_2.54MM_HEADER (layer F.Cu) (tedit 54EA0684) (tstamp 5E976B02)
    (at 145.5 88.08 180)
    (descr "Through hole pin header")
    (tags "pin header")
    (path /5E97C7AB)
    (fp_text reference J2 (at 2 -0.92 180) (layer F.SilkS)
      (effects (font (size 1 1) (thickness 0.15)))
    )
    (fp_text value CN_P_01x05_2.54MM_HEADER (at 0 -3.1 180) (layer F.Fab)
      (effects (font (size 1 1) (thickness 0.15)))
    )
    (fp_line (start 1.27 1.27) (end -1.27 1.27) (layer F.SilkS) (width 0.15))
    (fp_line (start -1.27 11.43) (end -1.27 1.27) (layer F.SilkS) (width 0.15))
    (fp_line (start 1.27 11.43) (end -1.27 11.43) (layer F.SilkS) (width 0.15))
    (fp_line (start 1.27 1.27) (end 1.27 11.43) (layer F.SilkS) (width 0.15))
    (fp_line (start -1.75 11.95) (end 1.75 11.95) (layer F.CrtYd) (width 0.05))
    (fp_line (start -1.75 -1.75) (end 1.75 -1.75) (layer F.CrtYd) (width 0.05))
    (fp_line (start 1.75 -1.75) (end 1.75 11.95) (layer F.CrtYd) (width 0.05))
    (fp_line (start -1.75 -1.75) (end -1.75 11.95) (layer F.CrtYd) (width 0.05))
    (fp_line (start 1.55 -1.55) (end 1.55 0) (layer F.SilkS) (width 0.15))
    (fp_line (start -1.55 -1.55) (end 1.55 -1.55) (layer F.SilkS) (width 0.15))
    (fp_line (start -1.55 0) (end -1.55 -1.55) (layer F.SilkS) (width 0.15))
    (pad 5 thru_hole oval (at 0 10.16 180) (size 2.032 1.7272) (drill 1.016) (layers *.Cu *.Mask F.SilkS)
      (net 1 12V))
    (pad 4 thru_hole oval (at 0 7.62 180) (size 2.032 1.7272) (drill 1.016) (layers *.Cu *.Mask F.SilkS)
      (net 2 /SPARE))
    (pad 3 thru_hole oval (at 0 5.08 180) (size 2.032 1.7272) (drill 1.016) (layers *.Cu *.Mask F.SilkS)
      (net 5 /UART_RX))
    (pad 2 thru_hole oval (at 0 2.54 180) (size 2.032 1.7272) (drill 1.016) (layers *.Cu *.Mask F.SilkS)
      (net 3 GND))
    (pad 1 thru_hole rect (at 0 0 180) (size 2.032 1.7272) (drill 1.016) (layers *.Cu *.Mask F.SilkS)
      (net 4 5V))
    (model connectors.3dshapes/CN_P_01x05_2.54MM_HEADER.wrl
      (offset (xyz 0 -5.079999923706055 0))
      (scale (xyz 1 1 1))
      (rotate (xyz 0 0 90))
    )
  )

  (gr_line (start 139 90) (end 139 76) (layer Edge.Cuts) (width 0.15))
  (gr_line (start 147 90) (end 139 90) (layer Edge.Cuts) (width 0.15))
  (gr_line (start 147 76) (end 147 90) (layer Edge.Cuts) (width 0.15))
  (gr_line (start 139 76) (end 147 76) (layer Edge.Cuts) (width 0.15))
  (gr_text Female (at 142 77) (layer F.SilkS)
    (effects (font (size 1 1) (thickness 0.25)))
  )
  (gr_line (start 149 102) (end 155 102) (layer Eco2.User) (width 0.2))
  (gr_line (start 152 99) (end 152 105) (layer Eco2.User) (width 0.2))
  (gr_text "Brick middle" (at 160 104) (layer Eco2.User)
    (effects (font (size 1.5 1.5) (thickness 0.3)))
  )
  (gr_text "Duplo_size\n" (at 181 68) (layer Eco2.User)
    (effects (font (size 1.5 1.5) (thickness 0.3)))
  )
  (gr_line (start 120 134) (end 120 70) (layer Eco2.User) (width 0.2))
  (gr_line (start 184 134) (end 120 134) (layer Eco2.User) (width 0.2))
  (gr_line (start 184 70) (end 184 134) (layer Eco2.User) (width 0.2))
  (gr_line (start 120 70) (end 184 70) (layer Eco2.User) (width 0.2))

  (segment (start 145.04 77.46) (end 145.5 77.92) (width 1.5) (layer B.Cu) (net 1))
  (segment (start 141.5 77.46) (end 145.04 77.46) (width 1.5) (layer B.Cu) (net 1))
  (segment (start 142.425 77.92) (end 145.5 77.92) (width 1.5) (layer F.Cu) (net 1))
  (segment (start 141.5 78.845) (end 142.425 77.92) (width 1.5) (layer F.Cu) (net 1))
  (segment (start 145.27 80.23) (end 145.5 80.46) (width 0.5) (layer B.Cu) (net 2))
  (segment (start 141.5 80.23) (end 145.27 80.23) (width 0.5) (layer B.Cu) (net 2))
  (segment (start 145.5 85.54) (end 145.46 85.54) (width 0.5) (layer B.Cu) (net 3))
  (segment (start 142.46 88.54) (end 141.5 88.54) (width 0.5) (layer B.Cu) (net 3))
  (segment (start 145.46 85.54) (end 142.46 88.54) (width 0.5) (layer B.Cu) (net 3))
  (segment (start 141.5 81.615) (end 141.5 84.385) (width 1.5) (layer F.Cu) (net 3))
  (segment (start 142.569999 85.454999) (end 141.5 84.385) (width 1.5) (layer F.Cu) (net 3))
  (segment (start 145.414999 85.454999) (end 142.569999 85.454999) (width 1.5) (layer F.Cu) (net 3))
  (segment (start 145.5 85.54) (end 145.414999 85.454999) (width 1.5) (layer F.Cu) (net 3))
  (via (at 141.5 87.155) (size 0.8) (drill 0.4) (layers F.Cu B.Cu) (net 4))
  (segment (start 141.5 85.77) (end 141.5 87.155) (width 0.5) (layer B.Cu) (net 4))
  (segment (start 142.425 88.08) (end 145.5 88.08) (width 1.5) (layer F.Cu) (net 4))
  (segment (start 141.5 87.155) (end 142.425 88.08) (width 1.5) (layer F.Cu) (net 4))
  (segment (start 141.5 83) (end 145.5 83) (width 0.5) (layer B.Cu) (net 5))

)
