(module "RJHSE5381" (layer F.Cu)
  (descr "RJHSE-5381-1")
  (tags "Connector")
  (fp_text reference J** (at -3.552 0.125) (layer F.SilkS)
    (effects (font (size 1.27 1.27) (thickness 0.254)))
  )
  (fp_text user %R (at -3.552 0.125) (layer F.Fab)
    (effects (font (size 1.27 1.27) (thickness 0.254)))
  )
  (fp_text value "RJHSE5381" (at -3.552 0.125) (layer F.SilkS) hide
    (effects (font (size 1.27 1.27) (thickness 0.254)))
  )
  (fp_line (start -11.808 -7.75) (end 4.703 -7.75) (layer F.Fab) (width 0.2))
  (fp_line (start 4.703 -7.75) (end 4.703 8) (layer F.Fab) (width 0.2))
  (fp_line (start 4.703 8) (end -11.808 8) (layer F.Fab) (width 0.2))
  (fp_line (start -11.808 8) (end -11.808 -7.75) (layer F.Fab) (width 0.2))
  (fp_line (start -13.898 -8.75) (end 6.793 -8.75) (layer F.CrtYd) (width 0.1))
  (fp_line (start 6.793 -8.75) (end 6.793 9) (layer F.CrtYd) (width 0.1))
  (fp_line (start 6.793 9) (end -13.898 9) (layer F.CrtYd) (width 0.1))
  (fp_line (start -13.898 9) (end -13.898 -8.75) (layer F.CrtYd) (width 0.1))
  (fp_line (start -11.808 4) (end -11.808 8) (layer F.SilkS) (width 0.1))
  (fp_line (start -11.808 8) (end 4.703 8) (layer F.SilkS) (width 0.1))
  (fp_line (start 4.703 8) (end 4.703 4) (layer F.SilkS) (width 0.1))
  (fp_line (start -11.808 -2.5) (end -11.808 -7.75) (layer F.SilkS) (width 0.1))
  (fp_line (start -11.808 -7.75) (end 4.578 -7.75) (layer F.SilkS) (width 0.1))
  (fp_line (start 4.578 -7.75) (end 4.703 -7.75) (layer F.SilkS) (width 0.1))
  (fp_line (start 4.703 -7.75) (end 4.703 -2.5) (layer F.SilkS) (width 0.1))
  (pad 1 thru_hole rect (at 0.000 -0) (size 1.462 1.462) (drill 0.94) (layers *.Cu *.Mask))
  (pad 2 thru_hole circle (at -1.015 -1.78) (size 1.462 1.462) (drill 0.94) (layers *.Cu *.Mask))
  (pad 3 thru_hole circle (at -2.030 -0) (size 1.462 1.462) (drill 0.94) (layers *.Cu *.Mask))
  (pad 4 thru_hole circle (at -3.045 -1.78) (size 1.462 1.462) (drill 0.94) (layers *.Cu *.Mask))
  (pad 5 thru_hole circle (at -4.060 -0) (size 1.462 1.462) (drill 0.94) (layers *.Cu *.Mask))
  (pad 6 thru_hole circle (at -5.075 -1.78) (size 1.462 1.462) (drill 0.94) (layers *.Cu *.Mask))
  (pad 7 thru_hole circle (at -6.090 -0) (size 1.462 1.462) (drill 0.94) (layers *.Cu *.Mask))
  (pad 8 thru_hole circle (at -7.105 -1.78) (size 1.462 1.462) (drill 0.94) (layers *.Cu *.Mask))
  (pad 9 thru_hole circle (at 3.308 -6.6) (size 1.462 1.462) (drill 0.94) (layers *.Cu *.Mask))
  (pad 10 thru_hole circle (at 1.017 -6.6) (size 1.462 1.462) (drill 0.94) (layers *.Cu *.Mask))
  (pad 11 thru_hole circle (at -8.123 -6.6) (size 1.462 1.462) (drill 0.94) (layers *.Cu *.Mask))
  (pad 12 thru_hole circle (at -10.413 -6.6) (size 1.462 1.462) (drill 0.94) (layers *.Cu *.Mask))
  (pad MH1 thru_hole circle (at 4.578 -0.89) (size 2.430 2.430) (drill 1.62) (layers *.Cu *.Mask))
  (pad MH2 thru_hole circle (at -11.683 -0.89) (size 2.430 2.430) (drill 1.62) (layers *.Cu *.Mask))
  (pad MH3 np_thru_hole circle (at 2.798 2.54) (size 3.3 3.3) (drill 3.3) (layers *.Cu *.Mask))
  (pad MH4 np_thru_hole circle (at -9.902 2.54) (size 3.3 3.3) (drill 3.3) (layers *.Cu *.Mask))
  (model "C:\\work\\Briskel\\Electronics\\Kicad\\Lib\\ecad\\SamacSys_Parts.3dshapes\\RJHSE-5381.stp"
    (at (xyz -0.13976377765025 -0.00039370077860168 0.25984251593042))
    (scale (xyz 1 1 1))
    (rotate (xyz -90 0 0))
  )
)
