(kicad_pcb (version 20171130) (host pcbnew "(5.0.0)")

  (general
    (thickness 1.6)
    (drawings 17)
    (tracks 265)
    (zones 0)
    (modules 27)
    (nets 38)
  )

  (page A4)
  (layers
    (0 F.Cu signal)
    (31 B.Cu signal)
    (32 B.Adhes user)
    (33 F.Adhes user)
    (34 B.Paste user)
    (35 F.Paste user)
    (36 B.SilkS user)
    (37 F.SilkS user)
    (38 B.Mask user)
    (39 F.Mask user)
    (40 Dwgs.User user)
    (41 Cmts.User user)
    (42 Eco1.User user)
    (43 Eco2.User user hide)
    (44 Edge.Cuts user)
    (45 Margin user)
    (46 B.CrtYd user)
    (47 F.CrtYd user)
    (48 B.Fab user)
    (49 F.Fab user hide)
  )

  (setup
    (last_trace_width 0.25)
    (user_trace_width 1.5)
    (user_trace_width 2)
    (trace_clearance 0.2)
    (zone_clearance 0.508)
    (zone_45_only no)
    (trace_min 0.2)
    (segment_width 0.2)
    (edge_width 0.15)
    (via_size 0.8)
    (via_drill 0.4)
    (via_min_size 0.4)
    (via_min_drill 0.3)
    (uvia_size 0.3)
    (uvia_drill 0.1)
    (uvias_allowed no)
    (uvia_min_size 0.2)
    (uvia_min_drill 0.1)
    (pcb_text_width 0.3)
    (pcb_text_size 1.5 1.5)
    (mod_edge_width 0.15)
    (mod_text_size 1 1)
    (mod_text_width 0.15)
    (pad_size 1.524 1.524)
    (pad_drill 0.762)
    (pad_to_mask_clearance 0.2)
    (aux_axis_origin 0 0)
    (visible_elements 7FFFFFFF)
    (pcbplotparams
      (layerselection 0x010ec_ffffffff)
      (usegerberextensions false)
      (usegerberattributes false)
      (usegerberadvancedattributes false)
      (creategerberjobfile false)
      (excludeedgelayer true)
      (linewidth 0.100000)
      (plotframeref false)
      (viasonmask false)
      (mode 1)
      (useauxorigin false)
      (hpglpennumber 1)
      (hpglpenspeed 20)
      (hpglpendiameter 15.000000)
      (psnegative false)
      (psa4output false)
      (plotreference true)
      (plotvalue true)
      (plotinvisibletext false)
      (padsonsilk false)
      (subtractmaskfromsilk false)
      (outputformat 1)
      (mirror false)
      (drillshape 0)
      (scaleselection 1)
      (outputdirectory "FabOutput/"))
  )

  (net 0 "")
  (net 1 12V)
  (net 2 /SPARE)
  (net 3 GND)
  (net 4 5V)
  (net 5 "Net-(H1-Pad1)")
  (net 6 "Net-(H2-Pad1)")
  (net 7 "Net-(H3-Pad1)")
  (net 8 "Net-(H4-Pad1)")
  (net 9 /UART_RX)
  (net 10 /UART_TX)
  (net 11 /SWIM)
  (net 12 /NRST)
  (net 13 "Net-(U1-Pad5)")
  (net 14 "Net-(U1-Pad6)")
  (net 15 3V3)
  (net 16 "Net-(U1-Pad10)")
  (net 17 "Net-(U1-Pad13)")
  (net 18 "Net-(U1-Pad14)")
  (net 19 "Net-(U1-Pad15)")
  (net 20 "Net-(U1-Pad16)")
  (net 21 "Net-(U1-Pad17)")
  (net 22 "Net-(U1-Pad18)")
  (net 23 "Net-(U1-Pad19)")
  (net 24 "Net-(U1-Pad20)")
  (net 25 "Net-(D1-Pad2)")
  (net 26 /LED_3)
  (net 27 /LED_2)
  (net 28 /LED_1)
  (net 29 "Net-(Q3-Pad3)")
  (net 30 "Net-(Q2-Pad3)")
  (net 31 "Net-(Q1-Pad3)")
  (net 32 "Net-(R4-Pad1)")
  (net 33 "Net-(R3-Pad1)")
  (net 34 "Net-(R5-Pad1)")
  (net 35 /5V_In)
  (net 36 /CPU_TX)
  (net 37 /CPU_RX)

  (net_class Default "This is the default net class."
    (clearance 0.2)
    (trace_width 0.25)
    (via_dia 0.8)
    (via_drill 0.4)
    (uvia_dia 0.3)
    (uvia_drill 0.1)
    (add_net /5V_In)
    (add_net /CPU_RX)
    (add_net /CPU_TX)
    (add_net /LED_1)
    (add_net /LED_2)
    (add_net /LED_3)
    (add_net /NRST)
    (add_net /SPARE)
    (add_net /SWIM)
    (add_net /UART_RX)
    (add_net /UART_TX)
    (add_net 12V)
    (add_net 3V3)
    (add_net 5V)
    (add_net GND)
    (add_net "Net-(D1-Pad2)")
    (add_net "Net-(H1-Pad1)")
    (add_net "Net-(H2-Pad1)")
    (add_net "Net-(H3-Pad1)")
    (add_net "Net-(H4-Pad1)")
    (add_net "Net-(Q1-Pad3)")
    (add_net "Net-(Q2-Pad3)")
    (add_net "Net-(Q3-Pad3)")
    (add_net "Net-(R3-Pad1)")
    (add_net "Net-(R4-Pad1)")
    (add_net "Net-(R5-Pad1)")
    (add_net "Net-(U1-Pad10)")
    (add_net "Net-(U1-Pad13)")
    (add_net "Net-(U1-Pad14)")
    (add_net "Net-(U1-Pad15)")
    (add_net "Net-(U1-Pad16)")
    (add_net "Net-(U1-Pad17)")
    (add_net "Net-(U1-Pad18)")
    (add_net "Net-(U1-Pad19)")
    (add_net "Net-(U1-Pad20)")
    (add_net "Net-(U1-Pad5)")
    (add_net "Net-(U1-Pad6)")
  )

  (module Br:C_0402 (layer F.Cu) (tedit 5DE625B7) (tstamp 5FB43DD9)
    (at 144.018 111.506 90)
    (descr "Capacitor SMD 0402 (1005 Metric), square (rectangular) end terminal, IPC_7351 nominal, (Body size source: http://www.tortai-tech.com/upload/download/2011102023233369053.pdf), generated with kicad-footprint-generator")
    (tags capacitor)
    (path /5FB47A0F)
    (attr smd)
    (fp_text reference C1 (at 0 -1.17 90) (layer F.SilkS)
      (effects (font (size 1 1) (thickness 0.15)))
    )
    (fp_text value 100nF (at 0 1.17 90) (layer F.Fab)
      (effects (font (size 1 1) (thickness 0.15)))
    )
    (fp_text user %R (at 0 0 90) (layer F.Fab)
      (effects (font (size 0.25 0.25) (thickness 0.04)))
    )
    (fp_line (start 0.93 0.47) (end -0.93 0.47) (layer F.CrtYd) (width 0.05))
    (fp_line (start 0.93 -0.47) (end 0.93 0.47) (layer F.CrtYd) (width 0.05))
    (fp_line (start -0.93 -0.47) (end 0.93 -0.47) (layer F.CrtYd) (width 0.05))
    (fp_line (start -0.93 0.47) (end -0.93 -0.47) (layer F.CrtYd) (width 0.05))
    (fp_line (start 0.5 0.25) (end -0.5 0.25) (layer F.Fab) (width 0.1))
    (fp_line (start 0.5 -0.25) (end 0.5 0.25) (layer F.Fab) (width 0.1))
    (fp_line (start -0.5 -0.25) (end 0.5 -0.25) (layer F.Fab) (width 0.1))
    (fp_line (start -0.5 0.25) (end -0.5 -0.25) (layer F.Fab) (width 0.1))
    (pad 2 smd roundrect (at 0.485 0 90) (size 0.59 0.64) (layers F.Cu F.Paste F.Mask) (roundrect_rratio 0.25)
      (net 3 GND))
    (pad 1 smd roundrect (at -0.485 0 90) (size 0.59 0.64) (layers F.Cu F.Paste F.Mask) (roundrect_rratio 0.25)
      (net 12 /NRST))
    (model ${KISYS3DMOD}/C_0402.wrl
      (at (xyz 0 0 0))
      (scale (xyz 1 1 1))
      (rotate (xyz 0 0 0))
    )
  )

  (module Br:C_0402 (layer F.Cu) (tedit 5DE625B7) (tstamp 5FB43DCB)
    (at 142.494 111.506 90)
    (descr "Capacitor SMD 0402 (1005 Metric), square (rectangular) end terminal, IPC_7351 nominal, (Body size source: http://www.tortai-tech.com/upload/download/2011102023233369053.pdf), generated with kicad-footprint-generator")
    (tags capacitor)
    (path /5FB47D3A)
    (attr smd)
    (fp_text reference C3 (at 0 -1.17 90) (layer F.SilkS)
      (effects (font (size 1 1) (thickness 0.15)))
    )
    (fp_text value 1uF (at 0 1.17 90) (layer F.Fab)
      (effects (font (size 1 1) (thickness 0.15)))
    )
    (fp_text user %R (at 0 0 90) (layer F.Fab)
      (effects (font (size 0.25 0.25) (thickness 0.04)))
    )
    (fp_line (start 0.93 0.47) (end -0.93 0.47) (layer F.CrtYd) (width 0.05))
    (fp_line (start 0.93 -0.47) (end 0.93 0.47) (layer F.CrtYd) (width 0.05))
    (fp_line (start -0.93 -0.47) (end 0.93 -0.47) (layer F.CrtYd) (width 0.05))
    (fp_line (start -0.93 0.47) (end -0.93 -0.47) (layer F.CrtYd) (width 0.05))
    (fp_line (start 0.5 0.25) (end -0.5 0.25) (layer F.Fab) (width 0.1))
    (fp_line (start 0.5 -0.25) (end 0.5 0.25) (layer F.Fab) (width 0.1))
    (fp_line (start -0.5 -0.25) (end 0.5 -0.25) (layer F.Fab) (width 0.1))
    (fp_line (start -0.5 0.25) (end -0.5 -0.25) (layer F.Fab) (width 0.1))
    (pad 2 smd roundrect (at 0.485 0 90) (size 0.59 0.64) (layers F.Cu F.Paste F.Mask) (roundrect_rratio 0.25)
      (net 3 GND))
    (pad 1 smd roundrect (at -0.485 0 90) (size 0.59 0.64) (layers F.Cu F.Paste F.Mask) (roundrect_rratio 0.25)
      (net 35 /5V_In))
    (model ${KISYS3DMOD}/C_0402.wrl
      (at (xyz 0 0 0))
      (scale (xyz 1 1 1))
      (rotate (xyz 0 0 0))
    )
  )

  (module Br:C_0402 (layer F.Cu) (tedit 5DE625B7) (tstamp 5FB43DBD)
    (at 145.542 111.506 90)
    (descr "Capacitor SMD 0402 (1005 Metric), square (rectangular) end terminal, IPC_7351 nominal, (Body size source: http://www.tortai-tech.com/upload/download/2011102023233369053.pdf), generated with kicad-footprint-generator")
    (tags capacitor)
    (path /5FB47E1E)
    (attr smd)
    (fp_text reference C4 (at 0 -1.17 90) (layer F.SilkS)
      (effects (font (size 1 1) (thickness 0.15)))
    )
    (fp_text value 1uF (at 0 1.17 90) (layer F.Fab)
      (effects (font (size 1 1) (thickness 0.15)))
    )
    (fp_text user %R (at 0 0 90) (layer F.Fab)
      (effects (font (size 0.25 0.25) (thickness 0.04)))
    )
    (fp_line (start 0.93 0.47) (end -0.93 0.47) (layer F.CrtYd) (width 0.05))
    (fp_line (start 0.93 -0.47) (end 0.93 0.47) (layer F.CrtYd) (width 0.05))
    (fp_line (start -0.93 -0.47) (end 0.93 -0.47) (layer F.CrtYd) (width 0.05))
    (fp_line (start -0.93 0.47) (end -0.93 -0.47) (layer F.CrtYd) (width 0.05))
    (fp_line (start 0.5 0.25) (end -0.5 0.25) (layer F.Fab) (width 0.1))
    (fp_line (start 0.5 -0.25) (end 0.5 0.25) (layer F.Fab) (width 0.1))
    (fp_line (start -0.5 -0.25) (end 0.5 -0.25) (layer F.Fab) (width 0.1))
    (fp_line (start -0.5 0.25) (end -0.5 -0.25) (layer F.Fab) (width 0.1))
    (pad 2 smd roundrect (at 0.485 0 90) (size 0.59 0.64) (layers F.Cu F.Paste F.Mask) (roundrect_rratio 0.25)
      (net 3 GND))
    (pad 1 smd roundrect (at -0.485 0 90) (size 0.59 0.64) (layers F.Cu F.Paste F.Mask) (roundrect_rratio 0.25)
      (net 15 3V3))
    (model ${KISYS3DMOD}/C_0402.wrl
      (at (xyz 0 0 0))
      (scale (xyz 1 1 1))
      (rotate (xyz 0 0 0))
    )
  )

  (module Br:C_0402 (layer F.Cu) (tedit 5DE625B7) (tstamp 5FB43DAF)
    (at 140.97 111.506 90)
    (descr "Capacitor SMD 0402 (1005 Metric), square (rectangular) end terminal, IPC_7351 nominal, (Body size source: http://www.tortai-tech.com/upload/download/2011102023233369053.pdf), generated with kicad-footprint-generator")
    (tags capacitor)
    (path /5FB47AE4)
    (attr smd)
    (fp_text reference C2 (at 0 -1.17 90) (layer F.SilkS)
      (effects (font (size 1 1) (thickness 0.15)))
    )
    (fp_text value 100nF (at 0 1.17 90) (layer F.Fab)
      (effects (font (size 1 1) (thickness 0.15)))
    )
    (fp_text user %R (at 0 0 90) (layer F.Fab)
      (effects (font (size 0.25 0.25) (thickness 0.04)))
    )
    (fp_line (start 0.93 0.47) (end -0.93 0.47) (layer F.CrtYd) (width 0.05))
    (fp_line (start 0.93 -0.47) (end 0.93 0.47) (layer F.CrtYd) (width 0.05))
    (fp_line (start -0.93 -0.47) (end 0.93 -0.47) (layer F.CrtYd) (width 0.05))
    (fp_line (start -0.93 0.47) (end -0.93 -0.47) (layer F.CrtYd) (width 0.05))
    (fp_line (start 0.5 0.25) (end -0.5 0.25) (layer F.Fab) (width 0.1))
    (fp_line (start 0.5 -0.25) (end 0.5 0.25) (layer F.Fab) (width 0.1))
    (fp_line (start -0.5 -0.25) (end 0.5 -0.25) (layer F.Fab) (width 0.1))
    (fp_line (start -0.5 0.25) (end -0.5 -0.25) (layer F.Fab) (width 0.1))
    (pad 2 smd roundrect (at 0.485 0 90) (size 0.59 0.64) (layers F.Cu F.Paste F.Mask) (roundrect_rratio 0.25)
      (net 3 GND))
    (pad 1 smd roundrect (at -0.485 0 90) (size 0.59 0.64) (layers F.Cu F.Paste F.Mask) (roundrect_rratio 0.25)
      (net 15 3V3))
    (model ${KISYS3DMOD}/C_0402.wrl
      (at (xyz 0 0 0))
      (scale (xyz 1 1 1))
      (rotate (xyz 0 0 0))
    )
  )

  (module Br:SOT-89-3 (layer F.Cu) (tedit 5DE627C8) (tstamp 5D9F8A8C)
    (at 142.24 116.84 270)
    (descr SOT-89-3)
    (tags SOT-89-3)
    (path /5D9C8DBA)
    (attr smd)
    (fp_text reference U2 (at -0.001161 3.198491 90) (layer F.SilkS)
      (effects (font (size 1 1) (thickness 0.15)))
    )
    (fp_text value ICP_HT7533-1 (at -0.001161 -3.251509 90) (layer F.Fab)
      (effects (font (size 1 1) (thickness 0.15)))
    )
    (fp_line (start -2.928839 2.551509) (end -2.928839 -2.548491) (layer F.CrtYd) (width 0.05))
    (fp_line (start -2.928839 2.551509) (end 2.781161 2.551509) (layer F.CrtYd) (width 0.05))
    (fp_line (start 2.781161 -2.548491) (end -2.928839 -2.548491) (layer F.CrtYd) (width 0.05))
    (fp_line (start 2.781161 -2.548491) (end 2.781161 2.551509) (layer F.CrtYd) (width 0.05))
    (fp_line (start -0.578839 -2.298491) (end 1.231161 -2.298491) (layer F.Fab) (width 0.1))
    (fp_line (start -1.368839 2.301509) (end -1.368839 -1.508491) (layer F.Fab) (width 0.1))
    (fp_line (start 1.231161 2.301509) (end -1.368839 2.301509) (layer F.Fab) (width 0.1))
    (fp_line (start 1.231161 -2.298491) (end 1.231161 2.301509) (layer F.Fab) (width 0.1))
    (fp_line (start -1.368839 -1.508491) (end -0.578839 -2.298491) (layer F.Fab) (width 0.1))
    (fp_line (start 1.331161 -2.398491) (end 1.331161 -1.198491) (layer F.SilkS) (width 0.12))
    (fp_line (start -2.668839 -2.398491) (end 1.331161 -2.398491) (layer F.SilkS) (width 0.12))
    (fp_line (start 1.331161 2.401509) (end -1.368839 2.401509) (layer F.SilkS) (width 0.12))
    (fp_line (start 1.331161 1.201509) (end 1.331161 2.401509) (layer F.SilkS) (width 0.12))
    (fp_text user %R (at -0.068839 0.001509) (layer F.Fab)
      (effects (font (size 0.6 0.6) (thickness 0.09)))
    )
    (pad 2 smd rect (at 0.51 0 180) (size 1.933 3.03) (layers F.Cu F.Paste F.Mask)
      (net 35 /5V_In))
    (pad 3 smd rect (at -1.635 1.5 180) (size 0.58 1.73) (layers F.Cu F.Paste F.Mask)
      (net 15 3V3))
    (pad 2 smd rect (at -1.75 0 180) (size 0.76 1.5) (layers F.Cu F.Paste F.Mask)
      (net 35 /5V_In))
    (pad 1 smd rect (at -1.635 -1.5 180) (size 0.58 1.73) (layers F.Cu F.Paste F.Mask)
      (net 3 GND))
    (model ${KISYS3DMOD}/SOT-89-3.wrl
      (at (xyz 0 0 0))
      (scale (xyz 1 1 1))
      (rotate (xyz 0 0 0))
    )
  )

  (module Br:TSSOP20 (layer F.Cu) (tedit 5DE62754) (tstamp 5D9D2AEC)
    (at 154.432 114.046 270)
    (path /5D9D4765)
    (solder_mask_margin 0.0762)
    (solder_paste_margin -0.0254)
    (attr smd)
    (fp_text reference U1 (at -4.199604 1.198286) (layer F.SilkS)
      (effects (font (size 0.762 0.762) (thickness 0.1524)))
    )
    (fp_text value ICD_STM8L051F3P6 (at 4.200396 0.098286) (layer F.Fab)
      (effects (font (size 0.762 0.762) (thickness 0.1524)))
    )
    (fp_line (start 3.400396 2.198286) (end 3.300396 2.198286) (layer F.SilkS) (width 0.15))
    (fp_line (start 3.400396 2.198286) (end 3.400396 -2.201714) (layer F.SilkS) (width 0.15))
    (fp_line (start 3.400396 -2.201714) (end 3.300396 -2.201714) (layer F.SilkS) (width 0.15))
    (fp_line (start -3.299604 -2.201714) (end -3.399604 -2.201714) (layer F.SilkS) (width 0.15))
    (fp_line (start -3.399604 -2.201714) (end -3.399604 2.198286) (layer F.SilkS) (width 0.15))
    (fp_line (start -3.399604 2.198286) (end -3.299604 2.198286) (layer F.SilkS) (width 0.15))
    (fp_line (start -3.299604 2.198286) (end -3.299604 2.998286) (layer F.SilkS) (width 0.15))
    (pad 20 smd rect (at -2.924604 -2.876714) (size 1.35 0.4) (layers F.Cu F.Paste F.SilkS F.Mask)
      (net 24 "Net-(U1-Pad20)"))
    (pad 19 smd rect (at -2.274604 -2.876714) (size 1.35 0.4) (layers F.Cu F.Paste F.SilkS F.Mask)
      (net 23 "Net-(U1-Pad19)"))
    (pad 18 smd rect (at -1.624604 -2.876714) (size 1.35 0.4) (layers F.Cu F.Paste F.SilkS F.Mask)
      (net 22 "Net-(U1-Pad18)"))
    (pad 17 smd rect (at -0.974604 -2.876714) (size 1.35 0.4) (layers F.Cu F.Paste F.SilkS F.Mask)
      (net 21 "Net-(U1-Pad17)"))
    (pad 16 smd rect (at -0.324604 -2.876714) (size 1.35 0.4) (layers F.Cu F.Paste F.SilkS F.Mask)
      (net 20 "Net-(U1-Pad16)"))
    (pad 15 smd rect (at 0.325396 -2.876714) (size 1.35 0.4) (layers F.Cu F.Paste F.SilkS F.Mask)
      (net 19 "Net-(U1-Pad15)"))
    (pad 14 smd rect (at 0.975396 -2.876714) (size 1.35 0.4) (layers F.Cu F.Paste F.SilkS F.Mask)
      (net 18 "Net-(U1-Pad14)"))
    (pad 13 smd rect (at 1.625396 -2.876714) (size 1.35 0.4) (layers F.Cu F.Paste F.SilkS F.Mask)
      (net 17 "Net-(U1-Pad13)"))
    (pad 12 smd rect (at 2.275396 -2.876714) (size 1.35 0.4) (layers F.Cu F.Paste F.SilkS F.Mask)
      (net 26 /LED_3))
    (pad 11 smd rect (at 2.925396 -2.876714) (size 1.35 0.4) (layers F.Cu F.Paste F.SilkS F.Mask)
      (net 27 /LED_2))
    (pad 10 smd rect (at 2.925396 2.873286) (size 1.35 0.4) (layers F.Cu F.Paste F.SilkS F.Mask)
      (net 16 "Net-(U1-Pad10)"))
    (pad 9 smd rect (at 2.275396 2.873286) (size 1.35 0.4) (layers F.Cu F.Paste F.SilkS F.Mask)
      (net 28 /LED_1))
    (pad 8 smd rect (at 1.625396 2.873286) (size 1.35 0.4) (layers F.Cu F.Paste F.SilkS F.Mask)
      (net 15 3V3))
    (pad 7 smd rect (at 0.975396 2.873286) (size 1.35 0.4) (layers F.Cu F.Paste F.SilkS F.Mask)
      (net 3 GND))
    (pad 6 smd rect (at 0.325396 2.873286) (size 1.35 0.4) (layers F.Cu F.Paste F.SilkS F.Mask)
      (net 14 "Net-(U1-Pad6)"))
    (pad 5 smd rect (at -0.324604 2.873286) (size 1.35 0.4) (layers F.Cu F.Paste F.SilkS F.Mask)
      (net 13 "Net-(U1-Pad5)"))
    (pad 4 smd rect (at -0.974604 2.873286) (size 1.35 0.4) (layers F.Cu F.Paste F.SilkS F.Mask)
      (net 12 /NRST))
    (pad 3 smd rect (at -1.624604 2.873286) (size 1.35 0.4) (layers F.Cu F.Paste F.SilkS F.Mask)
      (net 11 /SWIM))
    (pad 2 smd rect (at -2.274604 2.873286) (size 1.35 0.4) (layers F.Cu F.Paste F.SilkS F.Mask)
      (net 37 /CPU_RX))
    (pad 1 smd rect (at -2.924604 2.873286) (size 1.35 0.4) (layers F.Cu F.Paste F.SilkS F.Mask)
      (net 36 /CPU_TX))
    (model ${KISYS3DMOD}/TSSOP-20_4.4x6.5mm_P0.65mm.wrl
      (at (xyz 0 0 0))
      (scale (xyz 1 1 1))
      (rotate (xyz 0 0 -90))
    )
  )

  (module Br:R_0603 (layer F.Cu) (tedit 5DE62695) (tstamp 5D9D1549)
    (at 156.972 94.234 180)
    (descr "Capacitor SMD 0603, reflow soldering, AVX (see smccp.pdf)")
    (tags "capacitor 0603")
    (path /5FB47443)
    (attr smd)
    (fp_text reference R5 (at 0 -1.524 180) (layer F.SilkS)
      (effects (font (size 1 1) (thickness 0.15)))
    )
    (fp_text value 180R (at 0.1 1.5 180) (layer F.Fab)
      (effects (font (size 1 1) (thickness 0.15)))
    )
    (fp_line (start 0.35 0.6) (end -0.35 0.6) (layer F.SilkS) (width 0.15))
    (fp_line (start -0.35 -0.6) (end 0.35 -0.6) (layer F.SilkS) (width 0.15))
    (fp_line (start 1.45 -0.75) (end 1.45 0.75) (layer F.CrtYd) (width 0.05))
    (fp_line (start -1.45 -0.75) (end -1.45 0.75) (layer F.CrtYd) (width 0.05))
    (fp_line (start -1.45 0.75) (end 1.45 0.75) (layer F.CrtYd) (width 0.05))
    (fp_line (start -1.45 -0.75) (end 1.45 -0.75) (layer F.CrtYd) (width 0.05))
    (pad 2 smd rect (at 0.75 0 180) (size 0.8 0.75) (layers F.Cu F.Paste F.Mask)
      (net 29 "Net-(Q3-Pad3)"))
    (pad 1 smd rect (at -0.75 0 180) (size 0.8 0.75) (layers F.Cu F.Paste F.Mask)
      (net 34 "Net-(R5-Pad1)"))
    (model ${KISYS3DMOD}/R_0603.wrl
      (at (xyz 0 0 0))
      (scale (xyz 1 1 1))
      (rotate (xyz 0 0 0))
    )
  )

  (module Br:R_0603 (layer F.Cu) (tedit 5DE62695) (tstamp 5D9D1511)
    (at 144.272 94.234)
    (descr "Capacitor SMD 0603, reflow soldering, AVX (see smccp.pdf)")
    (tags "capacitor 0603")
    (path /5FB46F6D)
    (attr smd)
    (fp_text reference R3 (at 0 1.524) (layer F.SilkS)
      (effects (font (size 1 1) (thickness 0.15)))
    )
    (fp_text value 180R (at 0.1 1.5) (layer F.Fab)
      (effects (font (size 1 1) (thickness 0.15)))
    )
    (fp_line (start 0.35 0.6) (end -0.35 0.6) (layer F.SilkS) (width 0.15))
    (fp_line (start -0.35 -0.6) (end 0.35 -0.6) (layer F.SilkS) (width 0.15))
    (fp_line (start 1.45 -0.75) (end 1.45 0.75) (layer F.CrtYd) (width 0.05))
    (fp_line (start -1.45 -0.75) (end -1.45 0.75) (layer F.CrtYd) (width 0.05))
    (fp_line (start -1.45 0.75) (end 1.45 0.75) (layer F.CrtYd) (width 0.05))
    (fp_line (start -1.45 -0.75) (end 1.45 -0.75) (layer F.CrtYd) (width 0.05))
    (pad 2 smd rect (at 0.75 0) (size 0.8 0.75) (layers F.Cu F.Paste F.Mask)
      (net 31 "Net-(Q1-Pad3)"))
    (pad 1 smd rect (at -0.75 0) (size 0.8 0.75) (layers F.Cu F.Paste F.Mask)
      (net 33 "Net-(R3-Pad1)"))
    (model ${KISYS3DMOD}/R_0603.wrl
      (at (xyz 0 0 0))
      (scale (xyz 1 1 1))
      (rotate (xyz 0 0 0))
    )
  )

  (module Br:SOT23 (layer F.Cu) (tedit 5DE6282D) (tstamp 5D9D14C1)
    (at 144.272 91.44)
    (descr "SOT23, Standard")
    (tags SOT23)
    (path /5D9D908D)
    (attr smd)
    (fp_text reference Q1 (at -0.508 -2.54 180) (layer F.SilkS)
      (effects (font (size 1 1) (thickness 0.15)))
    )
    (fp_text value TR_NMOS_0.36A_60V_2N7002P (at 2.29751 0.011692 90) (layer F.Fab)
      (effects (font (size 1 1) (thickness 0.15)))
    )
    (fp_line (start -0.65273 -1.488128) (end 0.04831 -1.488128) (layer F.SilkS) (width 0.15))
    (fp_line (start -0.65273 -1.287468) (end -0.65273 -1.488128) (layer F.SilkS) (width 0.15))
    (fp_line (start -0.65273 1.511512) (end -0.65273 1.262592) (layer F.SilkS) (width 0.15))
    (fp_line (start 0.04831 1.511512) (end -0.65273 1.511512) (layer F.SilkS) (width 0.15))
    (fp_line (start -0.65273 -1.287468) (end -0.65273 -1.239208) (layer F.SilkS) (width 0.15))
    (fp_line (start 1.59751 1.661692) (end -1.60249 1.661692) (layer F.CrtYd) (width 0.05))
    (fp_line (start 1.59751 -1.638308) (end 1.59751 1.661692) (layer F.CrtYd) (width 0.05))
    (fp_line (start -1.60249 -1.638308) (end 1.59751 -1.638308) (layer F.CrtYd) (width 0.05))
    (fp_line (start -1.60249 1.661692) (end -1.60249 -1.638308) (layer F.CrtYd) (width 0.05))
    (pad 3 smd rect (at -1.00071 0.011692 90) (size 0.8001 0.8001) (layers F.Cu F.Paste F.Mask)
      (net 31 "Net-(Q1-Pad3)"))
    (pad 2 smd rect (at 0.99827 -0.938308 90) (size 0.8001 0.8001) (layers F.Cu F.Paste F.Mask)
      (net 3 GND))
    (pad 1 smd rect (at 0.99827 0.961692 90) (size 0.8001 0.8001) (layers F.Cu F.Paste F.Mask)
      (net 28 /LED_1))
    (model ${KISYS3DMOD}/SOT-23.wrl
      (at (xyz 0 0 0))
      (scale (xyz 1 1 1))
      (rotate (xyz 0 0 180))
    )
  )

  (module Br:SOT23 (layer F.Cu) (tedit 5DE6282D) (tstamp 5D9D14B1)
    (at 150.876 91.44)
    (descr "SOT23, Standard")
    (tags SOT23)
    (path /5D9DF9ED)
    (attr smd)
    (fp_text reference Q2 (at -0.508 -2.54 180) (layer F.SilkS)
      (effects (font (size 1 1) (thickness 0.15)))
    )
    (fp_text value TR_NMOS_0.36A_60V_2N7002P (at 2.29751 0.011692 90) (layer F.Fab)
      (effects (font (size 1 1) (thickness 0.15)))
    )
    (fp_line (start -0.65273 -1.488128) (end 0.04831 -1.488128) (layer F.SilkS) (width 0.15))
    (fp_line (start -0.65273 -1.287468) (end -0.65273 -1.488128) (layer F.SilkS) (width 0.15))
    (fp_line (start -0.65273 1.511512) (end -0.65273 1.262592) (layer F.SilkS) (width 0.15))
    (fp_line (start 0.04831 1.511512) (end -0.65273 1.511512) (layer F.SilkS) (width 0.15))
    (fp_line (start -0.65273 -1.287468) (end -0.65273 -1.239208) (layer F.SilkS) (width 0.15))
    (fp_line (start 1.59751 1.661692) (end -1.60249 1.661692) (layer F.CrtYd) (width 0.05))
    (fp_line (start 1.59751 -1.638308) (end 1.59751 1.661692) (layer F.CrtYd) (width 0.05))
    (fp_line (start -1.60249 -1.638308) (end 1.59751 -1.638308) (layer F.CrtYd) (width 0.05))
    (fp_line (start -1.60249 1.661692) (end -1.60249 -1.638308) (layer F.CrtYd) (width 0.05))
    (pad 3 smd rect (at -1.00071 0.011692 90) (size 0.8001 0.8001) (layers F.Cu F.Paste F.Mask)
      (net 30 "Net-(Q2-Pad3)"))
    (pad 2 smd rect (at 0.99827 -0.938308 90) (size 0.8001 0.8001) (layers F.Cu F.Paste F.Mask)
      (net 3 GND))
    (pad 1 smd rect (at 0.99827 0.961692 90) (size 0.8001 0.8001) (layers F.Cu F.Paste F.Mask)
      (net 27 /LED_2))
    (model ${KISYS3DMOD}/SOT-23.wrl
      (at (xyz 0 0 0))
      (scale (xyz 1 1 1))
      (rotate (xyz 0 0 180))
    )
  )

  (module Br:SOT23 (layer F.Cu) (tedit 5DE6282D) (tstamp 5D9D14A1)
    (at 156.972 91.44)
    (descr "SOT23, Standard")
    (tags SOT23)
    (path /5D9E1259)
    (attr smd)
    (fp_text reference Q3 (at -0.762 -2.54 180) (layer F.SilkS)
      (effects (font (size 1 1) (thickness 0.15)))
    )
    (fp_text value TR_NMOS_0.36A_60V_2N7002P (at 2.29751 0.011692 90) (layer F.Fab)
      (effects (font (size 1 1) (thickness 0.15)))
    )
    (fp_line (start -0.65273 -1.488128) (end 0.04831 -1.488128) (layer F.SilkS) (width 0.15))
    (fp_line (start -0.65273 -1.287468) (end -0.65273 -1.488128) (layer F.SilkS) (width 0.15))
    (fp_line (start -0.65273 1.511512) (end -0.65273 1.262592) (layer F.SilkS) (width 0.15))
    (fp_line (start 0.04831 1.511512) (end -0.65273 1.511512) (layer F.SilkS) (width 0.15))
    (fp_line (start -0.65273 -1.287468) (end -0.65273 -1.239208) (layer F.SilkS) (width 0.15))
    (fp_line (start 1.59751 1.661692) (end -1.60249 1.661692) (layer F.CrtYd) (width 0.05))
    (fp_line (start 1.59751 -1.638308) (end 1.59751 1.661692) (layer F.CrtYd) (width 0.05))
    (fp_line (start -1.60249 -1.638308) (end 1.59751 -1.638308) (layer F.CrtYd) (width 0.05))
    (fp_line (start -1.60249 1.661692) (end -1.60249 -1.638308) (layer F.CrtYd) (width 0.05))
    (pad 3 smd rect (at -1.00071 0.011692 90) (size 0.8001 0.8001) (layers F.Cu F.Paste F.Mask)
      (net 29 "Net-(Q3-Pad3)"))
    (pad 2 smd rect (at 0.99827 -0.938308 90) (size 0.8001 0.8001) (layers F.Cu F.Paste F.Mask)
      (net 3 GND))
    (pad 1 smd rect (at 0.99827 0.961692 90) (size 0.8001 0.8001) (layers F.Cu F.Paste F.Mask)
      (net 26 /LED_3))
    (model ${KISYS3DMOD}/SOT-23.wrl
      (at (xyz 0 0 0))
      (scale (xyz 1 1 1))
      (rotate (xyz 0 0 180))
    )
  )

  (module Br:SOT23 (layer F.Cu) (tedit 5DE6282D) (tstamp 5D9D1491)
    (at 162.306 116.332)
    (descr "SOT23, Standard")
    (tags SOT23)
    (path /5D9CF778)
    (attr smd)
    (fp_text reference D3 (at 2.794 0.011692 90) (layer F.SilkS)
      (effects (font (size 1 1) (thickness 0.15)))
    )
    (fp_text value D_BAV99.215 (at 2.29751 0.011692 90) (layer F.Fab)
      (effects (font (size 1 1) (thickness 0.15)))
    )
    (fp_line (start -0.65273 -1.488128) (end 0.04831 -1.488128) (layer F.SilkS) (width 0.15))
    (fp_line (start -0.65273 -1.287468) (end -0.65273 -1.488128) (layer F.SilkS) (width 0.15))
    (fp_line (start -0.65273 1.511512) (end -0.65273 1.262592) (layer F.SilkS) (width 0.15))
    (fp_line (start 0.04831 1.511512) (end -0.65273 1.511512) (layer F.SilkS) (width 0.15))
    (fp_line (start -0.65273 -1.287468) (end -0.65273 -1.239208) (layer F.SilkS) (width 0.15))
    (fp_line (start 1.59751 1.661692) (end -1.60249 1.661692) (layer F.CrtYd) (width 0.05))
    (fp_line (start 1.59751 -1.638308) (end 1.59751 1.661692) (layer F.CrtYd) (width 0.05))
    (fp_line (start -1.60249 -1.638308) (end 1.59751 -1.638308) (layer F.CrtYd) (width 0.05))
    (fp_line (start -1.60249 1.661692) (end -1.60249 -1.638308) (layer F.CrtYd) (width 0.05))
    (pad 3 smd rect (at -1.00071 0.011692 90) (size 0.8001 0.8001) (layers F.Cu F.Paste F.Mask)
      (net 36 /CPU_TX))
    (pad 2 smd rect (at 0.99827 -0.938308 90) (size 0.8001 0.8001) (layers F.Cu F.Paste F.Mask)
      (net 15 3V3))
    (pad 1 smd rect (at 0.99827 0.961692 90) (size 0.8001 0.8001) (layers F.Cu F.Paste F.Mask)
      (net 3 GND))
    (model ${KISYS3DMOD}/SOT-23.wrl
      (at (xyz 0 0 0))
      (scale (xyz 1 1 1))
      (rotate (xyz 0 0 180))
    )
  )

  (module Br:SOT23 (layer F.Cu) (tedit 5DE6282D) (tstamp 5D9D1481)
    (at 148.844 111.887 180)
    (descr "SOT23, Standard")
    (tags SOT23)
    (path /5D9CDB0F)
    (attr smd)
    (fp_text reference D2 (at 2.794 -0.254) (layer F.SilkS)
      (effects (font (size 1 1) (thickness 0.15)))
    )
    (fp_text value D_BAV99.215 (at 2.29751 0.011692 270) (layer F.Fab)
      (effects (font (size 1 1) (thickness 0.15)))
    )
    (fp_line (start -0.65273 -1.488128) (end 0.04831 -1.488128) (layer F.SilkS) (width 0.15))
    (fp_line (start -0.65273 -1.287468) (end -0.65273 -1.488128) (layer F.SilkS) (width 0.15))
    (fp_line (start -0.65273 1.511512) (end -0.65273 1.262592) (layer F.SilkS) (width 0.15))
    (fp_line (start 0.04831 1.511512) (end -0.65273 1.511512) (layer F.SilkS) (width 0.15))
    (fp_line (start -0.65273 -1.287468) (end -0.65273 -1.239208) (layer F.SilkS) (width 0.15))
    (fp_line (start 1.59751 1.661692) (end -1.60249 1.661692) (layer F.CrtYd) (width 0.05))
    (fp_line (start 1.59751 -1.638308) (end 1.59751 1.661692) (layer F.CrtYd) (width 0.05))
    (fp_line (start -1.60249 -1.638308) (end 1.59751 -1.638308) (layer F.CrtYd) (width 0.05))
    (fp_line (start -1.60249 1.661692) (end -1.60249 -1.638308) (layer F.CrtYd) (width 0.05))
    (pad 3 smd rect (at -1.00071 0.011692 270) (size 0.8001 0.8001) (layers F.Cu F.Paste F.Mask)
      (net 37 /CPU_RX))
    (pad 2 smd rect (at 0.99827 -0.938308 270) (size 0.8001 0.8001) (layers F.Cu F.Paste F.Mask)
      (net 15 3V3))
    (pad 1 smd rect (at 0.99827 0.961692 270) (size 0.8001 0.8001) (layers F.Cu F.Paste F.Mask)
      (net 3 GND))
    (model ${KISYS3DMOD}/SOT-23.wrl
      (at (xyz 0 0 0))
      (scale (xyz 1 1 1))
      (rotate (xyz 0 0 180))
    )
  )

  (module Br:SOT23 (layer F.Cu) (tedit 5DE6282D) (tstamp 5FFCD4CD)
    (at 135.89 112.522 180)
    (descr "SOT23, Standard")
    (tags SOT23)
    (path /5D9CB918)
    (attr smd)
    (fp_text reference D1 (at 2.794 0) (layer F.SilkS)
      (effects (font (size 1 1) (thickness 0.15)))
    )
    (fp_text value D_BAV99.215 (at 2.29751 0.011692 270) (layer F.Fab)
      (effects (font (size 1 1) (thickness 0.15)))
    )
    (fp_line (start -0.65273 -1.488128) (end 0.04831 -1.488128) (layer F.SilkS) (width 0.15))
    (fp_line (start -0.65273 -1.287468) (end -0.65273 -1.488128) (layer F.SilkS) (width 0.15))
    (fp_line (start -0.65273 1.511512) (end -0.65273 1.262592) (layer F.SilkS) (width 0.15))
    (fp_line (start 0.04831 1.511512) (end -0.65273 1.511512) (layer F.SilkS) (width 0.15))
    (fp_line (start -0.65273 -1.287468) (end -0.65273 -1.239208) (layer F.SilkS) (width 0.15))
    (fp_line (start 1.59751 1.661692) (end -1.60249 1.661692) (layer F.CrtYd) (width 0.05))
    (fp_line (start 1.59751 -1.638308) (end 1.59751 1.661692) (layer F.CrtYd) (width 0.05))
    (fp_line (start -1.60249 -1.638308) (end 1.59751 -1.638308) (layer F.CrtYd) (width 0.05))
    (fp_line (start -1.60249 1.661692) (end -1.60249 -1.638308) (layer F.CrtYd) (width 0.05))
    (pad 3 smd rect (at -1.00071 0.011692 270) (size 0.8001 0.8001) (layers F.Cu F.Paste F.Mask)
      (net 35 /5V_In))
    (pad 2 smd rect (at 0.99827 -0.938308 270) (size 0.8001 0.8001) (layers F.Cu F.Paste F.Mask)
      (net 25 "Net-(D1-Pad2)"))
    (pad 1 smd rect (at 0.99827 0.961692 270) (size 0.8001 0.8001) (layers F.Cu F.Paste F.Mask)
      (net 4 5V))
    (model ${KISYS3DMOD}/SOT-23.wrl
      (at (xyz 0 0 0))
      (scale (xyz 1 1 1))
      (rotate (xyz 0 0 180))
    )
  )

  (module Br:LED_THT_10MM (layer F.Cu) (tedit 5CBF6102) (tstamp 5D9CFE20)
    (at 149 102 90)
    (path /5D9DF9DA)
    (fp_text reference U4 (at 3.194 -5.442 180) (layer F.SilkS)
      (effects (font (size 1 1) (thickness 0.15)))
    )
    (fp_text value D_LED_RED_THT_10MM_LL-1003VD2D-V1-1A_160_270mcd_60deg (at 0.5 3.5 90) (layer F.Fab)
      (effects (font (size 1 1) (thickness 0.15)))
    )
    (fp_line (start -0.5 -1.5) (end -1 -1.5) (layer F.SilkS) (width 0.15))
    (fp_line (start 0 -1.5) (end 0.5 -1.5) (layer F.SilkS) (width 0.15))
    (fp_line (start 0 -2) (end 0 -1) (layer F.SilkS) (width 0.15))
    (fp_line (start 0 -1.5) (end -0.5 -2) (layer F.SilkS) (width 0.15))
    (fp_line (start -0.5 -1) (end 0 -1.5) (layer F.SilkS) (width 0.15))
    (fp_line (start -0.5 -2) (end -0.5 -1) (layer F.SilkS) (width 0.15))
    (fp_arc (start 0 0) (end 4.999999 -1.999999) (angle -316.397181) (layer F.SilkS) (width 0.15))
    (fp_line (start 5 -2) (end 5 2) (layer F.SilkS) (width 0.15))
    (pad 2 thru_hole circle (at 1.27 0 90) (size 1.524 1.524) (drill 0.762) (layers *.Cu *.Mask)
      (net 32 "Net-(R4-Pad1)"))
    (pad 1 thru_hole circle (at -1.27 0 90) (size 1.524 1.524) (drill 0.762) (layers *.Cu *.Mask)
      (net 35 /5V_In))
  )

  (module Br:LED_THT_10MM (layer F.Cu) (tedit 5CBF6102) (tstamp 5FB43F5C)
    (at 136.5 102 90)
    (path /5D9D3265)
    (fp_text reference U3 (at 2.432 -6.158 180) (layer F.SilkS)
      (effects (font (size 1 1) (thickness 0.15)))
    )
    (fp_text value D_LED_RED_THT_10MM_LL-1003VD2D-V1-1A_160_270mcd_60deg (at 0.5 3.5 90) (layer F.Fab)
      (effects (font (size 1 1) (thickness 0.15)))
    )
    (fp_line (start -0.5 -1.5) (end -1 -1.5) (layer F.SilkS) (width 0.15))
    (fp_line (start 0 -1.5) (end 0.5 -1.5) (layer F.SilkS) (width 0.15))
    (fp_line (start 0 -2) (end 0 -1) (layer F.SilkS) (width 0.15))
    (fp_line (start 0 -1.5) (end -0.5 -2) (layer F.SilkS) (width 0.15))
    (fp_line (start -0.5 -1) (end 0 -1.5) (layer F.SilkS) (width 0.15))
    (fp_line (start -0.5 -2) (end -0.5 -1) (layer F.SilkS) (width 0.15))
    (fp_arc (start 0 0) (end 4.999999 -1.999999) (angle -316.397181) (layer F.SilkS) (width 0.15))
    (fp_line (start 5 -2) (end 5 2) (layer F.SilkS) (width 0.15))
    (pad 2 thru_hole circle (at 1.27 0 90) (size 1.524 1.524) (drill 0.762) (layers *.Cu *.Mask)
      (net 33 "Net-(R3-Pad1)"))
    (pad 1 thru_hole circle (at -1.27 0 90) (size 1.524 1.524) (drill 0.762) (layers *.Cu *.Mask)
      (net 35 /5V_In))
  )

  (module Br:LED_THT_10MM (layer F.Cu) (tedit 5CBF6102) (tstamp 5D9CFE04)
    (at 161.5 102 90)
    (path /5D9E1246)
    (fp_text reference U5 (at 3.448 -5.726 180) (layer F.SilkS)
      (effects (font (size 1 1) (thickness 0.15)))
    )
    (fp_text value D_LED_RED_THT_10MM_LL-1003VD2D-V1-1A_160_270mcd_60deg (at 0.5 3.5 90) (layer F.Fab)
      (effects (font (size 1 1) (thickness 0.15)))
    )
    (fp_line (start -0.5 -1.5) (end -1 -1.5) (layer F.SilkS) (width 0.15))
    (fp_line (start 0 -1.5) (end 0.5 -1.5) (layer F.SilkS) (width 0.15))
    (fp_line (start 0 -2) (end 0 -1) (layer F.SilkS) (width 0.15))
    (fp_line (start 0 -1.5) (end -0.5 -2) (layer F.SilkS) (width 0.15))
    (fp_line (start -0.5 -1) (end 0 -1.5) (layer F.SilkS) (width 0.15))
    (fp_line (start -0.5 -2) (end -0.5 -1) (layer F.SilkS) (width 0.15))
    (fp_arc (start 0 0) (end 4.999999 -1.999999) (angle -316.397181) (layer F.SilkS) (width 0.15))
    (fp_line (start 5 -2) (end 5 2) (layer F.SilkS) (width 0.15))
    (pad 2 thru_hole circle (at 1.27 0 90) (size 1.524 1.524) (drill 0.762) (layers *.Cu *.Mask)
      (net 34 "Net-(R5-Pad1)"))
    (pad 1 thru_hole circle (at -1.27 0 90) (size 1.524 1.524) (drill 0.762) (layers *.Cu *.Mask)
      (net 35 /5V_In))
  )

  (module Br:R_0603 (layer F.Cu) (tedit 5DE62695) (tstamp 5D9CFDB2)
    (at 150.634 94.234 180)
    (descr "Capacitor SMD 0603, reflow soldering, AVX (see smccp.pdf)")
    (tags "capacitor 0603")
    (path /5FB4733B)
    (attr smd)
    (fp_text reference R4 (at -0.242 -1.524 180) (layer F.SilkS)
      (effects (font (size 1 1) (thickness 0.15)))
    )
    (fp_text value 180R (at 0.1 1.5 180) (layer F.Fab)
      (effects (font (size 1 1) (thickness 0.15)))
    )
    (fp_line (start 0.35 0.6) (end -0.35 0.6) (layer F.SilkS) (width 0.15))
    (fp_line (start -0.35 -0.6) (end 0.35 -0.6) (layer F.SilkS) (width 0.15))
    (fp_line (start 1.45 -0.75) (end 1.45 0.75) (layer F.CrtYd) (width 0.05))
    (fp_line (start -1.45 -0.75) (end -1.45 0.75) (layer F.CrtYd) (width 0.05))
    (fp_line (start -1.45 0.75) (end 1.45 0.75) (layer F.CrtYd) (width 0.05))
    (fp_line (start -1.45 -0.75) (end 1.45 -0.75) (layer F.CrtYd) (width 0.05))
    (pad 2 smd rect (at 0.75 0 180) (size 0.8 0.75) (layers F.Cu F.Paste F.Mask)
      (net 30 "Net-(Q2-Pad3)"))
    (pad 1 smd rect (at -0.75 0 180) (size 0.8 0.75) (layers F.Cu F.Paste F.Mask)
      (net 32 "Net-(R4-Pad1)"))
    (model ${KISYS3DMOD}/R_0603.wrl
      (at (xyz 0 0 0))
      (scale (xyz 1 1 1))
      (rotate (xyz 0 0 0))
    )
  )

  (module Br:CN_P_01x04_1.27MM_STRAIGHT_ZL319-4P (layer F.Cu) (tedit 59FED6E3) (tstamp 5D9E3DBF)
    (at 146.558 114.808)
    (descr "Through hole straight pin header, 1x04, 1.27mm pitch, single row")
    (tags "Through hole pin header THT 1x04 1.27mm single row")
    (path /5D9D92B3)
    (fp_text reference J2 (at 0 -1.695) (layer F.SilkS)
      (effects (font (size 1 1) (thickness 0.15)))
    )
    (fp_text value CN_P_01x04_1.27MM_STRAIGHT_ZL319-4P (at 0 5.505) (layer F.Fab)
      (effects (font (size 1 1) (thickness 0.15)))
    )
    (fp_text user %R (at 0 1.905 90) (layer F.Fab)
      (effects (font (size 1 1) (thickness 0.15)))
    )
    (fp_line (start 1.55 -1.15) (end -1.55 -1.15) (layer F.CrtYd) (width 0.05))
    (fp_line (start 1.55 4.95) (end 1.55 -1.15) (layer F.CrtYd) (width 0.05))
    (fp_line (start -1.55 4.95) (end 1.55 4.95) (layer F.CrtYd) (width 0.05))
    (fp_line (start -1.55 -1.15) (end -1.55 4.95) (layer F.CrtYd) (width 0.05))
    (fp_line (start -1.11 -0.76) (end 0 -0.76) (layer F.SilkS) (width 0.12))
    (fp_line (start -1.11 0) (end -1.11 -0.76) (layer F.SilkS) (width 0.12))
    (fp_line (start 0.563471 0.76) (end 1.11 0.76) (layer F.SilkS) (width 0.12))
    (fp_line (start -1.11 0.76) (end -0.563471 0.76) (layer F.SilkS) (width 0.12))
    (fp_line (start 1.11 0.76) (end 1.11 4.505) (layer F.SilkS) (width 0.12))
    (fp_line (start -1.11 0.76) (end -1.11 4.505) (layer F.SilkS) (width 0.12))
    (fp_line (start 0.30753 4.505) (end 1.11 4.505) (layer F.SilkS) (width 0.12))
    (fp_line (start -1.11 4.505) (end -0.30753 4.505) (layer F.SilkS) (width 0.12))
    (fp_line (start -1.05 -0.11) (end -0.525 -0.635) (layer F.Fab) (width 0.1))
    (fp_line (start -1.05 4.445) (end -1.05 -0.11) (layer F.Fab) (width 0.1))
    (fp_line (start 1.05 4.445) (end -1.05 4.445) (layer F.Fab) (width 0.1))
    (fp_line (start 1.05 -0.635) (end 1.05 4.445) (layer F.Fab) (width 0.1))
    (fp_line (start -0.525 -0.635) (end 1.05 -0.635) (layer F.Fab) (width 0.1))
    (pad 4 thru_hole oval (at 0 3.81) (size 1 1) (drill 0.65) (layers *.Cu *.Mask)
      (net 15 3V3))
    (pad 3 thru_hole oval (at 0 2.54) (size 1 1) (drill 0.65) (layers *.Cu *.Mask)
      (net 11 /SWIM))
    (pad 2 thru_hole oval (at 0 1.27) (size 1 1) (drill 0.65) (layers *.Cu *.Mask)
      (net 3 GND))
    (pad 1 thru_hole rect (at 0 0) (size 1 1) (drill 0.65) (layers *.Cu *.Mask)
      (net 12 /NRST))
    (model ${KISYS3DMOD}/Connector_PinHeader_1.27mm.3dshapes/CN_P_01x04_1.27MM_STRAIGHT_ZL319-4P.wrl
      (at (xyz 0 0 0))
      (scale (xyz 1 1 1))
      (rotate (xyz 0 0 0))
    )
  )

  (module Br:R_0603 (layer F.Cu) (tedit 5DE62695) (tstamp 5D9CF67B)
    (at 139.446 111.506 90)
    (descr "Capacitor SMD 0603, reflow soldering, AVX (see smccp.pdf)")
    (tags "capacitor 0603")
    (path /5D9CE50E)
    (attr smd)
    (fp_text reference R1 (at 3.048 0 90) (layer F.SilkS)
      (effects (font (size 1 1) (thickness 0.15)))
    )
    (fp_text value R_1K_0603_1% (at 0.1 1.5 90) (layer F.Fab)
      (effects (font (size 1 1) (thickness 0.15)))
    )
    (fp_line (start 0.35 0.6) (end -0.35 0.6) (layer F.SilkS) (width 0.15))
    (fp_line (start -0.35 -0.6) (end 0.35 -0.6) (layer F.SilkS) (width 0.15))
    (fp_line (start 1.45 -0.75) (end 1.45 0.75) (layer F.CrtYd) (width 0.05))
    (fp_line (start -1.45 -0.75) (end -1.45 0.75) (layer F.CrtYd) (width 0.05))
    (fp_line (start -1.45 0.75) (end 1.45 0.75) (layer F.CrtYd) (width 0.05))
    (fp_line (start -1.45 -0.75) (end 1.45 -0.75) (layer F.CrtYd) (width 0.05))
    (pad 2 smd rect (at 0.75 0 90) (size 0.8 0.75) (layers F.Cu F.Paste F.Mask)
      (net 9 /UART_RX))
    (pad 1 smd rect (at -0.75 0 90) (size 0.8 0.75) (layers F.Cu F.Paste F.Mask)
      (net 37 /CPU_RX))
    (model ${KISYS3DMOD}/R_0603.wrl
      (at (xyz 0 0 0))
      (scale (xyz 1 1 1))
      (rotate (xyz 0 0 0))
    )
  )

  (module Br:R_0603 (layer F.Cu) (tedit 5DE62695) (tstamp 5D9CF66F)
    (at 162.052 113.538)
    (descr "Capacitor SMD 0603, reflow soldering, AVX (see smccp.pdf)")
    (tags "capacitor 0603")
    (path /5D9CF786)
    (attr smd)
    (fp_text reference R2 (at 3 0) (layer F.SilkS)
      (effects (font (size 1 1) (thickness 0.15)))
    )
    (fp_text value R_1K_0603_1% (at 0.1 1.5) (layer F.Fab)
      (effects (font (size 1 1) (thickness 0.15)))
    )
    (fp_line (start 0.35 0.6) (end -0.35 0.6) (layer F.SilkS) (width 0.15))
    (fp_line (start -0.35 -0.6) (end 0.35 -0.6) (layer F.SilkS) (width 0.15))
    (fp_line (start 1.45 -0.75) (end 1.45 0.75) (layer F.CrtYd) (width 0.05))
    (fp_line (start -1.45 -0.75) (end -1.45 0.75) (layer F.CrtYd) (width 0.05))
    (fp_line (start -1.45 0.75) (end 1.45 0.75) (layer F.CrtYd) (width 0.05))
    (fp_line (start -1.45 -0.75) (end 1.45 -0.75) (layer F.CrtYd) (width 0.05))
    (pad 2 smd rect (at 0.75 0) (size 0.8 0.75) (layers F.Cu F.Paste F.Mask)
      (net 10 /UART_TX))
    (pad 1 smd rect (at -0.75 0) (size 0.8 0.75) (layers F.Cu F.Paste F.Mask)
      (net 36 /CPU_TX))
    (model ${KISYS3DMOD}/R_0603.wrl
      (at (xyz 0 0 0))
      (scale (xyz 1 1 1))
      (rotate (xyz 0 0 0))
    )
  )

  (module Br:Br_CN_IN (layer F.Cu) (tedit 5E2D90D7) (tstamp 5D9C2C9E)
    (at 128.397 102)
    (path /5D978D2E)
    (fp_text reference J1 (at -1 -8 180) (layer F.SilkS)
      (effects (font (size 1 1) (thickness 0.15)))
    )
    (fp_text value Br_CN_IN (at 0 -0.5) (layer F.Fab)
      (effects (font (size 1 1) (thickness 0.15)))
    )
    (fp_line (start 2.3 6.3) (end -2.1 6.3) (layer F.SilkS) (width 0.15))
    (fp_line (start 2.3 -6.3) (end 2.3 6.3) (layer F.SilkS) (width 0.15))
    (fp_line (start -2.2 -6.3) (end 2.3 -6.3) (layer F.SilkS) (width 0.15))
    (pad 9 smd rect (at 0 4.155) (size 4.5 1.5) (layers B.Cu B.Paste B.Mask)
      (net 4 5V))
    (pad 8 smd rect (at 0 1.385) (size 4.5 1.5) (layers B.Cu B.Paste B.Mask)
      (net 3 GND))
    (pad 7 smd rect (at 0 -1.385) (size 4.5 1.5) (layers B.Cu B.Paste B.Mask)
      (net 3 GND))
    (pad 6 smd rect (at 0 -4.155) (size 4.5 1.5) (layers B.Cu B.Paste B.Mask)
      (net 1 12V))
    (pad 5 smd rect (at 0 5.54) (size 4.5 1.5) (layers F.Cu F.Paste F.Mask)
      (net 3 GND))
    (pad 4 smd rect (at 0 2.77) (size 4.5 1.5) (layers F.Cu F.Paste F.Mask)
      (net 4 5V))
    (pad 3 smd rect (at 0 0) (size 4.5 1.5) (layers F.Cu F.Paste F.Mask)
      (net 9 /UART_RX))
    (pad 2 smd rect (at 0 -2.77) (size 4.5 1.5) (layers F.Cu F.Paste F.Mask)
      (net 2 /SPARE))
    (pad 1 smd rect (at 0 -5.54) (size 4.5 1.5) (layers F.Cu F.Paste F.Mask)
      (net 1 12V))
  )

  (module Br:Br_CN_OUT (layer F.Cu) (tedit 5DB9F56D) (tstamp 5D9C2C7E)
    (at 169.5 102)
    (path /5D9C46C3)
    (fp_text reference J3 (at 1 8 180) (layer F.SilkS)
      (effects (font (size 1 1) (thickness 0.15)))
    )
    (fp_text value Br_CN_OUT (at 0 -0.5) (layer F.Fab)
      (effects (font (size 1 1) (thickness 0.15)))
    )
    (fp_line (start -2.3 6.3) (end 2.2 6.3) (layer F.SilkS) (width 0.15))
    (fp_line (start -2.3 -6.3) (end -2.3 6.3) (layer F.SilkS) (width 0.15))
    (fp_line (start 2.2 -6.3) (end -2.3 -6.3) (layer F.SilkS) (width 0.15))
    (pad 9 smd rect (at 0 4.155) (size 4.5 1.5) (layers B.Cu B.Paste B.Mask)
      (net 4 5V))
    (pad 8 smd rect (at 0 1.385) (size 4.5 1.5) (layers B.Cu B.Paste B.Mask)
      (net 3 GND))
    (pad 7 smd rect (at 0 -1.385) (size 4.5 1.5) (layers B.Cu B.Paste B.Mask)
      (net 3 GND))
    (pad 6 smd rect (at 0 -4.155) (size 4.5 1.5) (layers B.Cu B.Paste B.Mask)
      (net 1 12V))
    (pad 5 smd rect (at 0 5.54) (size 4.5 1.5) (layers F.Cu F.Paste F.Mask)
      (net 3 GND))
    (pad 4 smd rect (at 0 2.77) (size 4.5 1.5) (layers F.Cu F.Paste F.Mask)
      (net 4 5V))
    (pad 3 smd rect (at 0 0) (size 4.5 1.5) (layers F.Cu F.Paste F.Mask)
      (net 10 /UART_TX))
    (pad 2 smd rect (at 0 -2.77) (size 4.5 1.5) (layers F.Cu F.Paste F.Mask)
      (net 2 /SPARE))
    (pad 1 smd rect (at 0 -5.54) (size 4.5 1.5) (layers F.Cu F.Paste F.Mask)
      (net 1 12V))
  )

  (module Br:Hole3mm (layer F.Cu) (tedit 5D015E75) (tstamp 5D9C2C5E)
    (at 136 118)
    (path /5D9D6266)
    (fp_text reference H4 (at 0 0.5) (layer F.SilkS)
      (effects (font (size 1 1) (thickness 0.15)))
    )
    (fp_text value Hole3mm (at 0 -0.5) (layer F.Fab)
      (effects (font (size 1 1) (thickness 0.15)))
    )
    (pad 1 thru_hole circle (at 0 0) (size 3.5 3.5) (drill 3) (layers *.Cu *.Mask)
      (net 8 "Net-(H4-Pad1)"))
  )

  (module Br:Hole3mm (layer F.Cu) (tedit 5D015E75) (tstamp 5D9C2C59)
    (at 168 118)
    (path /5D9D37B0)
    (fp_text reference H3 (at 0 0.5) (layer F.SilkS)
      (effects (font (size 1 1) (thickness 0.15)))
    )
    (fp_text value Hole3mm (at 0 -0.5) (layer F.Fab)
      (effects (font (size 1 1) (thickness 0.15)))
    )
    (pad 1 thru_hole circle (at 0 0) (size 3.5 3.5) (drill 3) (layers *.Cu *.Mask)
      (net 7 "Net-(H3-Pad1)"))
  )

  (module Br:Hole3mm (layer F.Cu) (tedit 5D015E75) (tstamp 5D9C2C54)
    (at 168 86)
    (path /5D9D6260)
    (fp_text reference H2 (at 0 0.5) (layer F.SilkS)
      (effects (font (size 1 1) (thickness 0.15)))
    )
    (fp_text value Hole3mm (at 0 -0.5) (layer F.Fab)
      (effects (font (size 1 1) (thickness 0.15)))
    )
    (pad 1 thru_hole circle (at 0 0) (size 3.5 3.5) (drill 3) (layers *.Cu *.Mask)
      (net 6 "Net-(H2-Pad1)"))
  )

  (module Br:Hole3mm (layer F.Cu) (tedit 5D015E75) (tstamp 5D9C2C4F)
    (at 136 86)
    (path /5D9D377A)
    (fp_text reference H1 (at 0 0.5) (layer F.SilkS)
      (effects (font (size 1 1) (thickness 0.15)))
    )
    (fp_text value Hole3mm (at 0 -0.5) (layer F.Fab)
      (effects (font (size 1 1) (thickness 0.15)))
    )
    (pad 1 thru_hole circle (at 0 0) (size 3.5 3.5) (drill 3) (layers *.Cu *.Mask)
      (net 5 "Net-(H1-Pad1)"))
  )

  (gr_text R2 (at 129.794 86.995) (layer F.SilkS) (tstamp 5FB435B2)
    (effects (font (size 1.5 1.5) (thickness 0.3)))
  )
  (gr_line (start 149 102) (end 155 102) (layer Eco2.User) (width 0.2))
  (gr_line (start 152 99) (end 152 105) (layer Eco2.User) (width 0.2))
  (gr_circle (center 129.794 85.852) (end 131.318 87.884) (layer F.SilkS) (width 0.2))
  (gr_text "002\n" (at 129.794 85.09) (layer F.SilkS)
    (effects (font (size 1.5 1.5) (thickness 0.3)))
  )
  (gr_text Female (at 171 91 90) (layer F.SilkS) (tstamp 5D9C2EBA)
    (effects (font (size 1.5 1.5) (thickness 0.3)))
  )
  (gr_text Male (at 128.016 111.506 270) (layer F.SilkS)
    (effects (font (size 1.5 1.5) (thickness 0.3)))
  )
  (gr_line (start 126 122) (end 126 82) (layer Edge.Cuts) (width 0.15))
  (gr_line (start 172 122) (end 126 122) (layer Edge.Cuts) (width 0.15))
  (gr_line (start 172 82) (end 172 122) (layer Edge.Cuts) (width 0.15))
  (gr_line (start 126 82) (end 172 82) (layer Edge.Cuts) (width 0.15))
  (gr_text "Brick middle" (at 160 104) (layer Eco2.User)
    (effects (font (size 1.5 1.5) (thickness 0.3)))
  )
  (gr_text "Duplo_size\n" (at 181 68) (layer Eco2.User)
    (effects (font (size 1.5 1.5) (thickness 0.3)))
  )
  (gr_line (start 120 134) (end 120 70) (layer Eco2.User) (width 0.2))
  (gr_line (start 184 134) (end 120 134) (layer Eco2.User) (width 0.2))
  (gr_line (start 184 70) (end 184 134) (layer Eco2.User) (width 0.2))
  (gr_line (start 120 70) (end 184 70) (layer Eco2.User) (width 0.2))

  (via (at 167 96.46) (size 0.8) (drill 0.4) (layers F.Cu B.Cu) (net 1))
  (segment (start 170 97.845) (end 168.385 97.845) (width 1.5) (layer B.Cu) (net 1))
  (segment (start 168.385 97.845) (end 167 96.46) (width 1.5) (layer B.Cu) (net 1))
  (segment (start 170 96.46) (end 167 96.46) (width 1.5) (layer F.Cu) (net 1))
  (via (at 131.826 97.036) (size 0.8) (drill 0.4) (layers F.Cu B.Cu) (net 1))
  (segment (start 131.25 96.46) (end 128 96.46) (width 1.5) (layer F.Cu) (net 1))
  (segment (start 131.826 97.036) (end 131.25 96.46) (width 1.5) (layer F.Cu) (net 1))
  (segment (start 128 97.845) (end 131.017 97.845) (width 1.5) (layer B.Cu) (net 1))
  (segment (start 131.017 97.845) (end 131.826 97.036) (width 1.5) (layer B.Cu) (net 1))
  (segment (start 164.846 86.106) (end 164.846 92.459705) (width 1.5) (layer F.Cu) (net 1))
  (segment (start 162.039999 83.299999) (end 164.846 86.106) (width 1.5) (layer F.Cu) (net 1))
  (segment (start 134.703999 83.299999) (end 162.039999 83.299999) (width 1.5) (layer F.Cu) (net 1))
  (segment (start 165.862 95.758) (end 166.564 96.46) (width 1.5) (layer F.Cu) (net 1))
  (segment (start 164.846 92.459705) (end 165.862 93.475705) (width 1.5) (layer F.Cu) (net 1))
  (segment (start 131.826 86.177998) (end 134.703999 83.299999) (width 1.5) (layer F.Cu) (net 1))
  (segment (start 131.826 97.036) (end 131.826 86.177998) (width 1.5) (layer F.Cu) (net 1))
  (segment (start 165.862 93.475705) (end 165.862 95.758) (width 1.5) (layer F.Cu) (net 1))
  (segment (start 166.564 96.46) (end 167 96.46) (width 1.5) (layer F.Cu) (net 1))
  (segment (start 163.576 96.012) (end 166.794 99.23) (width 0.25) (layer F.Cu) (net 2))
  (segment (start 163.576 87.122) (end 163.576 96.012) (width 0.25) (layer F.Cu) (net 2))
  (segment (start 166.794 99.23) (end 170 99.23) (width 0.25) (layer F.Cu) (net 2))
  (segment (start 161.544 85.09) (end 163.576 87.122) (width 0.25) (layer F.Cu) (net 2))
  (segment (start 145.292293 85.09) (end 161.544 85.09) (width 0.25) (layer F.Cu) (net 2))
  (segment (start 131.152293 99.23) (end 145.292293 85.09) (width 0.25) (layer F.Cu) (net 2))
  (segment (start 128 99.23) (end 131.152293 99.23) (width 0.25) (layer F.Cu) (net 2))
  (via (at 167 108) (size 0.8) (drill 0.4) (layers F.Cu B.Cu) (net 3))
  (segment (start 170 107.54) (end 167.46 107.54) (width 1.5) (layer F.Cu) (net 3))
  (segment (start 167.46 107.54) (end 167 108) (width 1.5) (layer F.Cu) (net 3))
  (via (at 131 108) (size 0.8) (drill 0.4) (layers F.Cu B.Cu) (net 3))
  (segment (start 128 107.54) (end 130.54 107.54) (width 1.5) (layer F.Cu) (net 3))
  (segment (start 130.54 107.54) (end 131 108) (width 1.5) (layer F.Cu) (net 3))
  (via (at 142.494 109.474) (size 0.8) (drill 0.4) (layers F.Cu B.Cu) (net 3))
  (segment (start 142.494 110.756) (end 142.494 109.474) (width 0.25) (layer F.Cu) (net 3))
  (via (at 144.018 109.474) (size 0.8) (drill 0.4) (layers F.Cu B.Cu) (net 3))
  (segment (start 144.018 110.756) (end 144.018 109.474) (width 0.25) (layer F.Cu) (net 3))
  (via (at 145.542 109.474) (size 0.8) (drill 0.4) (layers F.Cu B.Cu) (net 3))
  (segment (start 145.542 110.756) (end 145.542 109.474) (width 0.25) (layer F.Cu) (net 3))
  (via (at 149.86 114.808) (size 0.8) (drill 0.4) (layers F.Cu B.Cu) (net 3))
  (segment (start 151.558714 115.021396) (end 150.073396 115.021396) (width 0.25) (layer F.Cu) (net 3))
  (segment (start 150.073396 115.021396) (end 149.86 114.808) (width 0.25) (layer F.Cu) (net 3))
  (segment (start 140.97 110.756) (end 140.97 109.499009) (width 0.25) (layer F.Cu) (net 3))
  (segment (start 140.97 109.499009) (end 140.995009 109.474) (width 0.25) (layer F.Cu) (net 3))
  (via (at 140.995009 109.474) (size 0.8) (drill 0.4) (layers F.Cu B.Cu) (net 3))
  (via (at 159.258 90.424) (size 0.8) (drill 0.4) (layers F.Cu B.Cu) (net 3))
  (segment (start 157.97027 90.501692) (end 159.180308 90.501692) (width 0.25) (layer F.Cu) (net 3))
  (segment (start 159.180308 90.501692) (end 159.258 90.424) (width 0.25) (layer F.Cu) (net 3))
  (via (at 153.162 90.424) (size 0.8) (drill 0.4) (layers F.Cu B.Cu) (net 3))
  (segment (start 151.87427 90.501692) (end 153.084308 90.501692) (width 0.25) (layer F.Cu) (net 3))
  (segment (start 153.084308 90.501692) (end 153.162 90.424) (width 0.25) (layer F.Cu) (net 3))
  (via (at 146.558 90.424) (size 0.8) (drill 0.4) (layers F.Cu B.Cu) (net 3))
  (segment (start 145.27027 90.501692) (end 146.480308 90.501692) (width 0.25) (layer F.Cu) (net 3))
  (segment (start 146.480308 90.501692) (end 146.558 90.424) (width 0.25) (layer F.Cu) (net 3))
  (segment (start 162.65422 117.293692) (end 162.2286 117.719312) (width 0.25) (layer F.Cu) (net 3))
  (segment (start 162.2286 117.719312) (end 162.2286 117.94272) (width 0.25) (layer F.Cu) (net 3))
  (segment (start 163.30427 117.293692) (end 162.65422 117.293692) (width 0.25) (layer F.Cu) (net 3))
  (via (at 162.2286 117.94272) (size 0.8) (drill 0.4) (layers F.Cu B.Cu) (net 3))
  (via (at 143.764 113.538) (size 0.8) (drill 0.4) (layers F.Cu B.Cu) (net 3))
  (segment (start 143.738491 114.911161) (end 143.738491 113.563509) (width 0.25) (layer F.Cu) (net 3))
  (segment (start 143.738491 113.563509) (end 143.764 113.538) (width 0.25) (layer F.Cu) (net 3))
  (segment (start 170 102.385) (end 170 100.615) (width 0.25) (layer B.Cu) (net 3))
  (segment (start 170 103.385) (end 170 102.385) (width 0.25) (layer B.Cu) (net 3))
  (segment (start 167.5 103.385) (end 166.491 104.394) (width 0.25) (layer B.Cu) (net 3))
  (segment (start 170 103.385) (end 167.5 103.385) (width 0.25) (layer B.Cu) (net 3))
  (segment (start 166.491 104.394) (end 165.1 104.394) (width 0.25) (layer B.Cu) (net 3))
  (segment (start 165.1 104.394) (end 164.338 105.156) (width 0.25) (layer B.Cu) (net 3))
  (segment (start 164.338 105.156) (end 164.338 107.188) (width 0.25) (layer B.Cu) (net 3))
  (segment (start 165.15 108) (end 167 108) (width 0.25) (layer B.Cu) (net 3))
  (segment (start 164.338 107.188) (end 165.15 108) (width 0.25) (layer B.Cu) (net 3))
  (via (at 146.685 110.744) (size 0.8) (drill 0.4) (layers F.Cu B.Cu) (net 3))
  (segment (start 147.84573 110.925308) (end 146.866308 110.925308) (width 0.25) (layer F.Cu) (net 3))
  (segment (start 146.866308 110.925308) (end 146.685 110.744) (width 0.25) (layer F.Cu) (net 3))
  (via (at 131.89 105.41) (size 0.8) (drill 0.4) (layers F.Cu B.Cu) (net 4))
  (segment (start 131.25 104.77) (end 128 104.77) (width 1.5) (layer F.Cu) (net 4))
  (segment (start 131.89 105.41) (end 131.25 104.77) (width 1.5) (layer F.Cu) (net 4))
  (segment (start 131.145 106.155) (end 131.89 105.41) (width 1.5) (layer B.Cu) (net 4))
  (segment (start 128 106.155) (end 131.145 106.155) (width 1.5) (layer B.Cu) (net 4))
  (via (at 165.862 105.658) (size 0.8) (drill 0.4) (layers F.Cu B.Cu) (net 4))
  (segment (start 166.359 106.155) (end 165.862 105.658) (width 1.5) (layer B.Cu) (net 4))
  (segment (start 170 106.155) (end 166.359 106.155) (width 1.5) (layer B.Cu) (net 4))
  (segment (start 165.1 106.42) (end 165.862 105.658) (width 1.5) (layer F.Cu) (net 4))
  (segment (start 165.1 118.618) (end 165.1 106.42) (width 1.5) (layer F.Cu) (net 4))
  (segment (start 131.89 106.485823) (end 132.700009 107.295833) (width 1.5) (layer F.Cu) (net 4))
  (segment (start 131.89 105.41) (end 131.89 106.485823) (width 1.5) (layer F.Cu) (net 4))
  (segment (start 132.700009 118.696011) (end 134.703999 120.700001) (width 1.5) (layer F.Cu) (net 4))
  (segment (start 134.703999 120.700001) (end 163.017999 120.700001) (width 1.5) (layer F.Cu) (net 4))
  (segment (start 163.017999 120.700001) (end 165.1 118.618) (width 1.5) (layer F.Cu) (net 4))
  (segment (start 132.700009 107.295833) (end 132.700009 113.03) (width 1.5) (layer F.Cu) (net 4))
  (segment (start 132.700009 113.03) (end 132.700009 118.696011) (width 1.5) (layer F.Cu) (net 4))
  (segment (start 132.899701 111.560308) (end 132.700009 111.76) (width 0.25) (layer F.Cu) (net 4))
  (segment (start 134.89173 111.560308) (end 132.899701 111.560308) (width 0.25) (layer F.Cu) (net 4))
  (segment (start 167.033762 104.77) (end 170 104.77) (width 1.5) (layer F.Cu) (net 4))
  (segment (start 166.821761 104.982001) (end 167.033762 104.77) (width 1.5) (layer F.Cu) (net 4))
  (segment (start 165.862 105.658) (end 166.537999 104.982001) (width 1.5) (layer F.Cu) (net 4))
  (segment (start 166.537999 104.982001) (end 166.821761 104.982001) (width 1.5) (layer F.Cu) (net 4))
  (segment (start 130 102) (end 128 102) (width 0.25) (layer F.Cu) (net 9))
  (segment (start 131.464 102) (end 130 102) (width 0.25) (layer F.Cu) (net 9))
  (segment (start 139.446 110.756) (end 139.446 109.982) (width 0.25) (layer F.Cu) (net 9))
  (segment (start 139.446 109.982) (end 131.464 102) (width 0.25) (layer F.Cu) (net 9))
  (segment (start 168 102) (end 170 102) (width 0.25) (layer F.Cu) (net 10))
  (segment (start 165.661238 102) (end 168 102) (width 0.25) (layer F.Cu) (net 10))
  (segment (start 162.802 104.859238) (end 165.661238 102) (width 0.25) (layer F.Cu) (net 10))
  (segment (start 162.802 113.538) (end 162.802 104.859238) (width 0.25) (layer F.Cu) (net 10))
  (segment (start 147.283001 118.073001) (end 147.057999 117.847999) (width 0.25) (layer F.Cu) (net 11))
  (segment (start 148.176001 118.073001) (end 147.283001 118.073001) (width 0.25) (layer F.Cu) (net 11))
  (segment (start 148.401003 117.847999) (end 148.176001 118.073001) (width 0.25) (layer F.Cu) (net 11))
  (segment (start 152.142113 117.847999) (end 148.401003 117.847999) (width 0.25) (layer F.Cu) (net 11))
  (segment (start 153.67 116.320112) (end 152.142113 117.847999) (width 0.25) (layer F.Cu) (net 11))
  (segment (start 153.67 113.607682) (end 153.67 116.320112) (width 0.25) (layer F.Cu) (net 11))
  (segment (start 152.483714 112.421396) (end 153.67 113.607682) (width 0.25) (layer F.Cu) (net 11))
  (segment (start 151.558714 112.421396) (end 152.483714 112.421396) (width 0.25) (layer F.Cu) (net 11))
  (segment (start 147.057999 117.847999) (end 146.558 117.348) (width 0.25) (layer F.Cu) (net 11))
  (segment (start 146.545 114.808) (end 146.558 114.808) (width 0.25) (layer F.Cu) (net 12))
  (segment (start 144.018 112.281) (end 146.545 114.808) (width 0.25) (layer F.Cu) (net 12))
  (segment (start 144.018 112.256) (end 144.018 112.281) (width 0.25) (layer F.Cu) (net 12))
  (via (at 148.336 114.046) (size 0.8) (drill 0.4) (layers F.Cu B.Cu) (net 12))
  (segment (start 146.558 114.808) (end 147.574 114.808) (width 0.25) (layer B.Cu) (net 12))
  (segment (start 147.574 114.808) (end 148.336 114.046) (width 0.25) (layer B.Cu) (net 12))
  (segment (start 149.310604 113.071396) (end 151.558714 113.071396) (width 0.25) (layer F.Cu) (net 12))
  (segment (start 148.336 114.046) (end 149.310604 113.071396) (width 0.25) (layer F.Cu) (net 12))
  (via (at 147.828 117.348) (size 0.8) (drill 0.4) (layers F.Cu B.Cu) (net 15))
  (segment (start 146.558 118.618) (end 147.828 117.348) (width 0.25) (layer B.Cu) (net 15))
  (segment (start 149.504604 115.671396) (end 151.558714 115.671396) (width 0.25) (layer F.Cu) (net 15))
  (segment (start 148.932396 115.671396) (end 149.504604 115.671396) (width 0.25) (layer F.Cu) (net 15))
  (segment (start 145.542 112.256) (end 145.542 112.281) (width 0.25) (layer F.Cu) (net 15))
  (segment (start 148.227999 115.157001) (end 148.323 115.062) (width 0.25) (layer F.Cu) (net 15))
  (segment (start 148.227999 116.948001) (end 148.227999 115.157001) (width 0.25) (layer F.Cu) (net 15))
  (segment (start 147.828 117.348) (end 148.227999 116.948001) (width 0.25) (layer F.Cu) (net 15))
  (segment (start 148.323 115.062) (end 148.932396 115.671396) (width 0.25) (layer F.Cu) (net 15))
  (segment (start 140.97 112.256) (end 140.97 111.76) (width 0.25) (layer F.Cu) (net 15))
  (segment (start 147.265106 118.618) (end 146.558 118.618) (width 0.25) (layer F.Cu) (net 15))
  (segment (start 160.528 118.618) (end 147.265106 118.618) (width 0.25) (layer F.Cu) (net 15))
  (segment (start 163.30427 115.393692) (end 163.30427 115.84173) (width 0.25) (layer F.Cu) (net 15))
  (segment (start 163.30427 115.84173) (end 160.528 118.618) (width 0.25) (layer F.Cu) (net 15))
  (segment (start 140.97 113.284) (end 140.738491 113.515509) (width 0.25) (layer F.Cu) (net 15))
  (segment (start 140.738491 113.515509) (end 140.738491 113.792) (width 0.25) (layer F.Cu) (net 15))
  (segment (start 140.738491 113.792) (end 140.738491 114.911161) (width 0.25) (layer F.Cu) (net 15))
  (via (at 141.605 112.776) (size 0.8) (drill 0.4) (layers F.Cu B.Cu) (net 15))
  (segment (start 140.97 112.776) (end 141.605 112.776) (width 0.25) (layer F.Cu) (net 15))
  (segment (start 140.97 112.256) (end 140.97 112.776) (width 0.25) (layer F.Cu) (net 15))
  (segment (start 140.97 112.776) (end 140.97 113.284) (width 0.25) (layer F.Cu) (net 15))
  (via (at 146.685 112.268) (size 0.8) (drill 0.4) (layers F.Cu B.Cu) (net 15))
  (segment (start 141.605 112.776) (end 146.177 112.776) (width 0.25) (layer B.Cu) (net 15))
  (segment (start 146.177 112.776) (end 146.685 112.268) (width 0.25) (layer B.Cu) (net 15))
  (segment (start 146.171001 112.667999) (end 146.05 112.789) (width 0.25) (layer F.Cu) (net 15))
  (segment (start 146.285001 112.667999) (end 146.171001 112.667999) (width 0.25) (layer F.Cu) (net 15))
  (segment (start 146.685 112.268) (end 146.285001 112.667999) (width 0.25) (layer F.Cu) (net 15))
  (segment (start 145.542 112.281) (end 146.05 112.789) (width 0.25) (layer F.Cu) (net 15))
  (segment (start 146.05 112.789) (end 148.323 115.062) (width 0.25) (layer F.Cu) (net 15))
  (segment (start 147.242308 112.825308) (end 146.685 112.268) (width 0.25) (layer F.Cu) (net 15))
  (segment (start 147.84573 112.825308) (end 147.242308 112.825308) (width 0.25) (layer F.Cu) (net 15))
  (segment (start 157.97027 91.93027) (end 157.97027 92.401692) (width 0.25) (layer F.Cu) (net 26))
  (segment (start 156.766641 90.726641) (end 157.97027 91.93027) (width 0.25) (layer F.Cu) (net 26))
  (segment (start 154.94 90.726641) (end 156.766641 90.726641) (width 0.25) (layer F.Cu) (net 26))
  (segment (start 154.637359 91.029282) (end 154.94 90.726641) (width 0.25) (layer F.Cu) (net 26))
  (segment (start 154.637359 93.87832) (end 154.637359 91.029282) (width 0.25) (layer F.Cu) (net 26))
  (segment (start 154.882011 94.122972) (end 154.637359 93.87832) (width 0.25) (layer F.Cu) (net 26))
  (segment (start 157.308714 116.321396) (end 156.383714 116.321396) (width 0.25) (layer F.Cu) (net 26))
  (segment (start 154.882011 102.555189) (end 154.882011 94.122972) (width 0.25) (layer F.Cu) (net 26))
  (segment (start 156.383714 116.321396) (end 155.470044 115.407726) (width 0.25) (layer F.Cu) (net 26))
  (segment (start 155.470044 115.407726) (end 155.470044 112.862082) (width 0.25) (layer F.Cu) (net 26))
  (segment (start 155.470044 112.862082) (end 155.353013 112.745051) (width 0.25) (layer F.Cu) (net 26))
  (segment (start 155.353013 112.745051) (end 155.353013 103.026191) (width 0.25) (layer F.Cu) (net 26))
  (segment (start 155.353013 103.026191) (end 154.882011 102.555189) (width 0.25) (layer F.Cu) (net 26))
  (segment (start 154.903002 112.931451) (end 155.020033 113.048482) (width 0.25) (layer F.Cu) (net 27))
  (segment (start 155.020033 113.048482) (end 155.020033 115.607715) (width 0.25) (layer F.Cu) (net 27))
  (segment (start 151.87427 93.051742) (end 154.432 95.609472) (width 0.25) (layer F.Cu) (net 27))
  (segment (start 155.020033 115.607715) (end 156.383714 116.971396) (width 0.25) (layer F.Cu) (net 27))
  (segment (start 151.87427 92.401692) (end 151.87427 93.051742) (width 0.25) (layer F.Cu) (net 27))
  (segment (start 154.432 102.741589) (end 154.903002 103.212591) (width 0.25) (layer F.Cu) (net 27))
  (segment (start 154.432 95.609472) (end 154.432 102.741589) (width 0.25) (layer F.Cu) (net 27))
  (segment (start 156.383714 116.971396) (end 157.308714 116.971396) (width 0.25) (layer F.Cu) (net 27))
  (segment (start 154.903002 103.212591) (end 154.903002 112.931451) (width 0.25) (layer F.Cu) (net 27))
  (via (at 150.114 116.586) (size 0.8) (drill 0.4) (layers F.Cu B.Cu) (net 28))
  (segment (start 150.378604 116.321396) (end 150.114 116.586) (width 0.25) (layer F.Cu) (net 28))
  (segment (start 151.558714 116.321396) (end 150.378604 116.321396) (width 0.25) (layer F.Cu) (net 28))
  (via (at 154.842372 116.568442) (size 0.8) (drill 0.4) (layers F.Cu B.Cu) (net 28))
  (segment (start 154.824814 116.586) (end 154.842372 116.568442) (width 0.25) (layer B.Cu) (net 28))
  (segment (start 150.114 116.586) (end 154.824814 116.586) (width 0.25) (layer B.Cu) (net 28))
  (segment (start 145.92032 92.401692) (end 145.27027 92.401692) (width 0.25) (layer F.Cu) (net 28))
  (segment (start 147.018628 93.5) (end 145.92032 92.401692) (width 0.25) (layer F.Cu) (net 28))
  (segment (start 147.018628 100.35739) (end 147.018628 93.5) (width 0.25) (layer F.Cu) (net 28))
  (segment (start 148.844237 102.182999) (end 147.018628 100.35739) (width 0.25) (layer F.Cu) (net 28))
  (segment (start 154.842372 116.568442) (end 154.570022 116.296092) (width 0.25) (layer F.Cu) (net 28))
  (segment (start 154.570022 116.296092) (end 154.570022 113.234882) (width 0.25) (layer F.Cu) (net 28))
  (segment (start 154.570022 113.234882) (end 154.432 113.09686) (width 0.25) (layer F.Cu) (net 28))
  (segment (start 154.432 113.09686) (end 154.432 103.378) (width 0.25) (layer F.Cu) (net 28))
  (segment (start 154.432 103.378) (end 153.236999 102.182999) (width 0.25) (layer F.Cu) (net 28))
  (segment (start 153.236999 102.182999) (end 148.844237 102.182999) (width 0.25) (layer F.Cu) (net 28))
  (segment (start 156.222 91.702402) (end 155.97129 91.451692) (width 0.25) (layer F.Cu) (net 29))
  (segment (start 156.222 94.234) (end 156.222 91.702402) (width 0.25) (layer F.Cu) (net 29))
  (segment (start 148.832308 91.451692) (end 149.87529 91.451692) (width 0.25) (layer F.Cu) (net 30))
  (segment (start 148.59 91.694) (end 148.832308 91.451692) (width 0.25) (layer F.Cu) (net 30))
  (segment (start 148.59 93.98) (end 148.59 91.694) (width 0.25) (layer F.Cu) (net 30))
  (segment (start 149.884 94.234) (end 148.844 94.234) (width 0.25) (layer F.Cu) (net 30))
  (segment (start 148.844 94.234) (end 148.59 93.98) (width 0.25) (layer F.Cu) (net 30))
  (segment (start 145.672 94.234) (end 146.05 93.856) (width 0.25) (layer F.Cu) (net 31))
  (segment (start 145.022 94.234) (end 145.672 94.234) (width 0.25) (layer F.Cu) (net 31))
  (segment (start 146.05 93.856) (end 146.05 93.472) (width 0.25) (layer F.Cu) (net 31))
  (segment (start 146.05 93.472) (end 143.256 93.472) (width 0.25) (layer F.Cu) (net 31))
  (segment (start 143.256 93.472) (end 141.986 92.202) (width 0.25) (layer F.Cu) (net 31))
  (segment (start 141.986 92.202) (end 141.986 91.694) (width 0.25) (layer F.Cu) (net 31))
  (segment (start 142.228308 91.451692) (end 143.27129 91.451692) (width 0.25) (layer F.Cu) (net 31))
  (segment (start 141.986 91.694) (end 142.228308 91.451692) (width 0.25) (layer F.Cu) (net 31))
  (segment (start 152.034 94.234) (end 152.654 94.854) (width 0.25) (layer F.Cu) (net 32))
  (segment (start 151.384 94.234) (end 152.034 94.234) (width 0.25) (layer F.Cu) (net 32))
  (segment (start 149.761999 98.392001) (end 152.654 95.5) (width 0.25) (layer F.Cu) (net 32))
  (segment (start 149.761999 99.968001) (end 149.761999 98.392001) (width 0.25) (layer F.Cu) (net 32))
  (segment (start 149 100.73) (end 149.761999 99.968001) (width 0.25) (layer F.Cu) (net 32))
  (segment (start 152.654 94.854) (end 152.654 95.5) (width 0.25) (layer F.Cu) (net 32))
  (segment (start 143.522 94.234) (end 142.872 94.234) (width 0.25) (layer F.Cu) (net 33))
  (segment (start 137.261999 99.844001) (end 139.106 98) (width 0.25) (layer F.Cu) (net 33))
  (segment (start 137.261999 99.968001) (end 137.261999 99.844001) (width 0.25) (layer F.Cu) (net 33))
  (segment (start 136.5 100.73) (end 137.261999 99.968001) (width 0.25) (layer F.Cu) (net 33))
  (segment (start 142.872 94.234) (end 139.106 98) (width 0.25) (layer F.Cu) (net 33))
  (segment (start 159.004 94.234) (end 157.722 94.234) (width 0.25) (layer F.Cu) (net 34))
  (segment (start 161.5 99.65237) (end 161.5 96.73) (width 0.25) (layer F.Cu) (net 34))
  (segment (start 161.5 100.73) (end 161.5 99.65237) (width 0.25) (layer F.Cu) (net 34))
  (segment (start 161.5 96.73) (end 159.004 94.234) (width 0.25) (layer F.Cu) (net 34))
  (segment (start 142.238491 113.907661) (end 142.494 113.652152) (width 0.25) (layer F.Cu) (net 35))
  (segment (start 142.238491 115.057661) (end 142.238491 113.907661) (width 0.25) (layer F.Cu) (net 35))
  (segment (start 142.494 113.652152) (end 142.494 112.256) (width 0.25) (layer F.Cu) (net 35))
  (segment (start 142.238491 115.057661) (end 142.238491 119.058161) (width 0.25) (layer F.Cu) (net 35))
  (via (at 138.030352 114.3) (size 0.8) (drill 0.4) (layers F.Cu B.Cu) (net 35))
  (segment (start 139 113.330352) (end 138.030352 114.3) (width 0.25) (layer B.Cu) (net 35))
  (segment (start 139 103.27) (end 139 113.330352) (width 0.25) (layer B.Cu) (net 35))
  (segment (start 142.238491 117.724661) (end 140.076661 117.724661) (width 0.25) (layer F.Cu) (net 35))
  (segment (start 138.030352 115.678352) (end 138.030352 114.3) (width 0.25) (layer F.Cu) (net 35))
  (segment (start 140.076661 117.724661) (end 138.030352 115.678352) (width 0.25) (layer F.Cu) (net 35))
  (segment (start 137.922 114.191648) (end 138.030352 114.3) (width 0.25) (layer F.Cu) (net 35))
  (segment (start 136.89071 113.160358) (end 137.922 114.191648) (width 0.25) (layer F.Cu) (net 35))
  (segment (start 136.89071 112.510308) (end 136.89071 113.160358) (width 0.25) (layer F.Cu) (net 35))
  (via (at 139 103.27) (size 0.8) (drill 0.4) (layers F.Cu B.Cu) (net 35))
  (segment (start 136.5 103.27) (end 139 103.27) (width 0.25) (layer F.Cu) (net 35))
  (segment (start 139 103.27) (end 149 103.27) (width 0.25) (layer F.Cu) (net 35))
  (segment (start 149 103.27) (end 152 103.27) (width 0.25) (layer B.Cu) (net 35))
  (segment (start 161.5 103.27) (end 152 103.27) (width 0.25) (layer B.Cu) (net 35))
  (segment (start 160.528 113.538) (end 161.302 113.538) (width 0.25) (layer F.Cu) (net 36))
  (segment (start 160.274 113.792) (end 160.528 113.538) (width 0.25) (layer F.Cu) (net 36))
  (segment (start 160.412932 116.586) (end 160.274 116.586) (width 0.25) (layer F.Cu) (net 36))
  (segment (start 160.65524 116.343692) (end 160.412932 116.586) (width 0.25) (layer F.Cu) (net 36))
  (segment (start 161.30529 116.343692) (end 160.65524 116.343692) (width 0.25) (layer F.Cu) (net 36))
  (segment (start 160.274 116.586) (end 160.274 113.792) (width 0.25) (layer F.Cu) (net 36))
  (segment (start 153.866011 112.503693) (end 152.483714 111.121396) (width 0.25) (layer F.Cu) (net 36))
  (segment (start 153.866011 116.760512) (end 154.120011 116.506512) (width 0.25) (layer F.Cu) (net 36))
  (segment (start 153.866011 117.093015) (end 153.866011 116.760512) (width 0.25) (layer F.Cu) (net 36))
  (segment (start 154.120011 113.421282) (end 153.866011 113.167282) (width 0.25) (layer F.Cu) (net 36))
  (segment (start 160.274 116.586) (end 158.692011 118.167989) (width 0.25) (layer F.Cu) (net 36))
  (segment (start 154.120011 116.506512) (end 154.120011 113.421282) (width 0.25) (layer F.Cu) (net 36))
  (segment (start 153.866011 113.167282) (end 153.866011 112.503693) (width 0.25) (layer F.Cu) (net 36))
  (segment (start 154.940985 118.167989) (end 153.866011 117.093015) (width 0.25) (layer F.Cu) (net 36))
  (segment (start 152.483714 111.121396) (end 151.558714 111.121396) (width 0.25) (layer F.Cu) (net 36))
  (segment (start 158.692011 118.167989) (end 154.940985 118.167989) (width 0.25) (layer F.Cu) (net 36))
  (segment (start 147.066318 108.204) (end 140.97 108.204) (width 0.25) (layer F.Cu) (net 37))
  (segment (start 140.97 108.204) (end 140.269999 108.904001) (width 0.25) (layer F.Cu) (net 37))
  (segment (start 140.269999 108.904001) (end 140.269999 112.968001) (width 0.25) (layer F.Cu) (net 37))
  (segment (start 140.269999 112.968001) (end 139.954 113.284) (width 0.25) (layer F.Cu) (net 37))
  (segment (start 139.824 113.284) (end 139.954 113.284) (width 0.25) (layer F.Cu) (net 37))
  (segment (start 139.446 112.906) (end 139.824 113.284) (width 0.25) (layer F.Cu) (net 37))
  (segment (start 139.446 112.256) (end 139.446 112.906) (width 0.25) (layer F.Cu) (net 37))
  (segment (start 148.844 109.981682) (end 148.844 111.76) (width 0.25) (layer F.Cu) (net 37))
  (segment (start 148.844 109.981682) (end 147.066318 108.204) (width 0.25) (layer F.Cu) (net 37))
  (segment (start 148.959308 111.875308) (end 149.84471 111.875308) (width 0.25) (layer F.Cu) (net 37))
  (segment (start 148.844 111.76) (end 148.959308 111.875308) (width 0.25) (layer F.Cu) (net 37))
  (segment (start 149.948622 111.771396) (end 149.84471 111.875308) (width 0.25) (layer F.Cu) (net 37))
  (segment (start 151.558714 111.771396) (end 149.948622 111.771396) (width 0.25) (layer F.Cu) (net 37))

  (zone (net 3) (net_name GND) (layer B.Cu) (tstamp 5D9F8CBE) (hatch edge 0.508)
    (connect_pads (clearance 0.508))
    (min_thickness 0.254)
    (fill yes (arc_segments 16) (thermal_gap 0.508) (thermal_bridge_width 0.508))
    (polygon
      (pts
        (xy 126 82) (xy 126 122) (xy 172 122) (xy 172 82)
      )
    )
    (filled_polygon
      (pts
        (xy 171.29 96.44756) (xy 168.946246 96.44756) (xy 167.882888 95.384203) (xy 167.540399 95.155359) (xy 167 95.047867)
        (xy 166.459601 95.155359) (xy 166.001472 95.461472) (xy 165.695359 95.919601) (xy 165.587867 96.46) (xy 165.695359 97.000399)
        (xy 165.924203 97.342888) (xy 166.60256 98.021245) (xy 166.60256 98.595) (xy 166.651843 98.842765) (xy 166.792191 99.052809)
        (xy 167.002235 99.193157) (xy 167.187459 99.23) (xy 167.123691 99.23) (xy 166.890302 99.326673) (xy 166.711673 99.505301)
        (xy 166.615 99.73869) (xy 166.615 100.32925) (xy 166.77375 100.488) (xy 169.373 100.488) (xy 169.373 100.468)
        (xy 169.627 100.468) (xy 169.627 100.488) (xy 169.647 100.488) (xy 169.647 100.742) (xy 169.627 100.742)
        (xy 169.627 101.84125) (xy 169.78575 102) (xy 169.627 102.15875) (xy 169.627 103.258) (xy 169.647 103.258)
        (xy 169.647 103.512) (xy 169.627 103.512) (xy 169.627 103.532) (xy 169.373 103.532) (xy 169.373 103.512)
        (xy 166.77375 103.512) (xy 166.615 103.67075) (xy 166.615 104.26131) (xy 166.711673 104.494699) (xy 166.890302 104.673327)
        (xy 167.123691 104.77) (xy 166.932685 104.77) (xy 166.744888 104.582203) (xy 166.402399 104.353359) (xy 165.862 104.245867)
        (xy 165.321601 104.353359) (xy 164.863472 104.659472) (xy 164.557359 105.117601) (xy 164.449867 105.658) (xy 164.557359 106.198399)
        (xy 164.786203 106.540888) (xy 165.2832 107.037885) (xy 165.360471 107.153529) (xy 165.8186 107.459641) (xy 166.222593 107.54)
        (xy 166.358999 107.567133) (xy 166.495405 107.54) (xy 167.187459 107.54) (xy 167.25 107.55244) (xy 171.290001 107.55244)
        (xy 171.290001 121.29) (xy 126.71 121.29) (xy 126.71 117.525594) (xy 133.615 117.525594) (xy 133.615 118.474406)
        (xy 133.978095 119.350994) (xy 134.649006 120.021905) (xy 135.525594 120.385) (xy 136.474406 120.385) (xy 137.350994 120.021905)
        (xy 138.021905 119.350994) (xy 138.385 118.474406) (xy 138.385 117.525594) (xy 138.311439 117.348) (xy 145.400765 117.348)
        (xy 145.488854 117.790855) (xy 145.617241 117.983) (xy 145.488854 118.175145) (xy 145.400765 118.618) (xy 145.488854 119.060855)
        (xy 145.739711 119.436289) (xy 146.115145 119.687146) (xy 146.446217 119.753) (xy 146.669783 119.753) (xy 147.000855 119.687146)
        (xy 147.376289 119.436289) (xy 147.627146 119.060855) (xy 147.715235 118.618) (xy 147.701558 118.549243) (xy 147.867802 118.383)
        (xy 148.033874 118.383) (xy 148.41428 118.225431) (xy 148.705431 117.93428) (xy 148.863 117.553874) (xy 148.863 117.142126)
        (xy 148.705431 116.76172) (xy 148.41428 116.470569) (xy 148.195931 116.380126) (xy 149.079 116.380126) (xy 149.079 116.791874)
        (xy 149.236569 117.17228) (xy 149.52772 117.463431) (xy 149.908126 117.621) (xy 150.319874 117.621) (xy 150.70028 117.463431)
        (xy 150.817711 117.346) (xy 154.156219 117.346) (xy 154.256092 117.445873) (xy 154.636498 117.603442) (xy 155.048246 117.603442)
        (xy 155.236188 117.525594) (xy 165.615 117.525594) (xy 165.615 118.474406) (xy 165.978095 119.350994) (xy 166.649006 120.021905)
        (xy 167.525594 120.385) (xy 168.474406 120.385) (xy 169.350994 120.021905) (xy 170.021905 119.350994) (xy 170.385 118.474406)
        (xy 170.385 117.525594) (xy 170.021905 116.649006) (xy 169.350994 115.978095) (xy 168.474406 115.615) (xy 167.525594 115.615)
        (xy 166.649006 115.978095) (xy 165.978095 116.649006) (xy 165.615 117.525594) (xy 155.236188 117.525594) (xy 155.428652 117.445873)
        (xy 155.719803 117.154722) (xy 155.877372 116.774316) (xy 155.877372 116.362568) (xy 155.719803 115.982162) (xy 155.428652 115.691011)
        (xy 155.048246 115.533442) (xy 154.636498 115.533442) (xy 154.256092 115.691011) (xy 154.121103 115.826) (xy 150.817711 115.826)
        (xy 150.70028 115.708569) (xy 150.319874 115.551) (xy 149.908126 115.551) (xy 149.52772 115.708569) (xy 149.236569 115.99972)
        (xy 149.079 116.380126) (xy 148.195931 116.380126) (xy 148.033874 116.313) (xy 147.622126 116.313) (xy 147.608072 116.318821)
        (xy 147.525954 116.205) (xy 146.685 116.205) (xy 146.685 116.216027) (xy 146.669783 116.213) (xy 146.446217 116.213)
        (xy 146.431 116.216027) (xy 146.431 116.205) (xy 145.590046 116.205) (xy 145.463881 116.379874) (xy 145.570873 116.638209)
        (xy 145.625199 116.70109) (xy 145.488854 116.905145) (xy 145.400765 117.348) (xy 138.311439 117.348) (xy 138.021905 116.649006)
        (xy 137.350994 115.978095) (xy 136.474406 115.615) (xy 135.525594 115.615) (xy 134.649006 115.978095) (xy 133.978095 116.649006)
        (xy 133.615 117.525594) (xy 126.71 117.525594) (xy 126.71 114.094126) (xy 136.995352 114.094126) (xy 136.995352 114.505874)
        (xy 137.152921 114.88628) (xy 137.444072 115.177431) (xy 137.824478 115.335) (xy 138.236226 115.335) (xy 138.616632 115.177431)
        (xy 138.907783 114.88628) (xy 139.065352 114.505874) (xy 139.065352 114.339802) (xy 139.097154 114.308) (xy 145.41056 114.308)
        (xy 145.41056 115.308) (xy 145.459843 115.555765) (xy 145.518678 115.643817) (xy 145.463881 115.776126) (xy 145.590046 115.951)
        (xy 146.035678 115.951) (xy 146.058 115.95544) (xy 147.058 115.95544) (xy 147.080322 115.951) (xy 147.525954 115.951)
        (xy 147.652119 115.776126) (xy 147.597322 115.643817) (xy 147.647849 115.568198) (xy 147.648847 115.568) (xy 147.648852 115.568)
        (xy 147.870537 115.523904) (xy 148.121929 115.355929) (xy 148.164331 115.29247) (xy 148.375801 115.081) (xy 148.541874 115.081)
        (xy 148.92228 114.923431) (xy 149.213431 114.63228) (xy 149.371 114.251874) (xy 149.371 113.840126) (xy 149.213431 113.45972)
        (xy 148.92228 113.168569) (xy 148.541874 113.011) (xy 148.130126 113.011) (xy 147.74972 113.168569) (xy 147.458569 113.45972)
        (xy 147.3443 113.735591) (xy 147.305765 113.709843) (xy 147.058 113.66056) (xy 146.058 113.66056) (xy 145.810235 113.709843)
        (xy 145.600191 113.850191) (xy 145.459843 114.060235) (xy 145.41056 114.308) (xy 139.097154 114.308) (xy 139.484475 113.920679)
        (xy 139.547929 113.878281) (xy 139.590327 113.814828) (xy 139.590329 113.814826) (xy 139.715903 113.62689) (xy 139.715904 113.626889)
        (xy 139.76 113.405204) (xy 139.76 113.4052) (xy 139.774888 113.330353) (xy 139.76 113.255506) (xy 139.76 112.570126)
        (xy 140.57 112.570126) (xy 140.57 112.981874) (xy 140.727569 113.36228) (xy 141.01872 113.653431) (xy 141.399126 113.811)
        (xy 141.810874 113.811) (xy 142.19128 113.653431) (xy 142.308711 113.536) (xy 146.102153 113.536) (xy 146.177 113.550888)
        (xy 146.251847 113.536) (xy 146.251852 113.536) (xy 146.473537 113.491904) (xy 146.724929 113.323929) (xy 146.738913 113.303)
        (xy 146.890874 113.303) (xy 147.27128 113.145431) (xy 147.562431 112.85428) (xy 147.72 112.473874) (xy 147.72 112.062126)
        (xy 147.562431 111.68172) (xy 147.27128 111.390569) (xy 146.890874 111.233) (xy 146.479126 111.233) (xy 146.09872 111.390569)
        (xy 145.807569 111.68172) (xy 145.669106 112.016) (xy 142.308711 112.016) (xy 142.19128 111.898569) (xy 141.810874 111.741)
        (xy 141.399126 111.741) (xy 141.01872 111.898569) (xy 140.727569 112.18972) (xy 140.57 112.570126) (xy 139.76 112.570126)
        (xy 139.76 103.973711) (xy 139.877431 103.85628) (xy 140.035 103.475874) (xy 140.035 103.064126) (xy 139.877431 102.68372)
        (xy 139.58628 102.392569) (xy 139.205874 102.235) (xy 138.794126 102.235) (xy 138.41372 102.392569) (xy 138.122569 102.68372)
        (xy 137.965 103.064126) (xy 137.965 103.475874) (xy 138.122569 103.85628) (xy 138.24 103.973711) (xy 138.240001 113.015549)
        (xy 137.99055 113.265) (xy 137.824478 113.265) (xy 137.444072 113.422569) (xy 137.152921 113.71372) (xy 136.995352 114.094126)
        (xy 126.71 114.094126) (xy 126.71 107.55244) (xy 130.647 107.55244) (xy 130.709541 107.54) (xy 131.008593 107.54)
        (xy 131.145 107.567133) (xy 131.281407 107.54) (xy 131.6854 107.459641) (xy 132.143529 107.153529) (xy 132.2208 107.037885)
        (xy 132.965797 106.292888) (xy 133.19464 105.950401) (xy 133.302133 105.410001) (xy 133.19464 104.869601) (xy 132.888528 104.411472)
        (xy 132.430399 104.10536) (xy 131.889999 103.997867) (xy 131.349599 104.10536) (xy 131.282 104.150528) (xy 131.282 103.67075)
        (xy 131.12325 103.512) (xy 128.524 103.512) (xy 128.524 103.532) (xy 128.27 103.532) (xy 128.27 103.512)
        (xy 128.25 103.512) (xy 128.25 103.258) (xy 128.27 103.258) (xy 128.27 102.15875) (xy 128.11125 102)
        (xy 128.27 101.84125) (xy 128.27 100.742) (xy 128.524 100.742) (xy 128.524 101.84125) (xy 128.68275 102)
        (xy 128.524 102.15875) (xy 128.524 103.258) (xy 131.12325 103.258) (xy 131.282 103.09925) (xy 131.282 102.50869)
        (xy 131.185327 102.275301) (xy 131.006698 102.096673) (xy 130.773309 102) (xy 131.006698 101.903327) (xy 131.185327 101.724699)
        (xy 131.282 101.49131) (xy 131.282 100.90075) (xy 131.12325 100.742) (xy 128.524 100.742) (xy 128.27 100.742)
        (xy 128.25 100.742) (xy 128.25 100.488) (xy 128.27 100.488) (xy 128.27 100.468) (xy 128.524 100.468)
        (xy 128.524 100.488) (xy 131.12325 100.488) (xy 131.159131 100.452119) (xy 135.103 100.452119) (xy 135.103 101.007881)
        (xy 135.31568 101.521337) (xy 135.708663 101.91432) (xy 135.915513 102) (xy 135.708663 102.08568) (xy 135.31568 102.478663)
        (xy 135.103 102.992119) (xy 135.103 103.547881) (xy 135.31568 104.061337) (xy 135.708663 104.45432) (xy 136.222119 104.667)
        (xy 136.777881 104.667) (xy 137.291337 104.45432) (xy 137.68432 104.061337) (xy 137.897 103.547881) (xy 137.897 102.992119)
        (xy 137.68432 102.478663) (xy 137.291337 102.08568) (xy 137.084487 102) (xy 137.291337 101.91432) (xy 137.68432 101.521337)
        (xy 137.897 101.007881) (xy 137.897 100.452119) (xy 147.603 100.452119) (xy 147.603 101.007881) (xy 147.81568 101.521337)
        (xy 148.208663 101.91432) (xy 148.415513 102) (xy 148.208663 102.08568) (xy 147.81568 102.478663) (xy 147.603 102.992119)
        (xy 147.603 103.547881) (xy 147.81568 104.061337) (xy 148.208663 104.45432) (xy 148.722119 104.667) (xy 149.277881 104.667)
        (xy 149.791337 104.45432) (xy 150.18432 104.061337) (xy 150.1973 104.03) (xy 160.3027 104.03) (xy 160.31568 104.061337)
        (xy 160.708663 104.45432) (xy 161.222119 104.667) (xy 161.777881 104.667) (xy 162.291337 104.45432) (xy 162.68432 104.061337)
        (xy 162.897 103.547881) (xy 162.897 102.992119) (xy 162.68432 102.478663) (xy 162.291337 102.08568) (xy 162.084487 102)
        (xy 162.291337 101.91432) (xy 162.68432 101.521337) (xy 162.897 101.007881) (xy 162.897 100.90075) (xy 166.615 100.90075)
        (xy 166.615 101.49131) (xy 166.711673 101.724699) (xy 166.890302 101.903327) (xy 167.123691 102) (xy 166.890302 102.096673)
        (xy 166.711673 102.275301) (xy 166.615 102.50869) (xy 166.615 103.09925) (xy 166.77375 103.258) (xy 169.373 103.258)
        (xy 169.373 102.15875) (xy 169.21425 102) (xy 169.373 101.84125) (xy 169.373 100.742) (xy 166.77375 100.742)
        (xy 166.615 100.90075) (xy 162.897 100.90075) (xy 162.897 100.452119) (xy 162.68432 99.938663) (xy 162.291337 99.54568)
        (xy 161.777881 99.333) (xy 161.222119 99.333) (xy 160.708663 99.54568) (xy 160.31568 99.938663) (xy 160.103 100.452119)
        (xy 160.103 101.007881) (xy 160.31568 101.521337) (xy 160.708663 101.91432) (xy 160.915513 102) (xy 160.708663 102.08568)
        (xy 160.31568 102.478663) (xy 160.3027 102.51) (xy 150.1973 102.51) (xy 150.18432 102.478663) (xy 149.791337 102.08568)
        (xy 149.584487 102) (xy 149.791337 101.91432) (xy 150.18432 101.521337) (xy 150.397 101.007881) (xy 150.397 100.452119)
        (xy 150.18432 99.938663) (xy 149.791337 99.54568) (xy 149.277881 99.333) (xy 148.722119 99.333) (xy 148.208663 99.54568)
        (xy 147.81568 99.938663) (xy 147.603 100.452119) (xy 137.897 100.452119) (xy 137.68432 99.938663) (xy 137.291337 99.54568)
        (xy 136.777881 99.333) (xy 136.222119 99.333) (xy 135.708663 99.54568) (xy 135.31568 99.938663) (xy 135.103 100.452119)
        (xy 131.159131 100.452119) (xy 131.282 100.32925) (xy 131.282 99.73869) (xy 131.185327 99.505301) (xy 131.006698 99.326673)
        (xy 130.773309 99.23) (xy 130.880593 99.23) (xy 131.017 99.257133) (xy 131.153407 99.23) (xy 131.5574 99.149641)
        (xy 132.015529 98.843529) (xy 132.0928 98.727885) (xy 132.901797 97.918888) (xy 133.130641 97.5764) (xy 133.238133 97.036)
        (xy 133.130641 96.4956) (xy 132.824528 96.037472) (xy 132.3664 95.731359) (xy 131.826 95.623867) (xy 131.2856 95.731359)
        (xy 130.943112 95.960203) (xy 130.455755 96.44756) (xy 126.71 96.44756) (xy 126.71 85.525594) (xy 133.615 85.525594)
        (xy 133.615 86.474406) (xy 133.978095 87.350994) (xy 134.649006 88.021905) (xy 135.525594 88.385) (xy 136.474406 88.385)
        (xy 137.350994 88.021905) (xy 138.021905 87.350994) (xy 138.385 86.474406) (xy 138.385 85.525594) (xy 165.615 85.525594)
        (xy 165.615 86.474406) (xy 165.978095 87.350994) (xy 166.649006 88.021905) (xy 167.525594 88.385) (xy 168.474406 88.385)
        (xy 169.350994 88.021905) (xy 170.021905 87.350994) (xy 170.385 86.474406) (xy 170.385 85.525594) (xy 170.021905 84.649006)
        (xy 169.350994 83.978095) (xy 168.474406 83.615) (xy 167.525594 83.615) (xy 166.649006 83.978095) (xy 165.978095 84.649006)
        (xy 165.615 85.525594) (xy 138.385 85.525594) (xy 138.021905 84.649006) (xy 137.350994 83.978095) (xy 136.474406 83.615)
        (xy 135.525594 83.615) (xy 134.649006 83.978095) (xy 133.978095 84.649006) (xy 133.615 85.525594) (xy 126.71 85.525594)
        (xy 126.71 82.71) (xy 171.29 82.71)
      )
    )
  )
)
