EESchema Schematic File Version 4
EELAYER 26 0
EELAYER END
$Descr A4 11693 8268
encoding utf-8
Sheet 1 1
Title ""
Date ""
Rev ""
Comp ""
Comment1 ""
Comment2 ""
Comment3 ""
Comment4 ""
$EndDescr
$Comp
L Br:Br_CN_IN J1
U 1 1 5D978D2E
P 1650 1800
F 0 "J1" H 1272 1747 60  0000 R CNN
F 1 "Br_CN_IN" H 1272 1853 60  0000 R CNN
F 2 "Br:Br_CN_IN" H 1525 1900 60  0001 C CNN
F 3 "" H 1525 1900 60  0001 C CNN
	1    1650 1800
	1    0    0    1   
$EndComp
$Comp
L Br:GND #PWR0101
U 1 1 5D979092
P 2300 2500
F 0 "#PWR0101" H 2300 2250 50  0001 C CNN
F 1 "GND" H 2305 2327 50  0000 C CNN
F 2 "" H 2300 2500 50  0000 C CNN
F 3 "" H 2300 2500 50  0000 C CNN
	1    2300 2500
	1    0    0    -1  
$EndComp
$Comp
L Br:5V #PWR0102
U 1 1 5D97912B
P 2000 2100
F 0 "#PWR0102" H 2000 1950 50  0001 C CNN
F 1 "5V" V 2015 2228 50  0000 L CNN
F 2 "" H 2000 2100 50  0000 C CNN
F 3 "" H 2000 2100 50  0000 C CNN
	1    2000 2100
	0    1    1    0   
$EndComp
$Comp
L Br:12V #PWR0103
U 1 1 5D97916E
P 1900 1400
F 0 "#PWR0103" H 1900 1250 50  0001 C CNN
F 1 "12V" V 1915 1528 50  0000 L CNN
F 2 "" H 1900 1400 50  0000 C CNN
F 3 "" H 1900 1400 50  0000 C CNN
	1    1900 1400
	0    1    1    0   
$EndComp
Text Notes 3400 1200 0    50   ~ 0
Female\n
Text Notes 1400 1200 0    50   ~ 0
Male\n
Text Label 1850 1800 0    50   ~ 0
UART_RX
Text Label 1850 1600 0    50   ~ 0
SPARE
Wire Wire Line
	1750 2100 1900 2100
Wire Wire Line
	1750 2000 1900 2000
Wire Wire Line
	1900 2000 1900 2100
Connection ~ 1900 2100
Wire Wire Line
	1900 2100 2000 2100
Wire Wire Line
	1800 1500 1800 1400
Wire Wire Line
	1800 1400 1900 1400
Wire Wire Line
	1750 1600 2200 1600
Text Label 7700 1950 0    50   ~ 0
UART_RX
Text Label 10600 1950 0    50   ~ 0
UART_TX
$Comp
L Br:Br_CN_OUT J3
U 1 1 5D9C46C3
P 3650 1800
F 0 "J3" H 3827 1846 50  0000 L CNN
F 1 "Br_CN_OUT" H 3827 1755 50  0000 L CNN
F 2 "Br:Br_CN_OUT" H 3650 2350 50  0001 C CNN
F 3 "" H 3650 2350 50  0001 C CNN
	1    3650 1800
	1    0    0    -1  
$EndComp
$Comp
L Br:Hole3mm H1
U 1 1 5D9D377A
P 5600 6600
F 0 "H1" H 5677 6651 50  0000 L CNN
F 1 "Hole3mm" H 5677 6560 50  0000 L CNN
F 2 "Br:Hole3mm" H 5600 6600 50  0001 C CNN
F 3 "" H 5600 6600 50  0001 C CNN
	1    5600 6600
	1    0    0    -1  
$EndComp
$Comp
L Br:Hole3mm H3
U 1 1 5D9D37B0
P 6300 6600
F 0 "H3" H 6377 6651 50  0000 L CNN
F 1 "Hole3mm" H 6377 6560 50  0000 L CNN
F 2 "Br:Hole3mm" H 6300 6600 50  0001 C CNN
F 3 "" H 6300 6600 50  0001 C CNN
	1    6300 6600
	1    0    0    -1  
$EndComp
$Comp
L Br:Hole3mm H2
U 1 1 5D9D6260
P 5600 6850
F 0 "H2" H 5677 6901 50  0000 L CNN
F 1 "Hole3mm" H 5677 6810 50  0000 L CNN
F 2 "Br:Hole3mm" H 5600 6850 50  0001 C CNN
F 3 "" H 5600 6850 50  0001 C CNN
	1    5600 6850
	1    0    0    -1  
$EndComp
$Comp
L Br:Hole3mm H4
U 1 1 5D9D6266
P 6300 6850
F 0 "H4" H 6377 6901 50  0000 L CNN
F 1 "Hole3mm" H 6377 6810 50  0000 L CNN
F 2 "Br:Hole3mm" H 6300 6850 50  0001 C CNN
F 3 "" H 6300 6850 50  0001 C CNN
	1    6300 6850
	1    0    0    -1  
$EndComp
Wire Wire Line
	1800 1500 1750 1500
Wire Wire Line
	1750 1400 1800 1400
Connection ~ 1800 1400
Wire Wire Line
	2300 1900 2300 2200
Wire Wire Line
	1750 1900 2300 1900
Wire Wire Line
	2300 1900 2300 1700
Wire Wire Line
	1750 1700 2300 1700
Wire Wire Line
	1750 1800 2200 1800
Connection ~ 2300 1900
Wire Wire Line
	1750 2200 2300 2200
Connection ~ 2300 2200
Wire Wire Line
	2300 2200 2300 2500
$Comp
L Br:GND #PWR0104
U 1 1 5D9E7626
P 2750 2500
F 0 "#PWR0104" H 2750 2250 50  0001 C CNN
F 1 "GND" H 2755 2327 50  0000 C CNN
F 2 "" H 2750 2500 50  0000 C CNN
F 3 "" H 2750 2500 50  0000 C CNN
	1    2750 2500
	-1   0    0    -1  
$EndComp
$Comp
L Br:5V #PWR0105
U 1 1 5D9E762C
P 3100 2100
F 0 "#PWR0105" H 3100 1950 50  0001 C CNN
F 1 "5V" V 3115 2228 50  0000 L CNN
F 2 "" H 3100 2100 50  0000 C CNN
F 3 "" H 3100 2100 50  0000 C CNN
	1    3100 2100
	0    -1   1    0   
$EndComp
$Comp
L Br:12V #PWR0106
U 1 1 5D9E7632
P 3100 1400
F 0 "#PWR0106" H 3100 1250 50  0001 C CNN
F 1 "12V" V 3115 1528 50  0000 L CNN
F 2 "" H 3100 1400 50  0000 C CNN
F 3 "" H 3100 1400 50  0000 C CNN
	1    3100 1400
	0    -1   1    0   
$EndComp
Text Label 3250 1800 2    50   ~ 0
UART_TX
Text Label 3250 1600 2    50   ~ 0
SPARE
Wire Wire Line
	3350 2100 3200 2100
Wire Wire Line
	3350 2000 3200 2000
Wire Wire Line
	3200 2000 3200 2100
Connection ~ 3200 2100
Wire Wire Line
	3200 2100 3100 2100
Wire Wire Line
	3200 1500 3200 1400
Connection ~ 3200 1400
Wire Wire Line
	3200 1400 3100 1400
Wire Wire Line
	3350 1500 3200 1500
Wire Wire Line
	3350 1400 3200 1400
Wire Wire Line
	3350 1600 2900 1600
Wire Wire Line
	2750 1700 2750 1900
Wire Wire Line
	2750 1700 3350 1700
Wire Wire Line
	2900 1800 3350 1800
Wire Wire Line
	3350 1900 2750 1900
Connection ~ 2750 1900
Wire Wire Line
	2750 1900 2750 2200
Wire Wire Line
	3350 2200 2750 2200
Connection ~ 2750 2200
Wire Wire Line
	2750 2200 2750 2500
$Comp
L Br:5V #PWR0107
U 1 1 5D9CBEE0
P 5550 1550
F 0 "#PWR0107" H 5550 1400 50  0001 C CNN
F 1 "5V" V 5565 1678 50  0000 L CNN
F 2 "" H 5550 1550 50  0000 C CNN
F 3 "" H 5550 1550 50  0000 C CNN
	1    5550 1550
	1    0    0    -1  
$EndComp
Wire Wire Line
	5550 1650 5550 1550
$Comp
L Br:D_BAV99.215 D2
U 1 1 5D9CDB0F
P 8850 1950
F 0 "D2" H 8927 1904 50  0000 L CNN
F 1 "D_BAV99.215" H 8300 2250 50  0000 L CNN
F 2 "Br:SOT23" V 8850 2100 50  0001 C CNN
F 3 "../library_doc/D_BAV99.215.pdf" H 8928 1905 50  0001 L CNN
F 4 "C2500" H 8927 1859 50  0001 L CNN "LCSC"
	1    8850 1950
	1    0    0    1   
$EndComp
$Comp
L Br:R_1K_0603_1% R1
U 1 1 5D9CE50E
P 8250 1950
F 0 "R1" V 8150 1850 50  0000 C CNN
F 1 "R_1K_0603_1%" V 8350 1950 50  0000 C CNN
F 2 "Br:R_0603" V 8180 1950 50  0001 C CNN
F 3 "" H 8250 1950 50  0000 C CNN
F 4 "C21190" V 8135 1950 50  0001 C CNN "LCSC"
	1    8250 1950
	0    1    1    0   
$EndComp
Wire Wire Line
	7700 1950 8100 1950
$Comp
L Br:GND #PWR0108
U 1 1 5D9CF159
P 8850 2300
F 0 "#PWR0108" H 8850 2050 50  0001 C CNN
F 1 "GND" H 8855 2127 50  0000 C CNN
F 2 "" H 8850 2300 50  0000 C CNN
F 3 "" H 8850 2300 50  0000 C CNN
	1    8850 2300
	-1   0    0    -1  
$EndComp
Wire Wire Line
	8850 2300 8850 2250
$Comp
L Br:D_BAV99.215 D3
U 1 1 5D9CF778
P 9800 1950
F 0 "D3" H 9878 1904 50  0000 L CNN
F 1 "D_BAV99.215" H 9250 2200 50  0000 L CNN
F 2 "Br:SOT23" V 9800 2100 50  0001 C CNN
F 3 "../library_doc/D_BAV99.215.pdf" H 9878 1905 50  0001 L CNN
F 4 "C2500" H 9877 1859 50  0001 L CNN "LCSC"
	1    9800 1950
	-1   0    0    1   
$EndComp
$Comp
L Br:R_1K_0603_1% R2
U 1 1 5D9CF786
P 10350 1950
F 0 "R2" V 10250 1850 50  0000 C CNN
F 1 "R_1K_0603_1%" V 10450 1850 50  0000 C CNN
F 2 "Br:R_0603" V 10280 1950 50  0001 C CNN
F 3 "" H 10350 1950 50  0000 C CNN
F 4 "C21190" V 10235 1950 50  0001 C CNN "LCSC"
	1    10350 1950
	0    -1   1    0   
$EndComp
Wire Wire Line
	10900 1950 10500 1950
$Comp
L Br:GND #PWR0109
U 1 1 5D9CF78E
P 9800 2300
F 0 "#PWR0109" H 9800 2050 50  0001 C CNN
F 1 "GND" H 9805 2127 50  0000 C CNN
F 2 "" H 9800 2300 50  0000 C CNN
F 3 "" H 9800 2300 50  0000 C CNN
	1    9800 2300
	1    0    0    -1  
$EndComp
Wire Wire Line
	9800 2300 9800 2250
$Comp
L Br:3V3 #PWR0110
U 1 1 5D9D1287
P 9800 1550
F 0 "#PWR0110" H 9800 1400 50  0001 C CNN
F 1 "3V3" H 9815 1723 50  0000 C CNN
F 2 "" H 9800 1550 50  0000 C CNN
F 3 "" H 9800 1550 50  0000 C CNN
	1    9800 1550
	1    0    0    -1  
$EndComp
$Comp
L Br:3V3 #PWR0111
U 1 1 5D9D12BD
P 8850 1550
F 0 "#PWR0111" H 8850 1400 50  0001 C CNN
F 1 "3V3" H 8865 1723 50  0000 C CNN
F 2 "" H 8850 1550 50  0000 C CNN
F 3 "" H 8850 1550 50  0000 C CNN
	1    8850 1550
	1    0    0    -1  
$EndComp
Wire Wire Line
	8850 1550 8850 1650
Wire Wire Line
	9800 1550 9800 1650
Text Notes 8900 1150 0    50   ~ 0
UART protection
$Comp
L Br:3V3 #PWR0112
U 1 1 5D9D2D75
P 7300 1500
F 0 "#PWR0112" H 7300 1350 50  0001 C CNN
F 1 "3V3" H 7315 1673 50  0000 C CNN
F 2 "" H 7300 1500 50  0000 C CNN
F 3 "" H 7300 1500 50  0000 C CNN
	1    7300 1500
	1    0    0    -1  
$EndComp
Text Notes 5800 1150 0    50   ~ 0
Power regulator
$Comp
L Br:GND #PWR0113
U 1 1 5D9D4876
P 1800 5400
F 0 "#PWR0113" H 1800 5150 50  0001 C CNN
F 1 "GND" H 1805 5227 50  0000 C CNN
F 2 "" H 1800 5400 50  0000 C CNN
F 3 "" H 1800 5400 50  0000 C CNN
	1    1800 5400
	-1   0    0    -1  
$EndComp
Wire Wire Line
	2350 4300 2750 4300
Wire Wire Line
	2350 4400 2750 4400
Text Label 2350 4500 0    50   ~ 0
SWIM
Text Label 2350 4600 0    50   ~ 0
NRST
Wire Wire Line
	2350 4500 2750 4500
Text Label 1700 6900 0    50   ~ 0
SWIM
Text Label 1700 6700 0    50   ~ 0
NRST
$Comp
L Br:3V3 #PWR0114
U 1 1 5D9D7743
P 2250 5000
F 0 "#PWR0114" H 2250 4850 50  0001 C CNN
F 1 "3V3" V 2265 5128 50  0000 L CNN
F 2 "" H 2250 5000 50  0000 C CNN
F 3 "" H 2250 5000 50  0000 C CNN
	1    2250 5000
	0    -1   -1   0   
$EndComp
Wire Wire Line
	1800 4900 2750 4900
$Comp
L Br:GND #PWR0115
U 1 1 5D9D82DF
P 1700 6800
F 0 "#PWR0115" H 1700 6550 50  0001 C CNN
F 1 "GND" H 1705 6627 50  0000 C CNN
F 2 "" H 1700 6800 50  0000 C CNN
F 3 "" H 1700 6800 50  0000 C CNN
	1    1700 6800
	0    1    -1   0   
$EndComp
$Comp
L Br:3V3 #PWR0116
U 1 1 5D9D8302
P 1750 7000
F 0 "#PWR0116" H 1750 6850 50  0001 C CNN
F 1 "3V3" V 1765 7128 50  0000 L CNN
F 2 "" H 1750 7000 50  0000 C CNN
F 3 "" H 1750 7000 50  0000 C CNN
	1    1750 7000
	0    -1   -1   0   
$EndComp
$Comp
L Br:CN_P_01x04_1.27MM_STRAIGHT_ZL319-4P J2
U 1 1 5D9D92B3
P 2100 6850
F 0 "J2" H 2178 6855 50  0000 L CNN
F 1 "CN_P_01x04_1.27MM_STRAIGHT_ZL319-4P" H 2177 6810 50  0001 L CNN
F 2 "Br:CN_P_01x04_1.27MM_STRAIGHT_ZL319-4P" H 2050 6900 50  0001 C CNN
F 3 "" H 2050 6900 50  0001 C CNN
	1    2100 6850
	1    0    0    -1  
$EndComp
Wire Wire Line
	1700 6700 1950 6700
Wire Wire Line
	1700 6800 1950 6800
Wire Wire Line
	1700 6900 1950 6900
Wire Wire Line
	1750 7000 1950 7000
$Comp
L Br:C_100N_0603_10%_50V_X7R C2
U 1 1 5D9DE095
P 2350 5200
F 0 "C2" H 2465 5246 50  0000 L CNN
F 1 "100nF" H 2465 5155 50  0000 L CNN
F 2 "Br:C_0603" V 2280 5200 50  0001 C CNN
F 3 "" V 2450 5100 50  0000 C CNN
F 4 "C14663" H 2465 5109 50  0001 L CNN "LCSC"
	1    2350 5200
	1    0    0    -1  
$EndComp
Wire Wire Line
	2350 5050 2350 5000
Wire Wire Line
	2350 5000 2250 5000
Wire Wire Line
	2750 5000 2350 5000
Connection ~ 2350 5000
$Comp
L Br:GND #PWR0117
U 1 1 5D9DFBBB
P 2350 5400
F 0 "#PWR0117" H 2350 5150 50  0001 C CNN
F 1 "GND" H 2355 5227 50  0000 C CNN
F 2 "" H 2350 5400 50  0000 C CNN
F 3 "" H 2350 5400 50  0000 C CNN
	1    2350 5400
	-1   0    0    -1  
$EndComp
Wire Wire Line
	2350 5400 2350 5350
Wire Wire Line
	1800 4900 1800 5400
$Comp
L Br:C_100N_0603_10%_50V_X7R C1
U 1 1 5D9E1885
P 1350 5200
F 0 "C1" H 1465 5246 50  0000 L CNN
F 1 "100nF" H 1465 5155 50  0000 L CNN
F 2 "Br:C_0603" V 1280 5200 50  0001 C CNN
F 3 "" V 1450 5100 50  0000 C CNN
F 4 "C14663" H 1465 5109 50  0001 L CNN "LCSC"
	1    1350 5200
	1    0    0    -1  
$EndComp
Wire Wire Line
	1350 4600 2750 4600
$Comp
L Br:GND #PWR0118
U 1 1 5D9E54AE
P 1350 5400
F 0 "#PWR0118" H 1350 5150 50  0001 C CNN
F 1 "GND" H 1355 5227 50  0000 C CNN
F 2 "" H 1350 5400 50  0000 C CNN
F 3 "" H 1350 5400 50  0000 C CNN
	1    1350 5400
	-1   0    0    -1  
$EndComp
Wire Wire Line
	1350 4600 1350 5050
Wire Wire Line
	1350 5350 1350 5400
$Comp
L Br:C_1U_0603_10%_50V_X5R C3
U 1 1 5D9EACB1
P 5950 2200
F 0 "C3" H 6065 2246 50  0000 L CNN
F 1 "1uF" H 6065 2155 50  0000 L CNN
F 2 "Br:C_0603" V 5880 2200 50  0001 C CNN
F 3 "" V 6050 2100 50  0000 C CNN
F 4 "C15849" H 6065 2109 50  0001 L CNN "LCSC"
	1    5950 2200
	1    0    0    -1  
$EndComp
$Comp
L Br:GND #PWR0119
U 1 1 5D9EADC4
P 5950 2500
F 0 "#PWR0119" H 5950 2250 50  0001 C CNN
F 1 "GND" H 5955 2327 50  0000 C CNN
F 2 "" H 5950 2500 50  0000 C CNN
F 3 "" H 5950 2500 50  0000 C CNN
	1    5950 2500
	-1   0    0    -1  
$EndComp
Wire Wire Line
	5950 2500 5950 2350
Wire Wire Line
	5950 1950 5950 2050
$Comp
L Br:ICP_HT7533-1 U2
U 1 1 5D9C8DBA
P 6650 1950
F 0 "U2" H 6675 2306 50  0000 C CNN
F 1 "ICP_HT7533-1" H 6675 2215 50  0000 C CNN
F 2 "Br:SOT-89-3" H 6650 1950 50  0001 C CNN
F 3 "" H 6650 1950 50  0001 C CNN
F 4 "C14289" H 6675 2124 50  0001 C CNN "LCSC"
	1    6650 1950
	1    0    0    -1  
$EndComp
$Comp
L Br:C_1U_0603_10%_50V_X5R C4
U 1 1 5D9C8EED
P 7300 2200
F 0 "C4" H 7415 2246 50  0000 L CNN
F 1 "1uF" H 7415 2155 50  0000 L CNN
F 2 "Br:C_0603" V 7230 2200 50  0001 C CNN
F 3 "" V 7400 2100 50  0000 C CNN
F 4 "C15849" H 7415 2109 50  0001 L CNN "LCSC"
	1    7300 2200
	1    0    0    -1  
$EndComp
Wire Wire Line
	7050 1950 7300 1950
Wire Wire Line
	7300 1950 7300 2050
Wire Wire Line
	7300 1950 7300 1500
Connection ~ 7300 1950
$Comp
L Br:GND #PWR0120
U 1 1 5D9CB24A
P 6650 2500
F 0 "#PWR0120" H 6650 2250 50  0001 C CNN
F 1 "GND" H 6655 2327 50  0000 C CNN
F 2 "" H 6650 2500 50  0000 C CNN
F 3 "" H 6650 2500 50  0000 C CNN
	1    6650 2500
	-1   0    0    -1  
$EndComp
Wire Wire Line
	6650 2500 6650 2250
Wire Wire Line
	6300 1950 5950 1950
Connection ~ 5950 1950
$Comp
L Br:GND #PWR0121
U 1 1 5D9CD6CE
P 7300 2500
F 0 "#PWR0121" H 7300 2250 50  0001 C CNN
F 1 "GND" H 7305 2327 50  0000 C CNN
F 2 "" H 7300 2500 50  0000 C CNN
F 3 "" H 7300 2500 50  0000 C CNN
	1    7300 2500
	-1   0    0    -1  
$EndComp
Wire Wire Line
	7300 2500 7300 2350
Wire Wire Line
	5950 1550 5950 1950
NoConn ~ 6600 4650
NoConn ~ 6600 4550
NoConn ~ 6600 4450
NoConn ~ 6600 4350
NoConn ~ 2750 4800
NoConn ~ 2750 4700
NoConn ~ 5500 6600
NoConn ~ 5500 6850
NoConn ~ 6200 6850
NoConn ~ 6200 6600
$Comp
L Br:12V #PWR0129
U 1 1 5D9E7FDB
P 4450 1000
F 0 "#PWR0129" H 4450 850 50  0001 C CNN
F 1 "12V" H 4400 1200 50  0000 L CNN
F 2 "" H 4450 1000 50  0000 C CNN
F 3 "" H 4450 1000 50  0000 C CNN
	1    4450 1000
	1    0    0    -1  
$EndComp
$Comp
L Br:5V #PWR0130
U 1 1 5D9E801C
P 4650 1000
F 0 "#PWR0130" H 4650 850 50  0001 C CNN
F 1 "5V" H 4600 1200 50  0000 L CNN
F 2 "" H 4650 1000 50  0000 C CNN
F 3 "" H 4650 1000 50  0000 C CNN
	1    4650 1000
	1    0    0    -1  
$EndComp
$Comp
L Br:GND #PWR0131
U 1 1 5D9E816B
P 4250 1150
F 0 "#PWR0131" H 4250 900 50  0001 C CNN
F 1 "GND" H 4255 977 50  0000 C CNN
F 2 "" H 4250 1150 50  0000 C CNN
F 3 "" H 4250 1150 50  0000 C CNN
	1    4250 1150
	-1   0    0    -1  
$EndComp
$Comp
L Br:PWR #FLG0101
U 1 1 5D9E856C
P 4250 1000
F 0 "#FLG0101" H 4250 1095 50  0001 C CNN
F 1 "PWR" H 4250 1224 50  0000 C CNN
F 2 "" H 4250 1000 50  0000 C CNN
F 3 "" H 4250 1000 50  0000 C CNN
	1    4250 1000
	1    0    0    -1  
$EndComp
$Comp
L Br:PWR #FLG0102
U 1 1 5D9E85C4
P 4450 1150
F 0 "#FLG0102" H 4450 1245 50  0001 C CNN
F 1 "PWR" H 4450 1373 50  0000 C CNN
F 2 "" H 4450 1150 50  0000 C CNN
F 3 "" H 4450 1150 50  0000 C CNN
	1    4450 1150
	-1   0    0    1   
$EndComp
$Comp
L Br:PWR #FLG0103
U 1 1 5D9E8649
P 4650 1150
F 0 "#FLG0103" H 4650 1245 50  0001 C CNN
F 1 "PWR" H 4650 1373 50  0000 C CNN
F 2 "" H 4650 1150 50  0000 C CNN
F 3 "" H 4650 1150 50  0000 C CNN
	1    4650 1150
	-1   0    0    1   
$EndComp
Wire Wire Line
	4650 1150 4650 1000
Wire Wire Line
	4450 1150 4450 1000
Wire Wire Line
	4250 1150 4250 1000
Text Label 5950 1750 1    50   ~ 0
5V_In
Wire Wire Line
	9850 1950 10200 1950
Text Label 2400 4300 0    50   ~ 0
CPU_TX
Text Label 2400 4400 0    50   ~ 0
CPU_RX
Text Label 9900 1950 0    50   ~ 0
CPU_TX
Text Label 8450 1950 0    50   ~ 0
CPU_RX
Wire Wire Line
	8400 1950 8800 1950
Text Label 4850 1000 1    50   ~ 0
5V_In
$Comp
L Br:PWR #FLG0104
U 1 1 5DA0B14B
P 4850 1150
F 0 "#FLG0104" H 4850 1245 50  0001 C CNN
F 1 "PWR" H 4850 1373 50  0000 C CNN
F 2 "" H 4850 1150 50  0000 C CNN
F 3 "" H 4850 1150 50  0000 C CNN
	1    4850 1150
	-1   0    0    1   
$EndComp
Wire Wire Line
	4850 1150 4850 800 
NoConn ~ 2750 5200
NoConn ~ 2750 5100
$Comp
L Br:ICD_STM8L051F3P6 U1
U 1 1 5D9D4765
P 5150 4300
F 0 "U1" H 4675 4587 60  0000 C CNN
F 1 "ICD_STM8L051F3P6" H 4675 4481 60  0000 C CNN
F 2 "Br:TSSOP20" H 2750 4400 60  0001 C CNN
F 3 "" H 2750 4400 60  0000 C CNN
F 4 "C18088" H 4675 4473 50  0001 C CNN "LCSC"
	1    5150 4300
	1    0    0    -1  
$EndComp
Text Label 6700 4750 0    50   ~ 0
POT_ENABLE
Text Label 6700 4950 0    50   ~ 0
POT1
Text Label 6700 5050 0    50   ~ 0
POT2
Text Label 6700 4850 0    50   ~ 0
POT3
Text Label 6700 5150 0    50   ~ 0
POT4
Wire Wire Line
	6600 4750 7200 4750
Wire Wire Line
	6600 4850 7200 4850
Wire Wire Line
	6600 4950 7200 4950
Wire Wire Line
	6600 5050 7200 5050
Wire Wire Line
	6600 5150 7200 5150
$Comp
L Br:ME_POTENCIOMETER_10K_RK09K1130081 U3
U 1 1 5DAFFD16
P 8250 3650
F 0 "U3" H 8150 3500 50  0000 R CNN
F 1 "ME_POTENCIOMETER_10K_RK09K1130081" H 8441 3630 50  0001 L CNN
F 2 "Br:ME_POTENCIOMETER_10K_RK09K1130081" H 8250 3650 50  0001 C CNN
F 3 "" H 8250 3650 50  0001 C CNN
	1    8250 3650
	-1   0    0    -1  
$EndComp
Text Label 7100 3300 0    50   ~ 0
POT_ENABLE
Wire Wire Line
	7100 3300 7600 3300
$Comp
L Br:GND #PWR0122
U 1 1 5DB0351D
P 7600 4050
F 0 "#PWR0122" H 7600 3800 50  0001 C CNN
F 1 "GND" H 7605 3877 50  0000 C CNN
F 2 "" H 7600 4050 50  0000 C CNN
F 3 "" H 7600 4050 50  0000 C CNN
	1    7600 4050
	-1   0    0    -1  
$EndComp
Wire Wire Line
	8250 3350 8250 3300
Wire Wire Line
	8250 3300 7600 3300
Connection ~ 7600 3300
Wire Wire Line
	8100 3750 8050 3750
Wire Wire Line
	8050 3750 8050 4000
Wire Wire Line
	8050 4000 8250 4000
Wire Wire Line
	8250 4000 8250 3900
$Comp
L Br:GND #PWR0123
U 1 1 5DB09F79
P 8250 4050
F 0 "#PWR0123" H 8250 3800 50  0001 C CNN
F 1 "GND" H 8255 3877 50  0000 C CNN
F 2 "" H 8250 4050 50  0000 C CNN
F 3 "" H 8250 4050 50  0000 C CNN
	1    8250 4050
	-1   0    0    -1  
$EndComp
Wire Wire Line
	8250 4050 8250 4000
Connection ~ 8250 4000
Text Label 8500 3650 0    50   ~ 0
POT1
Wire Wire Line
	8550 3700 8550 3650
Wire Wire Line
	8550 3650 8450 3650
$Comp
L Br:GND #PWR0124
U 1 1 5DB0FA1E
P 8550 4050
F 0 "#PWR0124" H 8550 3800 50  0001 C CNN
F 1 "GND" H 8555 3877 50  0000 C CNN
F 2 "" H 8550 4050 50  0000 C CNN
F 3 "" H 8550 4050 50  0000 C CNN
	1    8550 4050
	-1   0    0    -1  
$EndComp
Wire Wire Line
	8550 4050 8550 4000
Wire Wire Line
	8550 3650 8700 3650
Connection ~ 8550 3650
Wire Wire Line
	7600 4000 7600 4050
Wire Wire Line
	7600 3300 7600 3700
$Comp
L Br:ME_POTENCIOMETER_10K_RK09K1130081 U5
U 1 1 5DB177FC
P 9150 3650
F 0 "U5" H 9050 3500 50  0000 R CNN
F 1 "ME_POTENCIOMETER_10K_RK09K1130081" H 9341 3630 50  0001 L CNN
F 2 "Br:ME_POTENCIOMETER_10K_RK09K1130081" H 9150 3650 50  0001 C CNN
F 3 "" H 9150 3650 50  0001 C CNN
	1    9150 3650
	-1   0    0    -1  
$EndComp
Wire Wire Line
	9000 3750 8950 3750
Wire Wire Line
	8950 3750 8950 4000
Wire Wire Line
	8950 4000 9150 4000
Wire Wire Line
	9150 4000 9150 3900
$Comp
L Br:GND #PWR0125
U 1 1 5DB17806
P 9150 4050
F 0 "#PWR0125" H 9150 3800 50  0001 C CNN
F 1 "GND" H 9155 3877 50  0000 C CNN
F 2 "" H 9150 4050 50  0000 C CNN
F 3 "" H 9150 4050 50  0000 C CNN
	1    9150 4050
	-1   0    0    -1  
$EndComp
Wire Wire Line
	9150 4050 9150 4000
Connection ~ 9150 4000
Text Label 9400 3650 0    50   ~ 0
POT2
Wire Wire Line
	9450 3700 9450 3650
Wire Wire Line
	9450 3650 9350 3650
$Comp
L Br:GND #PWR0126
U 1 1 5DB17818
P 9450 4050
F 0 "#PWR0126" H 9450 3800 50  0001 C CNN
F 1 "GND" H 9455 3877 50  0000 C CNN
F 2 "" H 9450 4050 50  0000 C CNN
F 3 "" H 9450 4050 50  0000 C CNN
	1    9450 4050
	-1   0    0    -1  
$EndComp
Wire Wire Line
	9450 4050 9450 4000
Wire Wire Line
	9450 3650 9600 3650
Connection ~ 9450 3650
$Comp
L Br:ME_POTENCIOMETER_10K_RK09K1130081 U6
U 1 1 5DB1C895
P 9200 5000
F 0 "U6" H 9100 4850 50  0000 R CNN
F 1 "ME_POTENCIOMETER_10K_RK09K1130081" H 9391 4980 50  0001 L CNN
F 2 "Br:ME_POTENCIOMETER_10K_RK09K1130081" H 9200 5000 50  0001 C CNN
F 3 "" H 9200 5000 50  0001 C CNN
	1    9200 5000
	-1   0    0    -1  
$EndComp
Wire Wire Line
	9050 5100 9000 5100
Wire Wire Line
	9000 5100 9000 5350
Wire Wire Line
	9000 5350 9200 5350
Wire Wire Line
	9200 5350 9200 5250
$Comp
L Br:GND #PWR0134
U 1 1 5DB1C89F
P 9200 5400
F 0 "#PWR0134" H 9200 5150 50  0001 C CNN
F 1 "GND" H 9205 5227 50  0000 C CNN
F 2 "" H 9200 5400 50  0000 C CNN
F 3 "" H 9200 5400 50  0000 C CNN
	1    9200 5400
	-1   0    0    -1  
$EndComp
Wire Wire Line
	9200 5400 9200 5350
Connection ~ 9200 5350
Text Label 9450 5000 0    50   ~ 0
POT4
Wire Wire Line
	9500 5050 9500 5000
Wire Wire Line
	9500 5000 9400 5000
$Comp
L Br:GND #PWR0135
U 1 1 5DB1C8B1
P 9500 5400
F 0 "#PWR0135" H 9500 5150 50  0001 C CNN
F 1 "GND" H 9505 5227 50  0000 C CNN
F 2 "" H 9500 5400 50  0000 C CNN
F 3 "" H 9500 5400 50  0000 C CNN
	1    9500 5400
	-1   0    0    -1  
$EndComp
Wire Wire Line
	9500 5400 9500 5350
Wire Wire Line
	9500 5000 9650 5000
Connection ~ 9500 5000
Text Label 7500 4650 0    50   ~ 0
POT_ENABLE
Wire Wire Line
	9200 4650 9200 4700
Wire Wire Line
	8250 3300 9150 3300
Wire Wire Line
	9150 3300 9150 3350
Connection ~ 8250 3300
$Comp
L Br:C_1N_0603_10%_50V_X7R C5
U 1 1 5DAFE132
P 7600 3850
F 0 "C5" H 7715 3896 50  0000 L CNN
F 1 "1nF" H 7715 3805 50  0000 L CNN
F 2 "Br:C_0603" V 7530 3850 50  0001 C CNN
F 3 "" V 7700 3750 50  0000 C CNN
F 4 "C1588" H 7715 3759 50  0001 L CNN "LCSC"
	1    7600 3850
	1    0    0    -1  
$EndComp
$Comp
L Br:C_1N_0603_10%_50V_X7R C6
U 1 1 5DAFE24C
P 8550 3850
F 0 "C6" H 8665 3896 50  0000 L CNN
F 1 "1nF" H 8665 3805 50  0000 L CNN
F 2 "Br:C_0603" V 8480 3850 50  0001 C CNN
F 3 "" V 8650 3750 50  0000 C CNN
F 4 "C1588" H 8665 3759 50  0001 L CNN "LCSC"
	1    8550 3850
	1    0    0    -1  
$EndComp
$Comp
L Br:C_1N_0603_10%_50V_X7R C8
U 1 1 5DAFE2D6
P 9450 3850
F 0 "C8" H 9565 3896 50  0000 L CNN
F 1 "1nF" H 9565 3805 50  0000 L CNN
F 2 "Br:C_0603" V 9380 3850 50  0001 C CNN
F 3 "" V 9550 3750 50  0000 C CNN
F 4 "C1588" H 9565 3759 50  0001 L CNN "LCSC"
	1    9450 3850
	1    0    0    -1  
$EndComp
$Comp
L Br:C_1N_0603_10%_50V_X7R C9
U 1 1 5DAFE44A
P 9500 5200
F 0 "C9" H 9615 5246 50  0000 L CNN
F 1 "1nF" H 9615 5155 50  0000 L CNN
F 2 "Br:C_0603" V 9430 5200 50  0001 C CNN
F 3 "" V 9600 5100 50  0000 C CNN
F 4 "C1588" H 9615 5109 50  0001 L CNN "LCSC"
	1    9500 5200
	1    0    0    -1  
$EndComp
Wire Wire Line
	8150 5100 8100 5100
Wire Wire Line
	8600 5400 8600 5350
$Comp
L Br:GND #PWR0133
U 1 1 5DB1C88C
P 8600 5400
F 0 "#PWR0133" H 8600 5150 50  0001 C CNN
F 1 "GND" H 8605 5227 50  0000 C CNN
F 2 "" H 8600 5400 50  0000 C CNN
F 3 "" H 8600 5400 50  0000 C CNN
	1    8600 5400
	-1   0    0    -1  
$EndComp
$Comp
L Br:GND #PWR0132
U 1 1 5DB1C87A
P 8300 5400
F 0 "#PWR0132" H 8300 5150 50  0001 C CNN
F 1 "GND" H 8305 5227 50  0000 C CNN
F 2 "" H 8300 5400 50  0000 C CNN
F 3 "" H 8300 5400 50  0000 C CNN
	1    8300 5400
	-1   0    0    -1  
$EndComp
Wire Wire Line
	8300 5400 8300 5350
Wire Wire Line
	8300 5350 8300 5250
Connection ~ 8300 5350
Wire Wire Line
	8100 5350 8300 5350
Wire Wire Line
	8100 5100 8100 5350
Wire Wire Line
	8300 4650 9200 4650
Wire Wire Line
	7500 4650 8300 4650
Connection ~ 8300 4650
Wire Wire Line
	8300 4700 8300 4650
Wire Wire Line
	8600 5000 8750 5000
Wire Wire Line
	8600 5000 8500 5000
Connection ~ 8600 5000
Wire Wire Line
	8600 5050 8600 5000
Text Label 8550 5000 0    50   ~ 0
POT3
$Comp
L Br:C_1N_0603_10%_50V_X7R C7
U 1 1 5DAFE3EE
P 8600 5200
F 0 "C7" H 8715 5246 50  0000 L CNN
F 1 "1nF" H 8715 5155 50  0000 L CNN
F 2 "Br:C_0603" V 8530 5200 50  0001 C CNN
F 3 "" V 8700 5100 50  0000 C CNN
F 4 "C1588" H 8715 5109 50  0001 L CNN "LCSC"
	1    8600 5200
	1    0    0    -1  
$EndComp
$Comp
L Br:ME_POTENCIOMETER_10K_RK09K1130081 U4
U 1 1 5DB1C870
P 8300 5000
F 0 "U4" H 8200 4850 50  0000 R CNN
F 1 "ME_POTENCIOMETER_10K_RK09K1130081" H 8491 4980 50  0001 L CNN
F 2 "Br:ME_POTENCIOMETER_10K_RK09K1130081" H 8300 5000 50  0001 C CNN
F 3 "" H 8300 5000 50  0001 C CNN
	1    8300 5000
	-1   0    0    -1  
$EndComp
NoConn ~ 6600 5250
$Comp
L Br:D_SCHOTTKY_B5819W D1
U 1 1 5F223E06
P 5550 1800
F 0 "D1" V 5550 1722 50  0000 R CNN
F 1 "D_SCHOTTKY_B5819W" V 5505 1722 50  0001 R CNN
F 2 "Br:D_SOD-123" H 5550 1800 50  0001 C CNN
F 3 "" H 5550 1900 50  0000 C CNN
F 4 "C8598" H 5650 2000 50  0001 C CNN "LCSC"
	1    5550 1800
	0    -1   -1   0   
$EndComp
Wire Wire Line
	5550 1950 5950 1950
$EndSCHEMATC
