(kicad_pcb (version 20171130) (host pcbnew "(5.0.0)")

  (general
    (thickness 1.6)
    (drawings 25)
    (tracks 275)
    (zones 0)
    (modules 27)
    (nets 31)
  )

  (page A4)
  (layers
    (0 F.Cu signal)
    (31 B.Cu signal)
    (32 B.Adhes user)
    (33 F.Adhes user)
    (34 B.Paste user)
    (35 F.Paste user)
    (36 B.SilkS user)
    (37 F.SilkS user)
    (38 B.Mask user)
    (39 F.Mask user)
    (40 Dwgs.User user)
    (41 Cmts.User user)
    (42 Eco1.User user)
    (43 Eco2.User user)
    (44 Edge.Cuts user)
    (45 Margin user)
    (46 B.CrtYd user)
    (47 F.CrtYd user)
    (48 B.Fab user)
    (49 F.Fab user hide)
  )

  (setup
    (last_trace_width 0.25)
    (user_trace_width 1.5)
    (user_trace_width 2)
    (trace_clearance 0.2)
    (zone_clearance 0.508)
    (zone_45_only no)
    (trace_min 0.2)
    (segment_width 0.2)
    (edge_width 0.15)
    (via_size 0.8)
    (via_drill 0.4)
    (via_min_size 0.4)
    (via_min_drill 0.3)
    (uvia_size 0.3)
    (uvia_drill 0.1)
    (uvias_allowed no)
    (uvia_min_size 0.2)
    (uvia_min_drill 0.1)
    (pcb_text_width 0.3)
    (pcb_text_size 1.5 1.5)
    (mod_edge_width 0.15)
    (mod_text_size 1 1)
    (mod_text_width 0.15)
    (pad_size 1.524 1.524)
    (pad_drill 0.762)
    (pad_to_mask_clearance 0.2)
    (aux_axis_origin 0 0)
    (visible_elements 7FFFFFFF)
    (pcbplotparams
      (layerselection 0x010e0_ffffffff)
      (usegerberextensions false)
      (usegerberattributes false)
      (usegerberadvancedattributes false)
      (creategerberjobfile false)
      (excludeedgelayer true)
      (linewidth 0.100000)
      (plotframeref false)
      (viasonmask false)
      (mode 1)
      (useauxorigin false)
      (hpglpennumber 1)
      (hpglpenspeed 20)
      (hpglpendiameter 15.000000)
      (psnegative false)
      (psa4output false)
      (plotreference true)
      (plotvalue true)
      (plotinvisibletext false)
      (padsonsilk false)
      (subtractmaskfromsilk false)
      (outputformat 1)
      (mirror false)
      (drillshape 0)
      (scaleselection 1)
      (outputdirectory "FabOutput/"))
  )

  (net 0 "")
  (net 1 12V)
  (net 2 /SPARE)
  (net 3 GND)
  (net 4 5V)
  (net 5 "Net-(H1-Pad1)")
  (net 6 "Net-(H2-Pad1)")
  (net 7 "Net-(H3-Pad1)")
  (net 8 "Net-(H4-Pad1)")
  (net 9 /UART_RX)
  (net 10 /UART_TX)
  (net 11 /SWIM)
  (net 12 /NRST)
  (net 13 "Net-(U1-Pad5)")
  (net 14 "Net-(U1-Pad6)")
  (net 15 3V3)
  (net 16 "Net-(U1-Pad10)")
  (net 17 "Net-(U1-Pad17)")
  (net 18 "Net-(U1-Pad18)")
  (net 19 "Net-(U1-Pad19)")
  (net 20 "Net-(U1-Pad20)")
  (net 21 /5V_In)
  (net 22 /CPU_TX)
  (net 23 /CPU_RX)
  (net 24 "Net-(U1-Pad9)")
  (net 25 /POT4)
  (net 26 /POT3)
  (net 27 /POT2)
  (net 28 /POT1)
  (net 29 /POT_ENABLE)
  (net 30 "Net-(U1-Pad11)")

  (net_class Default "This is the default net class."
    (clearance 0.2)
    (trace_width 0.25)
    (via_dia 0.8)
    (via_drill 0.4)
    (uvia_dia 0.3)
    (uvia_drill 0.1)
    (add_net /5V_In)
    (add_net /CPU_RX)
    (add_net /CPU_TX)
    (add_net /NRST)
    (add_net /POT1)
    (add_net /POT2)
    (add_net /POT3)
    (add_net /POT4)
    (add_net /POT_ENABLE)
    (add_net /SPARE)
    (add_net /SWIM)
    (add_net /UART_RX)
    (add_net /UART_TX)
    (add_net 12V)
    (add_net 3V3)
    (add_net 5V)
    (add_net GND)
    (add_net "Net-(H1-Pad1)")
    (add_net "Net-(H2-Pad1)")
    (add_net "Net-(H3-Pad1)")
    (add_net "Net-(H4-Pad1)")
    (add_net "Net-(U1-Pad10)")
    (add_net "Net-(U1-Pad11)")
    (add_net "Net-(U1-Pad17)")
    (add_net "Net-(U1-Pad18)")
    (add_net "Net-(U1-Pad19)")
    (add_net "Net-(U1-Pad20)")
    (add_net "Net-(U1-Pad5)")
    (add_net "Net-(U1-Pad6)")
    (add_net "Net-(U1-Pad9)")
  )

  (module Br:D_SOD-123 (layer F.Cu) (tedit 58645DC7) (tstamp 5F21C956)
    (at 139.5 105.5 180)
    (descr SOD-123)
    (tags SOD-123)
    (path /5F223E06)
    (attr smd)
    (fp_text reference D1 (at 0 -2 180) (layer F.SilkS)
      (effects (font (size 1 1) (thickness 0.15)))
    )
    (fp_text value D_SCHOTTKY_B5819W (at 0 2.1 180) (layer F.Fab)
      (effects (font (size 1 1) (thickness 0.15)))
    )
    (fp_text user %R (at 0 -2 180) (layer F.Fab)
      (effects (font (size 1 1) (thickness 0.15)))
    )
    (fp_line (start -2.25 -1) (end -2.25 1) (layer F.SilkS) (width 0.12))
    (fp_line (start 0.25 0) (end 0.75 0) (layer F.Fab) (width 0.1))
    (fp_line (start 0.25 0.4) (end -0.35 0) (layer F.Fab) (width 0.1))
    (fp_line (start 0.25 -0.4) (end 0.25 0.4) (layer F.Fab) (width 0.1))
    (fp_line (start -0.35 0) (end 0.25 -0.4) (layer F.Fab) (width 0.1))
    (fp_line (start -0.35 0) (end -0.35 0.55) (layer F.Fab) (width 0.1))
    (fp_line (start -0.35 0) (end -0.35 -0.55) (layer F.Fab) (width 0.1))
    (fp_line (start -0.75 0) (end -0.35 0) (layer F.Fab) (width 0.1))
    (fp_line (start -1.4 0.9) (end -1.4 -0.9) (layer F.Fab) (width 0.1))
    (fp_line (start 1.4 0.9) (end -1.4 0.9) (layer F.Fab) (width 0.1))
    (fp_line (start 1.4 -0.9) (end 1.4 0.9) (layer F.Fab) (width 0.1))
    (fp_line (start -1.4 -0.9) (end 1.4 -0.9) (layer F.Fab) (width 0.1))
    (fp_line (start -2.35 -1.15) (end 2.35 -1.15) (layer F.CrtYd) (width 0.05))
    (fp_line (start 2.35 -1.15) (end 2.35 1.15) (layer F.CrtYd) (width 0.05))
    (fp_line (start 2.35 1.15) (end -2.35 1.15) (layer F.CrtYd) (width 0.05))
    (fp_line (start -2.35 -1.15) (end -2.35 1.15) (layer F.CrtYd) (width 0.05))
    (fp_line (start -2.25 1) (end 1.65 1) (layer F.SilkS) (width 0.12))
    (fp_line (start -2.25 -1) (end 1.65 -1) (layer F.SilkS) (width 0.12))
    (pad 1 smd rect (at -1.65 0 180) (size 0.9 1.2) (layers F.Cu F.Paste F.Mask)
      (net 21 /5V_In))
    (pad 2 smd rect (at 1.65 0 180) (size 0.9 1.2) (layers F.Cu F.Paste F.Mask)
      (net 4 5V))
    (model ${KISYS3DMOD}/Diode_SMD.3dshapes/D_SOD-123.wrl
      (at (xyz 0 0 0))
      (scale (xyz 1 1 1))
      (rotate (xyz 0 0 0))
    )
  )

  (module Br:C_0603 (layer F.Cu) (tedit 5415D631) (tstamp 5DAF7FB4)
    (at 152 92 90)
    (descr "Capacitor SMD 0603, reflow soldering, AVX (see smccp.pdf)")
    (tags "capacitor 0603")
    (path /5DAFE3EE)
    (attr smd)
    (fp_text reference C7 (at 3 0 90) (layer F.SilkS)
      (effects (font (size 1 1) (thickness 0.15)))
    )
    (fp_text value 1nF (at 0.1 1.5 90) (layer F.Fab)
      (effects (font (size 1 1) (thickness 0.15)))
    )
    (fp_line (start 0.35 0.6) (end -0.35 0.6) (layer F.SilkS) (width 0.15))
    (fp_line (start -0.35 -0.6) (end 0.35 -0.6) (layer F.SilkS) (width 0.15))
    (fp_line (start 1.45 -0.75) (end 1.45 0.75) (layer F.CrtYd) (width 0.05))
    (fp_line (start -1.45 -0.75) (end -1.45 0.75) (layer F.CrtYd) (width 0.05))
    (fp_line (start -1.45 0.75) (end 1.45 0.75) (layer F.CrtYd) (width 0.05))
    (fp_line (start -1.45 -0.75) (end 1.45 -0.75) (layer F.CrtYd) (width 0.05))
    (pad 2 smd rect (at 0.75 0 90) (size 0.8 0.75) (layers F.Cu F.Paste F.Mask)
      (net 3 GND))
    (pad 1 smd rect (at -0.75 0 90) (size 0.8 0.75) (layers F.Cu F.Paste F.Mask)
      (net 26 /POT3))
    (model capacitors.3dshapes/C_0603.wrl
      (at (xyz 0 0 0))
      (scale (xyz 1 1 1))
      (rotate (xyz 0 0 0))
    )
  )

  (module Br:ME_POTENCIOMETER_10K_RK09K1130081 (layer F.Cu) (tedit 5DAF5CDC) (tstamp 5DAF7F4B)
    (at 162 89 270)
    (path /5DB1C870)
    (fp_text reference U4 (at -5.18 7.822) (layer F.SilkS)
      (effects (font (size 1 1) (thickness 0.15)))
    )
    (fp_text value ME_POTENCIOMETER_10K_RK09K1130081 (at 0 -7 270) (layer F.Fab)
      (effects (font (size 1 1) (thickness 0.15)))
    )
    (fp_line (start -5.5 5.5) (end -5.5 -5.5) (layer F.SilkS) (width 0.15))
    (fp_line (start 5.5 5.5) (end -5.5 5.5) (layer F.SilkS) (width 0.15))
    (fp_line (start 5.5 -5.5) (end 5.5 5.5) (layer F.SilkS) (width 0.15))
    (fp_line (start -5.5 -5.5) (end 5.5 -5.5) (layer F.SilkS) (width 0.15))
    (pad 3 thru_hole circle (at 2.5 7 270) (size 2 2) (drill 1.2) (layers *.Cu *.Mask)
      (net 3 GND))
    (pad 2 thru_hole circle (at 0 7 270) (size 2 2) (drill 1.2) (layers *.Cu *.Mask)
      (net 26 /POT3))
    (pad 1 thru_hole circle (at -2.5 7 270) (size 2 2) (drill 1.2) (layers *.Cu *.Mask)
      (net 29 /POT_ENABLE))
    (pad 4 thru_hole circle (at 4.4 0 270) (size 2.7 2.7) (drill 2.2) (layers *.Cu *.Mask)
      (net 3 GND))
    (pad 4 thru_hole circle (at -4.4 0 270) (size 2.7 2.7) (drill 2.2) (layers *.Cu *.Mask)
      (net 3 GND))
  )

  (module Br:CN_P_01x04_1.27MM_STRAIGHT_ZL319-4P (layer F.Cu) (tedit 59FED6E3) (tstamp 5DAF800A)
    (at 149.5 110 180)
    (descr "Through hole straight pin header, 1x04, 1.27mm pitch, single row")
    (tags "Through hole pin header THT 1x04 1.27mm single row")
    (path /5D9D92B3)
    (fp_text reference J2 (at 0 -1.695 180) (layer F.SilkS)
      (effects (font (size 1 1) (thickness 0.15)))
    )
    (fp_text value CN_P_01x04_1.27MM_STRAIGHT_ZL319-4P (at 0 5.505 180) (layer F.Fab)
      (effects (font (size 1 1) (thickness 0.15)))
    )
    (fp_text user %R (at 0 1.905 270) (layer F.Fab)
      (effects (font (size 1 1) (thickness 0.15)))
    )
    (fp_line (start 1.55 -1.15) (end -1.55 -1.15) (layer F.CrtYd) (width 0.05))
    (fp_line (start 1.55 4.95) (end 1.55 -1.15) (layer F.CrtYd) (width 0.05))
    (fp_line (start -1.55 4.95) (end 1.55 4.95) (layer F.CrtYd) (width 0.05))
    (fp_line (start -1.55 -1.15) (end -1.55 4.95) (layer F.CrtYd) (width 0.05))
    (fp_line (start -1.11 -0.76) (end 0 -0.76) (layer F.SilkS) (width 0.12))
    (fp_line (start -1.11 0) (end -1.11 -0.76) (layer F.SilkS) (width 0.12))
    (fp_line (start 0.563471 0.76) (end 1.11 0.76) (layer F.SilkS) (width 0.12))
    (fp_line (start -1.11 0.76) (end -0.563471 0.76) (layer F.SilkS) (width 0.12))
    (fp_line (start 1.11 0.76) (end 1.11 4.505) (layer F.SilkS) (width 0.12))
    (fp_line (start -1.11 0.76) (end -1.11 4.505) (layer F.SilkS) (width 0.12))
    (fp_line (start 0.30753 4.505) (end 1.11 4.505) (layer F.SilkS) (width 0.12))
    (fp_line (start -1.11 4.505) (end -0.30753 4.505) (layer F.SilkS) (width 0.12))
    (fp_line (start -1.05 -0.11) (end -0.525 -0.635) (layer F.Fab) (width 0.1))
    (fp_line (start -1.05 4.445) (end -1.05 -0.11) (layer F.Fab) (width 0.1))
    (fp_line (start 1.05 4.445) (end -1.05 4.445) (layer F.Fab) (width 0.1))
    (fp_line (start 1.05 -0.635) (end 1.05 4.445) (layer F.Fab) (width 0.1))
    (fp_line (start -0.525 -0.635) (end 1.05 -0.635) (layer F.Fab) (width 0.1))
    (pad 4 thru_hole oval (at 0 3.81 180) (size 1 1) (drill 0.65) (layers *.Cu *.Mask)
      (net 15 3V3))
    (pad 3 thru_hole oval (at 0 2.54 180) (size 1 1) (drill 0.65) (layers *.Cu *.Mask)
      (net 11 /SWIM))
    (pad 2 thru_hole oval (at 0 1.27 180) (size 1 1) (drill 0.65) (layers *.Cu *.Mask)
      (net 3 GND))
    (pad 1 thru_hole rect (at 0 0 180) (size 1 1) (drill 0.65) (layers *.Cu *.Mask)
      (net 12 /NRST))
    (model ${KISYS3DMOD}/Connector_PinHeader_1.27mm.3dshapes/CN_P_01x04_1.27MM_STRAIGHT_ZL319-4P.wrl
      (at (xyz 0 0 0))
      (scale (xyz 1 1 1))
      (rotate (xyz 0 0 0))
    )
  )

  (module Br:C_0603 (layer F.Cu) (tedit 5415D631) (tstamp 5DAF7FF0)
    (at 146.5 102 90)
    (descr "Capacitor SMD 0603, reflow soldering, AVX (see smccp.pdf)")
    (tags "capacitor 0603")
    (path /5D9DE095)
    (attr smd)
    (fp_text reference C2 (at 3.448 0.058 90) (layer F.SilkS)
      (effects (font (size 1 1) (thickness 0.15)))
    )
    (fp_text value 100nF (at 0.1 1.5 90) (layer F.Fab)
      (effects (font (size 1 1) (thickness 0.15)))
    )
    (fp_line (start 0.35 0.6) (end -0.35 0.6) (layer F.SilkS) (width 0.15))
    (fp_line (start -0.35 -0.6) (end 0.35 -0.6) (layer F.SilkS) (width 0.15))
    (fp_line (start 1.45 -0.75) (end 1.45 0.75) (layer F.CrtYd) (width 0.05))
    (fp_line (start -1.45 -0.75) (end -1.45 0.75) (layer F.CrtYd) (width 0.05))
    (fp_line (start -1.45 0.75) (end 1.45 0.75) (layer F.CrtYd) (width 0.05))
    (fp_line (start -1.45 -0.75) (end 1.45 -0.75) (layer F.CrtYd) (width 0.05))
    (pad 2 smd rect (at 0.75 0 90) (size 0.8 0.75) (layers F.Cu F.Paste F.Mask)
      (net 3 GND))
    (pad 1 smd rect (at -0.75 0 90) (size 0.8 0.75) (layers F.Cu F.Paste F.Mask)
      (net 15 3V3))
    (model capacitors.3dshapes/C_0603.wrl
      (at (xyz 0 0 0))
      (scale (xyz 1 1 1))
      (rotate (xyz 0 0 0))
    )
  )

  (module Br:C_0603 (layer F.Cu) (tedit 5415D631) (tstamp 5DAF7FE4)
    (at 145 102 90)
    (descr "Capacitor SMD 0603, reflow soldering, AVX (see smccp.pdf)")
    (tags "capacitor 0603")
    (path /5D9EACB1)
    (attr smd)
    (fp_text reference C3 (at 3.448 0 90) (layer F.SilkS)
      (effects (font (size 1 1) (thickness 0.15)))
    )
    (fp_text value 1uF (at 0.1 1.5 90) (layer F.Fab)
      (effects (font (size 1 1) (thickness 0.15)))
    )
    (fp_line (start 0.35 0.6) (end -0.35 0.6) (layer F.SilkS) (width 0.15))
    (fp_line (start -0.35 -0.6) (end 0.35 -0.6) (layer F.SilkS) (width 0.15))
    (fp_line (start 1.45 -0.75) (end 1.45 0.75) (layer F.CrtYd) (width 0.05))
    (fp_line (start -1.45 -0.75) (end -1.45 0.75) (layer F.CrtYd) (width 0.05))
    (fp_line (start -1.45 0.75) (end 1.45 0.75) (layer F.CrtYd) (width 0.05))
    (fp_line (start -1.45 -0.75) (end 1.45 -0.75) (layer F.CrtYd) (width 0.05))
    (pad 2 smd rect (at 0.75 0 90) (size 0.8 0.75) (layers F.Cu F.Paste F.Mask)
      (net 3 GND))
    (pad 1 smd rect (at -0.75 0 90) (size 0.8 0.75) (layers F.Cu F.Paste F.Mask)
      (net 21 /5V_In))
    (model capacitors.3dshapes/C_0603.wrl
      (at (xyz 0 0 0))
      (scale (xyz 1 1 1))
      (rotate (xyz 0 0 0))
    )
  )

  (module Br:C_0603 (layer F.Cu) (tedit 5415D631) (tstamp 5DAF7FD8)
    (at 143.5 102 90)
    (descr "Capacitor SMD 0603, reflow soldering, AVX (see smccp.pdf)")
    (tags "capacitor 0603")
    (path /5D9C8EED)
    (attr smd)
    (fp_text reference C4 (at 3.448 0.01 90) (layer F.SilkS)
      (effects (font (size 1 1) (thickness 0.15)))
    )
    (fp_text value 1uF (at 0.1 1.5 90) (layer F.Fab)
      (effects (font (size 1 1) (thickness 0.15)))
    )
    (fp_line (start 0.35 0.6) (end -0.35 0.6) (layer F.SilkS) (width 0.15))
    (fp_line (start -0.35 -0.6) (end 0.35 -0.6) (layer F.SilkS) (width 0.15))
    (fp_line (start 1.45 -0.75) (end 1.45 0.75) (layer F.CrtYd) (width 0.05))
    (fp_line (start -1.45 -0.75) (end -1.45 0.75) (layer F.CrtYd) (width 0.05))
    (fp_line (start -1.45 0.75) (end 1.45 0.75) (layer F.CrtYd) (width 0.05))
    (fp_line (start -1.45 -0.75) (end 1.45 -0.75) (layer F.CrtYd) (width 0.05))
    (pad 2 smd rect (at 0.75 0 90) (size 0.8 0.75) (layers F.Cu F.Paste F.Mask)
      (net 3 GND))
    (pad 1 smd rect (at -0.75 0 90) (size 0.8 0.75) (layers F.Cu F.Paste F.Mask)
      (net 15 3V3))
    (model capacitors.3dshapes/C_0603.wrl
      (at (xyz 0 0 0))
      (scale (xyz 1 1 1))
      (rotate (xyz 0 0 0))
    )
  )

  (module Br:C_0603 (layer F.Cu) (tedit 5415D631) (tstamp 5DAF7FCC)
    (at 158.4 102.9)
    (descr "Capacitor SMD 0603, reflow soldering, AVX (see smccp.pdf)")
    (tags "capacitor 0603")
    (path /5DAFE132)
    (attr smd)
    (fp_text reference C5 (at 0.012 1.648) (layer F.SilkS)
      (effects (font (size 1 1) (thickness 0.15)))
    )
    (fp_text value 1nF (at 0.1 1.5) (layer F.Fab)
      (effects (font (size 1 1) (thickness 0.15)))
    )
    (fp_line (start 0.35 0.6) (end -0.35 0.6) (layer F.SilkS) (width 0.15))
    (fp_line (start -0.35 -0.6) (end 0.35 -0.6) (layer F.SilkS) (width 0.15))
    (fp_line (start 1.45 -0.75) (end 1.45 0.75) (layer F.CrtYd) (width 0.05))
    (fp_line (start -1.45 -0.75) (end -1.45 0.75) (layer F.CrtYd) (width 0.05))
    (fp_line (start -1.45 0.75) (end 1.45 0.75) (layer F.CrtYd) (width 0.05))
    (fp_line (start -1.45 -0.75) (end 1.45 -0.75) (layer F.CrtYd) (width 0.05))
    (pad 2 smd rect (at 0.75 0) (size 0.8 0.75) (layers F.Cu F.Paste F.Mask)
      (net 3 GND))
    (pad 1 smd rect (at -0.75 0) (size 0.8 0.75) (layers F.Cu F.Paste F.Mask)
      (net 29 /POT_ENABLE))
    (model capacitors.3dshapes/C_0603.wrl
      (at (xyz 0 0 0))
      (scale (xyz 1 1 1))
      (rotate (xyz 0 0 0))
    )
  )

  (module Br:C_0603 (layer F.Cu) (tedit 5415D631) (tstamp 5DAF7FC0)
    (at 150.5 92 90)
    (descr "Capacitor SMD 0603, reflow soldering, AVX (see smccp.pdf)")
    (tags "capacitor 0603")
    (path /5DAFE24C)
    (attr smd)
    (fp_text reference C6 (at 3 0 90) (layer F.SilkS)
      (effects (font (size 1 1) (thickness 0.15)))
    )
    (fp_text value 1nF (at 0.1 1.5 90) (layer F.Fab)
      (effects (font (size 1 1) (thickness 0.15)))
    )
    (fp_line (start 0.35 0.6) (end -0.35 0.6) (layer F.SilkS) (width 0.15))
    (fp_line (start -0.35 -0.6) (end 0.35 -0.6) (layer F.SilkS) (width 0.15))
    (fp_line (start 1.45 -0.75) (end 1.45 0.75) (layer F.CrtYd) (width 0.05))
    (fp_line (start -1.45 -0.75) (end -1.45 0.75) (layer F.CrtYd) (width 0.05))
    (fp_line (start -1.45 0.75) (end 1.45 0.75) (layer F.CrtYd) (width 0.05))
    (fp_line (start -1.45 -0.75) (end 1.45 -0.75) (layer F.CrtYd) (width 0.05))
    (pad 2 smd rect (at 0.75 0 90) (size 0.8 0.75) (layers F.Cu F.Paste F.Mask)
      (net 3 GND))
    (pad 1 smd rect (at -0.75 0 90) (size 0.8 0.75) (layers F.Cu F.Paste F.Mask)
      (net 28 /POT1))
    (model capacitors.3dshapes/C_0603.wrl
      (at (xyz 0 0 0))
      (scale (xyz 1 1 1))
      (rotate (xyz 0 0 0))
    )
  )

  (module Br:C_0603 (layer F.Cu) (tedit 5415D631) (tstamp 5DAF7FA8)
    (at 153.5 107 270)
    (descr "Capacitor SMD 0603, reflow soldering, AVX (see smccp.pdf)")
    (tags "capacitor 0603")
    (path /5DAFE2D6)
    (attr smd)
    (fp_text reference C8 (at 3 0 270) (layer F.SilkS)
      (effects (font (size 1 1) (thickness 0.15)))
    )
    (fp_text value 1nF (at 0.1 1.5 270) (layer F.Fab)
      (effects (font (size 1 1) (thickness 0.15)))
    )
    (fp_line (start 0.35 0.6) (end -0.35 0.6) (layer F.SilkS) (width 0.15))
    (fp_line (start -0.35 -0.6) (end 0.35 -0.6) (layer F.SilkS) (width 0.15))
    (fp_line (start 1.45 -0.75) (end 1.45 0.75) (layer F.CrtYd) (width 0.05))
    (fp_line (start -1.45 -0.75) (end -1.45 0.75) (layer F.CrtYd) (width 0.05))
    (fp_line (start -1.45 0.75) (end 1.45 0.75) (layer F.CrtYd) (width 0.05))
    (fp_line (start -1.45 -0.75) (end 1.45 -0.75) (layer F.CrtYd) (width 0.05))
    (pad 2 smd rect (at 0.75 0 270) (size 0.8 0.75) (layers F.Cu F.Paste F.Mask)
      (net 3 GND))
    (pad 1 smd rect (at -0.75 0 270) (size 0.8 0.75) (layers F.Cu F.Paste F.Mask)
      (net 27 /POT2))
    (model capacitors.3dshapes/C_0603.wrl
      (at (xyz 0 0 0))
      (scale (xyz 1 1 1))
      (rotate (xyz 0 0 0))
    )
  )

  (module Br:C_0603 (layer F.Cu) (tedit 5415D631) (tstamp 5DAF7F9C)
    (at 155 107 270)
    (descr "Capacitor SMD 0603, reflow soldering, AVX (see smccp.pdf)")
    (tags "capacitor 0603")
    (path /5DAFE44A)
    (attr smd)
    (fp_text reference C9 (at 3 0 270) (layer F.SilkS)
      (effects (font (size 1 1) (thickness 0.15)))
    )
    (fp_text value 1nF (at 0.1 1.5 270) (layer F.Fab)
      (effects (font (size 1 1) (thickness 0.15)))
    )
    (fp_line (start 0.35 0.6) (end -0.35 0.6) (layer F.SilkS) (width 0.15))
    (fp_line (start -0.35 -0.6) (end 0.35 -0.6) (layer F.SilkS) (width 0.15))
    (fp_line (start 1.45 -0.75) (end 1.45 0.75) (layer F.CrtYd) (width 0.05))
    (fp_line (start -1.45 -0.75) (end -1.45 0.75) (layer F.CrtYd) (width 0.05))
    (fp_line (start -1.45 0.75) (end 1.45 0.75) (layer F.CrtYd) (width 0.05))
    (fp_line (start -1.45 -0.75) (end 1.45 -0.75) (layer F.CrtYd) (width 0.05))
    (pad 2 smd rect (at 0.75 0 270) (size 0.8 0.75) (layers F.Cu F.Paste F.Mask)
      (net 3 GND))
    (pad 1 smd rect (at -0.75 0 270) (size 0.8 0.75) (layers F.Cu F.Paste F.Mask)
      (net 25 /POT4))
    (model capacitors.3dshapes/C_0603.wrl
      (at (xyz 0 0 0))
      (scale (xyz 1 1 1))
      (rotate (xyz 0 0 0))
    )
  )

  (module Br:C_0603 (layer F.Cu) (tedit 5415D631) (tstamp 5DAF7F84)
    (at 152 107 270)
    (descr "Capacitor SMD 0603, reflow soldering, AVX (see smccp.pdf)")
    (tags "capacitor 0603")
    (path /5D9E1885)
    (attr smd)
    (fp_text reference C1 (at 3 0 270) (layer F.SilkS)
      (effects (font (size 1 1) (thickness 0.15)))
    )
    (fp_text value 100nF (at 0.1 1.5 270) (layer F.Fab)
      (effects (font (size 1 1) (thickness 0.15)))
    )
    (fp_line (start 0.35 0.6) (end -0.35 0.6) (layer F.SilkS) (width 0.15))
    (fp_line (start -0.35 -0.6) (end 0.35 -0.6) (layer F.SilkS) (width 0.15))
    (fp_line (start 1.45 -0.75) (end 1.45 0.75) (layer F.CrtYd) (width 0.05))
    (fp_line (start -1.45 -0.75) (end -1.45 0.75) (layer F.CrtYd) (width 0.05))
    (fp_line (start -1.45 0.75) (end 1.45 0.75) (layer F.CrtYd) (width 0.05))
    (fp_line (start -1.45 -0.75) (end 1.45 -0.75) (layer F.CrtYd) (width 0.05))
    (pad 2 smd rect (at 0.75 0 270) (size 0.8 0.75) (layers F.Cu F.Paste F.Mask)
      (net 3 GND))
    (pad 1 smd rect (at -0.75 0 270) (size 0.8 0.75) (layers F.Cu F.Paste F.Mask)
      (net 12 /NRST))
    (model capacitors.3dshapes/C_0603.wrl
      (at (xyz 0 0 0))
      (scale (xyz 1 1 1))
      (rotate (xyz 0 0 0))
    )
  )

  (module Br:ME_POTENCIOMETER_10K_RK09K1130081 (layer F.Cu) (tedit 5DAF5CDC) (tstamp 5DAF7F58)
    (at 136 89 270)
    (path /5DAFFD16)
    (fp_text reference U3 (at -4.926 -8.018) (layer F.SilkS)
      (effects (font (size 1 1) (thickness 0.15)))
    )
    (fp_text value ME_POTENCIOMETER_10K_RK09K1130081 (at 0 -7 270) (layer F.Fab)
      (effects (font (size 1 1) (thickness 0.15)))
    )
    (fp_line (start -5.5 5.5) (end -5.5 -5.5) (layer F.SilkS) (width 0.15))
    (fp_line (start 5.5 5.5) (end -5.5 5.5) (layer F.SilkS) (width 0.15))
    (fp_line (start 5.5 -5.5) (end 5.5 5.5) (layer F.SilkS) (width 0.15))
    (fp_line (start -5.5 -5.5) (end 5.5 -5.5) (layer F.SilkS) (width 0.15))
    (pad 3 thru_hole circle (at 2.5 7 270) (size 2 2) (drill 1.2) (layers *.Cu *.Mask)
      (net 3 GND))
    (pad 2 thru_hole circle (at 0 7 270) (size 2 2) (drill 1.2) (layers *.Cu *.Mask)
      (net 28 /POT1))
    (pad 1 thru_hole circle (at -2.5 7 270) (size 2 2) (drill 1.2) (layers *.Cu *.Mask)
      (net 29 /POT_ENABLE))
    (pad 4 thru_hole circle (at 4.4 0 270) (size 2.7 2.7) (drill 2.2) (layers *.Cu *.Mask)
      (net 3 GND))
    (pad 4 thru_hole circle (at -4.4 0 270) (size 2.7 2.7) (drill 2.2) (layers *.Cu *.Mask)
      (net 3 GND))
  )

  (module Br:ME_POTENCIOMETER_10K_RK09K1130081 (layer F.Cu) (tedit 5DAF5CDC) (tstamp 5DAF7F3E)
    (at 136 115 270)
    (path /5DB177FC)
    (fp_text reference U5 (at 4.38 -8.018) (layer F.SilkS)
      (effects (font (size 1 1) (thickness 0.15)))
    )
    (fp_text value ME_POTENCIOMETER_10K_RK09K1130081 (at 0 -7 270) (layer F.Fab)
      (effects (font (size 1 1) (thickness 0.15)))
    )
    (fp_line (start -5.5 5.5) (end -5.5 -5.5) (layer F.SilkS) (width 0.15))
    (fp_line (start 5.5 5.5) (end -5.5 5.5) (layer F.SilkS) (width 0.15))
    (fp_line (start 5.5 -5.5) (end 5.5 5.5) (layer F.SilkS) (width 0.15))
    (fp_line (start -5.5 -5.5) (end 5.5 -5.5) (layer F.SilkS) (width 0.15))
    (pad 3 thru_hole circle (at 2.5 7 270) (size 2 2) (drill 1.2) (layers *.Cu *.Mask)
      (net 3 GND))
    (pad 2 thru_hole circle (at 0 7 270) (size 2 2) (drill 1.2) (layers *.Cu *.Mask)
      (net 27 /POT2))
    (pad 1 thru_hole circle (at -2.5 7 270) (size 2 2) (drill 1.2) (layers *.Cu *.Mask)
      (net 29 /POT_ENABLE))
    (pad 4 thru_hole circle (at 4.4 0 270) (size 2.7 2.7) (drill 2.2) (layers *.Cu *.Mask)
      (net 3 GND))
    (pad 4 thru_hole circle (at -4.4 0 270) (size 2.7 2.7) (drill 2.2) (layers *.Cu *.Mask)
      (net 3 GND))
  )

  (module Br:ME_POTENCIOMETER_10K_RK09K1130081 (layer F.Cu) (tedit 5DAF5CDC) (tstamp 5DAF7F31)
    (at 162 115 270)
    (path /5DB1C895)
    (fp_text reference U6 (at 4.888 -7.926) (layer F.SilkS)
      (effects (font (size 1 1) (thickness 0.15)))
    )
    (fp_text value ME_POTENCIOMETER_10K_RK09K1130081 (at 0 -7 270) (layer F.Fab)
      (effects (font (size 1 1) (thickness 0.15)))
    )
    (fp_line (start -5.5 5.5) (end -5.5 -5.5) (layer F.SilkS) (width 0.15))
    (fp_line (start 5.5 5.5) (end -5.5 5.5) (layer F.SilkS) (width 0.15))
    (fp_line (start 5.5 -5.5) (end 5.5 5.5) (layer F.SilkS) (width 0.15))
    (fp_line (start -5.5 -5.5) (end 5.5 -5.5) (layer F.SilkS) (width 0.15))
    (pad 3 thru_hole circle (at 2.5 7 270) (size 2 2) (drill 1.2) (layers *.Cu *.Mask)
      (net 3 GND))
    (pad 2 thru_hole circle (at 0 7 270) (size 2 2) (drill 1.2) (layers *.Cu *.Mask)
      (net 25 /POT4))
    (pad 1 thru_hole circle (at -2.5 7 270) (size 2 2) (drill 1.2) (layers *.Cu *.Mask)
      (net 29 /POT_ENABLE))
    (pad 4 thru_hole circle (at 4.4 0 270) (size 2.7 2.7) (drill 2.2) (layers *.Cu *.Mask)
      (net 3 GND))
    (pad 4 thru_hole circle (at -4.4 0 270) (size 2.7 2.7) (drill 2.2) (layers *.Cu *.Mask)
      (net 3 GND))
  )

  (module Br:R_0603 (layer F.Cu) (tedit 5415D631) (tstamp 5DAF7F17)
    (at 139.5 99.5 180)
    (descr "Capacitor SMD 0603, reflow soldering, AVX (see smccp.pdf)")
    (tags "capacitor 0603")
    (path /5D9CE50E)
    (attr smd)
    (fp_text reference R1 (at 2.594 0 270) (layer F.SilkS)
      (effects (font (size 1 1) (thickness 0.15)))
    )
    (fp_text value R_1K_0603_1% (at 0.1 1.5 180) (layer F.Fab)
      (effects (font (size 1 1) (thickness 0.15)))
    )
    (fp_line (start 0.35 0.6) (end -0.35 0.6) (layer F.SilkS) (width 0.15))
    (fp_line (start -0.35 -0.6) (end 0.35 -0.6) (layer F.SilkS) (width 0.15))
    (fp_line (start 1.45 -0.75) (end 1.45 0.75) (layer F.CrtYd) (width 0.05))
    (fp_line (start -1.45 -0.75) (end -1.45 0.75) (layer F.CrtYd) (width 0.05))
    (fp_line (start -1.45 0.75) (end 1.45 0.75) (layer F.CrtYd) (width 0.05))
    (fp_line (start -1.45 -0.75) (end 1.45 -0.75) (layer F.CrtYd) (width 0.05))
    (pad 2 smd rect (at 0.75 0 180) (size 0.8 0.75) (layers F.Cu F.Paste F.Mask)
      (net 9 /UART_RX))
    (pad 1 smd rect (at -0.75 0 180) (size 0.8 0.75) (layers F.Cu F.Paste F.Mask)
      (net 23 /CPU_RX))
    (model capacitors.3dshapes/R_0603.wrl
      (at (xyz 0 0 0))
      (scale (xyz 1 1 1))
      (rotate (xyz 0 0 0))
    )
  )

  (module Br:R_0603 (layer F.Cu) (tedit 5415D631) (tstamp 5DAF7F0B)
    (at 159.5 98)
    (descr "Capacitor SMD 0603, reflow soldering, AVX (see smccp.pdf)")
    (tags "capacitor 0603")
    (path /5D9CF786)
    (attr smd)
    (fp_text reference R2 (at 2.552 0.044) (layer F.SilkS)
      (effects (font (size 1 1) (thickness 0.15)))
    )
    (fp_text value R_1K_0603_1% (at 0.1 1.5) (layer F.Fab)
      (effects (font (size 1 1) (thickness 0.15)))
    )
    (fp_line (start 0.35 0.6) (end -0.35 0.6) (layer F.SilkS) (width 0.15))
    (fp_line (start -0.35 -0.6) (end 0.35 -0.6) (layer F.SilkS) (width 0.15))
    (fp_line (start 1.45 -0.75) (end 1.45 0.75) (layer F.CrtYd) (width 0.05))
    (fp_line (start -1.45 -0.75) (end -1.45 0.75) (layer F.CrtYd) (width 0.05))
    (fp_line (start -1.45 0.75) (end 1.45 0.75) (layer F.CrtYd) (width 0.05))
    (fp_line (start -1.45 -0.75) (end 1.45 -0.75) (layer F.CrtYd) (width 0.05))
    (pad 2 smd rect (at 0.75 0) (size 0.8 0.75) (layers F.Cu F.Paste F.Mask)
      (net 10 /UART_TX))
    (pad 1 smd rect (at -0.75 0) (size 0.8 0.75) (layers F.Cu F.Paste F.Mask)
      (net 22 /CPU_TX))
    (model capacitors.3dshapes/R_0603.wrl
      (at (xyz 0 0 0))
      (scale (xyz 1 1 1))
      (rotate (xyz 0 0 0))
    )
  )

  (module Br:SOT-89-3 (layer F.Cu) (tedit 5DE42549) (tstamp 5DAF7EFF)
    (at 145 108 270)
    (descr SOT-89-3)
    (tags SOT-89-3)
    (path /5D9C8DBA)
    (attr smd)
    (fp_text reference U2 (at 3.5 0 180) (layer F.SilkS)
      (effects (font (size 1 1) (thickness 0.15)))
    )
    (fp_text value ICP_HT7533-1 (at -0.001161 -3.251509 90) (layer F.Fab)
      (effects (font (size 1 1) (thickness 0.15)))
    )
    (fp_line (start -2.928839 2.551509) (end -2.928839 -2.548491) (layer F.CrtYd) (width 0.05))
    (fp_line (start -2.928839 2.551509) (end 2.781161 2.551509) (layer F.CrtYd) (width 0.05))
    (fp_line (start 2.781161 -2.548491) (end -2.928839 -2.548491) (layer F.CrtYd) (width 0.05))
    (fp_line (start 2.781161 -2.548491) (end 2.781161 2.551509) (layer F.CrtYd) (width 0.05))
    (fp_line (start -0.578839 -2.298491) (end 1.231161 -2.298491) (layer F.Fab) (width 0.1))
    (fp_line (start -1.368839 2.301509) (end -1.368839 -1.508491) (layer F.Fab) (width 0.1))
    (fp_line (start 1.231161 2.301509) (end -1.368839 2.301509) (layer F.Fab) (width 0.1))
    (fp_line (start 1.231161 -2.298491) (end 1.231161 2.301509) (layer F.Fab) (width 0.1))
    (fp_line (start -1.368839 -1.508491) (end -0.578839 -2.298491) (layer F.Fab) (width 0.1))
    (fp_line (start 1.331161 -2.398491) (end 1.331161 -1.198491) (layer F.SilkS) (width 0.12))
    (fp_line (start -2.668839 -2.398491) (end 1.331161 -2.398491) (layer F.SilkS) (width 0.12))
    (fp_line (start 1.331161 2.401509) (end -1.368839 2.401509) (layer F.SilkS) (width 0.12))
    (fp_line (start 1.331161 1.201509) (end 1.331161 2.401509) (layer F.SilkS) (width 0.12))
    (fp_text user %R (at -0.068839 0.001509) (layer F.Fab)
      (effects (font (size 0.6 0.6) (thickness 0.09)))
    )
    (pad 2 smd rect (at 0.51 0 180) (size 1.933 3.03) (layers F.Cu F.Paste F.Mask)
      (net 21 /5V_In))
    (pad 3 smd rect (at -1.635 1.5 180) (size 0.58 1.73) (layers F.Cu F.Paste F.Mask)
      (net 15 3V3))
    (pad 2 smd rect (at -1.75 0 180) (size 0.76 1.5) (layers F.Cu F.Paste F.Mask)
      (net 21 /5V_In))
    (pad 1 smd rect (at -1.635 -1.5 180) (size 0.58 1.73) (layers F.Cu F.Paste F.Mask)
      (net 3 GND))
    (model ${KISYS3DMOD}/Package_TO_SOT_SMD.3dshapes/SOT-89-3.wrl
      (at (xyz 0 0 0))
      (scale (xyz 1 1 1))
      (rotate (xyz 0 0 0))
    )
  )

  (module Br:SOT23 (layer F.Cu) (tedit 5D9CF5AF) (tstamp 5DAF7EE7)
    (at 158.7 100.5)
    (descr "SOT23, Standard")
    (tags SOT23)
    (path /5D9CF778)
    (attr smd)
    (fp_text reference D3 (at 2.552 -0.678 90) (layer F.SilkS)
      (effects (font (size 1 1) (thickness 0.15)))
    )
    (fp_text value D_BAV99.215 (at 2.29751 0.011692 90) (layer F.Fab)
      (effects (font (size 1 1) (thickness 0.15)))
    )
    (fp_line (start -0.65273 -1.488128) (end 0.04831 -1.488128) (layer F.SilkS) (width 0.15))
    (fp_line (start -0.65273 -1.287468) (end -0.65273 -1.488128) (layer F.SilkS) (width 0.15))
    (fp_line (start -0.65273 1.511512) (end -0.65273 1.262592) (layer F.SilkS) (width 0.15))
    (fp_line (start 0.04831 1.511512) (end -0.65273 1.511512) (layer F.SilkS) (width 0.15))
    (fp_line (start -0.65273 -1.287468) (end -0.65273 -1.239208) (layer F.SilkS) (width 0.15))
    (fp_line (start 1.59751 1.661692) (end -1.60249 1.661692) (layer F.CrtYd) (width 0.05))
    (fp_line (start 1.59751 -1.638308) (end 1.59751 1.661692) (layer F.CrtYd) (width 0.05))
    (fp_line (start -1.60249 -1.638308) (end 1.59751 -1.638308) (layer F.CrtYd) (width 0.05))
    (fp_line (start -1.60249 1.661692) (end -1.60249 -1.638308) (layer F.CrtYd) (width 0.05))
    (pad 3 smd rect (at -1.00071 0.011692 90) (size 0.8001 0.8001) (layers F.Cu F.Paste F.Mask)
      (net 22 /CPU_TX))
    (pad 2 smd rect (at 0.99827 -0.938308 90) (size 0.8001 0.8001) (layers F.Cu F.Paste F.Mask)
      (net 15 3V3))
    (pad 1 smd rect (at 0.99827 0.961692 90) (size 0.8001 0.8001) (layers F.Cu F.Paste F.Mask)
      (net 3 GND))
    (model sot.3dshapes/SOT23.wrl
      (at (xyz 0 0 0))
      (scale (xyz 1 1 1))
      (rotate (xyz 0 0 0))
    )
  )

  (module Br:SOT23 (layer F.Cu) (tedit 5D9CF5AF) (tstamp 5DAF7ED7)
    (at 139.5 102 180)
    (descr "SOT23, Standard")
    (tags SOT23)
    (path /5D9CDB0F)
    (attr smd)
    (fp_text reference D2 (at 2.594 -0.108 270) (layer F.SilkS)
      (effects (font (size 1 1) (thickness 0.15)))
    )
    (fp_text value D_BAV99.215 (at 2.29751 0.011692 270) (layer F.Fab)
      (effects (font (size 1 1) (thickness 0.15)))
    )
    (fp_line (start -0.65273 -1.488128) (end 0.04831 -1.488128) (layer F.SilkS) (width 0.15))
    (fp_line (start -0.65273 -1.287468) (end -0.65273 -1.488128) (layer F.SilkS) (width 0.15))
    (fp_line (start -0.65273 1.511512) (end -0.65273 1.262592) (layer F.SilkS) (width 0.15))
    (fp_line (start 0.04831 1.511512) (end -0.65273 1.511512) (layer F.SilkS) (width 0.15))
    (fp_line (start -0.65273 -1.287468) (end -0.65273 -1.239208) (layer F.SilkS) (width 0.15))
    (fp_line (start 1.59751 1.661692) (end -1.60249 1.661692) (layer F.CrtYd) (width 0.05))
    (fp_line (start 1.59751 -1.638308) (end 1.59751 1.661692) (layer F.CrtYd) (width 0.05))
    (fp_line (start -1.60249 -1.638308) (end 1.59751 -1.638308) (layer F.CrtYd) (width 0.05))
    (fp_line (start -1.60249 1.661692) (end -1.60249 -1.638308) (layer F.CrtYd) (width 0.05))
    (pad 3 smd rect (at -1.00071 0.011692 270) (size 0.8001 0.8001) (layers F.Cu F.Paste F.Mask)
      (net 23 /CPU_RX))
    (pad 2 smd rect (at 0.99827 -0.938308 270) (size 0.8001 0.8001) (layers F.Cu F.Paste F.Mask)
      (net 15 3V3))
    (pad 1 smd rect (at 0.99827 0.961692 270) (size 0.8001 0.8001) (layers F.Cu F.Paste F.Mask)
      (net 3 GND))
    (model sot.3dshapes/SOT23.wrl
      (at (xyz 0 0 0))
      (scale (xyz 1 1 1))
      (rotate (xyz 0 0 0))
    )
  )

  (module Br:TSSOP20 (layer F.Cu) (tedit 5D9CF732) (tstamp 5DAF7EB7)
    (at 153 101 270)
    (path /5D9D4765)
    (solder_mask_margin 0.0762)
    (solder_paste_margin -0.0254)
    (attr smd)
    (fp_text reference U1 (at -4.199604 1.198286) (layer F.SilkS)
      (effects (font (size 0.762 0.762) (thickness 0.1524)))
    )
    (fp_text value ICD_STM8L051F3P6 (at 4.200396 0.098286) (layer F.Fab)
      (effects (font (size 0.762 0.762) (thickness 0.1524)))
    )
    (fp_line (start 3.400396 2.198286) (end 3.300396 2.198286) (layer F.SilkS) (width 0.15))
    (fp_line (start 3.400396 2.198286) (end 3.400396 -2.201714) (layer F.SilkS) (width 0.15))
    (fp_line (start 3.400396 -2.201714) (end 3.300396 -2.201714) (layer F.SilkS) (width 0.15))
    (fp_line (start -3.299604 -2.201714) (end -3.399604 -2.201714) (layer F.SilkS) (width 0.15))
    (fp_line (start -3.399604 -2.201714) (end -3.399604 2.198286) (layer F.SilkS) (width 0.15))
    (fp_line (start -3.399604 2.198286) (end -3.299604 2.198286) (layer F.SilkS) (width 0.15))
    (fp_line (start -3.299604 2.198286) (end -3.299604 2.998286) (layer F.SilkS) (width 0.15))
    (pad 20 smd rect (at -2.924604 -2.876714) (size 1.35 0.4) (layers F.Cu F.Paste F.SilkS F.Mask)
      (net 20 "Net-(U1-Pad20)"))
    (pad 19 smd rect (at -2.274604 -2.876714) (size 1.35 0.4) (layers F.Cu F.Paste F.SilkS F.Mask)
      (net 19 "Net-(U1-Pad19)"))
    (pad 18 smd rect (at -1.624604 -2.876714) (size 1.35 0.4) (layers F.Cu F.Paste F.SilkS F.Mask)
      (net 18 "Net-(U1-Pad18)"))
    (pad 17 smd rect (at -0.974604 -2.876714) (size 1.35 0.4) (layers F.Cu F.Paste F.SilkS F.Mask)
      (net 17 "Net-(U1-Pad17)"))
    (pad 16 smd rect (at -0.324604 -2.876714) (size 1.35 0.4) (layers F.Cu F.Paste F.SilkS F.Mask)
      (net 29 /POT_ENABLE))
    (pad 15 smd rect (at 0.325396 -2.876714) (size 1.35 0.4) (layers F.Cu F.Paste F.SilkS F.Mask)
      (net 26 /POT3))
    (pad 14 smd rect (at 0.975396 -2.876714) (size 1.35 0.4) (layers F.Cu F.Paste F.SilkS F.Mask)
      (net 28 /POT1))
    (pad 13 smd rect (at 1.625396 -2.876714) (size 1.35 0.4) (layers F.Cu F.Paste F.SilkS F.Mask)
      (net 27 /POT2))
    (pad 12 smd rect (at 2.275396 -2.876714) (size 1.35 0.4) (layers F.Cu F.Paste F.SilkS F.Mask)
      (net 25 /POT4))
    (pad 11 smd rect (at 2.925396 -2.876714) (size 1.35 0.4) (layers F.Cu F.Paste F.SilkS F.Mask)
      (net 30 "Net-(U1-Pad11)"))
    (pad 10 smd rect (at 2.925396 2.873286) (size 1.35 0.4) (layers F.Cu F.Paste F.SilkS F.Mask)
      (net 16 "Net-(U1-Pad10)"))
    (pad 9 smd rect (at 2.275396 2.873286) (size 1.35 0.4) (layers F.Cu F.Paste F.SilkS F.Mask)
      (net 24 "Net-(U1-Pad9)"))
    (pad 8 smd rect (at 1.625396 2.873286) (size 1.35 0.4) (layers F.Cu F.Paste F.SilkS F.Mask)
      (net 15 3V3))
    (pad 7 smd rect (at 0.975396 2.873286) (size 1.35 0.4) (layers F.Cu F.Paste F.SilkS F.Mask)
      (net 3 GND))
    (pad 6 smd rect (at 0.325396 2.873286) (size 1.35 0.4) (layers F.Cu F.Paste F.SilkS F.Mask)
      (net 14 "Net-(U1-Pad6)"))
    (pad 5 smd rect (at -0.324604 2.873286) (size 1.35 0.4) (layers F.Cu F.Paste F.SilkS F.Mask)
      (net 13 "Net-(U1-Pad5)"))
    (pad 4 smd rect (at -0.974604 2.873286) (size 1.35 0.4) (layers F.Cu F.Paste F.SilkS F.Mask)
      (net 12 /NRST))
    (pad 3 smd rect (at -1.624604 2.873286) (size 1.35 0.4) (layers F.Cu F.Paste F.SilkS F.Mask)
      (net 11 /SWIM))
    (pad 2 smd rect (at -2.274604 2.873286) (size 1.35 0.4) (layers F.Cu F.Paste F.SilkS F.Mask)
      (net 23 /CPU_RX))
    (pad 1 smd rect (at -2.924604 2.873286) (size 1.35 0.4) (layers F.Cu F.Paste F.SilkS F.Mask)
      (net 22 /CPU_TX))
    (model tssop.3dshapes/TSSOP20.wrl
      (at (xyz 0 0 0))
      (scale (xyz 1 1 1))
      (rotate (xyz 0 0 0))
    )
  )

  (module Br:Hole3mm (layer F.Cu) (tedit 5D015E75) (tstamp 5D9C2C5E)
    (at 149 118)
    (path /5D9D6266)
    (fp_text reference H4 (at 0 0.5) (layer F.SilkS)
      (effects (font (size 1 1) (thickness 0.15)))
    )
    (fp_text value Hole3mm (at 0 -0.5) (layer F.Fab)
      (effects (font (size 1 1) (thickness 0.15)))
    )
    (pad 1 thru_hole circle (at 0 0) (size 3.5 3.5) (drill 3) (layers *.Cu *.Mask)
      (net 8 "Net-(H4-Pad1)"))
  )

  (module Br:Br_CN_IN (layer F.Cu) (tedit 5D978B9C) (tstamp 5D9C2C9E)
    (at 128 102)
    (path /5D978D2E)
    (fp_text reference J1 (at -1 -8 180) (layer F.SilkS)
      (effects (font (size 1 1) (thickness 0.15)))
    )
    (fp_text value Br_CN_IN (at 0 -0.5) (layer F.Fab)
      (effects (font (size 1 1) (thickness 0.15)))
    )
    (fp_line (start 1.8 6.3) (end -1.6 6.3) (layer F.SilkS) (width 0.15))
    (fp_line (start 1.8 -6.3) (end 1.8 6.3) (layer F.SilkS) (width 0.15))
    (fp_line (start -1.7 -6.3) (end 1.8 -6.3) (layer F.SilkS) (width 0.15))
    (pad 9 smd rect (at 0 4.155) (size 3.5 1.5) (layers B.Cu B.Paste B.Mask)
      (net 4 5V))
    (pad 8 smd rect (at 0 1.385) (size 3.5 1.5) (layers B.Cu B.Paste B.Mask)
      (net 3 GND))
    (pad 7 smd rect (at 0 -1.385) (size 3.5 1.5) (layers B.Cu B.Paste B.Mask)
      (net 3 GND))
    (pad 6 smd rect (at 0 -4.155) (size 3.5 1.5) (layers B.Cu B.Paste B.Mask)
      (net 1 12V))
    (pad 5 smd rect (at 0 5.54) (size 3.5 1.5) (layers F.Cu F.Paste F.Mask)
      (net 3 GND))
    (pad 4 smd rect (at 0 2.77) (size 3.5 1.5) (layers F.Cu F.Paste F.Mask)
      (net 4 5V))
    (pad 3 smd rect (at 0 0) (size 3.5 1.5) (layers F.Cu F.Paste F.Mask)
      (net 9 /UART_RX))
    (pad 2 smd rect (at 0 -2.77) (size 3.5 1.5) (layers F.Cu F.Paste F.Mask)
      (net 2 /SPARE))
    (pad 1 smd rect (at 0 -5.54) (size 3.5 1.5) (layers F.Cu F.Paste F.Mask)
      (net 1 12V))
  )

  (module Br:Br_CN_OUT (layer F.Cu) (tedit 5DB9F56D) (tstamp 5D9C2C7E)
    (at 169.5 102)
    (path /5D9C46C3)
    (fp_text reference J3 (at 1 8 180) (layer F.SilkS)
      (effects (font (size 1 1) (thickness 0.15)))
    )
    (fp_text value Br_CN_OUT (at 0 -0.5) (layer F.Fab)
      (effects (font (size 1 1) (thickness 0.15)))
    )
    (fp_line (start -2.3 6.3) (end 2.2 6.3) (layer F.SilkS) (width 0.15))
    (fp_line (start -2.3 -6.3) (end -2.3 6.3) (layer F.SilkS) (width 0.15))
    (fp_line (start 2.2 -6.3) (end -2.3 -6.3) (layer F.SilkS) (width 0.15))
    (pad 9 smd rect (at 0 4.155) (size 4.5 1.5) (layers B.Cu B.Paste B.Mask)
      (net 4 5V))
    (pad 8 smd rect (at 0 1.385) (size 4.5 1.5) (layers B.Cu B.Paste B.Mask)
      (net 3 GND))
    (pad 7 smd rect (at 0 -1.385) (size 4.5 1.5) (layers B.Cu B.Paste B.Mask)
      (net 3 GND))
    (pad 6 smd rect (at 0 -4.155) (size 4.5 1.5) (layers B.Cu B.Paste B.Mask)
      (net 1 12V))
    (pad 5 smd rect (at 0 5.54) (size 4.5 1.5) (layers F.Cu F.Paste F.Mask)
      (net 3 GND))
    (pad 4 smd rect (at 0 2.77) (size 4.5 1.5) (layers F.Cu F.Paste F.Mask)
      (net 4 5V))
    (pad 3 smd rect (at 0 0) (size 4.5 1.5) (layers F.Cu F.Paste F.Mask)
      (net 10 /UART_TX))
    (pad 2 smd rect (at 0 -2.77) (size 4.5 1.5) (layers F.Cu F.Paste F.Mask)
      (net 2 /SPARE))
    (pad 1 smd rect (at 0 -5.54) (size 4.5 1.5) (layers F.Cu F.Paste F.Mask)
      (net 1 12V))
  )

  (module Br:Hole3mm (layer F.Cu) (tedit 5D015E75) (tstamp 5DC1EEB3)
    (at 164 102)
    (path /5D9D37B0)
    (fp_text reference H3 (at 0 0.5) (layer F.SilkS)
      (effects (font (size 1 1) (thickness 0.15)))
    )
    (fp_text value Hole3mm (at 0 -0.5) (layer F.Fab)
      (effects (font (size 1 1) (thickness 0.15)))
    )
    (pad 1 thru_hole circle (at 0 0) (size 3.5 3.5) (drill 3) (layers *.Cu *.Mask)
      (net 7 "Net-(H3-Pad1)"))
  )

  (module Br:Hole3mm (layer F.Cu) (tedit 5D015E75) (tstamp 5D9C2C54)
    (at 149 86)
    (path /5D9D6260)
    (fp_text reference H2 (at 0 0.5) (layer F.SilkS)
      (effects (font (size 1 1) (thickness 0.15)))
    )
    (fp_text value Hole3mm (at 0 -0.5) (layer F.Fab)
      (effects (font (size 1 1) (thickness 0.15)))
    )
    (pad 1 thru_hole circle (at 0 0) (size 3.5 3.5) (drill 3) (layers *.Cu *.Mask)
      (net 6 "Net-(H2-Pad1)"))
  )

  (module Br:Hole3mm (layer F.Cu) (tedit 5D015E75) (tstamp 5D9C2C4F)
    (at 134 102)
    (path /5D9D377A)
    (fp_text reference H1 (at 0 0.5) (layer F.SilkS)
      (effects (font (size 1 1) (thickness 0.15)))
    )
    (fp_text value Hole3mm (at 0 -0.5) (layer F.Fab)
      (effects (font (size 1 1) (thickness 0.15)))
    )
    (pad 1 thru_hole circle (at 0 0) (size 3.5 3.5) (drill 3) (layers *.Cu *.Mask)
      (net 5 "Net-(H1-Pad1)"))
  )

  (gr_circle (center 136 115) (end 136 123) (layer F.SilkS) (width 0.2) (tstamp 5DAF955F))
  (gr_circle (center 162 115) (end 162 123) (layer F.SilkS) (width 0.2) (tstamp 5DAF955D))
  (gr_line (start 178 128) (end 120 128) (layer Eco2.User) (width 0.2))
  (gr_line (start 178 76) (end 178 128) (layer Eco2.User) (width 0.2))
  (gr_line (start 120 76) (end 178 76) (layer Eco2.User) (width 0.2))
  (gr_circle (center 162 89) (end 162 97) (layer F.SilkS) (width 0.2))
  (gr_circle (center 136 89) (end 136 97) (layer F.SilkS) (width 0.2))
  (gr_line (start 151 102) (end 153 102) (layer F.SilkS) (width 0.2))
  (gr_line (start 152 101) (end 152 103) (layer F.SilkS) (width 0.2))
  (gr_line (start 149 102) (end 155 102) (layer Eco2.User) (width 0.2))
  (gr_line (start 152 99) (end 152 105) (layer Eco2.User) (width 0.2))
  (gr_circle (center 146.794 91.352) (end 148.318 93.384) (layer F.SilkS) (width 0.2))
  (gr_text "003\n" (at 146.794 91.352) (layer F.SilkS)
    (effects (font (size 1.5 1.5) (thickness 0.3)))
  )
  (gr_text Female (at 171 91 90) (layer F.SilkS) (tstamp 5D9C2EBA)
    (effects (font (size 1.5 1.5) (thickness 0.3)))
  )
  (gr_text Male (at 127 111.252 270) (layer F.SilkS)
    (effects (font (size 1.5 1.5) (thickness 0.3)))
  )
  (gr_line (start 126 122) (end 126 82) (layer Edge.Cuts) (width 0.15))
  (gr_line (start 172 122) (end 126 122) (layer Edge.Cuts) (width 0.15))
  (gr_line (start 172 82) (end 172 122) (layer Edge.Cuts) (width 0.15))
  (gr_line (start 126 82) (end 172 82) (layer Edge.Cuts) (width 0.15))
  (gr_text "Brick middle" (at 160 104) (layer Eco2.User)
    (effects (font (size 1.5 1.5) (thickness 0.3)))
  )
  (gr_text "Duplo_size\n" (at 181 68) (layer Eco2.User)
    (effects (font (size 1.5 1.5) (thickness 0.3)))
  )
  (gr_line (start 120 134) (end 120 70) (layer Eco2.User) (width 0.2))
  (gr_line (start 184 134) (end 120 134) (layer Eco2.User) (width 0.2))
  (gr_line (start 184 70) (end 184 134) (layer Eco2.User) (width 0.2))
  (gr_line (start 120 70) (end 184 70) (layer Eco2.User) (width 0.2))

  (via (at 167 96.46) (size 0.8) (drill 0.4) (layers F.Cu B.Cu) (net 1))
  (segment (start 170 97.845) (end 168.385 97.845) (width 1.5) (layer B.Cu) (net 1))
  (segment (start 168.385 97.845) (end 167 96.46) (width 1.5) (layer B.Cu) (net 1))
  (segment (start 170 96.46) (end 167 96.46) (width 1.5) (layer F.Cu) (net 1))
  (via (at 131.826 97.036) (size 0.8) (drill 0.4) (layers F.Cu B.Cu) (net 1))
  (segment (start 131.25 96.46) (end 128 96.46) (width 1.5) (layer F.Cu) (net 1))
  (segment (start 131.826 97.036) (end 131.25 96.46) (width 1.5) (layer F.Cu) (net 1))
  (segment (start 128 97.845) (end 131.017 97.845) (width 1.5) (layer B.Cu) (net 1))
  (segment (start 131.017 97.845) (end 131.826 97.036) (width 1.5) (layer B.Cu) (net 1))
  (segment (start 133.161999 95.700001) (end 140.533291 95.700001) (width 1.5) (layer F.Cu) (net 1))
  (segment (start 140.533291 95.700001) (end 140.730314 95.502978) (width 1.5) (layer F.Cu) (net 1))
  (segment (start 159.769686 95.502978) (end 159.966709 95.700001) (width 1.5) (layer F.Cu) (net 1))
  (segment (start 159.966709 95.700001) (end 166.240001 95.700001) (width 1.5) (layer F.Cu) (net 1))
  (segment (start 166.600001 96.060001) (end 167 96.46) (width 1.5) (layer F.Cu) (net 1))
  (segment (start 166.240001 95.700001) (end 166.600001 96.060001) (width 1.5) (layer F.Cu) (net 1))
  (segment (start 131.826 97.036) (end 133.161999 95.700001) (width 1.5) (layer F.Cu) (net 1))
  (segment (start 140.730314 95.502978) (end 159.769686 95.502978) (width 1.5) (layer F.Cu) (net 1))
  (segment (start 168 99.23) (end 170 99.23) (width 0.25) (layer F.Cu) (net 2))
  (segment (start 166.794 99.23) (end 168 99.23) (width 0.25) (layer F.Cu) (net 2))
  (segment (start 164.339012 96.775012) (end 166.794 99.23) (width 0.25) (layer F.Cu) (net 2))
  (segment (start 159.521425 96.775012) (end 164.339012 96.775012) (width 0.25) (layer F.Cu) (net 2))
  (segment (start 131.91 99.23) (end 134.364988 96.775012) (width 0.25) (layer F.Cu) (net 2))
  (segment (start 134.364988 96.775012) (end 140.978575 96.775012) (width 0.25) (layer F.Cu) (net 2))
  (segment (start 140.978575 96.775012) (end 141.175598 96.577989) (width 0.25) (layer F.Cu) (net 2))
  (segment (start 128 99.23) (end 131.91 99.23) (width 0.25) (layer F.Cu) (net 2))
  (segment (start 141.175598 96.577989) (end 159.324402 96.577989) (width 0.25) (layer F.Cu) (net 2))
  (segment (start 159.324402 96.577989) (end 159.521425 96.775012) (width 0.25) (layer F.Cu) (net 2))
  (via (at 131 108) (size 0.8) (drill 0.4) (layers F.Cu B.Cu) (net 3))
  (segment (start 128 107.54) (end 130.54 107.54) (width 1.5) (layer F.Cu) (net 3))
  (segment (start 130.54 107.54) (end 131 108) (width 1.5) (layer F.Cu) (net 3))
  (via (at 148.59 101.346) (size 0.8) (drill 0.4) (layers F.Cu B.Cu) (net 3))
  (segment (start 150.126714 101.975396) (end 149.219396 101.975396) (width 0.25) (layer F.Cu) (net 3))
  (segment (start 149.219396 101.975396) (end 148.59 101.346) (width 0.25) (layer F.Cu) (net 3))
  (via (at 146.558 104.648) (size 0.8) (drill 0.4) (layers F.Cu B.Cu) (net 3))
  (segment (start 146.498491 106.071161) (end 146.498491 104.707509) (width 0.25) (layer F.Cu) (net 3))
  (segment (start 146.498491 104.707509) (end 146.558 104.648) (width 0.25) (layer F.Cu) (net 3))
  (segment (start 155 108.4) (end 154.688 108.712) (width 0.25) (layer F.Cu) (net 3))
  (segment (start 155 107.75) (end 155 108.4) (width 0.25) (layer F.Cu) (net 3))
  (via (at 152.146 108.966) (size 0.8) (drill 0.4) (layers F.Cu B.Cu) (net 3))
  (segment (start 152.4 108.712) (end 152.146 108.966) (width 0.25) (layer F.Cu) (net 3))
  (segment (start 152 108.82) (end 152.146 108.966) (width 0.25) (layer F.Cu) (net 3))
  (segment (start 152 107.75) (end 152 108.82) (width 0.25) (layer F.Cu) (net 3))
  (segment (start 153.416 108.484) (end 153.416 108.712) (width 0.25) (layer F.Cu) (net 3))
  (segment (start 153.5 108.4) (end 153.416 108.484) (width 0.25) (layer F.Cu) (net 3))
  (segment (start 153.5 107.75) (end 153.5 108.4) (width 0.25) (layer F.Cu) (net 3))
  (segment (start 154.688 108.712) (end 153.416 108.712) (width 0.25) (layer F.Cu) (net 3))
  (segment (start 153.416 108.712) (end 152.4 108.712) (width 0.25) (layer F.Cu) (net 3))
  (via (at 151.13 89.916) (size 0.8) (drill 0.4) (layers F.Cu B.Cu) (net 3))
  (segment (start 150.5 91.25) (end 150.5 90.546) (width 0.25) (layer F.Cu) (net 3))
  (segment (start 150.5 90.546) (end 151.13 89.916) (width 0.25) (layer F.Cu) (net 3))
  (segment (start 152 90.786) (end 151.13 89.916) (width 0.25) (layer F.Cu) (net 3))
  (segment (start 152 91.25) (end 152 90.786) (width 0.25) (layer F.Cu) (net 3))
  (via (at 137.414 101.092) (size 0.8) (drill 0.4) (layers F.Cu B.Cu) (net 3))
  (segment (start 138.50173 101.038308) (end 137.467692 101.038308) (width 0.25) (layer F.Cu) (net 3))
  (segment (start 137.467692 101.038308) (end 137.414 101.092) (width 0.25) (layer F.Cu) (net 3))
  (segment (start 143.5 100.086) (end 143.51 100.076) (width 0.25) (layer F.Cu) (net 3))
  (segment (start 143.5 101.25) (end 143.5 100.086) (width 0.25) (layer F.Cu) (net 3))
  (via (at 143.51 100.076) (size 0.8) (drill 0.4) (layers F.Cu B.Cu) (net 3))
  (via (at 145.034 100.076) (size 0.8) (drill 0.4) (layers F.Cu B.Cu) (net 3))
  (segment (start 145 100.11) (end 145.034 100.076) (width 0.25) (layer F.Cu) (net 3))
  (segment (start 145 101.25) (end 145 100.11) (width 0.25) (layer F.Cu) (net 3))
  (via (at 146.558 100.076) (size 0.8) (drill 0.4) (layers F.Cu B.Cu) (net 3))
  (segment (start 146.5 101.25) (end 146.5 100.134) (width 0.25) (layer F.Cu) (net 3))
  (segment (start 146.5 100.134) (end 146.558 100.076) (width 0.25) (layer F.Cu) (net 3))
  (via (at 166.37 107.696) (size 0.8) (drill 0.4) (layers F.Cu B.Cu) (net 3))
  (segment (start 170 107.54) (end 169.844 107.696) (width 1.5) (layer F.Cu) (net 3))
  (segment (start 166.935685 107.696) (end 166.37 107.696) (width 1.5) (layer F.Cu) (net 3))
  (segment (start 169.844 107.696) (end 166.935685 107.696) (width 1.5) (layer F.Cu) (net 3))
  (via (at 160.3 102.9) (size 0.8) (drill 0.4) (layers F.Cu B.Cu) (net 3))
  (segment (start 159.15 102.9) (end 160.3 102.9) (width 0.25) (layer F.Cu) (net 3))
  (via (at 160.9 101.7) (size 0.8) (drill 0.4) (layers F.Cu B.Cu) (net 3))
  (segment (start 159.69827 101.461692) (end 160.661692 101.461692) (width 0.25) (layer F.Cu) (net 3))
  (segment (start 160.661692 101.461692) (end 160.9 101.7) (width 0.25) (layer F.Cu) (net 3))
  (segment (start 131.25 104.77) (end 128 104.77) (width 1.5) (layer F.Cu) (net 4))
  (segment (start 131.89 105.41) (end 131.25 104.77) (width 1.5) (layer F.Cu) (net 4))
  (segment (start 166.359 106.155) (end 165.862 105.658) (width 1.5) (layer B.Cu) (net 4))
  (segment (start 170 106.155) (end 166.359 106.155) (width 1.5) (layer B.Cu) (net 4))
  (segment (start 167.033762 104.77) (end 170 104.77) (width 1.5) (layer F.Cu) (net 4))
  (segment (start 166.821761 104.982001) (end 167.033762 104.77) (width 1.5) (layer F.Cu) (net 4))
  (segment (start 165.862 105.658) (end 166.537999 104.982001) (width 1.5) (layer F.Cu) (net 4))
  (segment (start 166.537999 104.982001) (end 166.821761 104.982001) (width 1.5) (layer F.Cu) (net 4))
  (via (at 165.862 105.658) (size 0.8) (drill 0.4) (layers F.Cu B.Cu) (net 4))
  (segment (start 131.145 106.155) (end 131.89 105.41) (width 1.5) (layer B.Cu) (net 4))
  (segment (start 128 106.155) (end 131.145 106.155) (width 1.5) (layer B.Cu) (net 4))
  (via (at 131.89 105.41) (size 0.8) (drill 0.4) (layers F.Cu B.Cu) (net 4))
  (segment (start 131.89 105.41) (end 134.48 108) (width 2) (layer F.Cu) (net 4))
  (segment (start 165.296315 105.658) (end 165.862 105.658) (width 2) (layer F.Cu) (net 4))
  (segment (start 159.615848 105.658) (end 165.296315 105.658) (width 2) (layer F.Cu) (net 4))
  (segment (start 155.236837 110.037011) (end 159.615848 105.658) (width 2) (layer F.Cu) (net 4))
  (segment (start 153.962989 110.037011) (end 155.236837 110.037011) (width 2) (layer F.Cu) (net 4))
  (segment (start 151.224 112.776) (end 153.962989 110.037011) (width 2) (layer F.Cu) (net 4))
  (segment (start 137.174002 108) (end 137.174002 108.049999) (width 2) (layer F.Cu) (net 4))
  (segment (start 137.174002 108.049999) (end 137.224001 108.049999) (width 2) (layer F.Cu) (net 4))
  (segment (start 137.224001 108.049999) (end 138.550001 109.375999) (width 2) (layer F.Cu) (net 4))
  (segment (start 138.550001 109.375999) (end 138.550001 109.594001) (width 2) (layer F.Cu) (net 4))
  (segment (start 138.550001 109.594001) (end 141.732 112.776) (width 2) (layer F.Cu) (net 4))
  (segment (start 141.732 112.776) (end 151.224 112.776) (width 2) (layer F.Cu) (net 4))
  (segment (start 136.2 106.45) (end 136.2 108) (width 0.25) (layer F.Cu) (net 4))
  (segment (start 137.15 105.5) (end 136.2 106.45) (width 0.25) (layer F.Cu) (net 4))
  (segment (start 137.85 105.5) (end 137.15 105.5) (width 0.25) (layer F.Cu) (net 4))
  (segment (start 134.48 108) (end 136.2 108) (width 2) (layer F.Cu) (net 4))
  (segment (start 136.2 108) (end 137.174002 108) (width 2) (layer F.Cu) (net 4))
  (segment (start 130.928998 102) (end 128 102) (width 0.25) (layer F.Cu) (net 9))
  (segment (start 138.75 99.5) (end 133.428998 99.5) (width 0.25) (layer F.Cu) (net 9))
  (segment (start 133.428998 99.5) (end 130.928998 102) (width 0.25) (layer F.Cu) (net 9))
  (segment (start 168 102) (end 170 102) (width 0.25) (layer F.Cu) (net 10))
  (segment (start 167.64 101.64) (end 168 102) (width 0.25) (layer F.Cu) (net 10))
  (segment (start 166.84 101.64) (end 167.64 101.64) (width 0.25) (layer F.Cu) (net 10))
  (segment (start 160.25 98) (end 163.2 98) (width 0.25) (layer F.Cu) (net 10))
  (segment (start 163.2 98) (end 166.84 101.64) (width 0.25) (layer F.Cu) (net 10))
  (via (at 152.77499 104.902) (size 0.8) (drill 0.4) (layers F.Cu B.Cu) (net 11))
  (segment (start 151.051714 99.375396) (end 152.77499 101.098672) (width 0.25) (layer F.Cu) (net 11))
  (segment (start 152.058 104.902) (end 152.209305 104.902) (width 0.25) (layer B.Cu) (net 11))
  (segment (start 152.209305 104.902) (end 152.77499 104.902) (width 0.25) (layer B.Cu) (net 11))
  (segment (start 149.5 107.46) (end 152.058 104.902) (width 0.25) (layer B.Cu) (net 11))
  (segment (start 152.77499 104.336315) (end 152.77499 104.902) (width 0.25) (layer F.Cu) (net 11))
  (segment (start 152.77499 101.098672) (end 152.77499 104.336315) (width 0.25) (layer F.Cu) (net 11))
  (segment (start 150.126714 99.375396) (end 151.051714 99.375396) (width 0.25) (layer F.Cu) (net 11))
  (segment (start 152 105.6) (end 152 106.25) (width 0.25) (layer F.Cu) (net 12))
  (segment (start 151.051714 100.025396) (end 152 100.973682) (width 0.25) (layer F.Cu) (net 12))
  (segment (start 150.126714 100.025396) (end 151.051714 100.025396) (width 0.25) (layer F.Cu) (net 12))
  (segment (start 150.25 110) (end 151.13 109.12) (width 0.25) (layer F.Cu) (net 12))
  (segment (start 149.5 110) (end 150.25 110) (width 0.25) (layer F.Cu) (net 12))
  (segment (start 151.13 109.12) (end 151.13 105.156) (width 0.25) (layer F.Cu) (net 12))
  (segment (start 151.384 104.902) (end 152 104.902) (width 0.25) (layer F.Cu) (net 12))
  (segment (start 151.13 105.156) (end 151.384 104.902) (width 0.25) (layer F.Cu) (net 12))
  (segment (start 152 100.973682) (end 152 104.902) (width 0.25) (layer F.Cu) (net 12))
  (segment (start 152 104.902) (end 152 105.6) (width 0.25) (layer F.Cu) (net 12))
  (segment (start 143.498491 102.751509) (end 143.5 102.75) (width 0.25) (layer F.Cu) (net 15))
  (segment (start 140.213472 104) (end 143.498491 104) (width 0.25) (layer F.Cu) (net 15))
  (segment (start 139.15178 102.938308) (end 140.213472 104) (width 0.25) (layer F.Cu) (net 15))
  (segment (start 138.50173 102.938308) (end 139.15178 102.938308) (width 0.25) (layer F.Cu) (net 15))
  (segment (start 143.498491 106.071161) (end 143.498491 104) (width 0.25) (layer F.Cu) (net 15))
  (segment (start 143.498491 104) (end 143.498491 102.751509) (width 0.25) (layer F.Cu) (net 15))
  (segment (start 147.5 102) (end 148.125396 102.625396) (width 0.25) (layer F.Cu) (net 15))
  (segment (start 143.6 102) (end 147.5 102) (width 0.25) (layer F.Cu) (net 15))
  (segment (start 143.5 102.75) (end 143.5 102.1) (width 0.25) (layer F.Cu) (net 15))
  (segment (start 143.5 102.1) (end 143.6 102) (width 0.25) (layer F.Cu) (net 15))
  (segment (start 146.5 102.75) (end 146.5 102) (width 0.25) (layer F.Cu) (net 15))
  (segment (start 148.336 104.318894) (end 148.336 102.625396) (width 0.25) (layer F.Cu) (net 15))
  (segment (start 149.5 105.482894) (end 148.336 104.318894) (width 0.25) (layer F.Cu) (net 15))
  (segment (start 149.5 106.19) (end 149.5 105.482894) (width 0.25) (layer F.Cu) (net 15))
  (segment (start 148.125396 102.625396) (end 148.336 102.625396) (width 0.25) (layer F.Cu) (net 15))
  (segment (start 148.336 102.625396) (end 150.126714 102.625396) (width 0.25) (layer F.Cu) (net 15))
  (segment (start 139.524999 102.565089) (end 139.524999 98.864999) (width 0.25) (layer F.Cu) (net 15))
  (segment (start 139.15178 102.938308) (end 139.524999 102.565089) (width 0.25) (layer F.Cu) (net 15))
  (segment (start 139.524999 98.864999) (end 141.361998 97.028) (width 0.25) (layer F.Cu) (net 15))
  (segment (start 141.361998 97.028) (end 159.138002 97.028) (width 0.25) (layer F.Cu) (net 15))
  (segment (start 159.138002 97.028) (end 159.512 97.401998) (width 0.25) (layer F.Cu) (net 15))
  (segment (start 159.512 99.314) (end 159.759692 99.561692) (width 0.25) (layer F.Cu) (net 15))
  (segment (start 159.69827 98.78627) (end 159.69827 99.561692) (width 0.25) (layer F.Cu) (net 15))
  (segment (start 159.512 98.6) (end 159.69827 98.78627) (width 0.25) (layer F.Cu) (net 15))
  (segment (start 159.512 97.401998) (end 159.512 98.6) (width 0.25) (layer F.Cu) (net 15))
  (segment (start 144.998491 102.751509) (end 145 102.75) (width 0.25) (layer F.Cu) (net 21))
  (segment (start 144.998491 106.217661) (end 144.998491 102.751509) (width 0.25) (layer F.Cu) (net 21))
  (segment (start 143.7835 108.51) (end 145 108.51) (width 0.25) (layer F.Cu) (net 21))
  (segment (start 141.15 105.8765) (end 143.7835 108.51) (width 0.25) (layer F.Cu) (net 21))
  (segment (start 141.15 105.5) (end 141.15 105.8765) (width 0.25) (layer F.Cu) (net 21))
  (segment (start 145 106.25) (end 145 108.51) (width 0.25) (layer F.Cu) (net 21))
  (segment (start 154.606796 97.536009) (end 154.621182 97.550395) (width 0.25) (layer F.Cu) (net 22))
  (segment (start 153.538811 97.732011) (end 153.714792 97.732011) (width 0.25) (layer F.Cu) (net 22))
  (segment (start 153.342809 97.536009) (end 153.538811 97.732011) (width 0.25) (layer F.Cu) (net 22))
  (segment (start 154.621182 97.550395) (end 156.811715 97.550395) (width 0.25) (layer F.Cu) (net 22))
  (segment (start 153.714792 97.732011) (end 153.910794 97.536009) (width 0.25) (layer F.Cu) (net 22))
  (segment (start 153.910794 97.536009) (end 154.606796 97.536009) (width 0.25) (layer F.Cu) (net 22))
  (segment (start 157.26132 98) (end 157.436 98) (width 0.25) (layer F.Cu) (net 22))
  (segment (start 156.811715 97.550395) (end 157.26132 98) (width 0.25) (layer F.Cu) (net 22))
  (segment (start 152.10742 98.075396) (end 152.646807 97.536009) (width 0.25) (layer F.Cu) (net 22))
  (segment (start 152.646807 97.536009) (end 153.342809 97.536009) (width 0.25) (layer F.Cu) (net 22))
  (segment (start 150.126714 98.075396) (end 152.10742 98.075396) (width 0.25) (layer F.Cu) (net 22))
  (segment (start 157.6 99.762352) (end 157.6 98) (width 0.25) (layer F.Cu) (net 22))
  (segment (start 157.69929 99.861642) (end 157.6 99.762352) (width 0.25) (layer F.Cu) (net 22))
  (segment (start 157.69929 100.511692) (end 157.69929 99.861642) (width 0.25) (layer F.Cu) (net 22))
  (segment (start 157.436 98) (end 157.6 98) (width 0.25) (layer F.Cu) (net 22))
  (segment (start 157.6 98) (end 158.75 98) (width 0.25) (layer F.Cu) (net 22))
  (segment (start 140.9 99.5) (end 141.478 100.078) (width 0.25) (layer F.Cu) (net 23))
  (segment (start 140.25 99.5) (end 140.9 99.5) (width 0.25) (layer F.Cu) (net 23))
  (segment (start 141.478 100.078) (end 141.478 101.854) (width 0.25) (layer F.Cu) (net 23))
  (segment (start 141.343692 101.988308) (end 140.50071 101.988308) (width 0.25) (layer F.Cu) (net 23))
  (segment (start 141.478 101.854) (end 141.343692 101.988308) (width 0.25) (layer F.Cu) (net 23))
  (segment (start 147.791002 99.350998) (end 148.416604 98.725396) (width 0.25) (layer F.Cu) (net 23))
  (segment (start 148.416604 98.725396) (end 149.201714 98.725396) (width 0.25) (layer F.Cu) (net 23))
  (segment (start 149.201714 98.725396) (end 150.126714 98.725396) (width 0.25) (layer F.Cu) (net 23))
  (segment (start 141.049002 99.350998) (end 147.791002 99.350998) (width 0.25) (layer F.Cu) (net 23))
  (segment (start 140.9 99.5) (end 141.049002 99.350998) (width 0.25) (layer F.Cu) (net 23))
  (segment (start 154.951714 103.275396) (end 155.876714 103.275396) (width 0.25) (layer F.Cu) (net 25))
  (segment (start 154.876713 103.350397) (end 154.951714 103.275396) (width 0.25) (layer F.Cu) (net 25))
  (segment (start 155 105.6) (end 154.876713 105.476713) (width 0.25) (layer F.Cu) (net 25))
  (segment (start 155 106.25) (end 155 105.6) (width 0.25) (layer F.Cu) (net 25))
  (via (at 154.94 104.902) (size 0.8) (drill 0.4) (layers F.Cu B.Cu) (net 25))
  (segment (start 154.876713 104.902) (end 154.94 104.902) (width 0.25) (layer F.Cu) (net 25))
  (segment (start 154.876713 105.476713) (end 154.876713 104.902) (width 0.25) (layer F.Cu) (net 25))
  (segment (start 154.876713 104.902) (end 154.876713 103.350397) (width 0.25) (layer F.Cu) (net 25))
  (segment (start 155.999999 114.000001) (end 155 115) (width 0.25) (layer B.Cu) (net 25))
  (segment (start 156.325001 113.674999) (end 155.999999 114.000001) (width 0.25) (layer B.Cu) (net 25))
  (segment (start 156.325001 106.852686) (end 156.325001 113.674999) (width 0.25) (layer B.Cu) (net 25))
  (segment (start 154.94 105.467685) (end 156.325001 106.852686) (width 0.25) (layer B.Cu) (net 25))
  (segment (start 154.94 104.902) (end 154.94 105.467685) (width 0.25) (layer B.Cu) (net 25))
  (segment (start 153.162 90.838) (end 153.162 93.262364) (width 0.25) (layer F.Cu) (net 26))
  (via (at 152.994808 98.26101) (size 0.8) (drill 0.4) (layers F.Cu B.Cu) (net 26))
  (segment (start 155.876714 101.325396) (end 154.951714 101.325396) (width 0.25) (layer F.Cu) (net 26))
  (segment (start 152.430407 93.993957) (end 152.994808 94.558358) (width 0.25) (layer B.Cu) (net 26))
  (segment (start 152.994808 99.36849) (end 152.994808 98.826695) (width 0.25) (layer F.Cu) (net 26))
  (segment (start 152.030408 93.593958) (end 152.430407 93.993957) (width 0.25) (layer F.Cu) (net 26))
  (segment (start 155 89) (end 153.162 90.838) (width 0.25) (layer F.Cu) (net 26))
  (via (at 152.430407 93.993957) (size 0.8) (drill 0.4) (layers F.Cu B.Cu) (net 26))
  (segment (start 153.162 93.262364) (end 152.830406 93.593958) (width 0.25) (layer F.Cu) (net 26))
  (segment (start 152.994808 97.695325) (end 152.994808 98.26101) (width 0.25) (layer B.Cu) (net 26))
  (segment (start 152.994808 94.558358) (end 152.994808 97.695325) (width 0.25) (layer B.Cu) (net 26))
  (segment (start 152.830406 93.593958) (end 152.430407 93.993957) (width 0.25) (layer F.Cu) (net 26))
  (segment (start 152.994808 98.826695) (end 152.994808 98.26101) (width 0.25) (layer F.Cu) (net 26))
  (segment (start 152 92.75) (end 152 93.56355) (width 0.25) (layer F.Cu) (net 26))
  (segment (start 152 93.56355) (end 152.030408 93.593958) (width 0.25) (layer F.Cu) (net 26))
  (segment (start 154.951714 101.325396) (end 152.994808 99.36849) (width 0.25) (layer F.Cu) (net 26))
  (segment (start 155.876714 102.625396) (end 154.951714 102.625396) (width 0.25) (layer F.Cu) (net 27))
  (via (at 153.67 103.90711) (size 0.8) (drill 0.4) (layers F.Cu B.Cu) (net 27))
  (segment (start 153.5 104.07711) (end 153.67 103.90711) (width 0.25) (layer F.Cu) (net 27))
  (segment (start 153.5 106.25) (end 153.5 104.07711) (width 0.25) (layer F.Cu) (net 27))
  (segment (start 154.951714 102.625396) (end 153.67 103.90711) (width 0.25) (layer F.Cu) (net 27))
  (segment (start 153.18482 113.926286) (end 152.784821 114.326285) (width 0.25) (layer B.Cu) (net 27))
  (segment (start 153.67 113.441106) (end 153.18482 113.926286) (width 0.25) (layer B.Cu) (net 27))
  (segment (start 152.384822 114.726284) (end 152.784821 114.326285) (width 0.25) (layer F.Cu) (net 27))
  (segment (start 129 115) (end 152.111106 115) (width 0.25) (layer F.Cu) (net 27))
  (segment (start 152.111106 115) (end 152.384822 114.726284) (width 0.25) (layer F.Cu) (net 27))
  (segment (start 153.67 103.90711) (end 153.67 113.441106) (width 0.25) (layer B.Cu) (net 27))
  (via (at 152.784821 114.326285) (size 0.8) (drill 0.4) (layers F.Cu B.Cu) (net 27))
  (via (at 151.892 98.806) (size 0.8) (drill 0.4) (layers F.Cu B.Cu) (net 28))
  (segment (start 151.892 98.915682) (end 151.892 98.806) (width 0.25) (layer F.Cu) (net 28))
  (segment (start 155.876714 101.975396) (end 154.951714 101.975396) (width 0.25) (layer F.Cu) (net 28))
  (segment (start 154.951714 101.975396) (end 151.892 98.915682) (width 0.25) (layer F.Cu) (net 28))
  (segment (start 150.690149 93.761713) (end 151.081404 94.152968) (width 0.25) (layer F.Cu) (net 28))
  (via (at 151.090148 94.152968) (size 0.8) (drill 0.4) (layers F.Cu B.Cu) (net 28))
  (segment (start 151.892 98.806) (end 151.090148 98.004148) (width 0.25) (layer B.Cu) (net 28))
  (segment (start 151.090148 94.718653) (end 151.090148 94.152968) (width 0.25) (layer B.Cu) (net 28))
  (segment (start 151.081404 94.152968) (end 151.090148 94.152968) (width 0.25) (layer F.Cu) (net 28))
  (segment (start 151.090148 98.004148) (end 151.090148 94.718653) (width 0.25) (layer B.Cu) (net 28))
  (segment (start 150.5 92.75) (end 150.5 93.571564) (width 0.25) (layer F.Cu) (net 28))
  (segment (start 150.5 93.571564) (end 150.690149 93.761713) (width 0.25) (layer F.Cu) (net 28))
  (segment (start 129 89) (end 145.928436 89) (width 0.25) (layer F.Cu) (net 28))
  (segment (start 145.928436 89) (end 150.690149 93.761713) (width 0.25) (layer F.Cu) (net 28))
  (via (at 157.226 105.41) (size 0.8) (drill 0.4) (layers F.Cu B.Cu) (net 29))
  (segment (start 157.48 105.156) (end 157.226 105.41) (width 0.25) (layer F.Cu) (net 29))
  (via (at 158.003882 109.829955) (size 0.8) (drill 0.4) (layers F.Cu B.Cu) (net 29))
  (segment (start 157.226 109.052073) (end 158.003882 109.829955) (width 0.25) (layer B.Cu) (net 29))
  (segment (start 157.226 105.41) (end 157.226 109.052073) (width 0.25) (layer B.Cu) (net 29))
  (segment (start 155.333837 112.5) (end 155 112.5) (width 0.25) (layer F.Cu) (net 29))
  (segment (start 158.003882 109.829955) (end 155.333837 112.5) (width 0.25) (layer F.Cu) (net 29))
  (segment (start 155 112.5) (end 153.585787 112.5) (width 0.25) (layer F.Cu) (net 29))
  (segment (start 153.585787 112.5) (end 151.785787 114.3) (width 0.25) (layer F.Cu) (net 29))
  (segment (start 130.8 114.3) (end 129 112.5) (width 0.25) (layer F.Cu) (net 29))
  (segment (start 151.785787 114.3) (end 130.8 114.3) (width 0.25) (layer F.Cu) (net 29))
  (segment (start 129.999999 87.499999) (end 129 86.5) (width 0.25) (layer F.Cu) (net 29))
  (segment (start 130.575001 88.075001) (end 129.999999 87.499999) (width 0.25) (layer F.Cu) (net 29))
  (segment (start 152.010786 88.075001) (end 130.575001 88.075001) (width 0.25) (layer F.Cu) (net 29))
  (segment (start 153.585787 86.5) (end 152.010786 88.075001) (width 0.25) (layer F.Cu) (net 29))
  (segment (start 155 86.5) (end 153.585787 86.5) (width 0.25) (layer F.Cu) (net 29))
  (segment (start 157.226 91.474651) (end 154.743685 93.956966) (width 0.25) (layer F.Cu) (net 29))
  (via (at 154.258795 98.26101) (size 0.8) (drill 0.4) (layers F.Cu B.Cu) (net 29))
  (segment (start 154.258795 99.982477) (end 154.258795 98.826695) (width 0.25) (layer F.Cu) (net 29))
  (segment (start 154.951714 100.675396) (end 154.258795 99.982477) (width 0.25) (layer F.Cu) (net 29))
  (via (at 154.178 93.956966) (size 0.8) (drill 0.4) (layers F.Cu B.Cu) (net 29))
  (segment (start 155 86.5) (end 157.226 88.726) (width 0.25) (layer F.Cu) (net 29))
  (segment (start 154.178 93.956966) (end 154.178 98.180215) (width 0.25) (layer B.Cu) (net 29))
  (segment (start 157.226 88.726) (end 157.226 91.474651) (width 0.25) (layer F.Cu) (net 29))
  (segment (start 155.876714 100.675396) (end 154.951714 100.675396) (width 0.25) (layer F.Cu) (net 29))
  (segment (start 154.258795 98.826695) (end 154.258795 98.26101) (width 0.25) (layer F.Cu) (net 29))
  (segment (start 154.743685 93.956966) (end 154.178 93.956966) (width 0.25) (layer F.Cu) (net 29))
  (segment (start 154.178 98.180215) (end 154.258795 98.26101) (width 0.25) (layer B.Cu) (net 29))
  (segment (start 157.65 102.275) (end 157.65 102.9) (width 0.25) (layer F.Cu) (net 29))
  (segment (start 156.974239 101.599239) (end 157.65 102.275) (width 0.25) (layer F.Cu) (net 29))
  (segment (start 156.974239 100.847921) (end 156.974239 101.599239) (width 0.25) (layer F.Cu) (net 29))
  (segment (start 156.801714 100.675396) (end 156.974239 100.847921) (width 0.25) (layer F.Cu) (net 29))
  (segment (start 155.876714 100.675396) (end 156.801714 100.675396) (width 0.25) (layer F.Cu) (net 29))
  (segment (start 157.65 104.986) (end 157.65 102.9) (width 0.25) (layer F.Cu) (net 29))
  (segment (start 157.226 105.41) (end 157.65 104.986) (width 0.25) (layer F.Cu) (net 29))

  (zone (net 3) (net_name GND) (layer B.Cu) (tstamp 5F21CB12) (hatch edge 0.508)
    (connect_pads (clearance 0.508))
    (min_thickness 0.254)
    (fill yes (arc_segments 16) (thermal_gap 0.508) (thermal_bridge_width 0.508))
    (polygon
      (pts
        (xy 126 82) (xy 126 122) (xy 172 122) (xy 172 82)
      )
    )
    (filled_polygon
      (pts
        (xy 134.915478 82.891218) (xy 134.774012 83.194407) (xy 136 84.420395) (xy 137.225988 83.194407) (xy 137.084522 82.891218)
        (xy 136.616157 82.71) (xy 161.352978 82.71) (xy 160.915478 82.891218) (xy 160.774012 83.194407) (xy 162 84.420395)
        (xy 163.225988 83.194407) (xy 163.084522 82.891218) (xy 162.616157 82.71) (xy 171.29 82.71) (xy 171.29 96.44756)
        (xy 168.946246 96.44756) (xy 167.882888 95.384203) (xy 167.540399 95.155359) (xy 167 95.047867) (xy 166.459601 95.155359)
        (xy 166.001472 95.461472) (xy 165.695359 95.919601) (xy 165.587867 96.46) (xy 165.695359 97.000399) (xy 165.924203 97.342888)
        (xy 166.60256 98.021245) (xy 166.60256 98.595) (xy 166.651843 98.842765) (xy 166.792191 99.052809) (xy 167.002235 99.193157)
        (xy 167.187459 99.23) (xy 167.123691 99.23) (xy 166.890302 99.326673) (xy 166.711673 99.505301) (xy 166.615 99.73869)
        (xy 166.615 100.32925) (xy 166.77375 100.488) (xy 169.373 100.488) (xy 169.373 100.468) (xy 169.627 100.468)
        (xy 169.627 100.488) (xy 169.647 100.488) (xy 169.647 100.742) (xy 169.627 100.742) (xy 169.627 101.84125)
        (xy 169.78575 102) (xy 169.627 102.15875) (xy 169.627 103.258) (xy 169.647 103.258) (xy 169.647 103.512)
        (xy 169.627 103.512) (xy 169.627 103.532) (xy 169.373 103.532) (xy 169.373 103.512) (xy 166.77375 103.512)
        (xy 166.615 103.67075) (xy 166.615 104.26131) (xy 166.711673 104.494699) (xy 166.890302 104.673327) (xy 167.123691 104.77)
        (xy 166.932685 104.77) (xy 166.744888 104.582203) (xy 166.402399 104.353359) (xy 165.862 104.245867) (xy 165.321601 104.353359)
        (xy 164.863472 104.659472) (xy 164.557359 105.117601) (xy 164.449867 105.658) (xy 164.557359 106.198399) (xy 164.786203 106.540888)
        (xy 165.2832 107.037885) (xy 165.360471 107.153529) (xy 165.8186 107.459641) (xy 166.222593 107.54) (xy 166.358999 107.567133)
        (xy 166.495405 107.54) (xy 167.187459 107.54) (xy 167.25 107.55244) (xy 171.290001 107.55244) (xy 171.290001 121.29)
        (xy 162.647022 121.29) (xy 163.084522 121.108782) (xy 163.225988 120.805593) (xy 162 119.579605) (xy 160.774012 120.805593)
        (xy 160.915478 121.108782) (xy 161.383843 121.29) (xy 136.647022 121.29) (xy 137.084522 121.108782) (xy 137.225988 120.805593)
        (xy 136 119.579605) (xy 134.774012 120.805593) (xy 134.915478 121.108782) (xy 135.383843 121.29) (xy 126.71 121.29)
        (xy 126.71 118.652532) (xy 128.027073 118.652532) (xy 128.125736 118.919387) (xy 128.735461 119.145908) (xy 129.38546 119.121856)
        (xy 129.554216 119.051955) (xy 134.006263 119.051955) (xy 134.024836 119.841418) (xy 134.291218 120.484522) (xy 134.594407 120.625988)
        (xy 135.820395 119.4) (xy 136.179605 119.4) (xy 137.405593 120.625988) (xy 137.708782 120.484522) (xy 137.993737 119.748045)
        (xy 137.975164 118.958582) (xy 137.708782 118.315478) (xy 137.405593 118.174012) (xy 136.179605 119.4) (xy 135.820395 119.4)
        (xy 134.594407 118.174012) (xy 134.291218 118.315478) (xy 134.006263 119.051955) (xy 129.554216 119.051955) (xy 129.874264 118.919387)
        (xy 129.972927 118.652532) (xy 129 117.679605) (xy 128.027073 118.652532) (xy 126.71 118.652532) (xy 126.71 117.235461)
        (xy 127.354092 117.235461) (xy 127.378144 117.88546) (xy 127.580613 118.374264) (xy 127.847468 118.472927) (xy 128.820395 117.5)
        (xy 129.179605 117.5) (xy 130.152532 118.472927) (xy 130.419387 118.374264) (xy 130.560508 117.994407) (xy 134.774012 117.994407)
        (xy 136 119.220395) (xy 137.225988 117.994407) (xy 137.084522 117.691218) (xy 136.656461 117.525594) (xy 146.615 117.525594)
        (xy 146.615 118.474406) (xy 146.978095 119.350994) (xy 147.649006 120.021905) (xy 148.525594 120.385) (xy 149.474406 120.385)
        (xy 150.350994 120.021905) (xy 151.021905 119.350994) (xy 151.311217 118.652532) (xy 154.027073 118.652532) (xy 154.125736 118.919387)
        (xy 154.735461 119.145908) (xy 155.38546 119.121856) (xy 155.554216 119.051955) (xy 160.006263 119.051955) (xy 160.024836 119.841418)
        (xy 160.291218 120.484522) (xy 160.594407 120.625988) (xy 161.820395 119.4) (xy 162.179605 119.4) (xy 163.405593 120.625988)
        (xy 163.708782 120.484522) (xy 163.993737 119.748045) (xy 163.975164 118.958582) (xy 163.708782 118.315478) (xy 163.405593 118.174012)
        (xy 162.179605 119.4) (xy 161.820395 119.4) (xy 160.594407 118.174012) (xy 160.291218 118.315478) (xy 160.006263 119.051955)
        (xy 155.554216 119.051955) (xy 155.874264 118.919387) (xy 155.972927 118.652532) (xy 155 117.679605) (xy 154.027073 118.652532)
        (xy 151.311217 118.652532) (xy 151.385 118.474406) (xy 151.385 117.525594) (xy 151.264823 117.235461) (xy 153.354092 117.235461)
        (xy 153.378144 117.88546) (xy 153.580613 118.374264) (xy 153.847468 118.472927) (xy 154.820395 117.5) (xy 155.179605 117.5)
        (xy 156.152532 118.472927) (xy 156.419387 118.374264) (xy 156.560508 117.994407) (xy 160.774012 117.994407) (xy 162 119.220395)
        (xy 163.225988 117.994407) (xy 163.084522 117.691218) (xy 162.348045 117.406263) (xy 161.558582 117.424836) (xy 160.915478 117.691218)
        (xy 160.774012 117.994407) (xy 156.560508 117.994407) (xy 156.645908 117.764539) (xy 156.621856 117.11454) (xy 156.419387 116.625736)
        (xy 156.152532 116.527073) (xy 155.179605 117.5) (xy 154.820395 117.5) (xy 153.847468 116.527073) (xy 153.580613 116.625736)
        (xy 153.354092 117.235461) (xy 151.264823 117.235461) (xy 151.021905 116.649006) (xy 150.350994 115.978095) (xy 149.474406 115.615)
        (xy 148.525594 115.615) (xy 147.649006 115.978095) (xy 146.978095 116.649006) (xy 146.615 117.525594) (xy 136.656461 117.525594)
        (xy 136.348045 117.406263) (xy 135.558582 117.424836) (xy 134.915478 117.691218) (xy 134.774012 117.994407) (xy 130.560508 117.994407)
        (xy 130.645908 117.764539) (xy 130.621856 117.11454) (xy 130.419387 116.625736) (xy 130.152532 116.527073) (xy 129.179605 117.5)
        (xy 128.820395 117.5) (xy 127.847468 116.527073) (xy 127.580613 116.625736) (xy 127.354092 117.235461) (xy 126.71 117.235461)
        (xy 126.71 112.174778) (xy 127.365 112.174778) (xy 127.365 112.825222) (xy 127.613914 113.426153) (xy 127.937761 113.75)
        (xy 127.613914 114.073847) (xy 127.365 114.674778) (xy 127.365 115.325222) (xy 127.613914 115.926153) (xy 128.029275 116.341514)
        (xy 128.027073 116.347468) (xy 129 117.320395) (xy 129.972927 116.347468) (xy 129.970725 116.341514) (xy 130.386086 115.926153)
        (xy 130.635 115.325222) (xy 130.635 114.674778) (xy 130.386086 114.073847) (xy 130.062239 113.75) (xy 130.386086 113.426153)
        (xy 130.635 112.825222) (xy 130.635 112.174778) (xy 130.564922 112.005593) (xy 134.774012 112.005593) (xy 134.915478 112.308782)
        (xy 135.651955 112.593737) (xy 136.441418 112.575164) (xy 137.084522 112.308782) (xy 137.225988 112.005593) (xy 136 110.779605)
        (xy 134.774012 112.005593) (xy 130.564922 112.005593) (xy 130.386086 111.573847) (xy 129.926153 111.113914) (xy 129.325222 110.865)
        (xy 128.674778 110.865) (xy 128.073847 111.113914) (xy 127.613914 111.573847) (xy 127.365 112.174778) (xy 126.71 112.174778)
        (xy 126.71 110.251955) (xy 134.006263 110.251955) (xy 134.024836 111.041418) (xy 134.291218 111.684522) (xy 134.594407 111.825988)
        (xy 135.820395 110.6) (xy 136.179605 110.6) (xy 137.405593 111.825988) (xy 137.708782 111.684522) (xy 137.993737 110.948045)
        (xy 137.975164 110.158582) (xy 137.708782 109.515478) (xy 137.67561 109.5) (xy 148.35256 109.5) (xy 148.35256 110.5)
        (xy 148.401843 110.747765) (xy 148.542191 110.957809) (xy 148.752235 111.098157) (xy 149 111.14744) (xy 150 111.14744)
        (xy 150.247765 111.098157) (xy 150.457809 110.957809) (xy 150.598157 110.747765) (xy 150.64744 110.5) (xy 150.64744 109.5)
        (xy 150.598157 109.252235) (xy 150.539322 109.164183) (xy 150.594119 109.031874) (xy 150.467954 108.857) (xy 150.022322 108.857)
        (xy 150 108.85256) (xy 149 108.85256) (xy 148.977678 108.857) (xy 148.532046 108.857) (xy 148.405881 109.031874)
        (xy 148.460678 109.164183) (xy 148.401843 109.252235) (xy 148.35256 109.5) (xy 137.67561 109.5) (xy 137.405593 109.374012)
        (xy 136.179605 110.6) (xy 135.820395 110.6) (xy 134.594407 109.374012) (xy 134.291218 109.515478) (xy 134.006263 110.251955)
        (xy 126.71 110.251955) (xy 126.71 109.194407) (xy 134.774012 109.194407) (xy 136 110.420395) (xy 137.225988 109.194407)
        (xy 137.084522 108.891218) (xy 136.348045 108.606263) (xy 135.558582 108.624836) (xy 134.915478 108.891218) (xy 134.774012 109.194407)
        (xy 126.71 109.194407) (xy 126.71 107.55244) (xy 129.75 107.55244) (xy 129.812541 107.54) (xy 131.008593 107.54)
        (xy 131.145 107.567133) (xy 131.281407 107.54) (xy 131.6854 107.459641) (xy 132.143529 107.153529) (xy 132.2208 107.037885)
        (xy 132.965797 106.292888) (xy 133.034544 106.19) (xy 148.342765 106.19) (xy 148.430854 106.632855) (xy 148.559241 106.825)
        (xy 148.430854 107.017145) (xy 148.342765 107.46) (xy 148.430854 107.902855) (xy 148.567199 108.10691) (xy 148.512873 108.169791)
        (xy 148.405881 108.428126) (xy 148.532046 108.603) (xy 149.373 108.603) (xy 149.373 108.591973) (xy 149.388217 108.595)
        (xy 149.611783 108.595) (xy 149.627 108.591973) (xy 149.627 108.603) (xy 150.467954 108.603) (xy 150.594119 108.428126)
        (xy 150.487127 108.169791) (xy 150.432801 108.10691) (xy 150.569146 107.902855) (xy 150.657235 107.46) (xy 150.643558 107.391243)
        (xy 152.235847 105.798956) (xy 152.569116 105.937) (xy 152.91 105.937) (xy 152.910001 113.126304) (xy 152.74502 113.291285)
        (xy 152.578947 113.291285) (xy 152.198541 113.448854) (xy 151.90739 113.740005) (xy 151.749821 114.120411) (xy 151.749821 114.532159)
        (xy 151.90739 114.912565) (xy 152.198541 115.203716) (xy 152.578947 115.361285) (xy 152.990695 115.361285) (xy 153.365 115.206243)
        (xy 153.365 115.325222) (xy 153.613914 115.926153) (xy 154.029275 116.341514) (xy 154.027073 116.347468) (xy 155 117.320395)
        (xy 155.972927 116.347468) (xy 155.970725 116.341514) (xy 156.386086 115.926153) (xy 156.635 115.325222) (xy 156.635 114.674778)
        (xy 156.566177 114.508625) (xy 156.590328 114.484474) (xy 156.59033 114.484471) (xy 156.809471 114.26533) (xy 156.87293 114.222928)
        (xy 157.040905 113.971536) (xy 157.085001 113.749851) (xy 157.085001 113.749847) (xy 157.099889 113.675) (xy 157.085001 113.600153)
        (xy 157.085001 112.005593) (xy 160.774012 112.005593) (xy 160.915478 112.308782) (xy 161.651955 112.593737) (xy 162.441418 112.575164)
        (xy 163.084522 112.308782) (xy 163.225988 112.005593) (xy 162 110.779605) (xy 160.774012 112.005593) (xy 157.085001 112.005593)
        (xy 157.085001 110.316166) (xy 157.126451 110.416235) (xy 157.417602 110.707386) (xy 157.798008 110.864955) (xy 158.209756 110.864955)
        (xy 158.590162 110.707386) (xy 158.881313 110.416235) (xy 158.949359 110.251955) (xy 160.006263 110.251955) (xy 160.024836 111.041418)
        (xy 160.291218 111.684522) (xy 160.594407 111.825988) (xy 161.820395 110.6) (xy 162.179605 110.6) (xy 163.405593 111.825988)
        (xy 163.708782 111.684522) (xy 163.993737 110.948045) (xy 163.975164 110.158582) (xy 163.708782 109.515478) (xy 163.405593 109.374012)
        (xy 162.179605 110.6) (xy 161.820395 110.6) (xy 160.594407 109.374012) (xy 160.291218 109.515478) (xy 160.006263 110.251955)
        (xy 158.949359 110.251955) (xy 159.038882 110.035829) (xy 159.038882 109.624081) (xy 158.881313 109.243675) (xy 158.832045 109.194407)
        (xy 160.774012 109.194407) (xy 162 110.420395) (xy 163.225988 109.194407) (xy 163.084522 108.891218) (xy 162.348045 108.606263)
        (xy 161.558582 108.624836) (xy 160.915478 108.891218) (xy 160.774012 109.194407) (xy 158.832045 109.194407) (xy 158.590162 108.952524)
        (xy 158.209756 108.794955) (xy 158.043683 108.794955) (xy 157.986 108.737272) (xy 157.986 106.113711) (xy 158.103431 105.99628)
        (xy 158.261 105.615874) (xy 158.261 105.204126) (xy 158.103431 104.82372) (xy 157.81228 104.532569) (xy 157.431874 104.375)
        (xy 157.020126 104.375) (xy 156.63972 104.532569) (xy 156.348569 104.82372) (xy 156.191 105.204126) (xy 156.191 105.615874)
        (xy 156.210806 105.663689) (xy 155.881271 105.334155) (xy 155.975 105.107874) (xy 155.975 104.696126) (xy 155.817431 104.31572)
        (xy 155.52628 104.024569) (xy 155.145874 103.867) (xy 154.734126 103.867) (xy 154.705 103.879064) (xy 154.705 103.701236)
        (xy 154.547431 103.32083) (xy 154.25628 103.029679) (xy 153.875874 102.87211) (xy 153.464126 102.87211) (xy 153.08372 103.029679)
        (xy 152.792569 103.32083) (xy 152.635 103.701236) (xy 152.635 103.867) (xy 152.569116 103.867) (xy 152.18871 104.024569)
        (xy 152.081494 104.131785) (xy 152.057999 104.127112) (xy 151.983152 104.142) (xy 151.983148 104.142) (xy 151.761463 104.186096)
        (xy 151.761461 104.186097) (xy 151.761462 104.186097) (xy 151.573526 104.311671) (xy 151.573524 104.311673) (xy 151.510071 104.354071)
        (xy 151.467673 104.417524) (xy 150.396474 105.488724) (xy 150.318289 105.371711) (xy 149.942855 105.120854) (xy 149.611783 105.055)
        (xy 149.388217 105.055) (xy 149.057145 105.120854) (xy 148.681711 105.371711) (xy 148.430854 105.747145) (xy 148.342765 106.19)
        (xy 133.034544 106.19) (xy 133.19464 105.950401) (xy 133.302133 105.410001) (xy 133.19464 104.869601) (xy 132.888528 104.411472)
        (xy 132.430399 104.10536) (xy 131.889999 103.997867) (xy 131.349599 104.10536) (xy 131.007112 104.334203) (xy 130.571315 104.77)
        (xy 129.876309 104.77) (xy 130.109698 104.673327) (xy 130.288327 104.494699) (xy 130.385 104.26131) (xy 130.385 103.67075)
        (xy 130.22625 103.512) (xy 128.127 103.512) (xy 128.127 103.532) (xy 127.873 103.532) (xy 127.873 103.512)
        (xy 127.853 103.512) (xy 127.853 103.258) (xy 127.873 103.258) (xy 127.873 102.15875) (xy 127.71425 102)
        (xy 127.873 101.84125) (xy 127.873 100.742) (xy 128.127 100.742) (xy 128.127 101.84125) (xy 128.28575 102)
        (xy 128.127 102.15875) (xy 128.127 103.258) (xy 130.22625 103.258) (xy 130.385 103.09925) (xy 130.385 102.50869)
        (xy 130.288327 102.275301) (xy 130.109698 102.096673) (xy 129.876309 102) (xy 130.109698 101.903327) (xy 130.288327 101.724699)
        (xy 130.370799 101.525594) (xy 131.615 101.525594) (xy 131.615 102.474406) (xy 131.978095 103.350994) (xy 132.649006 104.021905)
        (xy 133.525594 104.385) (xy 134.474406 104.385) (xy 135.350994 104.021905) (xy 136.021905 103.350994) (xy 136.385 102.474406)
        (xy 136.385 101.525594) (xy 161.615 101.525594) (xy 161.615 102.474406) (xy 161.978095 103.350994) (xy 162.649006 104.021905)
        (xy 163.525594 104.385) (xy 164.474406 104.385) (xy 165.350994 104.021905) (xy 166.021905 103.350994) (xy 166.385 102.474406)
        (xy 166.385 101.525594) (xy 166.126181 100.90075) (xy 166.615 100.90075) (xy 166.615 101.49131) (xy 166.711673 101.724699)
        (xy 166.890302 101.903327) (xy 167.123691 102) (xy 166.890302 102.096673) (xy 166.711673 102.275301) (xy 166.615 102.50869)
        (xy 166.615 103.09925) (xy 166.77375 103.258) (xy 169.373 103.258) (xy 169.373 102.15875) (xy 169.21425 102)
        (xy 169.373 101.84125) (xy 169.373 100.742) (xy 166.77375 100.742) (xy 166.615 100.90075) (xy 166.126181 100.90075)
        (xy 166.021905 100.649006) (xy 165.350994 99.978095) (xy 164.474406 99.615) (xy 163.525594 99.615) (xy 162.649006 99.978095)
        (xy 161.978095 100.649006) (xy 161.615 101.525594) (xy 136.385 101.525594) (xy 136.021905 100.649006) (xy 135.350994 99.978095)
        (xy 134.474406 99.615) (xy 133.525594 99.615) (xy 132.649006 99.978095) (xy 131.978095 100.649006) (xy 131.615 101.525594)
        (xy 130.370799 101.525594) (xy 130.385 101.49131) (xy 130.385 100.90075) (xy 130.22625 100.742) (xy 128.127 100.742)
        (xy 127.873 100.742) (xy 127.853 100.742) (xy 127.853 100.488) (xy 127.873 100.488) (xy 127.873 100.468)
        (xy 128.127 100.468) (xy 128.127 100.488) (xy 130.22625 100.488) (xy 130.385 100.32925) (xy 130.385 99.73869)
        (xy 130.288327 99.505301) (xy 130.109698 99.326673) (xy 129.876309 99.23) (xy 130.880593 99.23) (xy 131.017 99.257133)
        (xy 131.153407 99.23) (xy 131.5574 99.149641) (xy 132.015529 98.843529) (xy 132.0928 98.727885) (xy 132.901797 97.918888)
        (xy 133.130641 97.5764) (xy 133.238133 97.036) (xy 133.130641 96.4956) (xy 132.824528 96.037472) (xy 132.3664 95.731359)
        (xy 131.826 95.623867) (xy 131.2856 95.731359) (xy 130.943112 95.960203) (xy 130.443315 96.46) (xy 129.812541 96.46)
        (xy 129.75 96.44756) (xy 126.71 96.44756) (xy 126.71 94.805593) (xy 134.774012 94.805593) (xy 134.915478 95.108782)
        (xy 135.651955 95.393737) (xy 136.441418 95.375164) (xy 137.084522 95.108782) (xy 137.225988 94.805593) (xy 136 93.579605)
        (xy 134.774012 94.805593) (xy 126.71 94.805593) (xy 126.71 92.652532) (xy 128.027073 92.652532) (xy 128.125736 92.919387)
        (xy 128.735461 93.145908) (xy 129.38546 93.121856) (xy 129.554216 93.051955) (xy 134.006263 93.051955) (xy 134.024836 93.841418)
        (xy 134.291218 94.484522) (xy 134.594407 94.625988) (xy 135.820395 93.4) (xy 136.179605 93.4) (xy 137.405593 94.625988)
        (xy 137.708782 94.484522) (xy 137.916721 93.947094) (xy 150.055148 93.947094) (xy 150.055148 94.358842) (xy 150.212717 94.739248)
        (xy 150.330149 94.85668) (xy 150.330148 97.929301) (xy 150.31526 98.004148) (xy 150.330148 98.078995) (xy 150.330148 98.078999)
        (xy 150.374244 98.300684) (xy 150.542219 98.552077) (xy 150.605678 98.594479) (xy 150.857 98.845801) (xy 150.857 99.011874)
        (xy 151.014569 99.39228) (xy 151.30572 99.683431) (xy 151.686126 99.841) (xy 152.097874 99.841) (xy 152.47828 99.683431)
        (xy 152.769431 99.39228) (xy 152.809307 99.29601) (xy 153.200682 99.29601) (xy 153.581088 99.138441) (xy 153.626802 99.092728)
        (xy 153.672515 99.138441) (xy 154.052921 99.29601) (xy 154.464669 99.29601) (xy 154.845075 99.138441) (xy 155.136226 98.84729)
        (xy 155.293795 98.466884) (xy 155.293795 98.055136) (xy 155.136226 97.67473) (xy 154.938 97.476504) (xy 154.938 94.805593)
        (xy 160.774012 94.805593) (xy 160.915478 95.108782) (xy 161.651955 95.393737) (xy 162.441418 95.375164) (xy 163.084522 95.108782)
        (xy 163.225988 94.805593) (xy 162 93.579605) (xy 160.774012 94.805593) (xy 154.938 94.805593) (xy 154.938 94.660677)
        (xy 155.055431 94.543246) (xy 155.213 94.16284) (xy 155.213 93.751092) (xy 155.055431 93.370686) (xy 154.827256 93.142511)
        (xy 155.38546 93.121856) (xy 155.554216 93.051955) (xy 160.006263 93.051955) (xy 160.024836 93.841418) (xy 160.291218 94.484522)
        (xy 160.594407 94.625988) (xy 161.820395 93.4) (xy 162.179605 93.4) (xy 163.405593 94.625988) (xy 163.708782 94.484522)
        (xy 163.993737 93.748045) (xy 163.975164 92.958582) (xy 163.708782 92.315478) (xy 163.405593 92.174012) (xy 162.179605 93.4)
        (xy 161.820395 93.4) (xy 160.594407 92.174012) (xy 160.291218 92.315478) (xy 160.006263 93.051955) (xy 155.554216 93.051955)
        (xy 155.874264 92.919387) (xy 155.972927 92.652532) (xy 155 91.679605) (xy 154.027073 92.652532) (xy 154.125736 92.919387)
        (xy 154.132678 92.921966) (xy 153.972126 92.921966) (xy 153.59172 93.079535) (xy 153.300569 93.370686) (xy 153.291864 93.391703)
        (xy 153.016687 93.116526) (xy 152.636281 92.958957) (xy 152.224533 92.958957) (xy 151.844127 93.116526) (xy 151.680772 93.279881)
        (xy 151.676428 93.275537) (xy 151.296022 93.117968) (xy 150.884274 93.117968) (xy 150.503868 93.275537) (xy 150.212717 93.566688)
        (xy 150.055148 93.947094) (xy 137.916721 93.947094) (xy 137.993737 93.748045) (xy 137.975164 92.958582) (xy 137.708782 92.315478)
        (xy 137.405593 92.174012) (xy 136.179605 93.4) (xy 135.820395 93.4) (xy 134.594407 92.174012) (xy 134.291218 92.315478)
        (xy 134.006263 93.051955) (xy 129.554216 93.051955) (xy 129.874264 92.919387) (xy 129.972927 92.652532) (xy 129 91.679605)
        (xy 128.027073 92.652532) (xy 126.71 92.652532) (xy 126.71 91.235461) (xy 127.354092 91.235461) (xy 127.378144 91.88546)
        (xy 127.580613 92.374264) (xy 127.847468 92.472927) (xy 128.820395 91.5) (xy 129.179605 91.5) (xy 130.152532 92.472927)
        (xy 130.419387 92.374264) (xy 130.560508 91.994407) (xy 134.774012 91.994407) (xy 136 93.220395) (xy 137.225988 91.994407)
        (xy 137.084522 91.691218) (xy 136.348045 91.406263) (xy 135.558582 91.424836) (xy 134.915478 91.691218) (xy 134.774012 91.994407)
        (xy 130.560508 91.994407) (xy 130.645908 91.764539) (xy 130.626331 91.235461) (xy 153.354092 91.235461) (xy 153.378144 91.88546)
        (xy 153.580613 92.374264) (xy 153.847468 92.472927) (xy 154.820395 91.5) (xy 155.179605 91.5) (xy 156.152532 92.472927)
        (xy 156.419387 92.374264) (xy 156.560508 91.994407) (xy 160.774012 91.994407) (xy 162 93.220395) (xy 163.225988 91.994407)
        (xy 163.084522 91.691218) (xy 162.348045 91.406263) (xy 161.558582 91.424836) (xy 160.915478 91.691218) (xy 160.774012 91.994407)
        (xy 156.560508 91.994407) (xy 156.645908 91.764539) (xy 156.621856 91.11454) (xy 156.419387 90.625736) (xy 156.152532 90.527073)
        (xy 155.179605 91.5) (xy 154.820395 91.5) (xy 153.847468 90.527073) (xy 153.580613 90.625736) (xy 153.354092 91.235461)
        (xy 130.626331 91.235461) (xy 130.621856 91.11454) (xy 130.419387 90.625736) (xy 130.152532 90.527073) (xy 129.179605 91.5)
        (xy 128.820395 91.5) (xy 127.847468 90.527073) (xy 127.580613 90.625736) (xy 127.354092 91.235461) (xy 126.71 91.235461)
        (xy 126.71 86.174778) (xy 127.365 86.174778) (xy 127.365 86.825222) (xy 127.613914 87.426153) (xy 127.937761 87.75)
        (xy 127.613914 88.073847) (xy 127.365 88.674778) (xy 127.365 89.325222) (xy 127.613914 89.926153) (xy 128.029275 90.341514)
        (xy 128.027073 90.347468) (xy 129 91.320395) (xy 129.972927 90.347468) (xy 129.970725 90.341514) (xy 130.386086 89.926153)
        (xy 130.635 89.325222) (xy 130.635 88.674778) (xy 130.386086 88.073847) (xy 130.062239 87.75) (xy 130.386086 87.426153)
        (xy 130.635 86.825222) (xy 130.635 86.174778) (xy 130.564922 86.005593) (xy 134.774012 86.005593) (xy 134.915478 86.308782)
        (xy 135.651955 86.593737) (xy 136.441418 86.575164) (xy 137.084522 86.308782) (xy 137.225988 86.005593) (xy 136 84.779605)
        (xy 134.774012 86.005593) (xy 130.564922 86.005593) (xy 130.386086 85.573847) (xy 129.926153 85.113914) (xy 129.325222 84.865)
        (xy 128.674778 84.865) (xy 128.073847 85.113914) (xy 127.613914 85.573847) (xy 127.365 86.174778) (xy 126.71 86.174778)
        (xy 126.71 84.251955) (xy 134.006263 84.251955) (xy 134.024836 85.041418) (xy 134.291218 85.684522) (xy 134.594407 85.825988)
        (xy 135.820395 84.6) (xy 136.179605 84.6) (xy 137.405593 85.825988) (xy 137.708782 85.684522) (xy 137.770273 85.525594)
        (xy 146.615 85.525594) (xy 146.615 86.474406) (xy 146.978095 87.350994) (xy 147.649006 88.021905) (xy 148.525594 88.385)
        (xy 149.474406 88.385) (xy 150.350994 88.021905) (xy 151.021905 87.350994) (xy 151.385 86.474406) (xy 151.385 86.174778)
        (xy 153.365 86.174778) (xy 153.365 86.825222) (xy 153.613914 87.426153) (xy 153.937761 87.75) (xy 153.613914 88.073847)
        (xy 153.365 88.674778) (xy 153.365 89.325222) (xy 153.613914 89.926153) (xy 154.029275 90.341514) (xy 154.027073 90.347468)
        (xy 155 91.320395) (xy 155.972927 90.347468) (xy 155.970725 90.341514) (xy 156.386086 89.926153) (xy 156.635 89.325222)
        (xy 156.635 88.674778) (xy 156.386086 88.073847) (xy 156.062239 87.75) (xy 156.386086 87.426153) (xy 156.635 86.825222)
        (xy 156.635 86.174778) (xy 156.564922 86.005593) (xy 160.774012 86.005593) (xy 160.915478 86.308782) (xy 161.651955 86.593737)
        (xy 162.441418 86.575164) (xy 163.084522 86.308782) (xy 163.225988 86.005593) (xy 162 84.779605) (xy 160.774012 86.005593)
        (xy 156.564922 86.005593) (xy 156.386086 85.573847) (xy 155.926153 85.113914) (xy 155.325222 84.865) (xy 154.674778 84.865)
        (xy 154.073847 85.113914) (xy 153.613914 85.573847) (xy 153.365 86.174778) (xy 151.385 86.174778) (xy 151.385 85.525594)
        (xy 151.021905 84.649006) (xy 150.624854 84.251955) (xy 160.006263 84.251955) (xy 160.024836 85.041418) (xy 160.291218 85.684522)
        (xy 160.594407 85.825988) (xy 161.820395 84.6) (xy 162.179605 84.6) (xy 163.405593 85.825988) (xy 163.708782 85.684522)
        (xy 163.993737 84.948045) (xy 163.975164 84.158582) (xy 163.708782 83.515478) (xy 163.405593 83.374012) (xy 162.179605 84.6)
        (xy 161.820395 84.6) (xy 160.594407 83.374012) (xy 160.291218 83.515478) (xy 160.006263 84.251955) (xy 150.624854 84.251955)
        (xy 150.350994 83.978095) (xy 149.474406 83.615) (xy 148.525594 83.615) (xy 147.649006 83.978095) (xy 146.978095 84.649006)
        (xy 146.615 85.525594) (xy 137.770273 85.525594) (xy 137.993737 84.948045) (xy 137.975164 84.158582) (xy 137.708782 83.515478)
        (xy 137.405593 83.374012) (xy 136.179605 84.6) (xy 135.820395 84.6) (xy 134.594407 83.374012) (xy 134.291218 83.515478)
        (xy 134.006263 84.251955) (xy 126.71 84.251955) (xy 126.71 82.71) (xy 135.352978 82.71)
      )
    )
  )
)
