EESchema Schematic File Version 4
LIBS:001_4x4_interconnect-cache
EELAYER 26 0
EELAYER END
$Descr A4 11693 8268
encoding utf-8
Sheet 1 1
Title ""
Date ""
Rev ""
Comp ""
Comment1 ""
Comment2 ""
Comment3 ""
Comment4 ""
$EndDescr
$Comp
L Br:Br_CN_IN J1
U 1 1 5D978D2E
P 3550 1800
F 0 "J1" H 3172 1747 60  0000 R CNN
F 1 "Br_CN_IN" H 3172 1853 60  0000 R CNN
F 2 "Br:Br_CN_IN" H 3425 1900 60  0001 C CNN
F 3 "" H 3425 1900 60  0001 C CNN
	1    3550 1800
	1    0    0    1   
$EndComp
$Comp
L Br:Br_CN_OUT J2
U 1 1 5D978CC9
P 6200 1800
F 0 "J2" H 6377 1846 50  0000 L CNN
F 1 "Br_CN_OUT" H 6377 1755 50  0000 L CNN
F 2 "Br:Br_CN_OUT" H 6200 2350 50  0001 C CNN
F 3 "" H 6200 2350 50  0001 C CNN
	1    6200 1800
	1    0    0    -1  
$EndComp
$Comp
L Br:GND #PWR0101
U 1 1 5D979092
P 4200 2500
F 0 "#PWR0101" H 4200 2250 50  0001 C CNN
F 1 "GND" H 4205 2327 50  0000 C CNN
F 2 "" H 4200 2500 50  0000 C CNN
F 3 "" H 4200 2500 50  0000 C CNN
	1    4200 2500
	1    0    0    -1  
$EndComp
$Comp
L BrkLibrary:5V #PWR0102
U 1 1 5D97912B
P 3900 2100
F 0 "#PWR0102" H 3900 1950 50  0001 C CNN
F 1 "5V" V 3915 2228 50  0000 L CNN
F 2 "" H 3900 2100 50  0000 C CNN
F 3 "" H 3900 2100 50  0000 C CNN
	1    3900 2100
	0    1    1    0   
$EndComp
$Comp
L Br:12V #PWR0103
U 1 1 5D97916E
P 3800 1400
F 0 "#PWR0103" H 3800 1250 50  0001 C CNN
F 1 "12V" V 3815 1528 50  0000 L CNN
F 2 "" H 3800 1400 50  0000 C CNN
F 3 "" H 3800 1400 50  0000 C CNN
	1    3800 1400
	0    1    1    0   
$EndComp
Text Notes 6100 1150 0    50   ~ 0
Female\n
Text Notes 3300 1200 0    50   ~ 0
Male\n
Text Label 3750 1800 0    50   ~ 0
UART_RX
Text Label 3750 1600 0    50   ~ 0
SPARE
Wire Wire Line
	3650 2100 3800 2100
Wire Wire Line
	3650 2000 3800 2000
Wire Wire Line
	3800 2000 3800 2100
Connection ~ 3800 2100
Wire Wire Line
	3800 2100 3900 2100
Wire Wire Line
	3700 1500 3700 1400
Wire Wire Line
	3700 1400 3800 1400
Wire Wire Line
	3650 1600 4100 1600
Text Label 3150 3400 0    50   ~ 0
UART_RX
Text Label 3700 3400 0    50   ~ 0
UART_TX
Text Notes 3350 3250 0    50   ~ 0
Interconnect
Wire Wire Line
	3150 3400 4000 3400
$Comp
L Br:GND #PWR0104
U 1 1 5D9C2B37
P 5300 2400
F 0 "#PWR0104" H 5300 2150 50  0001 C CNN
F 1 "GND" H 5305 2227 50  0000 C CNN
F 2 "" H 5300 2400 50  0000 C CNN
F 3 "" H 5300 2400 50  0000 C CNN
	1    5300 2400
	-1   0    0    -1  
$EndComp
$Comp
L BrkLibrary:5V #PWR0105
U 1 1 5D9C2B3D
P 5650 2100
F 0 "#PWR0105" H 5650 1950 50  0001 C CNN
F 1 "5V" V 5665 2228 50  0000 L CNN
F 2 "" H 5650 2100 50  0000 C CNN
F 3 "" H 5650 2100 50  0000 C CNN
	1    5650 2100
	0    -1   1    0   
$EndComp
$Comp
L Br:12V #PWR0106
U 1 1 5D9C2B43
P 5650 1400
F 0 "#PWR0106" H 5650 1250 50  0001 C CNN
F 1 "12V" V 5665 1528 50  0000 L CNN
F 2 "" H 5650 1400 50  0000 C CNN
F 3 "" H 5650 1400 50  0000 C CNN
	1    5650 1400
	0    -1   1    0   
$EndComp
Text Label 5800 1800 2    50   ~ 0
UART_TX
Text Label 5800 1600 2    50   ~ 0
SPARE
Wire Wire Line
	5900 2100 5750 2100
Wire Wire Line
	5900 2000 5750 2000
Wire Wire Line
	5750 2000 5750 2100
Connection ~ 5750 2100
Wire Wire Line
	5750 2100 5650 2100
Wire Wire Line
	5750 1500 5750 1400
Connection ~ 5750 1400
Wire Wire Line
	5750 1400 5650 1400
Wire Wire Line
	5900 1500 5750 1500
Wire Wire Line
	5900 1400 5750 1400
Wire Wire Line
	5900 1600 5450 1600
$Comp
L Br:Br_CN_OUT J3
U 1 1 5D9C46C3
P 6250 3350
F 0 "J3" H 6427 3396 50  0000 L CNN
F 1 "Br_CN_OUT" H 6427 3305 50  0000 L CNN
F 2 "Br:Br_CN_OUT" H 6250 3900 50  0001 C CNN
F 3 "" H 6250 3900 50  0001 C CNN
	1    6250 3350
	1    0    0    -1  
$EndComp
$Comp
L Br:Br_CN_OUT J4
U 1 1 5D9C866F
P 6250 5050
F 0 "J4" H 6427 5096 50  0000 L CNN
F 1 "Br_CN_OUT" H 6427 5005 50  0000 L CNN
F 2 "Br:Br_CN_OUT" H 6250 5600 50  0001 C CNN
F 3 "" H 6250 5600 50  0001 C CNN
	1    6250 5050
	1    0    0    -1  
$EndComp
$Comp
L Br:Hole3mm H1
U 1 1 5D9D377A
P 5600 6600
F 0 "H1" H 5677 6651 50  0000 L CNN
F 1 "Hole3mm" H 5677 6560 50  0000 L CNN
F 2 "Br:Hole3mm" H 5600 6600 50  0001 C CNN
F 3 "" H 5600 6600 50  0001 C CNN
	1    5600 6600
	1    0    0    -1  
$EndComp
$Comp
L Br:Hole3mm H3
U 1 1 5D9D37B0
P 6300 6600
F 0 "H3" H 6377 6651 50  0000 L CNN
F 1 "Hole3mm" H 6377 6560 50  0000 L CNN
F 2 "Br:Hole3mm" H 6300 6600 50  0001 C CNN
F 3 "" H 6300 6600 50  0001 C CNN
	1    6300 6600
	1    0    0    -1  
$EndComp
$Comp
L Br:Hole3mm H2
U 1 1 5D9D6260
P 5600 6850
F 0 "H2" H 5677 6901 50  0000 L CNN
F 1 "Hole3mm" H 5677 6810 50  0000 L CNN
F 2 "Br:Hole3mm" H 5600 6850 50  0001 C CNN
F 3 "" H 5600 6850 50  0001 C CNN
	1    5600 6850
	1    0    0    -1  
$EndComp
$Comp
L Br:Hole3mm H4
U 1 1 5D9D6266
P 6300 6850
F 0 "H4" H 6377 6901 50  0000 L CNN
F 1 "Hole3mm" H 6377 6810 50  0000 L CNN
F 2 "Br:Hole3mm" H 6300 6850 50  0001 C CNN
F 3 "" H 6300 6850 50  0001 C CNN
	1    6300 6850
	1    0    0    -1  
$EndComp
Wire Wire Line
	3700 1500 3650 1500
Wire Wire Line
	3650 1400 3700 1400
Connection ~ 3700 1400
Wire Wire Line
	4200 1900 4200 2200
Wire Wire Line
	3650 1900 4200 1900
Wire Wire Line
	4200 1900 4200 1700
Wire Wire Line
	3650 1700 4200 1700
Wire Wire Line
	3650 1800 4100 1800
Connection ~ 4200 1900
Wire Wire Line
	3650 2200 4200 2200
Connection ~ 4200 2200
Wire Wire Line
	4200 2200 4200 2500
Wire Wire Line
	5300 1700 5300 1900
Wire Wire Line
	5300 1700 5900 1700
Wire Wire Line
	5450 1800 5900 1800
Wire Wire Line
	5900 1900 5300 1900
Connection ~ 5300 1900
Wire Wire Line
	5300 1900 5300 2200
Wire Wire Line
	5900 2200 5300 2200
Connection ~ 5300 2200
Wire Wire Line
	5300 2200 5300 2400
$Comp
L Br:GND #PWR?
U 1 1 5D9E7626
P 5350 3950
F 0 "#PWR?" H 5350 3700 50  0001 C CNN
F 1 "GND" H 5355 3777 50  0000 C CNN
F 2 "" H 5350 3950 50  0000 C CNN
F 3 "" H 5350 3950 50  0000 C CNN
	1    5350 3950
	-1   0    0    -1  
$EndComp
$Comp
L BrkLibrary:5V #PWR?
U 1 1 5D9E762C
P 5700 3650
F 0 "#PWR?" H 5700 3500 50  0001 C CNN
F 1 "5V" V 5715 3778 50  0000 L CNN
F 2 "" H 5700 3650 50  0000 C CNN
F 3 "" H 5700 3650 50  0000 C CNN
	1    5700 3650
	0    -1   1    0   
$EndComp
$Comp
L Br:12V #PWR?
U 1 1 5D9E7632
P 5700 2950
F 0 "#PWR?" H 5700 2800 50  0001 C CNN
F 1 "12V" V 5715 3078 50  0000 L CNN
F 2 "" H 5700 2950 50  0000 C CNN
F 3 "" H 5700 2950 50  0000 C CNN
	1    5700 2950
	0    -1   1    0   
$EndComp
Text Label 5850 3350 2    50   ~ 0
UART_TX
Text Label 5850 3150 2    50   ~ 0
SPARE
Wire Wire Line
	5950 3650 5800 3650
Wire Wire Line
	5950 3550 5800 3550
Wire Wire Line
	5800 3550 5800 3650
Connection ~ 5800 3650
Wire Wire Line
	5800 3650 5700 3650
Wire Wire Line
	5800 3050 5800 2950
Connection ~ 5800 2950
Wire Wire Line
	5800 2950 5700 2950
Wire Wire Line
	5950 3050 5800 3050
Wire Wire Line
	5950 2950 5800 2950
Wire Wire Line
	5950 3150 5500 3150
Wire Wire Line
	5350 3250 5350 3450
Wire Wire Line
	5350 3250 5950 3250
Wire Wire Line
	5500 3350 5950 3350
Wire Wire Line
	5950 3450 5350 3450
Connection ~ 5350 3450
Wire Wire Line
	5350 3450 5350 3750
Wire Wire Line
	5950 3750 5350 3750
Connection ~ 5350 3750
Wire Wire Line
	5350 3750 5350 3950
$Comp
L Br:GND #PWR?
U 1 1 5D9E8157
P 5350 5650
F 0 "#PWR?" H 5350 5400 50  0001 C CNN
F 1 "GND" H 5355 5477 50  0000 C CNN
F 2 "" H 5350 5650 50  0000 C CNN
F 3 "" H 5350 5650 50  0000 C CNN
	1    5350 5650
	-1   0    0    -1  
$EndComp
$Comp
L BrkLibrary:5V #PWR?
U 1 1 5D9E815D
P 5700 5350
F 0 "#PWR?" H 5700 5200 50  0001 C CNN
F 1 "5V" V 5715 5478 50  0000 L CNN
F 2 "" H 5700 5350 50  0000 C CNN
F 3 "" H 5700 5350 50  0000 C CNN
	1    5700 5350
	0    -1   1    0   
$EndComp
$Comp
L Br:12V #PWR?
U 1 1 5D9E8163
P 5700 4650
F 0 "#PWR?" H 5700 4500 50  0001 C CNN
F 1 "12V" V 5715 4778 50  0000 L CNN
F 2 "" H 5700 4650 50  0000 C CNN
F 3 "" H 5700 4650 50  0000 C CNN
	1    5700 4650
	0    -1   1    0   
$EndComp
Text Label 5850 5050 2    50   ~ 0
UART_TX
Text Label 5850 4850 2    50   ~ 0
SPARE
Wire Wire Line
	5950 5350 5800 5350
Wire Wire Line
	5950 5250 5800 5250
Wire Wire Line
	5800 5250 5800 5350
Connection ~ 5800 5350
Wire Wire Line
	5800 5350 5700 5350
Wire Wire Line
	5800 4750 5800 4650
Connection ~ 5800 4650
Wire Wire Line
	5800 4650 5700 4650
Wire Wire Line
	5950 4750 5800 4750
Wire Wire Line
	5950 4650 5800 4650
Wire Wire Line
	5950 4850 5500 4850
Wire Wire Line
	5350 4950 5350 5150
Wire Wire Line
	5350 4950 5950 4950
Wire Wire Line
	5500 5050 5950 5050
Wire Wire Line
	5950 5150 5350 5150
Connection ~ 5350 5150
Wire Wire Line
	5350 5150 5350 5450
Wire Wire Line
	5950 5450 5350 5450
Connection ~ 5350 5450
Wire Wire Line
	5350 5450 5350 5650
$EndSCHEMATC
