(kicad_pcb (version 20171130) (host pcbnew "(5.0.0)")

  (general
    (thickness 1.6)
    (drawings 16)
    (tracks 191)
    (zones 0)
    (modules 19)
    (nets 32)
  )

  (page A4)
  (layers
    (0 F.Cu signal)
    (31 B.Cu signal)
    (32 B.Adhes user)
    (33 F.Adhes user)
    (34 B.Paste user)
    (35 F.Paste user)
    (36 B.SilkS user)
    (37 F.SilkS user)
    (38 B.Mask user)
    (39 F.Mask user)
    (40 Dwgs.User user)
    (41 Cmts.User user)
    (42 Eco1.User user)
    (43 Eco2.User user)
    (44 Edge.Cuts user)
    (45 Margin user)
    (46 B.CrtYd user)
    (47 F.CrtYd user)
    (48 B.Fab user)
    (49 F.Fab user hide)
  )

  (setup
    (last_trace_width 0.25)
    (user_trace_width 1.5)
    (user_trace_width 2)
    (trace_clearance 0.2)
    (zone_clearance 0.508)
    (zone_45_only no)
    (trace_min 0.2)
    (segment_width 0.2)
    (edge_width 0.15)
    (via_size 0.8)
    (via_drill 0.4)
    (via_min_size 0.4)
    (via_min_drill 0.3)
    (uvia_size 0.3)
    (uvia_drill 0.1)
    (uvias_allowed no)
    (uvia_min_size 0.2)
    (uvia_min_drill 0.1)
    (pcb_text_width 0.3)
    (pcb_text_size 1.5 1.5)
    (mod_edge_width 0.15)
    (mod_text_size 1 1)
    (mod_text_width 0.15)
    (pad_size 1.524 1.524)
    (pad_drill 0.762)
    (pad_to_mask_clearance 0.2)
    (aux_axis_origin 0 0)
    (visible_elements 7FFFFFFF)
    (pcbplotparams
      (layerselection 0x010e0_ffffffff)
      (usegerberextensions false)
      (usegerberattributes false)
      (usegerberadvancedattributes false)
      (creategerberjobfile false)
      (excludeedgelayer true)
      (linewidth 0.100000)
      (plotframeref false)
      (viasonmask false)
      (mode 1)
      (useauxorigin false)
      (hpglpennumber 1)
      (hpglpenspeed 20)
      (hpglpendiameter 15.000000)
      (psnegative false)
      (psa4output false)
      (plotreference true)
      (plotvalue true)
      (plotinvisibletext false)
      (padsonsilk false)
      (subtractmaskfromsilk false)
      (outputformat 1)
      (mirror false)
      (drillshape 0)
      (scaleselection 1)
      (outputdirectory "FabOutput/"))
  )

  (net 0 "")
  (net 1 12V)
  (net 2 /SPARE)
  (net 3 GND)
  (net 4 5V)
  (net 5 "Net-(H1-Pad1)")
  (net 6 "Net-(H2-Pad1)")
  (net 7 "Net-(H3-Pad1)")
  (net 8 "Net-(H4-Pad1)")
  (net 9 /UART_RX)
  (net 10 /UART_TX)
  (net 11 /SWIM)
  (net 12 /NRST)
  (net 13 "Net-(U1-Pad5)")
  (net 14 "Net-(U1-Pad6)")
  (net 15 3V3)
  (net 16 "Net-(U1-Pad10)")
  (net 17 "Net-(U1-Pad13)")
  (net 18 "Net-(U1-Pad14)")
  (net 19 "Net-(U1-Pad15)")
  (net 20 "Net-(U1-Pad16)")
  (net 21 "Net-(U1-Pad17)")
  (net 22 "Net-(U1-Pad18)")
  (net 23 "Net-(U1-Pad19)")
  (net 24 "Net-(U1-Pad20)")
  (net 25 "Net-(D1-Pad2)")
  (net 26 /5V_In)
  (net 27 /CPU_TX)
  (net 28 /CPU_RX)
  (net 29 /Buzzer)
  (net 30 "Net-(U1-Pad11)")
  (net 31 "Net-(U1-Pad9)")

  (net_class Default "This is the default net class."
    (clearance 0.2)
    (trace_width 0.25)
    (via_dia 0.8)
    (via_drill 0.4)
    (uvia_dia 0.3)
    (uvia_drill 0.1)
    (add_net /5V_In)
    (add_net /Buzzer)
    (add_net /CPU_RX)
    (add_net /CPU_TX)
    (add_net /NRST)
    (add_net /SPARE)
    (add_net /SWIM)
    (add_net /UART_RX)
    (add_net /UART_TX)
    (add_net 12V)
    (add_net 3V3)
    (add_net 5V)
    (add_net GND)
    (add_net "Net-(D1-Pad2)")
    (add_net "Net-(H1-Pad1)")
    (add_net "Net-(H2-Pad1)")
    (add_net "Net-(H3-Pad1)")
    (add_net "Net-(H4-Pad1)")
    (add_net "Net-(U1-Pad10)")
    (add_net "Net-(U1-Pad11)")
    (add_net "Net-(U1-Pad13)")
    (add_net "Net-(U1-Pad14)")
    (add_net "Net-(U1-Pad15)")
    (add_net "Net-(U1-Pad16)")
    (add_net "Net-(U1-Pad17)")
    (add_net "Net-(U1-Pad18)")
    (add_net "Net-(U1-Pad19)")
    (add_net "Net-(U1-Pad20)")
    (add_net "Net-(U1-Pad5)")
    (add_net "Net-(U1-Pad6)")
    (add_net "Net-(U1-Pad9)")
  )

  (module Br:C_0805 (layer F.Cu) (tedit 5DE623F4) (tstamp 5E0E6134)
    (at 141.351 111.776 90)
    (descr "Capacitor SMD 0805, reflow soldering, AVX (see smccp.pdf)")
    (tags "capacitor 0805")
    (path /5E0E7BD0)
    (attr smd)
    (fp_text reference C2 (at 2.937 -1.016 90) (layer F.SilkS)
      (effects (font (size 1 1) (thickness 0.15)))
    )
    (fp_text value 100nF (at 0 2.1 90) (layer F.Fab)
      (effects (font (size 1 1) (thickness 0.15)))
    )
    (fp_line (start -0.5 0.85) (end 0.5 0.85) (layer F.SilkS) (width 0.15))
    (fp_line (start 0.5 -0.85) (end -0.5 -0.85) (layer F.SilkS) (width 0.15))
    (fp_line (start 1.8 -1) (end 1.8 1) (layer F.CrtYd) (width 0.05))
    (fp_line (start -1.8 -1) (end -1.8 1) (layer F.CrtYd) (width 0.05))
    (fp_line (start -1.8 1) (end 1.8 1) (layer F.CrtYd) (width 0.05))
    (fp_line (start -1.8 -1) (end 1.8 -1) (layer F.CrtYd) (width 0.05))
    (pad 2 smd rect (at 1 0 90) (size 1 1.25) (layers F.Cu F.Paste F.Mask)
      (net 3 GND))
    (pad 1 smd rect (at -1 0 90) (size 1 1.25) (layers F.Cu F.Paste F.Mask)
      (net 15 3V3))
    (model ${KISYS3DMOD}/C_0805.wrl
      (at (xyz 0 0 0))
      (scale (xyz 1 1 1))
      (rotate (xyz 0 0 0))
    )
  )

  (module Br:C_0805 (layer F.Cu) (tedit 5DE623F4) (tstamp 5E0E63F5)
    (at 147.971 112.014 180)
    (descr "Capacitor SMD 0805, reflow soldering, AVX (see smccp.pdf)")
    (tags "capacitor 0805")
    (path /5E0E7DA9)
    (attr smd)
    (fp_text reference C1 (at 2.683 1.143 180) (layer F.SilkS)
      (effects (font (size 1 1) (thickness 0.15)))
    )
    (fp_text value 100nF (at 0 2.1 180) (layer F.Fab)
      (effects (font (size 1 1) (thickness 0.15)))
    )
    (fp_line (start -0.5 0.85) (end 0.5 0.85) (layer F.SilkS) (width 0.15))
    (fp_line (start 0.5 -0.85) (end -0.5 -0.85) (layer F.SilkS) (width 0.15))
    (fp_line (start 1.8 -1) (end 1.8 1) (layer F.CrtYd) (width 0.05))
    (fp_line (start -1.8 -1) (end -1.8 1) (layer F.CrtYd) (width 0.05))
    (fp_line (start -1.8 1) (end 1.8 1) (layer F.CrtYd) (width 0.05))
    (fp_line (start -1.8 -1) (end 1.8 -1) (layer F.CrtYd) (width 0.05))
    (pad 2 smd rect (at 1 0 180) (size 1 1.25) (layers F.Cu F.Paste F.Mask)
      (net 3 GND))
    (pad 1 smd rect (at -1 0 180) (size 1 1.25) (layers F.Cu F.Paste F.Mask)
      (net 12 /NRST))
    (model ${KISYS3DMOD}/C_0805.wrl
      (at (xyz 0 0 0))
      (scale (xyz 1 1 1))
      (rotate (xyz 0 0 0))
    )
  )

  (module Br:ME_AUDIO_BUZZER_LD_BZPN_1705 (layer F.Cu) (tedit 58AB0CCF) (tstamp 5E0E5EA4)
    (at 148.463 101.981 180)
    (path /5E0E9953)
    (fp_text reference U3 (at 0 9.4 180) (layer F.SilkS)
      (effects (font (size 1 1) (thickness 0.15)))
    )
    (fp_text value ME_AUDIO_BUZZER_LD_BZPN_1705 (at -0.3 -1.8 180) (layer F.Fab)
      (effects (font (size 1 1) (thickness 0.15)))
    )
    (fp_circle (center 0 0) (end 8.5 0) (layer F.SilkS) (width 0.15))
    (pad 2 thru_hole circle (at 5 0 180) (size 1.524 1.524) (drill 0.9) (layers *.Cu *.Mask)
      (net 3 GND))
    (pad 1 thru_hole circle (at -5 0 180) (size 1.524 1.524) (drill 0.9) (layers *.Cu *.Mask)
      (net 29 /Buzzer))
  )

  (module Br:SOT-89-3 (layer F.Cu) (tedit 5DE627C8) (tstamp 5D9F8A8C)
    (at 142.24 116.84 270)
    (descr SOT-89-3)
    (tags SOT-89-3)
    (path /5D9C8DBA)
    (attr smd)
    (fp_text reference U2 (at -0.001161 3.198491 90) (layer F.SilkS)
      (effects (font (size 1 1) (thickness 0.15)))
    )
    (fp_text value ICP_HT7533-1 (at -0.001161 -3.251509 90) (layer F.Fab)
      (effects (font (size 1 1) (thickness 0.15)))
    )
    (fp_line (start -2.928839 2.551509) (end -2.928839 -2.548491) (layer F.CrtYd) (width 0.05))
    (fp_line (start -2.928839 2.551509) (end 2.781161 2.551509) (layer F.CrtYd) (width 0.05))
    (fp_line (start 2.781161 -2.548491) (end -2.928839 -2.548491) (layer F.CrtYd) (width 0.05))
    (fp_line (start 2.781161 -2.548491) (end 2.781161 2.551509) (layer F.CrtYd) (width 0.05))
    (fp_line (start -0.578839 -2.298491) (end 1.231161 -2.298491) (layer F.Fab) (width 0.1))
    (fp_line (start -1.368839 2.301509) (end -1.368839 -1.508491) (layer F.Fab) (width 0.1))
    (fp_line (start 1.231161 2.301509) (end -1.368839 2.301509) (layer F.Fab) (width 0.1))
    (fp_line (start 1.231161 -2.298491) (end 1.231161 2.301509) (layer F.Fab) (width 0.1))
    (fp_line (start -1.368839 -1.508491) (end -0.578839 -2.298491) (layer F.Fab) (width 0.1))
    (fp_line (start 1.331161 -2.398491) (end 1.331161 -1.198491) (layer F.SilkS) (width 0.12))
    (fp_line (start -2.668839 -2.398491) (end 1.331161 -2.398491) (layer F.SilkS) (width 0.12))
    (fp_line (start 1.331161 2.401509) (end -1.368839 2.401509) (layer F.SilkS) (width 0.12))
    (fp_line (start 1.331161 1.201509) (end 1.331161 2.401509) (layer F.SilkS) (width 0.12))
    (fp_text user %R (at -0.068839 0.001509) (layer F.Fab)
      (effects (font (size 0.6 0.6) (thickness 0.09)))
    )
    (pad 2 smd rect (at 0.51 0 180) (size 1.933 3.03) (layers F.Cu F.Paste F.Mask)
      (net 26 /5V_In))
    (pad 3 smd rect (at -1.635 1.5 180) (size 0.58 1.73) (layers F.Cu F.Paste F.Mask)
      (net 15 3V3))
    (pad 2 smd rect (at -1.75 0 180) (size 0.76 1.5) (layers F.Cu F.Paste F.Mask)
      (net 26 /5V_In))
    (pad 1 smd rect (at -1.635 -1.5 180) (size 0.58 1.73) (layers F.Cu F.Paste F.Mask)
      (net 3 GND))
    (model ${KISYS3DMOD}/SOT-89-3.wrl
      (at (xyz 0 0 0))
      (scale (xyz 1 1 1))
      (rotate (xyz 0 0 0))
    )
  )

  (module Br:TSSOP20 (layer F.Cu) (tedit 5DE62754) (tstamp 5D9D2AEC)
    (at 154.432 114.046 270)
    (path /5D9D4765)
    (solder_mask_margin 0.0762)
    (solder_paste_margin -0.0254)
    (attr smd)
    (fp_text reference U1 (at -4.064 0) (layer F.SilkS)
      (effects (font (size 0.762 0.762) (thickness 0.1524)))
    )
    (fp_text value ICD_STM8L051F3P6 (at 4.200396 0.098286) (layer F.Fab)
      (effects (font (size 0.762 0.762) (thickness 0.1524)))
    )
    (fp_line (start 3.400396 2.198286) (end 3.300396 2.198286) (layer F.SilkS) (width 0.15))
    (fp_line (start 3.400396 2.198286) (end 3.400396 -2.201714) (layer F.SilkS) (width 0.15))
    (fp_line (start 3.400396 -2.201714) (end 3.300396 -2.201714) (layer F.SilkS) (width 0.15))
    (fp_line (start -3.299604 -2.201714) (end -3.399604 -2.201714) (layer F.SilkS) (width 0.15))
    (fp_line (start -3.399604 -2.201714) (end -3.399604 2.198286) (layer F.SilkS) (width 0.15))
    (fp_line (start -3.399604 2.198286) (end -3.299604 2.198286) (layer F.SilkS) (width 0.15))
    (fp_line (start -3.299604 2.198286) (end -3.299604 2.998286) (layer F.SilkS) (width 0.15))
    (pad 20 smd rect (at -2.924604 -2.876714) (size 1.35 0.4) (layers F.Cu F.Paste F.SilkS F.Mask)
      (net 24 "Net-(U1-Pad20)"))
    (pad 19 smd rect (at -2.274604 -2.876714) (size 1.35 0.4) (layers F.Cu F.Paste F.SilkS F.Mask)
      (net 23 "Net-(U1-Pad19)"))
    (pad 18 smd rect (at -1.624604 -2.876714) (size 1.35 0.4) (layers F.Cu F.Paste F.SilkS F.Mask)
      (net 22 "Net-(U1-Pad18)"))
    (pad 17 smd rect (at -0.974604 -2.876714) (size 1.35 0.4) (layers F.Cu F.Paste F.SilkS F.Mask)
      (net 21 "Net-(U1-Pad17)"))
    (pad 16 smd rect (at -0.324604 -2.876714) (size 1.35 0.4) (layers F.Cu F.Paste F.SilkS F.Mask)
      (net 20 "Net-(U1-Pad16)"))
    (pad 15 smd rect (at 0.325396 -2.876714) (size 1.35 0.4) (layers F.Cu F.Paste F.SilkS F.Mask)
      (net 19 "Net-(U1-Pad15)"))
    (pad 14 smd rect (at 0.975396 -2.876714) (size 1.35 0.4) (layers F.Cu F.Paste F.SilkS F.Mask)
      (net 18 "Net-(U1-Pad14)"))
    (pad 13 smd rect (at 1.625396 -2.876714) (size 1.35 0.4) (layers F.Cu F.Paste F.SilkS F.Mask)
      (net 17 "Net-(U1-Pad13)"))
    (pad 12 smd rect (at 2.275396 -2.876714) (size 1.35 0.4) (layers F.Cu F.Paste F.SilkS F.Mask)
      (net 29 /Buzzer))
    (pad 11 smd rect (at 2.925396 -2.876714) (size 1.35 0.4) (layers F.Cu F.Paste F.SilkS F.Mask)
      (net 30 "Net-(U1-Pad11)"))
    (pad 10 smd rect (at 2.925396 2.873286) (size 1.35 0.4) (layers F.Cu F.Paste F.SilkS F.Mask)
      (net 16 "Net-(U1-Pad10)"))
    (pad 9 smd rect (at 2.275396 2.873286) (size 1.35 0.4) (layers F.Cu F.Paste F.SilkS F.Mask)
      (net 31 "Net-(U1-Pad9)"))
    (pad 8 smd rect (at 1.625396 2.873286) (size 1.35 0.4) (layers F.Cu F.Paste F.SilkS F.Mask)
      (net 15 3V3))
    (pad 7 smd rect (at 0.975396 2.873286) (size 1.35 0.4) (layers F.Cu F.Paste F.SilkS F.Mask)
      (net 3 GND))
    (pad 6 smd rect (at 0.325396 2.873286) (size 1.35 0.4) (layers F.Cu F.Paste F.SilkS F.Mask)
      (net 14 "Net-(U1-Pad6)"))
    (pad 5 smd rect (at -0.324604 2.873286) (size 1.35 0.4) (layers F.Cu F.Paste F.SilkS F.Mask)
      (net 13 "Net-(U1-Pad5)"))
    (pad 4 smd rect (at -0.974604 2.873286) (size 1.35 0.4) (layers F.Cu F.Paste F.SilkS F.Mask)
      (net 12 /NRST))
    (pad 3 smd rect (at -1.624604 2.873286) (size 1.35 0.4) (layers F.Cu F.Paste F.SilkS F.Mask)
      (net 11 /SWIM))
    (pad 2 smd rect (at -2.274604 2.873286) (size 1.35 0.4) (layers F.Cu F.Paste F.SilkS F.Mask)
      (net 28 /CPU_RX))
    (pad 1 smd rect (at -2.924604 2.873286) (size 1.35 0.4) (layers F.Cu F.Paste F.SilkS F.Mask)
      (net 27 /CPU_TX))
    (model ${KISYS3DMOD}/TSSOP-20_4.4x6.5mm_P0.65mm.wrl
      (at (xyz 0 0 0))
      (scale (xyz 1 1 1))
      (rotate (xyz 0 0 -90))
    )
  )

  (module Br:SOT23 (layer F.Cu) (tedit 5DE6282D) (tstamp 5D9D1491)
    (at 162.306 116.332)
    (descr "SOT23, Standard")
    (tags SOT23)
    (path /5D9CF778)
    (attr smd)
    (fp_text reference D3 (at 2.794 0.011692 90) (layer F.SilkS)
      (effects (font (size 1 1) (thickness 0.15)))
    )
    (fp_text value D_BAV99.215 (at 2.29751 0.011692 90) (layer F.Fab)
      (effects (font (size 1 1) (thickness 0.15)))
    )
    (fp_line (start -0.65273 -1.488128) (end 0.04831 -1.488128) (layer F.SilkS) (width 0.15))
    (fp_line (start -0.65273 -1.287468) (end -0.65273 -1.488128) (layer F.SilkS) (width 0.15))
    (fp_line (start -0.65273 1.511512) (end -0.65273 1.262592) (layer F.SilkS) (width 0.15))
    (fp_line (start 0.04831 1.511512) (end -0.65273 1.511512) (layer F.SilkS) (width 0.15))
    (fp_line (start -0.65273 -1.287468) (end -0.65273 -1.239208) (layer F.SilkS) (width 0.15))
    (fp_line (start 1.59751 1.661692) (end -1.60249 1.661692) (layer F.CrtYd) (width 0.05))
    (fp_line (start 1.59751 -1.638308) (end 1.59751 1.661692) (layer F.CrtYd) (width 0.05))
    (fp_line (start -1.60249 -1.638308) (end 1.59751 -1.638308) (layer F.CrtYd) (width 0.05))
    (fp_line (start -1.60249 1.661692) (end -1.60249 -1.638308) (layer F.CrtYd) (width 0.05))
    (pad 3 smd rect (at -1.00071 0.011692 90) (size 0.8001 0.8001) (layers F.Cu F.Paste F.Mask)
      (net 27 /CPU_TX))
    (pad 2 smd rect (at 0.99827 -0.938308 90) (size 0.8001 0.8001) (layers F.Cu F.Paste F.Mask)
      (net 15 3V3))
    (pad 1 smd rect (at 0.99827 0.961692 90) (size 0.8001 0.8001) (layers F.Cu F.Paste F.Mask)
      (net 3 GND))
    (model ${KISYS3DMOD}/SOT-23.wrl
      (at (xyz 0 0 0))
      (scale (xyz 1 1 1))
      (rotate (xyz 0 0 180))
    )
  )

  (module Br:SOT23 (layer F.Cu) (tedit 5DE6282D) (tstamp 5E0E648A)
    (at 135.89 108.966 180)
    (descr "SOT23, Standard")
    (tags SOT23)
    (path /5D9CDB0F)
    (attr smd)
    (fp_text reference D2 (at 2.794 -0.254) (layer F.SilkS)
      (effects (font (size 1 1) (thickness 0.15)))
    )
    (fp_text value D_BAV99.215 (at 2.29751 0.011692 270) (layer F.Fab)
      (effects (font (size 1 1) (thickness 0.15)))
    )
    (fp_line (start -0.65273 -1.488128) (end 0.04831 -1.488128) (layer F.SilkS) (width 0.15))
    (fp_line (start -0.65273 -1.287468) (end -0.65273 -1.488128) (layer F.SilkS) (width 0.15))
    (fp_line (start -0.65273 1.511512) (end -0.65273 1.262592) (layer F.SilkS) (width 0.15))
    (fp_line (start 0.04831 1.511512) (end -0.65273 1.511512) (layer F.SilkS) (width 0.15))
    (fp_line (start -0.65273 -1.287468) (end -0.65273 -1.239208) (layer F.SilkS) (width 0.15))
    (fp_line (start 1.59751 1.661692) (end -1.60249 1.661692) (layer F.CrtYd) (width 0.05))
    (fp_line (start 1.59751 -1.638308) (end 1.59751 1.661692) (layer F.CrtYd) (width 0.05))
    (fp_line (start -1.60249 -1.638308) (end 1.59751 -1.638308) (layer F.CrtYd) (width 0.05))
    (fp_line (start -1.60249 1.661692) (end -1.60249 -1.638308) (layer F.CrtYd) (width 0.05))
    (pad 3 smd rect (at -1.00071 0.011692 270) (size 0.8001 0.8001) (layers F.Cu F.Paste F.Mask)
      (net 28 /CPU_RX))
    (pad 2 smd rect (at 0.99827 -0.938308 270) (size 0.8001 0.8001) (layers F.Cu F.Paste F.Mask)
      (net 15 3V3))
    (pad 1 smd rect (at 0.99827 0.961692 270) (size 0.8001 0.8001) (layers F.Cu F.Paste F.Mask)
      (net 3 GND))
    (model ${KISYS3DMOD}/SOT-23.wrl
      (at (xyz 0 0 0))
      (scale (xyz 1 1 1))
      (rotate (xyz 0 0 180))
    )
  )

  (module Br:SOT23 (layer F.Cu) (tedit 5DE6282D) (tstamp 5D9D1471)
    (at 135.89 112.522 180)
    (descr "SOT23, Standard")
    (tags SOT23)
    (path /5D9CB918)
    (attr smd)
    (fp_text reference D1 (at 2.794 0) (layer F.SilkS)
      (effects (font (size 1 1) (thickness 0.15)))
    )
    (fp_text value D_BAV99.215 (at 2.29751 0.011692 270) (layer F.Fab)
      (effects (font (size 1 1) (thickness 0.15)))
    )
    (fp_line (start -0.65273 -1.488128) (end 0.04831 -1.488128) (layer F.SilkS) (width 0.15))
    (fp_line (start -0.65273 -1.287468) (end -0.65273 -1.488128) (layer F.SilkS) (width 0.15))
    (fp_line (start -0.65273 1.511512) (end -0.65273 1.262592) (layer F.SilkS) (width 0.15))
    (fp_line (start 0.04831 1.511512) (end -0.65273 1.511512) (layer F.SilkS) (width 0.15))
    (fp_line (start -0.65273 -1.287468) (end -0.65273 -1.239208) (layer F.SilkS) (width 0.15))
    (fp_line (start 1.59751 1.661692) (end -1.60249 1.661692) (layer F.CrtYd) (width 0.05))
    (fp_line (start 1.59751 -1.638308) (end 1.59751 1.661692) (layer F.CrtYd) (width 0.05))
    (fp_line (start -1.60249 -1.638308) (end 1.59751 -1.638308) (layer F.CrtYd) (width 0.05))
    (fp_line (start -1.60249 1.661692) (end -1.60249 -1.638308) (layer F.CrtYd) (width 0.05))
    (pad 3 smd rect (at -1.00071 0.011692 270) (size 0.8001 0.8001) (layers F.Cu F.Paste F.Mask)
      (net 26 /5V_In))
    (pad 2 smd rect (at 0.99827 -0.938308 270) (size 0.8001 0.8001) (layers F.Cu F.Paste F.Mask)
      (net 25 "Net-(D1-Pad2)"))
    (pad 1 smd rect (at 0.99827 0.961692 270) (size 0.8001 0.8001) (layers F.Cu F.Paste F.Mask)
      (net 4 5V))
    (model ${KISYS3DMOD}/SOT-23.wrl
      (at (xyz 0 0 0))
      (scale (xyz 1 1 1))
      (rotate (xyz 0 0 180))
    )
  )

  (module Br:CN_P_01x04_1.27MM_STRAIGHT_ZL319-4P (layer F.Cu) (tedit 59FED6E3) (tstamp 5D9E3DBF)
    (at 146.558 114.808)
    (descr "Through hole straight pin header, 1x04, 1.27mm pitch, single row")
    (tags "Through hole pin header THT 1x04 1.27mm single row")
    (path /5D9D92B3)
    (fp_text reference J2 (at 1.905 4.318) (layer F.SilkS)
      (effects (font (size 1 1) (thickness 0.15)))
    )
    (fp_text value CN_P_01x04_1.27MM_STRAIGHT_ZL319-4P (at 0 5.505) (layer F.Fab)
      (effects (font (size 1 1) (thickness 0.15)))
    )
    (fp_text user %R (at 0 1.905 90) (layer F.Fab)
      (effects (font (size 1 1) (thickness 0.15)))
    )
    (fp_line (start 1.55 -1.15) (end -1.55 -1.15) (layer F.CrtYd) (width 0.05))
    (fp_line (start 1.55 4.95) (end 1.55 -1.15) (layer F.CrtYd) (width 0.05))
    (fp_line (start -1.55 4.95) (end 1.55 4.95) (layer F.CrtYd) (width 0.05))
    (fp_line (start -1.55 -1.15) (end -1.55 4.95) (layer F.CrtYd) (width 0.05))
    (fp_line (start -1.11 -0.76) (end 0 -0.76) (layer F.SilkS) (width 0.12))
    (fp_line (start -1.11 0) (end -1.11 -0.76) (layer F.SilkS) (width 0.12))
    (fp_line (start 0.563471 0.76) (end 1.11 0.76) (layer F.SilkS) (width 0.12))
    (fp_line (start -1.11 0.76) (end -0.563471 0.76) (layer F.SilkS) (width 0.12))
    (fp_line (start 1.11 0.76) (end 1.11 4.505) (layer F.SilkS) (width 0.12))
    (fp_line (start -1.11 0.76) (end -1.11 4.505) (layer F.SilkS) (width 0.12))
    (fp_line (start 0.30753 4.505) (end 1.11 4.505) (layer F.SilkS) (width 0.12))
    (fp_line (start -1.11 4.505) (end -0.30753 4.505) (layer F.SilkS) (width 0.12))
    (fp_line (start -1.05 -0.11) (end -0.525 -0.635) (layer F.Fab) (width 0.1))
    (fp_line (start -1.05 4.445) (end -1.05 -0.11) (layer F.Fab) (width 0.1))
    (fp_line (start 1.05 4.445) (end -1.05 4.445) (layer F.Fab) (width 0.1))
    (fp_line (start 1.05 -0.635) (end 1.05 4.445) (layer F.Fab) (width 0.1))
    (fp_line (start -0.525 -0.635) (end 1.05 -0.635) (layer F.Fab) (width 0.1))
    (pad 4 thru_hole oval (at 0 3.81) (size 1 1) (drill 0.65) (layers *.Cu *.Mask)
      (net 15 3V3))
    (pad 3 thru_hole oval (at 0 2.54) (size 1 1) (drill 0.65) (layers *.Cu *.Mask)
      (net 11 /SWIM))
    (pad 2 thru_hole oval (at 0 1.27) (size 1 1) (drill 0.65) (layers *.Cu *.Mask)
      (net 3 GND))
    (pad 1 thru_hole rect (at 0 0) (size 1 1) (drill 0.65) (layers *.Cu *.Mask)
      (net 12 /NRST))
    (model ${KISYS3DMOD}/Connector_PinHeader_1.27mm.3dshapes/CN_P_01x04_1.27MM_STRAIGHT_ZL319-4P.wrl
      (at (xyz 0 0 0))
      (scale (xyz 1 1 1))
      (rotate (xyz 0 0 0))
    )
  )

  (module Br:C_0603 (layer F.Cu) (tedit 5DE623DC) (tstamp 5E0E6392)
    (at 143.51 111.772 90)
    (descr "Capacitor SMD 0603, reflow soldering, AVX (see smccp.pdf)")
    (tags "capacitor 0603")
    (path /5D9EACB1)
    (attr smd)
    (fp_text reference C3 (at 2.806 -1.016 90) (layer F.SilkS)
      (effects (font (size 1 1) (thickness 0.15)))
    )
    (fp_text value 1uF (at 0.1 1.5 90) (layer F.Fab)
      (effects (font (size 1 1) (thickness 0.15)))
    )
    (fp_line (start 0.35 0.6) (end -0.35 0.6) (layer F.SilkS) (width 0.15))
    (fp_line (start -0.35 -0.6) (end 0.35 -0.6) (layer F.SilkS) (width 0.15))
    (fp_line (start 1.45 -0.75) (end 1.45 0.75) (layer F.CrtYd) (width 0.05))
    (fp_line (start -1.45 -0.75) (end -1.45 0.75) (layer F.CrtYd) (width 0.05))
    (fp_line (start -1.45 0.75) (end 1.45 0.75) (layer F.CrtYd) (width 0.05))
    (fp_line (start -1.45 -0.75) (end 1.45 -0.75) (layer F.CrtYd) (width 0.05))
    (pad 2 smd rect (at 0.75 0 90) (size 0.8 0.75) (layers F.Cu F.Paste F.Mask)
      (net 3 GND))
    (pad 1 smd rect (at -0.75 0 90) (size 0.8 0.75) (layers F.Cu F.Paste F.Mask)
      (net 26 /5V_In))
    (model ${KISYS3DMOD}/C_0603.wrl
      (at (xyz 0 0 0))
      (scale (xyz 1 1 1))
      (rotate (xyz 0 0 0))
    )
  )

  (module Br:C_0603 (layer F.Cu) (tedit 5DE623DC) (tstamp 5E0E64CA)
    (at 139.192 111.76 90)
    (descr "Capacitor SMD 0603, reflow soldering, AVX (see smccp.pdf)")
    (tags "capacitor 0603")
    (path /5D9C8EED)
    (attr smd)
    (fp_text reference C4 (at 2.413 -1.016 90) (layer F.SilkS)
      (effects (font (size 1 1) (thickness 0.15)))
    )
    (fp_text value 1uF (at 0.1 1.5 90) (layer F.Fab)
      (effects (font (size 1 1) (thickness 0.15)))
    )
    (fp_line (start 0.35 0.6) (end -0.35 0.6) (layer F.SilkS) (width 0.15))
    (fp_line (start -0.35 -0.6) (end 0.35 -0.6) (layer F.SilkS) (width 0.15))
    (fp_line (start 1.45 -0.75) (end 1.45 0.75) (layer F.CrtYd) (width 0.05))
    (fp_line (start -1.45 -0.75) (end -1.45 0.75) (layer F.CrtYd) (width 0.05))
    (fp_line (start -1.45 0.75) (end 1.45 0.75) (layer F.CrtYd) (width 0.05))
    (fp_line (start -1.45 -0.75) (end 1.45 -0.75) (layer F.CrtYd) (width 0.05))
    (pad 2 smd rect (at 0.75 0 90) (size 0.8 0.75) (layers F.Cu F.Paste F.Mask)
      (net 3 GND))
    (pad 1 smd rect (at -0.75 0 90) (size 0.8 0.75) (layers F.Cu F.Paste F.Mask)
      (net 15 3V3))
    (model ${KISYS3DMOD}/C_0603.wrl
      (at (xyz 0 0 0))
      (scale (xyz 1 1 1))
      (rotate (xyz 0 0 0))
    )
  )

  (module Br:R_0603 (layer F.Cu) (tedit 5DE62695) (tstamp 5E0E4668)
    (at 133.858 101.981 180)
    (descr "Capacitor SMD 0603, reflow soldering, AVX (see smccp.pdf)")
    (tags "capacitor 0603")
    (path /5D9CE50E)
    (attr smd)
    (fp_text reference R1 (at 0 1.651 180) (layer F.SilkS)
      (effects (font (size 1 1) (thickness 0.15)))
    )
    (fp_text value R_1K_0603_1% (at 0.1 1.5 180) (layer F.Fab)
      (effects (font (size 1 1) (thickness 0.15)))
    )
    (fp_line (start 0.35 0.6) (end -0.35 0.6) (layer F.SilkS) (width 0.15))
    (fp_line (start -0.35 -0.6) (end 0.35 -0.6) (layer F.SilkS) (width 0.15))
    (fp_line (start 1.45 -0.75) (end 1.45 0.75) (layer F.CrtYd) (width 0.05))
    (fp_line (start -1.45 -0.75) (end -1.45 0.75) (layer F.CrtYd) (width 0.05))
    (fp_line (start -1.45 0.75) (end 1.45 0.75) (layer F.CrtYd) (width 0.05))
    (fp_line (start -1.45 -0.75) (end 1.45 -0.75) (layer F.CrtYd) (width 0.05))
    (pad 2 smd rect (at 0.75 0 180) (size 0.8 0.75) (layers F.Cu F.Paste F.Mask)
      (net 9 /UART_RX))
    (pad 1 smd rect (at -0.75 0 180) (size 0.8 0.75) (layers F.Cu F.Paste F.Mask)
      (net 28 /CPU_RX))
    (model ${KISYS3DMOD}/R_0603.wrl
      (at (xyz 0 0 0))
      (scale (xyz 1 1 1))
      (rotate (xyz 0 0 0))
    )
  )

  (module Br:R_0603 (layer F.Cu) (tedit 5DE62695) (tstamp 5D9CF66F)
    (at 162.052 113.538)
    (descr "Capacitor SMD 0603, reflow soldering, AVX (see smccp.pdf)")
    (tags "capacitor 0603")
    (path /5D9CF786)
    (attr smd)
    (fp_text reference R2 (at 3 0) (layer F.SilkS)
      (effects (font (size 1 1) (thickness 0.15)))
    )
    (fp_text value R_1K_0603_1% (at 0.1 1.5) (layer F.Fab)
      (effects (font (size 1 1) (thickness 0.15)))
    )
    (fp_line (start 0.35 0.6) (end -0.35 0.6) (layer F.SilkS) (width 0.15))
    (fp_line (start -0.35 -0.6) (end 0.35 -0.6) (layer F.SilkS) (width 0.15))
    (fp_line (start 1.45 -0.75) (end 1.45 0.75) (layer F.CrtYd) (width 0.05))
    (fp_line (start -1.45 -0.75) (end -1.45 0.75) (layer F.CrtYd) (width 0.05))
    (fp_line (start -1.45 0.75) (end 1.45 0.75) (layer F.CrtYd) (width 0.05))
    (fp_line (start -1.45 -0.75) (end 1.45 -0.75) (layer F.CrtYd) (width 0.05))
    (pad 2 smd rect (at 0.75 0) (size 0.8 0.75) (layers F.Cu F.Paste F.Mask)
      (net 10 /UART_TX))
    (pad 1 smd rect (at -0.75 0) (size 0.8 0.75) (layers F.Cu F.Paste F.Mask)
      (net 27 /CPU_TX))
    (model ${KISYS3DMOD}/R_0603.wrl
      (at (xyz 0 0 0))
      (scale (xyz 1 1 1))
      (rotate (xyz 0 0 0))
    )
  )

  (module Br:Br_CN_IN (layer F.Cu) (tedit 5D978B9C) (tstamp 5D9C2C9E)
    (at 128 102)
    (path /5D978D2E)
    (fp_text reference J1 (at -1 -8 180) (layer F.SilkS)
      (effects (font (size 1 1) (thickness 0.15)))
    )
    (fp_text value Br_CN_IN (at 0 -0.5) (layer F.Fab)
      (effects (font (size 1 1) (thickness 0.15)))
    )
    (fp_line (start 1.8 6.3) (end -1.6 6.3) (layer F.SilkS) (width 0.15))
    (fp_line (start 1.8 -6.3) (end 1.8 6.3) (layer F.SilkS) (width 0.15))
    (fp_line (start -1.7 -6.3) (end 1.8 -6.3) (layer F.SilkS) (width 0.15))
    (pad 9 smd rect (at 0 4.155) (size 3.5 1.5) (layers B.Cu B.Paste B.Mask)
      (net 4 5V))
    (pad 8 smd rect (at 0 1.385) (size 3.5 1.5) (layers B.Cu B.Paste B.Mask)
      (net 3 GND))
    (pad 7 smd rect (at 0 -1.385) (size 3.5 1.5) (layers B.Cu B.Paste B.Mask)
      (net 3 GND))
    (pad 6 smd rect (at 0 -4.155) (size 3.5 1.5) (layers B.Cu B.Paste B.Mask)
      (net 1 12V))
    (pad 5 smd rect (at 0 5.54) (size 3.5 1.5) (layers F.Cu F.Paste F.Mask)
      (net 3 GND))
    (pad 4 smd rect (at 0 2.77) (size 3.5 1.5) (layers F.Cu F.Paste F.Mask)
      (net 4 5V))
    (pad 3 smd rect (at 0 0) (size 3.5 1.5) (layers F.Cu F.Paste F.Mask)
      (net 9 /UART_RX))
    (pad 2 smd rect (at 0 -2.77) (size 3.5 1.5) (layers F.Cu F.Paste F.Mask)
      (net 2 /SPARE))
    (pad 1 smd rect (at 0 -5.54) (size 3.5 1.5) (layers F.Cu F.Paste F.Mask)
      (net 1 12V))
  )

  (module Br:Br_CN_OUT (layer F.Cu) (tedit 5DB9F56D) (tstamp 5D9C2C7E)
    (at 169.5 102)
    (path /5D9C46C3)
    (fp_text reference J3 (at 1 8 180) (layer F.SilkS)
      (effects (font (size 1 1) (thickness 0.15)))
    )
    (fp_text value Br_CN_OUT (at 0 -0.5) (layer F.Fab)
      (effects (font (size 1 1) (thickness 0.15)))
    )
    (fp_line (start -2.3 6.3) (end 2.2 6.3) (layer F.SilkS) (width 0.15))
    (fp_line (start -2.3 -6.3) (end -2.3 6.3) (layer F.SilkS) (width 0.15))
    (fp_line (start 2.2 -6.3) (end -2.3 -6.3) (layer F.SilkS) (width 0.15))
    (pad 9 smd rect (at 0 4.155) (size 4.5 1.5) (layers B.Cu B.Paste B.Mask)
      (net 4 5V))
    (pad 8 smd rect (at 0 1.385) (size 4.5 1.5) (layers B.Cu B.Paste B.Mask)
      (net 3 GND))
    (pad 7 smd rect (at 0 -1.385) (size 4.5 1.5) (layers B.Cu B.Paste B.Mask)
      (net 3 GND))
    (pad 6 smd rect (at 0 -4.155) (size 4.5 1.5) (layers B.Cu B.Paste B.Mask)
      (net 1 12V))
    (pad 5 smd rect (at 0 5.54) (size 4.5 1.5) (layers F.Cu F.Paste F.Mask)
      (net 3 GND))
    (pad 4 smd rect (at 0 2.77) (size 4.5 1.5) (layers F.Cu F.Paste F.Mask)
      (net 4 5V))
    (pad 3 smd rect (at 0 0) (size 4.5 1.5) (layers F.Cu F.Paste F.Mask)
      (net 10 /UART_TX))
    (pad 2 smd rect (at 0 -2.77) (size 4.5 1.5) (layers F.Cu F.Paste F.Mask)
      (net 2 /SPARE))
    (pad 1 smd rect (at 0 -5.54) (size 4.5 1.5) (layers F.Cu F.Paste F.Mask)
      (net 1 12V))
  )

  (module Br:Hole3mm (layer F.Cu) (tedit 5D015E75) (tstamp 5D9C2C5E)
    (at 136 118)
    (path /5D9D6266)
    (fp_text reference H4 (at 0 0.5) (layer F.SilkS)
      (effects (font (size 1 1) (thickness 0.15)))
    )
    (fp_text value Hole3mm (at 0 -0.5) (layer F.Fab)
      (effects (font (size 1 1) (thickness 0.15)))
    )
    (pad 1 thru_hole circle (at 0 0) (size 3.5 3.5) (drill 3) (layers *.Cu *.Mask)
      (net 8 "Net-(H4-Pad1)"))
  )

  (module Br:Hole3mm (layer F.Cu) (tedit 5D015E75) (tstamp 5D9C2C59)
    (at 168 118)
    (path /5D9D37B0)
    (fp_text reference H3 (at 0 0.5) (layer F.SilkS)
      (effects (font (size 1 1) (thickness 0.15)))
    )
    (fp_text value Hole3mm (at 0 -0.5) (layer F.Fab)
      (effects (font (size 1 1) (thickness 0.15)))
    )
    (pad 1 thru_hole circle (at 0 0) (size 3.5 3.5) (drill 3) (layers *.Cu *.Mask)
      (net 7 "Net-(H3-Pad1)"))
  )

  (module Br:Hole3mm (layer F.Cu) (tedit 5D015E75) (tstamp 5D9C2C54)
    (at 168 86)
    (path /5D9D6260)
    (fp_text reference H2 (at 0 0.5) (layer F.SilkS)
      (effects (font (size 1 1) (thickness 0.15)))
    )
    (fp_text value Hole3mm (at 0 -0.5) (layer F.Fab)
      (effects (font (size 1 1) (thickness 0.15)))
    )
    (pad 1 thru_hole circle (at 0 0) (size 3.5 3.5) (drill 3) (layers *.Cu *.Mask)
      (net 6 "Net-(H2-Pad1)"))
  )

  (module Br:Hole3mm (layer F.Cu) (tedit 5D015E75) (tstamp 5D9C2C4F)
    (at 136 86)
    (path /5D9D377A)
    (fp_text reference H1 (at 0 0.5) (layer F.SilkS)
      (effects (font (size 1 1) (thickness 0.15)))
    )
    (fp_text value Hole3mm (at 0 -0.5) (layer F.Fab)
      (effects (font (size 1 1) (thickness 0.15)))
    )
    (pad 1 thru_hole circle (at 0 0) (size 3.5 3.5) (drill 3) (layers *.Cu *.Mask)
      (net 5 "Net-(H1-Pad1)"))
  )

  (gr_line (start 149 102) (end 155 102) (layer Eco2.User) (width 0.2))
  (gr_line (start 152 99) (end 152 105) (layer Eco2.User) (width 0.2))
  (gr_circle (center 129.794 85.852) (end 131.318 87.884) (layer F.SilkS) (width 0.2))
  (gr_text "008\n" (at 129.794 85.852) (layer F.SilkS)
    (effects (font (size 1.5 1.5) (thickness 0.3)))
  )
  (gr_text Female (at 171 91 90) (layer F.SilkS) (tstamp 5D9C2EBA)
    (effects (font (size 1.5 1.5) (thickness 0.3)))
  )
  (gr_text Male (at 128.016 111.506 270) (layer F.SilkS)
    (effects (font (size 1.5 1.5) (thickness 0.3)))
  )
  (gr_line (start 126 122) (end 126 82) (layer Edge.Cuts) (width 0.15))
  (gr_line (start 172 122) (end 126 122) (layer Edge.Cuts) (width 0.15))
  (gr_line (start 172 82) (end 172 122) (layer Edge.Cuts) (width 0.15))
  (gr_line (start 126 82) (end 172 82) (layer Edge.Cuts) (width 0.15))
  (gr_text "Brick middle" (at 160 104) (layer Eco2.User)
    (effects (font (size 1.5 1.5) (thickness 0.3)))
  )
  (gr_text "Duplo_size\n" (at 181 68) (layer Eco2.User)
    (effects (font (size 1.5 1.5) (thickness 0.3)))
  )
  (gr_line (start 120 134) (end 120 70) (layer Eco2.User) (width 0.2))
  (gr_line (start 184 134) (end 120 134) (layer Eco2.User) (width 0.2))
  (gr_line (start 184 70) (end 184 134) (layer Eco2.User) (width 0.2))
  (gr_line (start 120 70) (end 184 70) (layer Eco2.User) (width 0.2))

  (via (at 167 96.46) (size 0.8) (drill 0.4) (layers F.Cu B.Cu) (net 1))
  (segment (start 170 97.845) (end 168.385 97.845) (width 1.5) (layer B.Cu) (net 1))
  (segment (start 168.385 97.845) (end 167 96.46) (width 1.5) (layer B.Cu) (net 1))
  (segment (start 170 96.46) (end 167 96.46) (width 1.5) (layer F.Cu) (net 1))
  (via (at 131.826 97.036) (size 0.8) (drill 0.4) (layers F.Cu B.Cu) (net 1))
  (segment (start 131.25 96.46) (end 128 96.46) (width 1.5) (layer F.Cu) (net 1))
  (segment (start 131.826 97.036) (end 131.25 96.46) (width 1.5) (layer F.Cu) (net 1))
  (segment (start 128 97.845) (end 131.017 97.845) (width 1.5) (layer B.Cu) (net 1))
  (segment (start 131.017 97.845) (end 131.826 97.036) (width 1.5) (layer B.Cu) (net 1))
  (segment (start 164.846 86.106) (end 164.846 92.459705) (width 1.5) (layer F.Cu) (net 1))
  (segment (start 162.039999 83.299999) (end 164.846 86.106) (width 1.5) (layer F.Cu) (net 1))
  (segment (start 134.703999 83.299999) (end 162.039999 83.299999) (width 1.5) (layer F.Cu) (net 1))
  (segment (start 165.862 95.758) (end 166.564 96.46) (width 1.5) (layer F.Cu) (net 1))
  (segment (start 164.846 92.459705) (end 165.862 93.475705) (width 1.5) (layer F.Cu) (net 1))
  (segment (start 131.826 86.177998) (end 134.703999 83.299999) (width 1.5) (layer F.Cu) (net 1))
  (segment (start 131.826 97.036) (end 131.826 86.177998) (width 1.5) (layer F.Cu) (net 1))
  (segment (start 165.862 93.475705) (end 165.862 95.758) (width 1.5) (layer F.Cu) (net 1))
  (segment (start 166.564 96.46) (end 167 96.46) (width 1.5) (layer F.Cu) (net 1))
  (segment (start 163.576 96.012) (end 166.794 99.23) (width 0.25) (layer F.Cu) (net 2))
  (segment (start 163.576 87.122) (end 163.576 96.012) (width 0.25) (layer F.Cu) (net 2))
  (segment (start 166.794 99.23) (end 170 99.23) (width 0.25) (layer F.Cu) (net 2))
  (segment (start 161.544 85.09) (end 163.576 87.122) (width 0.25) (layer F.Cu) (net 2))
  (segment (start 145.292293 85.09) (end 161.544 85.09) (width 0.25) (layer F.Cu) (net 2))
  (segment (start 131.152293 99.23) (end 145.292293 85.09) (width 0.25) (layer F.Cu) (net 2))
  (segment (start 128 99.23) (end 131.152293 99.23) (width 0.25) (layer F.Cu) (net 2))
  (via (at 167 108) (size 0.8) (drill 0.4) (layers F.Cu B.Cu) (net 3))
  (segment (start 170 107.54) (end 167.46 107.54) (width 1.5) (layer F.Cu) (net 3))
  (segment (start 167.46 107.54) (end 167 108) (width 1.5) (layer F.Cu) (net 3))
  (via (at 131 108) (size 0.8) (drill 0.4) (layers F.Cu B.Cu) (net 3))
  (segment (start 128 107.54) (end 130.54 107.54) (width 1.5) (layer F.Cu) (net 3))
  (segment (start 130.54 107.54) (end 131 108) (width 1.5) (layer F.Cu) (net 3))
  (segment (start 134.24168 108.004308) (end 133.858 107.620628) (width 0.25) (layer F.Cu) (net 3))
  (segment (start 134.89173 108.004308) (end 134.24168 108.004308) (width 0.25) (layer F.Cu) (net 3))
  (via (at 134.112 106.68) (size 0.8) (drill 0.4) (layers F.Cu B.Cu) (net 3))
  (segment (start 133.858 107.620628) (end 133.858 106.934) (width 0.25) (layer F.Cu) (net 3))
  (segment (start 133.858 106.934) (end 134.112 106.68) (width 0.25) (layer F.Cu) (net 3))
  (via (at 149.86 114.808) (size 0.8) (drill 0.4) (layers F.Cu B.Cu) (net 3))
  (segment (start 151.558714 115.021396) (end 150.073396 115.021396) (width 0.25) (layer F.Cu) (net 3))
  (segment (start 150.073396 115.021396) (end 149.86 114.808) (width 0.25) (layer F.Cu) (net 3))
  (segment (start 162.65422 117.293692) (end 162.2286 117.719312) (width 0.25) (layer F.Cu) (net 3))
  (segment (start 162.2286 117.719312) (end 162.2286 117.94272) (width 0.25) (layer F.Cu) (net 3))
  (segment (start 163.30427 117.293692) (end 162.65422 117.293692) (width 0.25) (layer F.Cu) (net 3))
  (via (at 162.2286 117.94272) (size 0.8) (drill 0.4) (layers F.Cu B.Cu) (net 3))
  (segment (start 170 102.385) (end 170 100.615) (width 0.25) (layer B.Cu) (net 3))
  (segment (start 170 103.385) (end 170 102.385) (width 0.25) (layer B.Cu) (net 3))
  (segment (start 167.5 103.385) (end 166.491 104.394) (width 0.25) (layer B.Cu) (net 3))
  (segment (start 170 103.385) (end 167.5 103.385) (width 0.25) (layer B.Cu) (net 3))
  (segment (start 166.491 104.394) (end 165.1 104.394) (width 0.25) (layer B.Cu) (net 3))
  (segment (start 165.1 104.394) (end 164.338 105.156) (width 0.25) (layer B.Cu) (net 3))
  (segment (start 164.338 105.156) (end 164.338 107.188) (width 0.25) (layer B.Cu) (net 3))
  (segment (start 165.15 108) (end 167 108) (width 0.25) (layer B.Cu) (net 3))
  (segment (start 164.338 107.188) (end 165.15 108) (width 0.25) (layer B.Cu) (net 3))
  (segment (start 139.192 111.01) (end 139.192 110.36) (width 0.25) (layer F.Cu) (net 3))
  (via (at 139.192 109.601) (size 0.8) (drill 0.4) (layers F.Cu B.Cu) (net 3))
  (segment (start 139.192 110.36) (end 139.192 109.601) (width 0.25) (layer F.Cu) (net 3))
  (segment (start 141.351 110.776) (end 141.351 110.026) (width 0.25) (layer F.Cu) (net 3))
  (via (at 141.351 109.22) (size 0.8) (drill 0.4) (layers F.Cu B.Cu) (net 3))
  (segment (start 141.351 110.026) (end 141.351 109.22) (width 0.25) (layer F.Cu) (net 3))
  (segment (start 143.51 111.022) (end 143.51 110.372) (width 0.25) (layer F.Cu) (net 3))
  (via (at 143.51 109.601) (size 0.8) (drill 0.4) (layers F.Cu B.Cu) (net 3))
  (segment (start 143.51 110.372) (end 143.51 109.601) (width 0.25) (layer F.Cu) (net 3))
  (segment (start 146.971 112.014) (end 146.221 112.014) (width 0.25) (layer F.Cu) (net 3))
  (via (at 145.542 112.014) (size 0.8) (drill 0.4) (layers F.Cu B.Cu) (net 3))
  (segment (start 146.221 112.014) (end 145.542 112.014) (width 0.25) (layer F.Cu) (net 3))
  (segment (start 145.850894 116.078) (end 146.558 116.078) (width 0.25) (layer F.Cu) (net 3))
  (segment (start 145.153 116.078) (end 145.850894 116.078) (width 0.25) (layer F.Cu) (net 3))
  (segment (start 143.74 115.205) (end 144.28 115.205) (width 0.25) (layer F.Cu) (net 3))
  (via (at 145.026 115.951) (size 0.8) (drill 0.4) (layers F.Cu B.Cu) (net 3))
  (segment (start 144.899 115.824) (end 145.026 115.951) (width 0.25) (layer F.Cu) (net 3))
  (segment (start 145.026 115.951) (end 145.153 116.078) (width 0.25) (layer F.Cu) (net 3))
  (segment (start 144.28 115.205) (end 144.899 115.824) (width 0.25) (layer F.Cu) (net 3))
  (via (at 131.89 105.41) (size 0.8) (drill 0.4) (layers F.Cu B.Cu) (net 4))
  (segment (start 131.25 104.77) (end 128 104.77) (width 1.5) (layer F.Cu) (net 4))
  (segment (start 131.89 105.41) (end 131.25 104.77) (width 1.5) (layer F.Cu) (net 4))
  (segment (start 131.145 106.155) (end 131.89 105.41) (width 1.5) (layer B.Cu) (net 4))
  (segment (start 128 106.155) (end 131.145 106.155) (width 1.5) (layer B.Cu) (net 4))
  (via (at 165.862 105.658) (size 0.8) (drill 0.4) (layers F.Cu B.Cu) (net 4))
  (segment (start 166.359 106.155) (end 165.862 105.658) (width 1.5) (layer B.Cu) (net 4))
  (segment (start 170 106.155) (end 166.359 106.155) (width 1.5) (layer B.Cu) (net 4))
  (segment (start 165.1 106.42) (end 165.862 105.658) (width 1.5) (layer F.Cu) (net 4))
  (segment (start 165.1 118.618) (end 165.1 106.42) (width 1.5) (layer F.Cu) (net 4))
  (segment (start 131.89 106.485823) (end 132.700009 107.295833) (width 1.5) (layer F.Cu) (net 4))
  (segment (start 131.89 105.41) (end 131.89 106.485823) (width 1.5) (layer F.Cu) (net 4))
  (segment (start 132.700009 118.696011) (end 134.703999 120.700001) (width 1.5) (layer F.Cu) (net 4))
  (segment (start 134.703999 120.700001) (end 163.017999 120.700001) (width 1.5) (layer F.Cu) (net 4))
  (segment (start 163.017999 120.700001) (end 165.1 118.618) (width 1.5) (layer F.Cu) (net 4))
  (segment (start 132.700009 107.295833) (end 132.700009 113.03) (width 1.5) (layer F.Cu) (net 4))
  (segment (start 132.700009 113.03) (end 132.700009 118.696011) (width 1.5) (layer F.Cu) (net 4))
  (segment (start 132.899701 111.560308) (end 132.700009 111.76) (width 0.25) (layer F.Cu) (net 4))
  (segment (start 134.89173 111.560308) (end 132.899701 111.560308) (width 0.25) (layer F.Cu) (net 4))
  (segment (start 167.033762 104.77) (end 170 104.77) (width 1.5) (layer F.Cu) (net 4))
  (segment (start 166.821761 104.982001) (end 167.033762 104.77) (width 1.5) (layer F.Cu) (net 4))
  (segment (start 165.862 105.658) (end 166.537999 104.982001) (width 1.5) (layer F.Cu) (net 4))
  (segment (start 166.537999 104.982001) (end 166.821761 104.982001) (width 1.5) (layer F.Cu) (net 4))
  (segment (start 128.019 101.981) (end 128 102) (width 0.25) (layer F.Cu) (net 9))
  (segment (start 133.108 101.981) (end 128.019 101.981) (width 0.25) (layer F.Cu) (net 9))
  (segment (start 168 102) (end 170 102) (width 0.25) (layer F.Cu) (net 10))
  (segment (start 165.661238 102) (end 168 102) (width 0.25) (layer F.Cu) (net 10))
  (segment (start 162.802 104.859238) (end 165.661238 102) (width 0.25) (layer F.Cu) (net 10))
  (segment (start 162.802 113.538) (end 162.802 104.859238) (width 0.25) (layer F.Cu) (net 10))
  (segment (start 147.283001 118.073001) (end 147.057999 117.847999) (width 0.25) (layer F.Cu) (net 11))
  (segment (start 148.176001 118.073001) (end 147.283001 118.073001) (width 0.25) (layer F.Cu) (net 11))
  (segment (start 148.401003 117.847999) (end 148.176001 118.073001) (width 0.25) (layer F.Cu) (net 11))
  (segment (start 152.142113 117.847999) (end 148.401003 117.847999) (width 0.25) (layer F.Cu) (net 11))
  (segment (start 153.67 116.320112) (end 152.142113 117.847999) (width 0.25) (layer F.Cu) (net 11))
  (segment (start 153.67 113.607682) (end 153.67 116.320112) (width 0.25) (layer F.Cu) (net 11))
  (segment (start 152.483714 112.421396) (end 153.67 113.607682) (width 0.25) (layer F.Cu) (net 11))
  (segment (start 151.558714 112.421396) (end 152.483714 112.421396) (width 0.25) (layer F.Cu) (net 11))
  (segment (start 147.057999 117.847999) (end 146.558 117.348) (width 0.25) (layer F.Cu) (net 11))
  (segment (start 150.778396 113.071396) (end 151.558714 113.071396) (width 0.25) (layer F.Cu) (net 12))
  (segment (start 149.721 112.014) (end 150.778396 113.071396) (width 0.25) (layer F.Cu) (net 12))
  (segment (start 148.971 112.014) (end 149.721 112.014) (width 0.25) (layer F.Cu) (net 12))
  (via (at 147.955 115.443) (size 0.8) (drill 0.4) (layers F.Cu B.Cu) (net 12))
  (segment (start 147.32 114.808) (end 147.955 115.443) (width 0.25) (layer F.Cu) (net 12))
  (segment (start 146.558 114.808) (end 147.32 114.808) (width 0.25) (layer F.Cu) (net 12))
  (segment (start 148.354999 115.043001) (end 148.354999 114.789001) (width 0.25) (layer B.Cu) (net 12))
  (segment (start 147.955 115.443) (end 148.354999 115.043001) (width 0.25) (layer B.Cu) (net 12))
  (via (at 148.971 114.173) (size 0.8) (drill 0.4) (layers F.Cu B.Cu) (net 12))
  (segment (start 148.354999 114.789001) (end 148.971 114.173) (width 0.25) (layer B.Cu) (net 12))
  (segment (start 150.072604 113.071396) (end 151.558714 113.071396) (width 0.25) (layer F.Cu) (net 12))
  (segment (start 148.971 114.173) (end 150.072604 113.071396) (width 0.25) (layer F.Cu) (net 12))
  (segment (start 147.265106 118.618) (end 146.558 118.618) (width 0.25) (layer F.Cu) (net 15))
  (segment (start 163.30427 115.393692) (end 163.30427 115.84173) (width 0.25) (layer F.Cu) (net 15))
  (segment (start 163.30427 115.84173) (end 160.528 118.618) (width 0.25) (layer F.Cu) (net 15))
  (via (at 149.733 116.967) (size 0.8) (drill 0.4) (layers F.Cu B.Cu) (net 15))
  (segment (start 149.733 116.57211) (end 149.733 116.967) (width 0.25) (layer F.Cu) (net 15))
  (segment (start 151.558714 115.671396) (end 150.633714 115.671396) (width 0.25) (layer F.Cu) (net 15))
  (segment (start 150.633714 115.671396) (end 149.733 116.57211) (width 0.25) (layer F.Cu) (net 15))
  (via (at 149.733 118.618) (size 0.8) (drill 0.4) (layers F.Cu B.Cu) (net 15))
  (segment (start 149.733 116.967) (end 149.733 118.618) (width 0.25) (layer B.Cu) (net 15))
  (segment (start 159.131 118.618) (end 147.265106 118.618) (width 0.25) (layer F.Cu) (net 15))
  (segment (start 160.528 118.618) (end 159.131 118.618) (width 0.25) (layer F.Cu) (net 15))
  (segment (start 134.89173 109.904308) (end 136.828308 109.904308) (width 0.25) (layer F.Cu) (net 15))
  (segment (start 136.828308 109.904308) (end 138.049 111.125) (width 0.25) (layer F.Cu) (net 15))
  (segment (start 146.779002 113.193998) (end 149.733 116.147996) (width 0.25) (layer F.Cu) (net 15))
  (segment (start 144.145001 111.796999) (end 145.542 113.193998) (width 0.25) (layer F.Cu) (net 15))
  (segment (start 145.542 113.193998) (end 146.779002 113.193998) (width 0.25) (layer F.Cu) (net 15))
  (segment (start 149.733 116.401315) (end 149.733 116.967) (width 0.25) (layer F.Cu) (net 15))
  (segment (start 149.733 116.147996) (end 149.733 116.401315) (width 0.25) (layer F.Cu) (net 15))
  (segment (start 138.049 111.579998) (end 138.266001 111.796999) (width 0.25) (layer F.Cu) (net 15))
  (segment (start 138.049 111.125) (end 138.049 111.579998) (width 0.25) (layer F.Cu) (net 15))
  (segment (start 140.74 114.09) (end 140.442 113.792) (width 0.25) (layer F.Cu) (net 15))
  (segment (start 140.74 115.205) (end 140.74 114.09) (width 0.25) (layer F.Cu) (net 15))
  (segment (start 140.442 113.792) (end 139.573 113.792) (width 0.25) (layer F.Cu) (net 15))
  (segment (start 139.192 113.411) (end 139.192 112.51) (width 0.25) (layer F.Cu) (net 15))
  (segment (start 139.573 113.792) (end 139.192 113.411) (width 0.25) (layer F.Cu) (net 15))
  (segment (start 140.442 113.792) (end 141.224 113.792) (width 0.25) (layer F.Cu) (net 15))
  (segment (start 141.351 113.665) (end 141.351 112.776) (width 0.25) (layer F.Cu) (net 15))
  (segment (start 141.224 113.792) (end 141.351 113.665) (width 0.25) (layer F.Cu) (net 15))
  (segment (start 139.192 111.86) (end 139.192 111.796999) (width 0.25) (layer F.Cu) (net 15))
  (segment (start 139.192 112.51) (end 139.192 111.86) (width 0.25) (layer F.Cu) (net 15))
  (segment (start 138.266001 111.796999) (end 139.192 111.796999) (width 0.25) (layer F.Cu) (net 15))
  (segment (start 139.192 111.796999) (end 144.145001 111.796999) (width 0.25) (layer F.Cu) (net 15))
  (segment (start 142.24 113.817) (end 142.24 115.09) (width 0.25) (layer F.Cu) (net 26))
  (segment (start 141.0235 117.35) (end 142.24 117.35) (width 0.25) (layer F.Cu) (net 26))
  (segment (start 136.89071 113.21721) (end 141.0235 117.35) (width 0.25) (layer F.Cu) (net 26))
  (segment (start 136.89071 112.510308) (end 136.89071 113.21721) (width 0.25) (layer F.Cu) (net 26))
  (segment (start 142.24 117.35) (end 142.24 115.09) (width 0.25) (layer F.Cu) (net 26))
  (segment (start 143.246 113.436) (end 142.621 113.436) (width 0.25) (layer F.Cu) (net 26))
  (segment (start 143.51 113.172) (end 143.246 113.436) (width 0.25) (layer F.Cu) (net 26))
  (segment (start 143.51 112.522) (end 143.51 113.172) (width 0.25) (layer F.Cu) (net 26))
  (segment (start 142.621 113.436) (end 142.24 113.817) (width 0.25) (layer F.Cu) (net 26))
  (segment (start 160.528 113.538) (end 161.302 113.538) (width 0.25) (layer F.Cu) (net 27))
  (segment (start 160.274 113.792) (end 160.528 113.538) (width 0.25) (layer F.Cu) (net 27))
  (segment (start 160.412932 116.586) (end 160.274 116.586) (width 0.25) (layer F.Cu) (net 27))
  (segment (start 160.65524 116.343692) (end 160.412932 116.586) (width 0.25) (layer F.Cu) (net 27))
  (segment (start 161.30529 116.343692) (end 160.65524 116.343692) (width 0.25) (layer F.Cu) (net 27))
  (segment (start 160.274 116.586) (end 160.274 113.792) (width 0.25) (layer F.Cu) (net 27))
  (segment (start 158.508009 118.167989) (end 154.940985 118.167989) (width 0.25) (layer F.Cu) (net 27))
  (segment (start 152.483714 111.121396) (end 151.558714 111.121396) (width 0.25) (layer F.Cu) (net 27))
  (segment (start 160.274 116.586) (end 160.089998 116.586) (width 0.25) (layer F.Cu) (net 27))
  (segment (start 160.089998 116.586) (end 158.508009 118.167989) (width 0.25) (layer F.Cu) (net 27))
  (segment (start 154.940985 118.167989) (end 153.866011 117.093015) (width 0.25) (layer F.Cu) (net 27))
  (segment (start 153.866011 113.167282) (end 153.866011 112.503693) (width 0.25) (layer F.Cu) (net 27))
  (segment (start 154.120011 113.421282) (end 153.866011 113.167282) (width 0.25) (layer F.Cu) (net 27))
  (segment (start 154.120011 116.506512) (end 154.120011 113.421282) (width 0.25) (layer F.Cu) (net 27))
  (segment (start 153.866011 116.760512) (end 154.120011 116.506512) (width 0.25) (layer F.Cu) (net 27))
  (segment (start 153.866011 112.503693) (end 152.483714 111.121396) (width 0.25) (layer F.Cu) (net 27))
  (segment (start 153.866011 117.093015) (end 153.866011 116.760512) (width 0.25) (layer F.Cu) (net 27))
  (segment (start 134.608 101.981) (end 136.525 101.981) (width 0.25) (layer F.Cu) (net 28))
  (segment (start 136.89071 102.34671) (end 136.89071 108.954308) (width 0.25) (layer F.Cu) (net 28))
  (segment (start 136.525 101.981) (end 136.89071 102.34671) (width 0.25) (layer F.Cu) (net 28))
  (segment (start 137.54076 108.954308) (end 138.037068 108.458) (width 0.25) (layer F.Cu) (net 28))
  (segment (start 136.89071 108.954308) (end 137.54076 108.954308) (width 0.25) (layer F.Cu) (net 28))
  (segment (start 150.633714 111.771396) (end 151.558714 111.771396) (width 0.25) (layer F.Cu) (net 28))
  (segment (start 147.320318 108.458) (end 150.633714 111.771396) (width 0.25) (layer F.Cu) (net 28))
  (segment (start 138.037068 108.458) (end 147.320318 108.458) (width 0.25) (layer F.Cu) (net 28))
  (segment (start 156.383714 116.321396) (end 155.448 115.385682) (width 0.25) (layer F.Cu) (net 29))
  (segment (start 157.308714 116.321396) (end 156.383714 116.321396) (width 0.25) (layer F.Cu) (net 29))
  (segment (start 155.448 103.966) (end 153.463 101.981) (width 0.25) (layer F.Cu) (net 29))
  (segment (start 155.448 115.385682) (end 155.448 103.966) (width 0.25) (layer F.Cu) (net 29))

  (zone (net 3) (net_name GND) (layer B.Cu) (tstamp 5E0FAF55) (hatch edge 0.508)
    (connect_pads (clearance 0.508))
    (min_thickness 0.254)
    (fill yes (arc_segments 16) (thermal_gap 0.508) (thermal_bridge_width 0.508))
    (polygon
      (pts
        (xy 126 82) (xy 126 122) (xy 172 122) (xy 172 82)
      )
    )
    (filled_polygon
      (pts
        (xy 171.29 96.44756) (xy 168.946246 96.44756) (xy 167.882888 95.384203) (xy 167.540399 95.155359) (xy 167 95.047867)
        (xy 166.459601 95.155359) (xy 166.001472 95.461472) (xy 165.695359 95.919601) (xy 165.587867 96.46) (xy 165.695359 97.000399)
        (xy 165.924203 97.342888) (xy 166.60256 98.021245) (xy 166.60256 98.595) (xy 166.651843 98.842765) (xy 166.792191 99.052809)
        (xy 167.002235 99.193157) (xy 167.187459 99.23) (xy 167.123691 99.23) (xy 166.890302 99.326673) (xy 166.711673 99.505301)
        (xy 166.615 99.73869) (xy 166.615 100.32925) (xy 166.77375 100.488) (xy 169.373 100.488) (xy 169.373 100.468)
        (xy 169.627 100.468) (xy 169.627 100.488) (xy 169.647 100.488) (xy 169.647 100.742) (xy 169.627 100.742)
        (xy 169.627 101.84125) (xy 169.78575 102) (xy 169.627 102.15875) (xy 169.627 103.258) (xy 169.647 103.258)
        (xy 169.647 103.512) (xy 169.627 103.512) (xy 169.627 103.532) (xy 169.373 103.532) (xy 169.373 103.512)
        (xy 166.77375 103.512) (xy 166.615 103.67075) (xy 166.615 104.26131) (xy 166.711673 104.494699) (xy 166.890302 104.673327)
        (xy 167.123691 104.77) (xy 166.932685 104.77) (xy 166.744888 104.582203) (xy 166.402399 104.353359) (xy 165.862 104.245867)
        (xy 165.321601 104.353359) (xy 164.863472 104.659472) (xy 164.557359 105.117601) (xy 164.449867 105.658) (xy 164.557359 106.198399)
        (xy 164.786203 106.540888) (xy 165.2832 107.037885) (xy 165.360471 107.153529) (xy 165.8186 107.459641) (xy 166.222593 107.54)
        (xy 166.358999 107.567133) (xy 166.495405 107.54) (xy 167.187459 107.54) (xy 167.25 107.55244) (xy 171.290001 107.55244)
        (xy 171.290001 121.29) (xy 126.71 121.29) (xy 126.71 117.525594) (xy 133.615 117.525594) (xy 133.615 118.474406)
        (xy 133.978095 119.350994) (xy 134.649006 120.021905) (xy 135.525594 120.385) (xy 136.474406 120.385) (xy 137.350994 120.021905)
        (xy 138.021905 119.350994) (xy 138.385 118.474406) (xy 138.385 117.525594) (xy 138.311439 117.348) (xy 145.400765 117.348)
        (xy 145.488854 117.790855) (xy 145.617241 117.983) (xy 145.488854 118.175145) (xy 145.400765 118.618) (xy 145.488854 119.060855)
        (xy 145.739711 119.436289) (xy 146.115145 119.687146) (xy 146.446217 119.753) (xy 146.669783 119.753) (xy 147.000855 119.687146)
        (xy 147.376289 119.436289) (xy 147.627146 119.060855) (xy 147.715235 118.618) (xy 147.627146 118.175145) (xy 147.498759 117.983)
        (xy 147.627146 117.790855) (xy 147.715235 117.348) (xy 147.627146 116.905145) (xy 147.530916 116.761126) (xy 148.698 116.761126)
        (xy 148.698 117.172874) (xy 148.855569 117.55328) (xy 148.973 117.670711) (xy 148.973001 117.914288) (xy 148.855569 118.03172)
        (xy 148.698 118.412126) (xy 148.698 118.823874) (xy 148.855569 119.20428) (xy 149.14672 119.495431) (xy 149.527126 119.653)
        (xy 149.938874 119.653) (xy 150.31928 119.495431) (xy 150.610431 119.20428) (xy 150.768 118.823874) (xy 150.768 118.412126)
        (xy 150.610431 118.03172) (xy 150.493 117.914289) (xy 150.493 117.670711) (xy 150.610431 117.55328) (xy 150.621898 117.525594)
        (xy 165.615 117.525594) (xy 165.615 118.474406) (xy 165.978095 119.350994) (xy 166.649006 120.021905) (xy 167.525594 120.385)
        (xy 168.474406 120.385) (xy 169.350994 120.021905) (xy 170.021905 119.350994) (xy 170.385 118.474406) (xy 170.385 117.525594)
        (xy 170.021905 116.649006) (xy 169.350994 115.978095) (xy 168.474406 115.615) (xy 167.525594 115.615) (xy 166.649006 115.978095)
        (xy 165.978095 116.649006) (xy 165.615 117.525594) (xy 150.621898 117.525594) (xy 150.768 117.172874) (xy 150.768 116.761126)
        (xy 150.610431 116.38072) (xy 150.31928 116.089569) (xy 149.938874 115.932) (xy 149.527126 115.932) (xy 149.14672 116.089569)
        (xy 148.855569 116.38072) (xy 148.698 116.761126) (xy 147.530916 116.761126) (xy 147.490801 116.70109) (xy 147.545127 116.638209)
        (xy 147.631635 116.429334) (xy 147.749126 116.478) (xy 148.160874 116.478) (xy 148.54128 116.320431) (xy 148.832431 116.02928)
        (xy 148.99 115.648874) (xy 148.99 115.460618) (xy 149.070903 115.339538) (xy 149.097068 115.208) (xy 149.176874 115.208)
        (xy 149.55728 115.050431) (xy 149.848431 114.75928) (xy 150.006 114.378874) (xy 150.006 113.967126) (xy 149.848431 113.58672)
        (xy 149.55728 113.295569) (xy 149.176874 113.138) (xy 148.765126 113.138) (xy 148.38472 113.295569) (xy 148.093569 113.58672)
        (xy 147.936 113.967126) (xy 147.936 114.133199) (xy 147.870528 114.198671) (xy 147.80707 114.241072) (xy 147.70544 114.393172)
        (xy 147.70544 114.308) (xy 147.656157 114.060235) (xy 147.515809 113.850191) (xy 147.305765 113.709843) (xy 147.058 113.66056)
        (xy 146.058 113.66056) (xy 145.810235 113.709843) (xy 145.600191 113.850191) (xy 145.459843 114.060235) (xy 145.41056 114.308)
        (xy 145.41056 115.308) (xy 145.459843 115.555765) (xy 145.518678 115.643817) (xy 145.463881 115.776126) (xy 145.590046 115.951)
        (xy 146.035678 115.951) (xy 146.058 115.95544) (xy 146.705 115.95544) (xy 146.705 116.205) (xy 146.685 116.205)
        (xy 146.685 116.216027) (xy 146.669783 116.213) (xy 146.446217 116.213) (xy 146.431 116.216027) (xy 146.431 116.205)
        (xy 145.590046 116.205) (xy 145.463881 116.379874) (xy 145.570873 116.638209) (xy 145.625199 116.70109) (xy 145.488854 116.905145)
        (xy 145.400765 117.348) (xy 138.311439 117.348) (xy 138.021905 116.649006) (xy 137.350994 115.978095) (xy 136.474406 115.615)
        (xy 135.525594 115.615) (xy 134.649006 115.978095) (xy 133.978095 116.649006) (xy 133.615 117.525594) (xy 126.71 117.525594)
        (xy 126.71 107.55244) (xy 129.75 107.55244) (xy 129.812541 107.54) (xy 131.008593 107.54) (xy 131.145 107.567133)
        (xy 131.281407 107.54) (xy 131.6854 107.459641) (xy 132.143529 107.153529) (xy 132.2208 107.037885) (xy 132.965797 106.292888)
        (xy 133.19464 105.950401) (xy 133.302133 105.410001) (xy 133.19464 104.869601) (xy 132.888528 104.411472) (xy 132.430399 104.10536)
        (xy 131.889999 103.997867) (xy 131.349599 104.10536) (xy 131.007112 104.334203) (xy 130.571315 104.77) (xy 129.876309 104.77)
        (xy 130.109698 104.673327) (xy 130.288327 104.494699) (xy 130.385 104.26131) (xy 130.385 103.67075) (xy 130.22625 103.512)
        (xy 128.127 103.512) (xy 128.127 103.532) (xy 127.873 103.532) (xy 127.873 103.512) (xy 127.853 103.512)
        (xy 127.853 103.258) (xy 127.873 103.258) (xy 127.873 102.15875) (xy 127.71425 102) (xy 127.873 101.84125)
        (xy 127.873 100.742) (xy 128.127 100.742) (xy 128.127 101.84125) (xy 128.28575 102) (xy 128.127 102.15875)
        (xy 128.127 103.258) (xy 130.22625 103.258) (xy 130.385 103.09925) (xy 130.385 102.961213) (xy 142.662392 102.961213)
        (xy 142.731857 103.203397) (xy 143.255302 103.390144) (xy 143.810368 103.362362) (xy 144.194143 103.203397) (xy 144.263608 102.961213)
        (xy 143.463 102.160605) (xy 142.662392 102.961213) (xy 130.385 102.961213) (xy 130.385 102.50869) (xy 130.288327 102.275301)
        (xy 130.109698 102.096673) (xy 129.876309 102) (xy 130.109698 101.903327) (xy 130.239723 101.773302) (xy 142.053856 101.773302)
        (xy 142.081638 102.328368) (xy 142.240603 102.712143) (xy 142.482787 102.781608) (xy 143.283395 101.981) (xy 143.642605 101.981)
        (xy 144.443213 102.781608) (xy 144.685397 102.712143) (xy 144.872144 102.188698) (xy 144.84784 101.703119) (xy 152.066 101.703119)
        (xy 152.066 102.258881) (xy 152.27868 102.772337) (xy 152.671663 103.16532) (xy 153.185119 103.378) (xy 153.740881 103.378)
        (xy 154.254337 103.16532) (xy 154.64732 102.772337) (xy 154.86 102.258881) (xy 154.86 101.703119) (xy 154.64732 101.189663)
        (xy 154.358407 100.90075) (xy 166.615 100.90075) (xy 166.615 101.49131) (xy 166.711673 101.724699) (xy 166.890302 101.903327)
        (xy 167.123691 102) (xy 166.890302 102.096673) (xy 166.711673 102.275301) (xy 166.615 102.50869) (xy 166.615 103.09925)
        (xy 166.77375 103.258) (xy 169.373 103.258) (xy 169.373 102.15875) (xy 169.21425 102) (xy 169.373 101.84125)
        (xy 169.373 100.742) (xy 166.77375 100.742) (xy 166.615 100.90075) (xy 154.358407 100.90075) (xy 154.254337 100.79668)
        (xy 153.740881 100.584) (xy 153.185119 100.584) (xy 152.671663 100.79668) (xy 152.27868 101.189663) (xy 152.066 101.703119)
        (xy 144.84784 101.703119) (xy 144.844362 101.633632) (xy 144.685397 101.249857) (xy 144.443213 101.180392) (xy 143.642605 101.981)
        (xy 143.283395 101.981) (xy 142.482787 101.180392) (xy 142.240603 101.249857) (xy 142.053856 101.773302) (xy 130.239723 101.773302)
        (xy 130.288327 101.724699) (xy 130.385 101.49131) (xy 130.385 101.000787) (xy 142.662392 101.000787) (xy 143.463 101.801395)
        (xy 144.263608 101.000787) (xy 144.194143 100.758603) (xy 143.670698 100.571856) (xy 143.115632 100.599638) (xy 142.731857 100.758603)
        (xy 142.662392 101.000787) (xy 130.385 101.000787) (xy 130.385 100.90075) (xy 130.22625 100.742) (xy 128.127 100.742)
        (xy 127.873 100.742) (xy 127.853 100.742) (xy 127.853 100.488) (xy 127.873 100.488) (xy 127.873 100.468)
        (xy 128.127 100.468) (xy 128.127 100.488) (xy 130.22625 100.488) (xy 130.385 100.32925) (xy 130.385 99.73869)
        (xy 130.288327 99.505301) (xy 130.109698 99.326673) (xy 129.876309 99.23) (xy 130.880593 99.23) (xy 131.017 99.257133)
        (xy 131.153407 99.23) (xy 131.5574 99.149641) (xy 132.015529 98.843529) (xy 132.0928 98.727885) (xy 132.901797 97.918888)
        (xy 133.130641 97.5764) (xy 133.238133 97.036) (xy 133.130641 96.4956) (xy 132.824528 96.037472) (xy 132.3664 95.731359)
        (xy 131.826 95.623867) (xy 131.2856 95.731359) (xy 130.943112 95.960203) (xy 130.443315 96.46) (xy 129.812541 96.46)
        (xy 129.75 96.44756) (xy 126.71 96.44756) (xy 126.71 85.525594) (xy 133.615 85.525594) (xy 133.615 86.474406)
        (xy 133.978095 87.350994) (xy 134.649006 88.021905) (xy 135.525594 88.385) (xy 136.474406 88.385) (xy 137.350994 88.021905)
        (xy 138.021905 87.350994) (xy 138.385 86.474406) (xy 138.385 85.525594) (xy 165.615 85.525594) (xy 165.615 86.474406)
        (xy 165.978095 87.350994) (xy 166.649006 88.021905) (xy 167.525594 88.385) (xy 168.474406 88.385) (xy 169.350994 88.021905)
        (xy 170.021905 87.350994) (xy 170.385 86.474406) (xy 170.385 85.525594) (xy 170.021905 84.649006) (xy 169.350994 83.978095)
        (xy 168.474406 83.615) (xy 167.525594 83.615) (xy 166.649006 83.978095) (xy 165.978095 84.649006) (xy 165.615 85.525594)
        (xy 138.385 85.525594) (xy 138.021905 84.649006) (xy 137.350994 83.978095) (xy 136.474406 83.615) (xy 135.525594 83.615)
        (xy 134.649006 83.978095) (xy 133.978095 84.649006) (xy 133.615 85.525594) (xy 126.71 85.525594) (xy 126.71 82.71)
        (xy 171.29 82.71)
      )
    )
  )
)
