EESchema Schematic File Version 4
EELAYER 26 0
EELAYER END
$Descr A4 11693 8268
encoding utf-8
Sheet 1 1
Title ""
Date ""
Rev ""
Comp ""
Comment1 ""
Comment2 ""
Comment3 ""
Comment4 ""
$EndDescr
$Comp
L Br:Br_CN_IN J1
U 1 1 5D978D2E
P 1650 1800
F 0 "J1" H 1272 1747 60  0000 R CNN
F 1 "Br_CN_IN" H 1272 1853 60  0000 R CNN
F 2 "Br:Br_CN_IN" H 1525 1900 60  0001 C CNN
F 3 "" H 1525 1900 60  0001 C CNN
	1    1650 1800
	1    0    0    1   
$EndComp
$Comp
L Br:GND #PWR0101
U 1 1 5D979092
P 2300 2500
F 0 "#PWR0101" H 2300 2250 50  0001 C CNN
F 1 "GND" H 2305 2327 50  0000 C CNN
F 2 "" H 2300 2500 50  0000 C CNN
F 3 "" H 2300 2500 50  0000 C CNN
	1    2300 2500
	1    0    0    -1  
$EndComp
$Comp
L Br:5V #PWR0102
U 1 1 5D97912B
P 2000 2100
F 0 "#PWR0102" H 2000 1950 50  0001 C CNN
F 1 "5V" V 2015 2228 50  0000 L CNN
F 2 "" H 2000 2100 50  0000 C CNN
F 3 "" H 2000 2100 50  0000 C CNN
	1    2000 2100
	0    1    1    0   
$EndComp
$Comp
L Br:12V #PWR0103
U 1 1 5D97916E
P 1900 1400
F 0 "#PWR0103" H 1900 1250 50  0001 C CNN
F 1 "12V" V 1915 1528 50  0000 L CNN
F 2 "" H 1900 1400 50  0000 C CNN
F 3 "" H 1900 1400 50  0000 C CNN
	1    1900 1400
	0    1    1    0   
$EndComp
Text Notes 3400 1200 0    50   ~ 0
Female\n
Text Notes 1400 1200 0    50   ~ 0
Male\n
Text Label 1850 1800 0    50   ~ 0
UART_RX
Text Label 1850 1600 0    50   ~ 0
SPARE
Wire Wire Line
	1750 2100 1900 2100
Wire Wire Line
	1750 2000 1900 2000
Wire Wire Line
	1900 2000 1900 2100
Connection ~ 1900 2100
Wire Wire Line
	1900 2100 2000 2100
Wire Wire Line
	1800 1500 1800 1400
Wire Wire Line
	1800 1400 1900 1400
Wire Wire Line
	1750 1600 2200 1600
Text Label 7700 1950 0    50   ~ 0
UART_RX
Text Label 10600 1950 0    50   ~ 0
UART_TX
$Comp
L Br:Br_CN_OUT J3
U 1 1 5D9C46C3
P 3650 1800
F 0 "J3" H 3827 1846 50  0000 L CNN
F 1 "Br_CN_OUT" H 3827 1755 50  0000 L CNN
F 2 "Br:Br_CN_OUT" H 3650 2350 50  0001 C CNN
F 3 "" H 3650 2350 50  0001 C CNN
	1    3650 1800
	1    0    0    -1  
$EndComp
$Comp
L Br:Hole3mm H1
U 1 1 5D9D377A
P 5600 6600
F 0 "H1" H 5677 6651 50  0000 L CNN
F 1 "Hole3mm" H 5677 6560 50  0000 L CNN
F 2 "Br:Hole3mm" H 5600 6600 50  0001 C CNN
F 3 "" H 5600 6600 50  0001 C CNN
	1    5600 6600
	1    0    0    -1  
$EndComp
$Comp
L Br:Hole3mm H3
U 1 1 5D9D37B0
P 6300 6600
F 0 "H3" H 6377 6651 50  0000 L CNN
F 1 "Hole3mm" H 6377 6560 50  0000 L CNN
F 2 "Br:Hole3mm" H 6300 6600 50  0001 C CNN
F 3 "" H 6300 6600 50  0001 C CNN
	1    6300 6600
	1    0    0    -1  
$EndComp
$Comp
L Br:Hole3mm H2
U 1 1 5D9D6260
P 5600 6850
F 0 "H2" H 5677 6901 50  0000 L CNN
F 1 "Hole3mm" H 5677 6810 50  0000 L CNN
F 2 "Br:Hole3mm" H 5600 6850 50  0001 C CNN
F 3 "" H 5600 6850 50  0001 C CNN
	1    5600 6850
	1    0    0    -1  
$EndComp
$Comp
L Br:Hole3mm H4
U 1 1 5D9D6266
P 6300 6850
F 0 "H4" H 6377 6901 50  0000 L CNN
F 1 "Hole3mm" H 6377 6810 50  0000 L CNN
F 2 "Br:Hole3mm" H 6300 6850 50  0001 C CNN
F 3 "" H 6300 6850 50  0001 C CNN
	1    6300 6850
	1    0    0    -1  
$EndComp
Wire Wire Line
	1800 1500 1750 1500
Wire Wire Line
	1750 1400 1800 1400
Connection ~ 1800 1400
Wire Wire Line
	2300 1900 2300 2200
Wire Wire Line
	1750 1900 2300 1900
Wire Wire Line
	2300 1900 2300 1700
Wire Wire Line
	1750 1700 2300 1700
Wire Wire Line
	1750 1800 2200 1800
Connection ~ 2300 1900
Wire Wire Line
	1750 2200 2300 2200
Connection ~ 2300 2200
Wire Wire Line
	2300 2200 2300 2500
$Comp
L Br:GND #PWR0104
U 1 1 5D9E7626
P 2750 2500
F 0 "#PWR0104" H 2750 2250 50  0001 C CNN
F 1 "GND" H 2755 2327 50  0000 C CNN
F 2 "" H 2750 2500 50  0000 C CNN
F 3 "" H 2750 2500 50  0000 C CNN
	1    2750 2500
	-1   0    0    -1  
$EndComp
$Comp
L Br:5V #PWR0105
U 1 1 5D9E762C
P 3100 2100
F 0 "#PWR0105" H 3100 1950 50  0001 C CNN
F 1 "5V" V 3115 2228 50  0000 L CNN
F 2 "" H 3100 2100 50  0000 C CNN
F 3 "" H 3100 2100 50  0000 C CNN
	1    3100 2100
	0    -1   1    0   
$EndComp
$Comp
L Br:12V #PWR0106
U 1 1 5D9E7632
P 3100 1400
F 0 "#PWR0106" H 3100 1250 50  0001 C CNN
F 1 "12V" V 3115 1528 50  0000 L CNN
F 2 "" H 3100 1400 50  0000 C CNN
F 3 "" H 3100 1400 50  0000 C CNN
	1    3100 1400
	0    -1   1    0   
$EndComp
Text Label 3250 1800 2    50   ~ 0
UART_TX
Text Label 3250 1600 2    50   ~ 0
SPARE
Wire Wire Line
	3350 2100 3200 2100
Wire Wire Line
	3350 2000 3200 2000
Wire Wire Line
	3200 2000 3200 2100
Connection ~ 3200 2100
Wire Wire Line
	3200 2100 3100 2100
Wire Wire Line
	3200 1500 3200 1400
Connection ~ 3200 1400
Wire Wire Line
	3200 1400 3100 1400
Wire Wire Line
	3350 1500 3200 1500
Wire Wire Line
	3350 1400 3200 1400
Wire Wire Line
	3350 1600 2900 1600
Wire Wire Line
	2750 1700 2750 1900
Wire Wire Line
	2750 1700 3350 1700
Wire Wire Line
	2900 1800 3350 1800
Wire Wire Line
	3350 1900 2750 1900
Connection ~ 2750 1900
Wire Wire Line
	2750 1900 2750 2200
Wire Wire Line
	3350 2200 2750 2200
Connection ~ 2750 2200
Wire Wire Line
	2750 2200 2750 2500
$Comp
L Br:5V #PWR0107
U 1 1 5D9CBEE0
P 5550 1550
F 0 "#PWR0107" H 5550 1400 50  0001 C CNN
F 1 "5V" V 5565 1678 50  0000 L CNN
F 2 "" H 5550 1550 50  0000 C CNN
F 3 "" H 5550 1550 50  0000 C CNN
	1    5550 1550
	1    0    0    -1  
$EndComp
Wire Wire Line
	5550 1650 5550 1550
$Comp
L Br:D_BAV99.215 D2
U 1 1 5D9CDB0F
P 8850 1950
F 0 "D2" H 8927 1904 50  0000 L CNN
F 1 "D_BAV99.215" H 8300 2250 50  0000 L CNN
F 2 "Br:SOT23" V 8850 2100 50  0001 C CNN
F 3 "../library_doc/D_BAV99.215.pdf" H 8928 1905 50  0001 L CNN
F 4 "C2500" H 8927 1859 50  0001 L CNN "LCSC"
	1    8850 1950
	1    0    0    1   
$EndComp
$Comp
L Br:R_1K_0603_1% R1
U 1 1 5D9CE50E
P 8250 1950
F 0 "R1" V 8150 1850 50  0000 C CNN
F 1 "R_1K_0603_1%" V 8350 1950 50  0000 C CNN
F 2 "Br:R_0603" V 8180 1950 50  0001 C CNN
F 3 "" H 8250 1950 50  0000 C CNN
F 4 "C21190" V 8135 1950 50  0001 C CNN "LCSC"
	1    8250 1950
	0    1    1    0   
$EndComp
Wire Wire Line
	7700 1950 8100 1950
$Comp
L Br:GND #PWR0108
U 1 1 5D9CF159
P 8850 2300
F 0 "#PWR0108" H 8850 2050 50  0001 C CNN
F 1 "GND" H 8855 2127 50  0000 C CNN
F 2 "" H 8850 2300 50  0000 C CNN
F 3 "" H 8850 2300 50  0000 C CNN
	1    8850 2300
	-1   0    0    -1  
$EndComp
Wire Wire Line
	8850 2300 8850 2250
$Comp
L Br:D_BAV99.215 D3
U 1 1 5D9CF778
P 9800 1950
F 0 "D3" H 9878 1904 50  0000 L CNN
F 1 "D_BAV99.215" H 9250 2200 50  0000 L CNN
F 2 "Br:SOT23" V 9800 2100 50  0001 C CNN
F 3 "../library_doc/D_BAV99.215.pdf" H 9878 1905 50  0001 L CNN
F 4 "C2500" H 9877 1859 50  0001 L CNN "LCSC"
	1    9800 1950
	-1   0    0    1   
$EndComp
$Comp
L Br:R_1K_0603_1% R2
U 1 1 5D9CF786
P 10350 1950
F 0 "R2" V 10250 1850 50  0000 C CNN
F 1 "R_1K_0603_1%" V 10450 1850 50  0000 C CNN
F 2 "Br:R_0603" V 10280 1950 50  0001 C CNN
F 3 "" H 10350 1950 50  0000 C CNN
F 4 "C21190" V 10235 1950 50  0001 C CNN "LCSC"
	1    10350 1950
	0    -1   1    0   
$EndComp
Wire Wire Line
	10900 1950 10500 1950
$Comp
L Br:GND #PWR0109
U 1 1 5D9CF78E
P 9800 2300
F 0 "#PWR0109" H 9800 2050 50  0001 C CNN
F 1 "GND" H 9805 2127 50  0000 C CNN
F 2 "" H 9800 2300 50  0000 C CNN
F 3 "" H 9800 2300 50  0000 C CNN
	1    9800 2300
	1    0    0    -1  
$EndComp
Wire Wire Line
	9800 2300 9800 2250
$Comp
L Br:3V3 #PWR0110
U 1 1 5D9D1287
P 9800 1550
F 0 "#PWR0110" H 9800 1400 50  0001 C CNN
F 1 "3V3" H 9815 1723 50  0000 C CNN
F 2 "" H 9800 1550 50  0000 C CNN
F 3 "" H 9800 1550 50  0000 C CNN
	1    9800 1550
	1    0    0    -1  
$EndComp
$Comp
L Br:3V3 #PWR0111
U 1 1 5D9D12BD
P 8850 1550
F 0 "#PWR0111" H 8850 1400 50  0001 C CNN
F 1 "3V3" H 8865 1723 50  0000 C CNN
F 2 "" H 8850 1550 50  0000 C CNN
F 3 "" H 8850 1550 50  0000 C CNN
	1    8850 1550
	1    0    0    -1  
$EndComp
Wire Wire Line
	8850 1550 8850 1650
Wire Wire Line
	9800 1550 9800 1650
Text Notes 8900 1150 0    50   ~ 0
UART protection
$Comp
L Br:3V3 #PWR0112
U 1 1 5D9D2D75
P 7300 1500
F 0 "#PWR0112" H 7300 1350 50  0001 C CNN
F 1 "3V3" H 7315 1673 50  0000 C CNN
F 2 "" H 7300 1500 50  0000 C CNN
F 3 "" H 7300 1500 50  0000 C CNN
	1    7300 1500
	1    0    0    -1  
$EndComp
Text Notes 5800 1150 0    50   ~ 0
Power regulator
$Comp
L Br:GND #PWR0113
U 1 1 5D9D4876
P 1600 4450
F 0 "#PWR0113" H 1600 4200 50  0001 C CNN
F 1 "GND" H 1605 4277 50  0000 C CNN
F 2 "" H 1600 4450 50  0000 C CNN
F 3 "" H 1600 4450 50  0000 C CNN
	1    1600 4450
	-1   0    0    -1  
$EndComp
Wire Wire Line
	2150 3350 2550 3350
Wire Wire Line
	2150 3450 2550 3450
Text Label 2150 3550 0    50   ~ 0
SWIM
Text Label 2150 3650 0    50   ~ 0
NRST
Wire Wire Line
	2150 3550 2550 3550
Text Label 1000 3150 0    50   ~ 0
SWIM
Text Label 1000 2950 0    50   ~ 0
NRST
$Comp
L Br:3V3 #PWR0114
U 1 1 5D9D7743
P 2050 4050
F 0 "#PWR0114" H 2050 3900 50  0001 C CNN
F 1 "3V3" V 2065 4178 50  0000 L CNN
F 2 "" H 2050 4050 50  0000 C CNN
F 3 "" H 2050 4050 50  0000 C CNN
	1    2050 4050
	0    -1   -1   0   
$EndComp
Wire Wire Line
	1600 3950 2550 3950
$Comp
L Br:GND #PWR0115
U 1 1 5D9D82DF
P 1000 3050
F 0 "#PWR0115" H 1000 2800 50  0001 C CNN
F 1 "GND" H 1005 2877 50  0000 C CNN
F 2 "" H 1000 3050 50  0000 C CNN
F 3 "" H 1000 3050 50  0000 C CNN
	1    1000 3050
	0    1    -1   0   
$EndComp
$Comp
L Br:3V3 #PWR0116
U 1 1 5D9D8302
P 1050 3250
F 0 "#PWR0116" H 1050 3100 50  0001 C CNN
F 1 "3V3" V 1065 3378 50  0000 L CNN
F 2 "" H 1050 3250 50  0000 C CNN
F 3 "" H 1050 3250 50  0000 C CNN
	1    1050 3250
	0    -1   -1   0   
$EndComp
$Comp
L Br:CN_P_01x04_1.27MM_STRAIGHT_ZL319-4P J2
U 1 1 5D9D92B3
P 1400 3100
F 0 "J2" H 1478 3105 50  0000 L CNN
F 1 "CN_P_01x04_1.27MM_STRAIGHT_ZL319-4P" H 1477 3060 50  0001 L CNN
F 2 "Br:CN_P_01x04_1.27MM_STRAIGHT_ZL319-4P" H 1350 3150 50  0001 C CNN
F 3 "" H 1350 3150 50  0001 C CNN
	1    1400 3100
	1    0    0    -1  
$EndComp
Wire Wire Line
	1000 2950 1250 2950
Wire Wire Line
	1000 3050 1250 3050
Wire Wire Line
	1000 3150 1250 3150
Wire Wire Line
	1050 3250 1250 3250
$Comp
L Br:C_100N_0603_10%_50V_X7R C2
U 1 1 5D9DE095
P 2150 4250
F 0 "C2" H 1900 4300 50  0000 L CNN
F 1 "100nF" H 1900 4150 50  0000 L CNN
F 2 "Br:C_0603" V 2080 4250 50  0001 C CNN
F 3 "" V 2250 4150 50  0000 C CNN
F 4 "C14663" H 2265 4159 50  0001 L CNN "LCSC"
	1    2150 4250
	1    0    0    -1  
$EndComp
Wire Wire Line
	2150 4100 2150 4050
Wire Wire Line
	2150 4050 2050 4050
Wire Wire Line
	2550 4050 2150 4050
Connection ~ 2150 4050
$Comp
L Br:GND #PWR0117
U 1 1 5D9DFBBB
P 2150 4450
F 0 "#PWR0117" H 2150 4200 50  0001 C CNN
F 1 "GND" H 2155 4277 50  0000 C CNN
F 2 "" H 2150 4450 50  0000 C CNN
F 3 "" H 2150 4450 50  0000 C CNN
	1    2150 4450
	-1   0    0    -1  
$EndComp
Wire Wire Line
	2150 4450 2150 4400
Wire Wire Line
	1600 3950 1600 4450
$Comp
L Br:C_100N_0603_10%_50V_X7R C1
U 1 1 5D9E1885
P 1150 4250
F 0 "C1" H 1265 4296 50  0000 L CNN
F 1 "100nF" H 1265 4205 50  0000 L CNN
F 2 "Br:C_0603" V 1080 4250 50  0001 C CNN
F 3 "" V 1250 4150 50  0000 C CNN
F 4 "C14663" H 1265 4159 50  0001 L CNN "LCSC"
	1    1150 4250
	1    0    0    -1  
$EndComp
Wire Wire Line
	1150 3650 2550 3650
$Comp
L Br:GND #PWR0118
U 1 1 5D9E54AE
P 1150 4450
F 0 "#PWR0118" H 1150 4200 50  0001 C CNN
F 1 "GND" H 1155 4277 50  0000 C CNN
F 2 "" H 1150 4450 50  0000 C CNN
F 3 "" H 1150 4450 50  0000 C CNN
	1    1150 4450
	-1   0    0    -1  
$EndComp
Wire Wire Line
	1150 3650 1150 4100
Wire Wire Line
	1150 4400 1150 4450
$Comp
L Br:C_1U_0603_10%_50V_X5R C3
U 1 1 5D9EACB1
P 5950 2200
F 0 "C3" H 6065 2246 50  0000 L CNN
F 1 "1uF" H 6065 2155 50  0000 L CNN
F 2 "Br:C_0603" V 5880 2200 50  0001 C CNN
F 3 "" V 6050 2100 50  0000 C CNN
F 4 "C15849" H 6065 2109 50  0001 L CNN "LCSC"
	1    5950 2200
	1    0    0    -1  
$EndComp
$Comp
L Br:GND #PWR0119
U 1 1 5D9EADC4
P 5950 2500
F 0 "#PWR0119" H 5950 2250 50  0001 C CNN
F 1 "GND" H 5955 2327 50  0000 C CNN
F 2 "" H 5950 2500 50  0000 C CNN
F 3 "" H 5950 2500 50  0000 C CNN
	1    5950 2500
	-1   0    0    -1  
$EndComp
Wire Wire Line
	5950 2500 5950 2350
Wire Wire Line
	5950 1950 5950 2050
$Comp
L Br:ICP_HT7533-1 U2
U 1 1 5D9C8DBA
P 6650 1950
F 0 "U2" H 6675 2306 50  0000 C CNN
F 1 "ICP_HT7533-1" H 6675 2215 50  0000 C CNN
F 2 "Br:SOT-89-3" H 6650 1950 50  0001 C CNN
F 3 "" H 6650 1950 50  0001 C CNN
F 4 "C14289" H 6675 2124 50  0001 C CNN "LCSC"
	1    6650 1950
	1    0    0    -1  
$EndComp
$Comp
L Br:C_1U_0603_10%_50V_X5R C4
U 1 1 5D9C8EED
P 7300 2200
F 0 "C4" H 7415 2246 50  0000 L CNN
F 1 "1uF" H 7415 2155 50  0000 L CNN
F 2 "Br:C_0603" V 7230 2200 50  0001 C CNN
F 3 "" V 7400 2100 50  0000 C CNN
F 4 "C15849" H 7415 2109 50  0001 L CNN "LCSC"
	1    7300 2200
	1    0    0    -1  
$EndComp
Wire Wire Line
	7050 1950 7300 1950
Wire Wire Line
	7300 1950 7300 2050
Wire Wire Line
	7300 1950 7300 1500
Connection ~ 7300 1950
$Comp
L Br:GND #PWR0120
U 1 1 5D9CB24A
P 6650 2500
F 0 "#PWR0120" H 6650 2250 50  0001 C CNN
F 1 "GND" H 6655 2327 50  0000 C CNN
F 2 "" H 6650 2500 50  0000 C CNN
F 3 "" H 6650 2500 50  0000 C CNN
	1    6650 2500
	-1   0    0    -1  
$EndComp
Wire Wire Line
	6650 2500 6650 2250
Wire Wire Line
	6300 1950 5950 1950
Connection ~ 5950 1950
$Comp
L Br:GND #PWR0121
U 1 1 5D9CD6CE
P 7300 2500
F 0 "#PWR0121" H 7300 2250 50  0001 C CNN
F 1 "GND" H 7305 2327 50  0000 C CNN
F 2 "" H 7300 2500 50  0000 C CNN
F 3 "" H 7300 2500 50  0000 C CNN
	1    7300 2500
	-1   0    0    -1  
$EndComp
Wire Wire Line
	7300 2500 7300 2350
Wire Wire Line
	5950 1550 5950 1950
NoConn ~ 5500 6600
NoConn ~ 5500 6850
NoConn ~ 6200 6850
NoConn ~ 6200 6600
$Comp
L Br:12V #PWR0129
U 1 1 5D9E7FDB
P 4450 1000
F 0 "#PWR0129" H 4450 850 50  0001 C CNN
F 1 "12V" H 4400 1200 50  0000 L CNN
F 2 "" H 4450 1000 50  0000 C CNN
F 3 "" H 4450 1000 50  0000 C CNN
	1    4450 1000
	1    0    0    -1  
$EndComp
$Comp
L Br:5V #PWR0130
U 1 1 5D9E801C
P 4650 1000
F 0 "#PWR0130" H 4650 850 50  0001 C CNN
F 1 "5V" H 4600 1200 50  0000 L CNN
F 2 "" H 4650 1000 50  0000 C CNN
F 3 "" H 4650 1000 50  0000 C CNN
	1    4650 1000
	1    0    0    -1  
$EndComp
$Comp
L Br:GND #PWR0131
U 1 1 5D9E816B
P 4250 1150
F 0 "#PWR0131" H 4250 900 50  0001 C CNN
F 1 "GND" H 4255 977 50  0000 C CNN
F 2 "" H 4250 1150 50  0000 C CNN
F 3 "" H 4250 1150 50  0000 C CNN
	1    4250 1150
	-1   0    0    -1  
$EndComp
$Comp
L Br:PWR #FLG0101
U 1 1 5D9E856C
P 4250 1000
F 0 "#FLG0101" H 4250 1095 50  0001 C CNN
F 1 "PWR" H 4250 1224 50  0000 C CNN
F 2 "" H 4250 1000 50  0000 C CNN
F 3 "" H 4250 1000 50  0000 C CNN
	1    4250 1000
	1    0    0    -1  
$EndComp
$Comp
L Br:PWR #FLG0102
U 1 1 5D9E85C4
P 4450 1150
F 0 "#FLG0102" H 4450 1245 50  0001 C CNN
F 1 "PWR" H 4450 1373 50  0000 C CNN
F 2 "" H 4450 1150 50  0000 C CNN
F 3 "" H 4450 1150 50  0000 C CNN
	1    4450 1150
	-1   0    0    1   
$EndComp
$Comp
L Br:PWR #FLG0103
U 1 1 5D9E8649
P 4650 1150
F 0 "#FLG0103" H 4650 1245 50  0001 C CNN
F 1 "PWR" H 4650 1373 50  0000 C CNN
F 2 "" H 4650 1150 50  0000 C CNN
F 3 "" H 4650 1150 50  0000 C CNN
	1    4650 1150
	-1   0    0    1   
$EndComp
Wire Wire Line
	4650 1150 4650 1000
Wire Wire Line
	4450 1150 4450 1000
Wire Wire Line
	4250 1150 4250 1000
Text Label 5950 1750 1    50   ~ 0
5V_In
Wire Wire Line
	9850 1950 10200 1950
Text Label 2200 3350 0    50   ~ 0
CPU_TX
Text Label 2200 3450 0    50   ~ 0
CPU_RX
Text Label 9900 1950 0    50   ~ 0
CPU_TX
Text Label 8450 1950 0    50   ~ 0
CPU_RX
Wire Wire Line
	8400 1950 8800 1950
Text Label 4850 1000 1    50   ~ 0
5V_In
$Comp
L Br:PWR #FLG0104
U 1 1 5DA0B14B
P 4850 1150
F 0 "#FLG0104" H 4850 1245 50  0001 C CNN
F 1 "PWR" H 4850 1373 50  0000 C CNN
F 2 "" H 4850 1150 50  0000 C CNN
F 3 "" H 4850 1150 50  0000 C CNN
	1    4850 1150
	-1   0    0    1   
$EndComp
Wire Wire Line
	4850 1150 4850 800 
$Comp
L Br:R_180R_0603_1% R7
U 1 1 5E677308
P 7350 4150
F 0 "R7" H 7420 4196 50  0000 L CNN
F 1 "180R" V 7350 4050 50  0000 L CNN
F 2 "Br:R_0603" V 7280 4150 50  0001 C CNN
F 3 "" H 7350 4150 50  0000 C CNN
F 4 "C22828" H 7420 4059 50  0001 L CNN "LCSC"
	1    7350 4150
	1    0    0    -1  
$EndComp
Text Label 7350 4550 1    50   ~ 0
LED1
Wire Wire Line
	7350 4300 7350 4650
$Comp
L Br:3V3 #PWR0133
U 1 1 5E684A05
P 7850 3000
F 0 "#PWR0133" H 7850 2850 50  0001 C CNN
F 1 "3V3" V 7865 3128 50  0000 L CNN
F 2 "" H 7850 3000 50  0000 C CNN
F 3 "" H 7850 3000 50  0000 C CNN
	1    7850 3000
	1    0    0    -1  
$EndComp
Wire Wire Line
	7350 3950 7350 4000
$Comp
L Br:D_LED_GREEN_SMD_0603 D4
U 1 1 5E68F76D
P 7350 3750
F 0 "D4" H 7350 3850 50  0000 L CNN
F 1 "D_LED_GREEN_SMD_0603" H 7498 3680 50  0001 L CNN
F 2 "Br:LED_0603" H 7350 3750 50  0001 C CNN
F 3 "" H 7350 3750 50  0001 C CNN
F 4 "C72043" H 7498 3634 50  0001 L CNN "LCSC"
	1    7350 3750
	1    0    0    -1  
$EndComp
$Comp
L Br:R_180R_0603_1% R8
U 1 1 5E68FA23
P 7600 4150
F 0 "R8" H 7670 4196 50  0000 L CNN
F 1 "180R" V 7600 4050 50  0000 L CNN
F 2 "Br:R_0603" V 7530 4150 50  0001 C CNN
F 3 "" H 7600 4150 50  0000 C CNN
F 4 "C22828" H 7670 4059 50  0001 L CNN "LCSC"
	1    7600 4150
	1    0    0    -1  
$EndComp
Text Label 7600 4550 1    50   ~ 0
LED2
Wire Wire Line
	7600 4300 7600 4650
Wire Wire Line
	7600 3950 7600 4000
$Comp
L Br:D_LED_GREEN_SMD_0603 D5
U 1 1 5E68FA34
P 7600 3750
F 0 "D5" H 7600 3850 50  0000 L CNN
F 1 "D_LED_GREEN_SMD_0603" H 7748 3680 50  0001 L CNN
F 2 "Br:LED_0603" H 7600 3750 50  0001 C CNN
F 3 "" H 7600 3750 50  0001 C CNN
F 4 "C72043" H 7748 3634 50  0001 L CNN "LCSC"
	1    7600 3750
	1    0    0    -1  
$EndComp
$Comp
L Br:R_180R_0603_1% R9
U 1 1 5E692E3E
P 7850 4150
F 0 "R9" H 7920 4196 50  0000 L CNN
F 1 "180R" V 7850 4050 50  0000 L CNN
F 2 "Br:R_0603" V 7780 4150 50  0001 C CNN
F 3 "" H 7850 4150 50  0000 C CNN
F 4 "C22828" H 7920 4059 50  0001 L CNN "LCSC"
	1    7850 4150
	1    0    0    -1  
$EndComp
Text Label 7850 4550 1    50   ~ 0
LED3
Wire Wire Line
	7850 4300 7850 4650
Wire Wire Line
	7850 3950 7850 4000
$Comp
L Br:D_LED_GREEN_SMD_0603 D6
U 1 1 5E692E4F
P 7850 3750
F 0 "D6" H 7850 3850 50  0000 L CNN
F 1 "D_LED_GREEN_SMD_0603" H 7998 3680 50  0001 L CNN
F 2 "Br:LED_0603" H 7850 3750 50  0001 C CNN
F 3 "" H 7850 3750 50  0001 C CNN
F 4 "C72043" H 7998 3634 50  0001 L CNN "LCSC"
	1    7850 3750
	1    0    0    -1  
$EndComp
$Comp
L Br:R_180R_0603_1% R10
U 1 1 5E692E56
P 8100 4150
F 0 "R10" H 8170 4196 50  0000 L CNN
F 1 "180R" V 8100 4050 50  0000 L CNN
F 2 "Br:R_0603" V 8030 4150 50  0001 C CNN
F 3 "" H 8100 4150 50  0000 C CNN
F 4 "C22828" H 8170 4059 50  0001 L CNN "LCSC"
	1    8100 4150
	1    0    0    -1  
$EndComp
Text Label 8100 4550 1    50   ~ 0
LED4
Wire Wire Line
	8100 4300 8100 4650
Wire Wire Line
	8100 3950 8100 4000
$Comp
L Br:D_LED_GREEN_SMD_0603 D7
U 1 1 5E692E67
P 8100 3750
F 0 "D7" H 8100 3850 50  0000 L CNN
F 1 "D_LED_GREEN_SMD_0603" H 8248 3680 50  0001 L CNN
F 2 "Br:LED_0603" H 8100 3750 50  0001 C CNN
F 3 "" H 8100 3750 50  0001 C CNN
F 4 "C72043" H 8248 3634 50  0001 L CNN "LCSC"
	1    8100 3750
	1    0    0    -1  
$EndComp
Wire Wire Line
	6400 3700 6650 3700
Wire Wire Line
	6400 3400 6650 3400
Wire Wire Line
	6400 3800 6650 3800
Wire Wire Line
	6400 3900 6650 3900
Wire Wire Line
	6400 4100 6650 4100
Wire Wire Line
	6400 4200 6650 4200
Wire Wire Line
	6400 4300 6650 4300
Text Notes 7550 3000 0    50   ~ 0
Green
$Comp
L Br:R_180R_0603_1% R3
U 1 1 5EA0F9FF
P 8400 4150
F 0 "R3" H 8470 4196 50  0000 L CNN
F 1 "180R" V 8400 4050 50  0000 L CNN
F 2 "Br:R_0603" V 8330 4150 50  0001 C CNN
F 3 "" H 8400 4150 50  0000 C CNN
F 4 "C22828" H 8470 4059 50  0001 L CNN "LCSC"
	1    8400 4150
	1    0    0    -1  
$EndComp
Text Label 8400 4550 1    50   ~ 0
LED5
Wire Wire Line
	8400 4300 8400 4650
Wire Wire Line
	8400 3950 8400 4000
$Comp
L Br:D_LED_GREEN_SMD_0603 D8
U 1 1 5EA0FA10
P 8400 3750
F 0 "D8" H 8400 3850 50  0000 L CNN
F 1 "D_LED_GREEN_SMD_0603" H 8548 3680 50  0001 L CNN
F 2 "Br:LED_0603" H 8400 3750 50  0001 C CNN
F 3 "" H 8400 3750 50  0001 C CNN
F 4 "C72043" H 8548 3634 50  0001 L CNN "LCSC"
	1    8400 3750
	1    0    0    -1  
$EndComp
$Comp
L Br:R_180R_0603_1% R4
U 1 1 5EA14015
P 8800 3850
F 0 "R4" H 8870 3896 50  0000 L CNN
F 1 "180R" V 8800 3750 50  0000 L CNN
F 2 "Br:R_0603" V 8730 3850 50  0001 C CNN
F 3 "" H 8800 3850 50  0000 C CNN
F 4 "C22828" H 8870 3759 50  0001 L CNN "LCSC"
	1    8800 3850
	1    0    0    1   
$EndComp
Text Label 8800 3450 3    50   ~ 0
LED6
Wire Wire Line
	8800 3700 8800 3350
Wire Wire Line
	8800 4050 8800 4000
$Comp
L Br:R_180R_0603_1% R5
U 1 1 5EA1402D
P 9050 3850
F 0 "R5" H 9120 3896 50  0000 L CNN
F 1 "180R" V 9050 3750 50  0000 L CNN
F 2 "Br:R_0603" V 8980 3850 50  0001 C CNN
F 3 "" H 9050 3850 50  0000 C CNN
F 4 "C22828" H 9120 3759 50  0001 L CNN "LCSC"
	1    9050 3850
	1    0    0    1   
$EndComp
Text Label 9050 3450 3    50   ~ 0
LED7
Wire Wire Line
	9050 3700 9050 3350
Wire Wire Line
	9050 4050 9050 4000
$Comp
L Br:R_180R_0603_1% R6
U 1 1 5EA14045
P 9350 3850
F 0 "R6" H 9420 3896 50  0000 L CNN
F 1 "180R" V 9350 3750 50  0000 L CNN
F 2 "Br:R_0603" V 9280 3850 50  0001 C CNN
F 3 "" H 9350 3850 50  0000 C CNN
F 4 "C22828" H 9420 3759 50  0001 L CNN "LCSC"
	1    9350 3850
	1    0    0    1   
$EndComp
Text Label 9350 3450 3    50   ~ 0
LED8
Wire Wire Line
	9350 3700 9350 3350
Wire Wire Line
	9350 4050 9350 4000
Text Notes 8950 3100 0    50   ~ 0
Yellow
$Comp
L Br:D_LED_YELLOW_SMD_0603 D9
U 1 1 5EA190CB
P 8800 4200
F 0 "D9" H 8850 4250 50  0000 L CNN
F 1 "D_LED_YELLOW_SMD_0603" H 8948 4130 50  0001 L CNN
F 2 "Br:LED_0603" H 8800 4200 50  0001 C CNN
F 3 "" H 8800 4200 50  0001 C CNN
F 4 "C72038" H 8948 4084 50  0001 L CNN "LCSC"
	1    8800 4200
	-1   0    0    -1  
$EndComp
$Comp
L Br:D_LED_YELLOW_SMD_0603 D10
U 1 1 5EA19287
P 9050 4200
F 0 "D10" H 9100 4250 50  0000 L CNN
F 1 "D_LED_YELLOW_SMD_0603" H 9198 4130 50  0001 L CNN
F 2 "Br:LED_0603" H 9050 4200 50  0001 C CNN
F 3 "" H 9050 4200 50  0001 C CNN
F 4 "C72038" H 9198 4084 50  0001 L CNN "LCSC"
	1    9050 4200
	-1   0    0    -1  
$EndComp
$Comp
L Br:D_LED_YELLOW_SMD_0603 D11
U 1 1 5EA192E1
P 9350 4200
F 0 "D11" H 9400 4250 50  0000 L CNN
F 1 "D_LED_YELLOW_SMD_0603" H 9498 4130 50  0001 L CNN
F 2 "Br:LED_0603" H 9350 4200 50  0001 C CNN
F 3 "" H 9350 4200 50  0001 C CNN
F 4 "C72038" H 9498 4084 50  0001 L CNN "LCSC"
	1    9350 4200
	-1   0    0    -1  
$EndComp
$Comp
L Br:R_180R_0603_1% R11
U 1 1 5EA1BD65
P 10000 3850
F 0 "R11" H 10070 3896 50  0000 L CNN
F 1 "180R" V 10000 3750 50  0000 L CNN
F 2 "Br:R_0603" V 9930 3850 50  0001 C CNN
F 3 "" H 10000 3850 50  0000 C CNN
F 4 "C22828" H 10070 3759 50  0001 L CNN "LCSC"
	1    10000 3850
	1    0    0    1   
$EndComp
Text Label 10000 3450 3    50   ~ 0
LED9
Wire Wire Line
	10000 3700 10000 3350
Wire Wire Line
	10000 4050 10000 4000
$Comp
L Br:R_180R_0603_1% R12
U 1 1 5EA1BD76
P 10300 3850
F 0 "R12" H 10370 3896 50  0000 L CNN
F 1 "180R" V 10300 3750 50  0000 L CNN
F 2 "Br:R_0603" V 10230 3850 50  0001 C CNN
F 3 "" H 10300 3850 50  0000 C CNN
F 4 "C22828" H 10370 3759 50  0001 L CNN "LCSC"
	1    10300 3850
	1    0    0    1   
$EndComp
Text Label 10300 3450 3    50   ~ 0
LED10
Wire Wire Line
	10300 3700 10300 3350
Wire Wire Line
	10300 4050 10300 4000
$Comp
L Br:D_LED_RED_SMD_0603 D12
U 1 1 5EA1EA63
P 10000 4200
F 0 "D12" H 10100 4250 50  0000 L CNN
F 1 "D_LED_RED_SMD_0603" H 10148 4130 50  0001 L CNN
F 2 "Br:LED_0603" H 10000 4200 50  0001 C CNN
F 3 "" H 10000 4200 50  0001 C CNN
F 4 "C2286" H 10148 4084 50  0001 L CNN "LCSC"
	1    10000 4200
	-1   0    0    -1  
$EndComp
$Comp
L Br:D_LED_RED_SMD_0603 D13
U 1 1 5EA1EB7F
P 10300 4200
F 0 "D13" H 10400 4250 50  0000 L CNN
F 1 "D_LED_RED_SMD_0603" H 10448 4130 50  0001 L CNN
F 2 "Br:LED_0603" H 10300 4200 50  0001 C CNN
F 3 "" H 10300 4200 50  0001 C CNN
F 4 "C2286" H 10448 4084 50  0001 L CNN "LCSC"
	1    10300 4200
	-1   0    0    -1  
$EndComp
$Comp
L Br:GND #PWR0123
U 1 1 5EA84861
P 9600 5000
F 0 "#PWR0123" H 9600 4750 50  0001 C CNN
F 1 "GND" H 9605 4827 50  0000 C CNN
F 2 "" H 9600 5000 50  0000 C CNN
F 3 "" H 9600 5000 50  0000 C CNN
	1    9600 5000
	-1   0    0    -1  
$EndComp
Text Notes 10100 3100 0    50   ~ 0
Red
Text Notes 3800 4550 0    50   ~ 0
PB0 and PB4 pull up during reset
Text Label 2300 3750 0    50   ~ 0
LED10
Text Label 2300 3850 0    50   ~ 0
LED9
Text Label 2350 4150 0    50   ~ 0
LED8
Text Label 6450 4300 0    50   ~ 0
LED7
Text Label 6450 4200 0    50   ~ 0
LED6
Text Label 6650 4100 2    50   ~ 0
LED5
Text Label 6650 3900 2    50   ~ 0
LED4
Text Label 6650 3800 2    50   ~ 0
LED3
Text Label 6650 3700 2    50   ~ 0
LED2
Text Label 6650 3400 2    50   ~ 0
LED1
NoConn ~ 2550 4250
Wire Wire Line
	2550 4150 2300 4150
NoConn ~ 6400 4000
Wire Wire Line
	8800 4600 9050 4600
Wire Wire Line
	8800 4400 8800 4600
Wire Wire Line
	10300 4400 10300 4600
Wire Wire Line
	10000 4400 10000 4600
Connection ~ 10000 4600
Wire Wire Line
	10000 4600 10300 4600
Wire Wire Line
	9350 4400 9350 4600
Connection ~ 9350 4600
Wire Wire Line
	9350 4600 9600 4600
Wire Wire Line
	9050 4400 9050 4600
Connection ~ 9050 4600
Wire Wire Line
	9050 4600 9350 4600
$Comp
L Br:R_0R_0603_1% R14
U 1 1 5EAAA450
P 9600 4800
F 0 "R14" H 9670 4846 50  0000 L CNN
F 1 "0R" V 9600 4750 50  0000 L CNN
F 2 "Br:R_0603" V 9530 4800 50  0001 C CNN
F 3 "" H 9600 4800 50  0000 C CNN
F 4 "C21189" H 9670 4709 50  0001 L CNN "LCSC"
	1    9600 4800
	1    0    0    -1  
$EndComp
Wire Wire Line
	9600 5000 9600 4950
Wire Wire Line
	9600 4650 9600 4600
Connection ~ 9600 4600
Wire Wire Line
	9600 4600 9850 4600
$Comp
L Br:R_0R_0603_1% R13
U 1 1 5EAB0730
P 7850 3250
F 0 "R13" H 7920 3296 50  0000 L CNN
F 1 "0R" V 7850 3200 50  0000 L CNN
F 2 "Br:R_0603" V 7780 3250 50  0001 C CNN
F 3 "" H 7850 3250 50  0000 C CNN
F 4 "C21189" H 7920 3159 50  0001 L CNN "LCSC"
	1    7850 3250
	1    0    0    -1  
$EndComp
Wire Wire Line
	7850 3400 7850 3450
Wire Wire Line
	7850 3450 7600 3450
Wire Wire Line
	7350 3450 7350 3600
Wire Wire Line
	7600 3450 7600 3600
Connection ~ 7600 3450
Wire Wire Line
	7600 3450 7350 3450
Wire Wire Line
	7850 3450 7850 3600
Connection ~ 7850 3450
Wire Wire Line
	8100 3450 8100 3600
Wire Wire Line
	8100 3450 8400 3450
Wire Wire Line
	8400 3450 8400 3600
Connection ~ 8100 3450
Wire Wire Line
	7850 3450 8100 3450
$Comp
L Br:ICD_STM8L051F3P6 U1
U 1 1 5D9D4765
P 4950 3350
F 0 "U1" H 4475 3637 60  0000 C CNN
F 1 "ICD_STM8L051F3P6" H 4475 3531 60  0000 C CNN
F 2 "Br:TSSOP20" H 2550 3450 60  0001 C CNN
F 3 "" H 2550 3450 60  0000 C CNN
F 4 "C18088" H 4475 3523 50  0001 C CNN "LCSC"
	1    4950 3350
	1    0    0    -1  
$EndComp
NoConn ~ 6400 3500
NoConn ~ 6400 3600
Wire Wire Line
	2300 3750 2550 3750
Wire Wire Line
	2300 3850 2550 3850
$Comp
L Br:CN_P_01x02_2.54MM_HEADER J5
U 1 1 5EAD7276
P 10200 4900
F 0 "J5" H 10378 4955 60  0000 L CNN
F 1 "CN_P_01x02_2.54MM_HEADER" H 10378 4902 60  0001 L CNN
F 2 "Br:CN_P_01x02_2.54MM_HEADER" H 10250 4600 60  0001 C CNN
F 3 "" H 10250 4600 60  0001 C CNN
	1    10200 4900
	1    0    0    -1  
$EndComp
Wire Wire Line
	10000 4800 9850 4800
Wire Wire Line
	9850 4800 9850 4600
Connection ~ 9850 4600
Wire Wire Line
	9850 4600 10000 4600
$Comp
L Br:3V3 #PWR0122
U 1 1 5EADADD5
P 9950 4900
F 0 "#PWR0122" H 9950 4750 50  0001 C CNN
F 1 "3V3" V 9965 5028 50  0000 L CNN
F 2 "" H 9950 4900 50  0000 C CNN
F 3 "" H 9950 4900 50  0000 C CNN
	1    9950 4900
	0    -1   -1   0   
$EndComp
Wire Wire Line
	9950 4900 10000 4900
$Comp
L Br:CN_P_01x02_2.54MM_HEADER J4
U 1 1 5EADEB07
P 7350 3000
F 0 "J4" V 7319 2922 60  0000 R CNN
F 1 "CN_P_01x02_2.54MM_HEADER" H 7528 3002 60  0001 L CNN
F 2 "Br:CN_P_01x02_2.54MM_HEADER" H 7400 2700 60  0001 C CNN
F 3 "" H 7400 2700 60  0001 C CNN
	1    7350 3000
	0    -1   -1   0   
$EndComp
Wire Wire Line
	7850 3000 7850 3100
$Comp
L Br:GND #PWR0124
U 1 1 5EAE7103
P 7150 3300
F 0 "#PWR0124" H 7150 3050 50  0001 C CNN
F 1 "GND" H 7150 3150 50  0000 C CNN
F 2 "" H 7150 3300 50  0000 C CNN
F 3 "" H 7150 3300 50  0000 C CNN
	1    7150 3300
	-1   0    0    -1  
$EndComp
Wire Wire Line
	7150 3300 7150 3250
Wire Wire Line
	7150 3250 7250 3250
Wire Wire Line
	7250 3250 7250 3200
Wire Wire Line
	7350 3200 7350 3450
Connection ~ 7350 3450
$Comp
L Br:D_SCHOTTKY_B5819W D1
U 1 1 5F220547
P 5550 1800
F 0 "D1" V 5550 1722 50  0000 R CNN
F 1 "D_SCHOTTKY_B5819W" V 5505 1722 50  0001 R CNN
F 2 "Br:D_SOD-123" H 5550 1800 50  0001 C CNN
F 3 "" H 5550 1900 50  0000 C CNN
F 4 "C8598" H 5650 2000 50  0001 C CNN "LCSC"
	1    5550 1800
	0    -1   -1   0   
$EndComp
Wire Wire Line
	5550 1950 5950 1950
$EndSCHEMATC
