EESchema Schematic File Version 4
LIBS:023_6x4_power_supply_12_to_24V-cache
EELAYER 26 0
EELAYER END
$Descr A4 11693 8268
encoding utf-8
Sheet 1 1
Title ""
Date ""
Rev ""
Comp ""
Comment1 ""
Comment2 ""
Comment3 ""
Comment4 ""
$EndDescr
Text Notes 9900 1150 0    50   ~ 0
Female\n
Text Label 9500 5400 0    50   ~ 0
UART_TX
$Comp
L Br:Br_CN_OUT J3
U 1 1 5D9C46C3
P 10150 1750
F 0 "J3" H 10327 1796 50  0000 L CNN
F 1 "Br_CN_OUT" H 10327 1705 50  0000 L CNN
F 2 "Br:DSUB-9_Female_Vertical_P2.77x2.84mm" H 10150 2300 50  0001 C CNN
F 3 "" H 10150 2300 50  0001 C CNN
	1    10150 1750
	1    0    0    -1  
$EndComp
Text Label 9500 1750 2    50   ~ 0
UART_TX
Wire Wire Line
	9850 2050 9700 2050
Wire Wire Line
	9850 1950 9700 1950
Wire Wire Line
	9700 1950 9700 2050
$Comp
L Br:D_BAV99.215 D3
U 1 1 5D9CF778
P 8700 5400
F 0 "D3" H 8778 5354 50  0000 L CNN
F 1 "D_BAV99.215" H 8150 5650 50  0000 L CNN
F 2 "Br:SOT23" V 8700 5550 50  0001 C CNN
F 3 "../library_doc/D_BAV99.215.pdf" H 8778 5355 50  0001 L CNN
F 4 "C2500" H 8777 5309 50  0001 L CNN "LCSC"
	1    8700 5400
	-1   0    0    1   
$EndComp
Wire Wire Line
	9800 5400 9400 5400
$Comp
L Br:GND #PWR0109
U 1 1 5D9CF78E
P 8700 5750
F 0 "#PWR0109" H 8700 5500 50  0001 C CNN
F 1 "GND" H 8705 5577 50  0000 C CNN
F 2 "" H 8700 5750 50  0000 C CNN
F 3 "" H 8700 5750 50  0000 C CNN
	1    8700 5750
	1    0    0    -1  
$EndComp
Wire Wire Line
	8700 5750 8700 5700
$Comp
L Br:3V3 #PWR0110
U 1 1 5D9D1287
P 8700 5000
F 0 "#PWR0110" H 8700 4850 50  0001 C CNN
F 1 "3V3" H 8715 5173 50  0000 C CNN
F 2 "" H 8700 5000 50  0000 C CNN
F 3 "" H 8700 5000 50  0000 C CNN
	1    8700 5000
	1    0    0    -1  
$EndComp
Wire Wire Line
	8700 5000 8700 5100
Text Notes 9350 4550 0    50   ~ 0
UART protection
$Comp
L Br:3V3 #PWR0112
U 1 1 5D9D2D75
P 2950 2900
F 0 "#PWR0112" H 2950 2750 50  0001 C CNN
F 1 "3V3" H 2965 3073 50  0000 C CNN
F 2 "" H 2950 2900 50  0000 C CNN
F 3 "" H 2950 2900 50  0000 C CNN
	1    2950 2900
	1    0    0    -1  
$EndComp
Text Notes 1450 2250 0    50   ~ 0
Power regulator
$Comp
L Br:GND #PWR0113
U 1 1 5D9D4876
P 1400 5900
F 0 "#PWR0113" H 1400 5650 50  0001 C CNN
F 1 "GND" H 1405 5727 50  0000 C CNN
F 2 "" H 1400 5900 50  0000 C CNN
F 3 "" H 1400 5900 50  0000 C CNN
	1    1400 5900
	-1   0    0    -1  
$EndComp
Text Label 1950 5000 0    50   ~ 0
SWIM
Text Label 1950 5100 0    50   ~ 0
NRST
Wire Wire Line
	1950 5000 2350 5000
Text Label 1000 7000 0    50   ~ 0
SWIM
Text Label 1000 6800 0    50   ~ 0
NRST
$Comp
L Br:3V3 #PWR0114
U 1 1 5D9D7743
P 1850 5500
F 0 "#PWR0114" H 1850 5350 50  0001 C CNN
F 1 "3V3" V 1865 5628 50  0000 L CNN
F 2 "" H 1850 5500 50  0000 C CNN
F 3 "" H 1850 5500 50  0000 C CNN
	1    1850 5500
	0    -1   -1   0   
$EndComp
Wire Wire Line
	1400 5400 2350 5400
$Comp
L Br:GND #PWR0115
U 1 1 5D9D82DF
P 1000 6900
F 0 "#PWR0115" H 1000 6650 50  0001 C CNN
F 1 "GND" H 1005 6727 50  0000 C CNN
F 2 "" H 1000 6900 50  0000 C CNN
F 3 "" H 1000 6900 50  0000 C CNN
	1    1000 6900
	0    1    -1   0   
$EndComp
$Comp
L Br:3V3 #PWR0116
U 1 1 5D9D8302
P 1050 7100
F 0 "#PWR0116" H 1050 6950 50  0001 C CNN
F 1 "3V3" V 1065 7228 50  0000 L CNN
F 2 "" H 1050 7100 50  0000 C CNN
F 3 "" H 1050 7100 50  0000 C CNN
	1    1050 7100
	0    -1   -1   0   
$EndComp
$Comp
L Br:CN_P_01x04_1.27MM_STRAIGHT_ZL319-4P J2
U 1 1 5D9D92B3
P 1400 6950
F 0 "J2" H 1478 6955 50  0000 L CNN
F 1 "CN_P_01x04_1.27MM_STRAIGHT_ZL319-4P" H 1477 6910 50  0001 L CNN
F 2 "Br:CN_P_01x04_1.27MM_STRAIGHT_ZL319-4P" H 1350 7000 50  0001 C CNN
F 3 "" H 1350 7000 50  0001 C CNN
	1    1400 6950
	1    0    0    -1  
$EndComp
Wire Wire Line
	1000 6800 1250 6800
Wire Wire Line
	1000 6900 1250 6900
Wire Wire Line
	1000 7000 1250 7000
Wire Wire Line
	1050 7100 1250 7100
Wire Wire Line
	1950 5550 1950 5500
Wire Wire Line
	1950 5500 1850 5500
Wire Wire Line
	2350 5500 1950 5500
Connection ~ 1950 5500
$Comp
L Br:GND #PWR0117
U 1 1 5D9DFBBB
P 1950 5900
F 0 "#PWR0117" H 1950 5650 50  0001 C CNN
F 1 "GND" H 1955 5727 50  0000 C CNN
F 2 "" H 1950 5900 50  0000 C CNN
F 3 "" H 1950 5900 50  0000 C CNN
	1    1950 5900
	-1   0    0    -1  
$EndComp
Wire Wire Line
	1950 5900 1950 5850
Wire Wire Line
	1400 5400 1400 5900
Wire Wire Line
	950  5100 2350 5100
$Comp
L Br:GND #PWR0118
U 1 1 5D9E54AE
P 950 5900
F 0 "#PWR0118" H 950 5650 50  0001 C CNN
F 1 "GND" H 955 5727 50  0000 C CNN
F 2 "" H 950 5900 50  0000 C CNN
F 3 "" H 950 5900 50  0000 C CNN
	1    950  5900
	-1   0    0    -1  
$EndComp
Wire Wire Line
	950  5100 950  5550
Wire Wire Line
	950  5850 950  5900
$Comp
L Br:GND #PWR0119
U 1 1 5D9EADC4
P 1600 3900
F 0 "#PWR0119" H 1600 3650 50  0001 C CNN
F 1 "GND" H 1605 3727 50  0000 C CNN
F 2 "" H 1600 3900 50  0000 C CNN
F 3 "" H 1600 3900 50  0000 C CNN
	1    1600 3900
	-1   0    0    -1  
$EndComp
Wire Wire Line
	1600 3900 1600 3750
Wire Wire Line
	1600 3350 1600 3450
$Comp
L Br:ICP_HT7533-1 U2
U 1 1 5D9C8DBA
P 2300 3350
F 0 "U2" H 2325 3706 50  0000 C CNN
F 1 "ICP_HT7533-1" H 2325 3615 50  0000 C CNN
F 2 "Br:SOT-89-3" H 2300 3350 50  0001 C CNN
F 3 "" H 2300 3350 50  0001 C CNN
F 4 "C14289" H 2325 3524 50  0001 C CNN "LCSC"
	1    2300 3350
	1    0    0    -1  
$EndComp
Wire Wire Line
	2700 3350 2950 3350
Wire Wire Line
	2950 3350 2950 3450
Wire Wire Line
	2950 3350 2950 2900
Connection ~ 2950 3350
$Comp
L Br:GND #PWR0120
U 1 1 5D9CB24A
P 2300 3900
F 0 "#PWR0120" H 2300 3650 50  0001 C CNN
F 1 "GND" H 2305 3727 50  0000 C CNN
F 2 "" H 2300 3900 50  0000 C CNN
F 3 "" H 2300 3900 50  0000 C CNN
	1    2300 3900
	-1   0    0    -1  
$EndComp
Wire Wire Line
	2300 3900 2300 3650
Wire Wire Line
	1950 3350 1600 3350
$Comp
L Br:GND #PWR0121
U 1 1 5D9CD6CE
P 2950 3900
F 0 "#PWR0121" H 2950 3650 50  0001 C CNN
F 1 "GND" H 2955 3727 50  0000 C CNN
F 2 "" H 2950 3900 50  0000 C CNN
F 3 "" H 2950 3900 50  0000 C CNN
	1    2950 3900
	-1   0    0    -1  
$EndComp
Wire Wire Line
	2950 3900 2950 3750
NoConn ~ 6200 4850
NoConn ~ 2350 5700
$Comp
L Br:12V #PWR0129
U 1 1 5D9E7FDB
P 6100 7000
F 0 "#PWR0129" H 6100 6850 50  0001 C CNN
F 1 "12V" H 6050 7200 50  0000 L CNN
F 2 "" H 6100 7000 50  0000 C CNN
F 3 "" H 6100 7000 50  0000 C CNN
	1    6100 7000
	1    0    0    -1  
$EndComp
$Comp
L Br:5V #PWR0130
U 1 1 5D9E801C
P 6300 7000
F 0 "#PWR0130" H 6300 6850 50  0001 C CNN
F 1 "5V" H 6250 7200 50  0000 L CNN
F 2 "" H 6300 7000 50  0000 C CNN
F 3 "" H 6300 7000 50  0000 C CNN
	1    6300 7000
	1    0    0    -1  
$EndComp
$Comp
L Br:GND #PWR0131
U 1 1 5D9E816B
P 5900 7150
F 0 "#PWR0131" H 5900 6900 50  0001 C CNN
F 1 "GND" H 5905 6977 50  0000 C CNN
F 2 "" H 5900 7150 50  0000 C CNN
F 3 "" H 5900 7150 50  0000 C CNN
	1    5900 7150
	-1   0    0    -1  
$EndComp
$Comp
L Br:PWR #FLG0101
U 1 1 5D9E856C
P 5900 7000
F 0 "#FLG0101" H 5900 7095 50  0001 C CNN
F 1 "PWR" H 5900 7224 50  0000 C CNN
F 2 "" H 5900 7000 50  0000 C CNN
F 3 "" H 5900 7000 50  0000 C CNN
	1    5900 7000
	1    0    0    -1  
$EndComp
$Comp
L Br:PWR #FLG0102
U 1 1 5D9E85C4
P 6100 7150
F 0 "#FLG0102" H 6100 7245 50  0001 C CNN
F 1 "PWR" H 6100 7373 50  0000 C CNN
F 2 "" H 6100 7150 50  0000 C CNN
F 3 "" H 6100 7150 50  0000 C CNN
	1    6100 7150
	-1   0    0    1   
$EndComp
$Comp
L Br:PWR #FLG0103
U 1 1 5D9E8649
P 6300 7150
F 0 "#FLG0103" H 6300 7245 50  0001 C CNN
F 1 "PWR" H 6300 7373 50  0000 C CNN
F 2 "" H 6300 7150 50  0000 C CNN
F 3 "" H 6300 7150 50  0000 C CNN
	1    6300 7150
	-1   0    0    1   
$EndComp
Wire Wire Line
	6300 7150 6300 7000
Wire Wire Line
	6100 7150 6100 7000
Wire Wire Line
	5900 7150 5900 7000
Wire Wire Line
	8750 5400 9100 5400
Text Label 2000 4800 0    50   ~ 0
CPU_TX
Text Label 8800 5400 0    50   ~ 0
CPU_TX
$Comp
L Br:C_100N_0402_16V C1
U 1 1 5DCCDFE7
P 950 5700
F 0 "C1" H 1065 5746 50  0000 L CNN
F 1 "100nF" H 1065 5655 50  0000 L CNN
F 2 "Br:C_0402" V 880 5700 50  0001 C CNN
F 3 "" V 1050 5600 50  0000 C CNN
F 4 "C1525" H 1065 5609 50  0001 L CNN "LCSC"
	1    950  5700
	1    0    0    -1  
$EndComp
$Comp
L Br:C_100N_0402_16V C2
U 1 1 5DCCE0C4
P 1950 5700
F 0 "C2" H 2065 5746 50  0000 L CNN
F 1 "100nF" H 2065 5655 50  0000 L CNN
F 2 "Br:C_0402" V 1880 5700 50  0001 C CNN
F 3 "" V 2050 5600 50  0000 C CNN
F 4 "C1525" H 2065 5609 50  0001 L CNN "LCSC"
	1    1950 5700
	1    0    0    -1  
$EndComp
Text Notes 950  1650 1    50   ~ 0
Input voltage 12 to 24V\n
Wire Wire Line
	3100 6900 3100 6800
Wire Wire Line
	3100 7300 3100 7200
$Comp
L Br:ICD_STM8L051F3P6 U1
U 1 1 5D9D4765
P 4750 4800
F 0 "U1" H 4275 5087 60  0000 C CNN
F 1 "ICD_STM8L051F3P6" H 4275 4981 60  0000 C CNN
F 2 "Br:TSSOP20" H 2350 4900 60  0001 C CNN
F 3 "" H 2350 4900 60  0000 C CNN
F 4 "C57363" H 4275 4973 50  0001 C CNN "LCSC"
	1    4750 4800
	1    0    0    -1  
$EndComp
$Comp
L Br:CN_P_01x02_2.54MM_HEADER J1
U 1 1 5DD5889A
P 1350 1200
F 0 "J1" H 1319 1069 60  0000 C CNN
F 1 "CN_P_01x02_2.54MM_HEADER" H 1319 1069 60  0001 C CNN
F 2 "Br:CN_P_01x02_2.54MM_HEADER" H 1400 900 60  0001 C CNN
F 3 "" H 1400 900 60  0001 C CNN
	1    1350 1200
	-1   0    0    1   
$EndComp
Text Label 2900 6800 0    50   ~ 0
VBAT_MEAS
$Comp
L Br:GND #PWR0108
U 1 1 5DD0089F
P 3100 7300
F 0 "#PWR0108" H 3100 7050 50  0001 C CNN
F 1 "GND" H 3105 7127 50  0000 C CNN
F 2 "" H 3100 7300 50  0000 C CNN
F 3 "" H 3100 7300 50  0000 C CNN
	1    3100 7300
	-1   0    0    -1  
$EndComp
Wire Wire Line
	2850 6800 2850 6750
Wire Wire Line
	3100 6800 2850 6800
Wire Wire Line
	2850 7300 2850 7200
$Comp
L Br:GND #PWR0106
U 1 1 5DCF9C6A
P 2850 7300
F 0 "#PWR0106" H 2850 7050 50  0001 C CNN
F 1 "GND" H 2855 7127 50  0000 C CNN
F 2 "" H 2850 7300 50  0000 C CNN
F 3 "" H 2850 7300 50  0000 C CNN
	1    2850 7300
	-1   0    0    -1  
$EndComp
Connection ~ 2850 6800
Wire Wire Line
	2850 6900 2850 6800
$Comp
L Br:R_100K_0402_1%_0 R1
U 1 1 5DCF2318
P 2850 6600
F 0 "R1" H 2920 6646 50  0000 L CNN
F 1 "100k" V 2850 6500 50  0000 L CNN
F 2 "Br:R_0402" V 2780 6600 50  0001 C CNN
F 3 "" H 2850 6600 50  0000 C CNN
F 4 "C25741" H 2920 6509 50  0001 L CNN "LCSC"
	1    2850 6600
	1    0    0    -1  
$EndComp
NoConn ~ 2350 5600
$Comp
L Br:D_LED_GREEN_SMD_0603 D5
U 1 1 5EAF3CD5
P 7950 4950
F 0 "D5" H 8098 4971 50  0000 L CNN
F 1 "GREEN" H 8098 4880 50  0000 L CNN
F 2 "Br:LED_0603" H 7950 4950 50  0001 C CNN
F 3 "" H 7950 4950 50  0001 C CNN
F 4 "C72043" H 8098 4834 50  0001 L CNN "LCSC"
	1    7950 4950
	1    0    0    -1  
$EndComp
$Comp
L Br:R_180R_0603_1% R3
U 1 1 5EB38E73
P 7950 5350
F 0 "R3" H 8020 5396 50  0000 L CNN
F 1 "180R" V 7950 5250 50  0000 L CNN
F 2 "Br:R_0603" V 7880 5350 50  0001 C CNN
F 3 "" H 7950 5350 50  0000 C CNN
F 4 "C22828" H 8020 5259 50  0001 L CNN "LCSC"
	1    7950 5350
	1    0    0    -1  
$EndComp
$Comp
L Br:R_180R_0603_1% R5
U 1 1 5EB38ED3
P 7400 5300
F 0 "R5" H 7470 5346 50  0000 L CNN
F 1 "180R" V 7400 5200 50  0000 L CNN
F 2 "Br:R_0603" V 7330 5300 50  0001 C CNN
F 3 "" H 7400 5300 50  0000 C CNN
F 4 "C22828" H 7470 5209 50  0001 L CNN "LCSC"
	1    7400 5300
	1    0    0    -1  
$EndComp
Wire Wire Line
	7950 5200 7950 5150
Text Label 7400 5100 1    50   ~ 0
LED_RED
Connection ~ 1600 3350
$Comp
L Br:PWR #FLG0104
U 1 1 5ECC7F17
P 1600 3200
F 0 "#FLG0104" H 1600 3295 50  0001 C CNN
F 1 "PWR" H 1600 3424 50  0000 C CNN
F 2 "" H 1600 3200 50  0000 C CNN
F 3 "" H 1600 3200 50  0000 C CNN
	1    1600 3200
	1    0    0    -1  
$EndComp
Wire Wire Line
	1600 3350 1600 3200
$Comp
L Br:R_1k_0402_1% R6
U 1 1 5F3C9B84
P 9250 5400
F 0 "R6" V 9150 5500 50  0000 C CNN
F 1 "1k" V 9250 5400 50  0000 C CNN
F 2 "Br:R_0402" V 9180 5400 50  0001 C CNN
F 3 "" H 9250 5400 50  0000 C CNN
F 4 "C11702" V 9430 5500 50  0001 C CNN "LCSC"
	1    9250 5400
	0    1    1    0   
$EndComp
$Comp
L Br:GND #PWR0102
U 1 1 5FB122E3
P 9800 2150
F 0 "#PWR0102" H 9800 1900 50  0001 C CNN
F 1 "GND" V 9800 1950 50  0000 C CNN
F 2 "" H 9800 2150 50  0000 C CNN
F 3 "" H 9800 2150 50  0000 C CNN
	1    9800 2150
	0    1    1    0   
$EndComp
$Comp
L Br:GND #PWR0103
U 1 1 5FB162F2
P 9800 1850
F 0 "#PWR0103" H 9800 1600 50  0001 C CNN
F 1 "GND" V 9800 1650 50  0000 C CNN
F 2 "" H 9800 1850 50  0000 C CNN
F 3 "" H 9800 1850 50  0000 C CNN
	1    9800 1850
	0    1    1    0   
$EndComp
$Comp
L Br:GND #PWR0104
U 1 1 5FB16335
P 9800 1650
F 0 "#PWR0104" H 9800 1400 50  0001 C CNN
F 1 "GND" V 9800 1450 50  0000 C CNN
F 2 "" H 9800 1650 50  0000 C CNN
F 3 "" H 9800 1650 50  0000 C CNN
	1    9800 1650
	0    1    1    0   
$EndComp
Wire Wire Line
	9800 1650 9850 1650
Wire Wire Line
	9800 1850 9850 1850
Wire Wire Line
	9800 2150 9850 2150
Wire Wire Line
	9200 1750 9850 1750
Wire Wire Line
	7950 5600 7950 5500
$Comp
L Br:GND #PWR0111
U 1 1 5FB33095
P 7400 5950
F 0 "#PWR0111" H 7400 5700 50  0001 C CNN
F 1 "GND" H 7405 5777 50  0000 C CNN
F 2 "" H 7400 5950 50  0000 C CNN
F 3 "" H 7400 5950 50  0000 C CNN
	1    7400 5950
	-1   0    0    -1  
$EndComp
Wire Wire Line
	7400 5950 7400 5850
Text Label 6550 5750 2    50   ~ 0
LED_RED
Text Label 6650 4950 2    50   ~ 0
LED_GREEN
Wire Wire Line
	6200 5750 6700 5750
$Comp
L Br:CN_P_01x03_2.54MM_HEADER J4
U 1 1 5FB4B500
P 1000 4900
F 0 "J4" H 969 4669 60  0000 C CNN
F 1 "CN_P_01x03_2.54MM_HEADER" H 969 4669 60  0001 C CNN
F 2 "Br:CN_P_01x03_2.54MM_HEADER" H 1050 4600 60  0001 C CNN
F 3 "" H 1050 4600 60  0001 C CNN
	1    1000 4900
	-1   0    0    1   
$EndComp
Wire Wire Line
	2350 4900 1200 4900
Wire Wire Line
	1200 4800 2350 4800
$Comp
L Br:GND #PWR0122
U 1 1 5FB4F7A9
P 1250 5000
F 0 "#PWR0122" H 1250 4750 50  0001 C CNN
F 1 "GND" V 1250 4800 50  0000 C CNN
F 2 "" H 1250 5000 50  0000 C CNN
F 3 "" H 1250 5000 50  0000 C CNN
	1    1250 5000
	0    -1   1    0   
$EndComp
Wire Wire Line
	1250 5000 1200 5000
Text Notes 750  4600 0    50   ~ 0
Programming \nconnector\n
Wire Wire Line
	7400 5150 7400 4650
NoConn ~ 2350 5200
NoConn ~ 2350 5300
Text Label 10850 5400 0    50   ~ 0
UART_RX
$Comp
L Br:D_BAV99.215 D8
U 1 1 5FB34DB4
P 10050 5400
F 0 "D8" H 10128 5354 50  0000 L CNN
F 1 "D_BAV99.215" H 9500 5650 50  0000 L CNN
F 2 "Br:SOT23" V 10050 5550 50  0001 C CNN
F 3 "../library_doc/D_BAV99.215.pdf" H 10128 5355 50  0001 L CNN
F 4 "C2500" H 10127 5309 50  0001 L CNN "LCSC"
	1    10050 5400
	-1   0    0    1   
$EndComp
Wire Wire Line
	11150 5400 10750 5400
$Comp
L Br:GND #PWR0137
U 1 1 5FB34DBB
P 10050 5750
F 0 "#PWR0137" H 10050 5500 50  0001 C CNN
F 1 "GND" H 10055 5577 50  0000 C CNN
F 2 "" H 10050 5750 50  0000 C CNN
F 3 "" H 10050 5750 50  0000 C CNN
	1    10050 5750
	1    0    0    -1  
$EndComp
Wire Wire Line
	10050 5750 10050 5700
$Comp
L Br:3V3 #PWR0138
U 1 1 5FB34DC2
P 10050 5000
F 0 "#PWR0138" H 10050 4850 50  0001 C CNN
F 1 "3V3" H 10065 5173 50  0000 C CNN
F 2 "" H 10050 5000 50  0000 C CNN
F 3 "" H 10050 5000 50  0000 C CNN
	1    10050 5000
	1    0    0    -1  
$EndComp
Wire Wire Line
	10050 5000 10050 5100
Wire Wire Line
	10100 5400 10450 5400
Text Label 10150 5400 0    50   ~ 0
CPU_RX
$Comp
L Br:R_1k_0402_1% R10
U 1 1 5FB34DCD
P 10600 5400
F 0 "R10" V 10500 5500 50  0000 C CNN
F 1 "1k" V 10600 5400 50  0000 C CNN
F 2 "Br:R_0402" V 10530 5400 50  0001 C CNN
F 3 "" H 10600 5400 50  0000 C CNN
F 4 "C11702" V 10780 5500 50  0001 C CNN "LCSC"
	1    10600 5400
	0    1    1    0   
$EndComp
Text Label 9200 1550 0    50   ~ 0
UART_RX
Wire Wire Line
	9200 1550 9850 1550
Text Label 2000 4900 0    50   ~ 0
CPU_RX
$Comp
L Br:M_SWITCH_5MS1S102AM6QE U3
U 1 1 5DDCEDDA
P 2350 1300
F 0 "U3" H 2375 1534 50  0000 C CNN
F 1 "M_SWITCH_5MS1S102AM6QE" H 2375 1534 50  0001 C CNN
F 2 "Br:M_SWITCH_5MS1S102AM6QE" H 2350 1300 50  0001 C CNN
F 3 "" H 2350 1300 50  0001 C CNN
	1    2350 1300
	-1   0    0    -1  
$EndComp
$Comp
L Br:C_1N_0402_50V C3
U 1 1 5FC42BC5
P 3100 7050
F 0 "C3" H 3215 7096 50  0000 L CNN
F 1 "1nF" H 3215 7005 50  0000 L CNN
F 2 "Br:C_0402" V 3030 7050 50  0001 C CNN
F 3 "" V 3200 6950 50  0000 C CNN
F 4 "C1523" V 3300 7050 50  0001 C CNN "LCSC"
	1    3100 7050
	1    0    0    -1  
$EndComp
$Comp
L Br:GND #PWR0101
U 1 1 605257CA
P 1650 1450
F 0 "#PWR0101" H 1650 1200 50  0001 C CNN
F 1 "GND" H 1655 1277 50  0000 C CNN
F 2 "" H 1650 1450 50  0000 C CNN
F 3 "" H 1650 1450 50  0000 C CNN
	1    1650 1450
	-1   0    0    -1  
$EndComp
Wire Wire Line
	1650 1450 1650 1300
Wire Wire Line
	1650 1300 1550 1300
$Comp
L Br:GND #PWR0105
U 1 1 6052A163
P 2350 1800
F 0 "#PWR0105" H 2350 1550 50  0001 C CNN
F 1 "GND" H 2355 1627 50  0000 C CNN
F 2 "" H 2350 1800 50  0000 C CNN
F 3 "" H 2350 1800 50  0000 C CNN
	1    2350 1800
	-1   0    0    -1  
$EndComp
Wire Wire Line
	1150 3350 1600 3350
Text Label 1150 3300 1    50   ~ 0
V_in
Wire Wire Line
	1150 3350 1150 3100
Wire Wire Line
	6200 4950 6650 4950
Text Label 7950 5950 3    50   ~ 0
LED_GREEN
$Comp
L Br:R_180R_0603_1% R11
U 1 1 6056684B
P 7950 5750
F 0 "R11" H 8020 5796 50  0000 L CNN
F 1 "180R" V 7950 5650 50  0000 L CNN
F 2 "Br:R_0603" V 7880 5750 50  0001 C CNN
F 3 "" H 7950 5750 50  0000 C CNN
F 4 "C22828" H 8020 5659 50  0001 L CNN "LCSC"
	1    7950 5750
	1    0    0    -1  
$EndComp
Wire Wire Line
	7950 5900 7950 6350
Wire Wire Line
	7950 4800 7950 4650
Text Notes 2100 600  0    50   ~ 0
It might be up to 24 V
Text Label 2750 1100 1    50   ~ 0
V_in
$Comp
L Br:12V #PWR0124
U 1 1 6058A5BF
P 9600 1250
F 0 "#PWR0124" H 9600 1100 50  0001 C CNN
F 1 "12V" H 9615 1423 50  0000 C CNN
F 2 "" H 9600 1250 50  0000 C CNN
F 3 "" H 9600 1250 50  0000 C CNN
	1    9600 1250
	1    0    0    -1  
$EndComp
Wire Wire Line
	9600 1450 9850 1450
Wire Wire Line
	9850 1350 9600 1350
Wire Wire Line
	9600 1250 9600 1350
Connection ~ 9600 1350
Wire Wire Line
	9600 1350 9600 1450
Text Label 2850 6350 1    50   ~ 0
V_in
Wire Wire Line
	2850 6150 2850 6450
$Comp
L Br:R_10K_0402_1% R7
U 1 1 6059658F
P 2850 7050
F 0 "R7" H 2650 7200 50  0000 L CNN
F 1 "10k" V 2850 7000 50  0000 L CNN
F 2 "Br:R_0402" V 2780 7050 50  0001 C CNN
F 3 "" H 2850 7050 50  0000 C CNN
F 4 "C25744" V 3030 7150 50  0001 C CNN "LCSC"
	1    2850 7050
	1    0    0    -1  
$EndComp
$Comp
L Br:ICP_STEP_DOWN_TPS54331DR U4
U 1 1 60570424
P 5100 1300
F 0 "U4" H 5100 2015 50  0000 C CNN
F 1 "ICP_STEP_DOWN_TPS54331DR" H 5100 1924 50  0000 C CNN
F 2 "Br:SOIC-8-1EP_3.9x4.9mm_P1.27mm_EP2.35x2.35mm" H 5000 1100 50  0001 C CNN
F 3 "" H 5000 1100 50  0001 C CNN
F 4 "C9865" H 5300 1050 50  0001 C CNN "LCSC"
	1    5100 1300
	1    0    0    -1  
$EndComp
$Comp
L Br:GND #PWR0133
U 1 1 60585B03
P 5500 1450
F 0 "#PWR0133" H 5500 1200 50  0001 C CNN
F 1 "GND" H 5505 1277 50  0000 C CNN
F 2 "" H 5500 1450 50  0000 C CNN
F 3 "" H 5500 1450 50  0000 C CNN
	1    5500 1450
	-1   0    0    -1  
$EndComp
Wire Wire Line
	5500 1450 5500 1400
Wire Wire Line
	5500 1400 5450 1400
$Comp
L Br:C_1N_0402_50V C7
U 1 1 60589C58
P 3950 1700
F 0 "C7" H 4000 1800 50  0000 L CNN
F 1 "1nF" H 4000 1600 50  0000 L CNN
F 2 "Br:C_0402" V 3880 1700 50  0001 C CNN
F 3 "" V 4050 1600 50  0000 C CNN
F 4 "C1523" V 4150 1700 50  0001 C CNN "LCSC"
	1    3950 1700
	1    0    0    -1  
$EndComp
$Comp
L Br:C_1N_0402_50V C6
U 1 1 60589D96
P 3650 1700
F 0 "C6" H 3700 1800 50  0000 L CNN
F 1 "1nF" H 3700 1600 50  0000 L CNN
F 2 "Br:C_0402" V 3580 1700 50  0001 C CNN
F 3 "" V 3750 1600 50  0000 C CNN
F 4 "C1523" V 3850 1700 50  0001 C CNN "LCSC"
	1    3650 1700
	1    0    0    -1  
$EndComp
$Comp
L Br:GND #PWR0134
U 1 1 60591FA7
P 3650 2250
F 0 "#PWR0134" H 3650 2000 50  0001 C CNN
F 1 "GND" H 3655 2077 50  0000 C CNN
F 2 "" H 3650 2250 50  0000 C CNN
F 3 "" H 3650 2250 50  0000 C CNN
	1    3650 2250
	-1   0    0    -1  
$EndComp
$Comp
L Br:GND #PWR0135
U 1 1 60591FF8
P 3950 2250
F 0 "#PWR0135" H 3950 2000 50  0001 C CNN
F 1 "GND" H 3955 2077 50  0000 C CNN
F 2 "" H 3950 2250 50  0000 C CNN
F 3 "" H 3950 2250 50  0000 C CNN
	1    3950 2250
	-1   0    0    -1  
$EndComp
$Comp
L Br:R_100K_0402_1%_0 R8
U 1 1 6059A8C8
P 4550 2050
F 0 "R8" H 4500 2250 50  0000 L CNN
F 1 "100k" V 4550 1950 50  0000 L CNN
F 2 "Br:R_0402" V 4480 2050 50  0001 C CNN
F 3 "" H 4550 2050 50  0000 C CNN
F 4 "C25741" H 4620 1959 50  0001 L CNN "LCSC"
	1    4550 2050
	1    0    0    -1  
$EndComp
$Comp
L Br:R_100K_0402_1%_0 R9
U 1 1 6059AA5C
P 4650 2050
F 0 "R9" H 4700 2250 50  0000 L CNN
F 1 "100k" V 4650 1950 50  0000 L CNN
F 2 "Br:R_0402" V 4580 2050 50  0001 C CNN
F 3 "" H 4650 2050 50  0000 C CNN
F 4 "C25741" H 4720 1959 50  0001 L CNN "LCSC"
	1    4650 2050
	1    0    0    -1  
$EndComp
$Comp
L Br:C_1N_0402_50V C12
U 1 1 6059ACEB
P 4650 1700
F 0 "C12" H 4765 1746 50  0000 L CNN
F 1 "1nF" H 4765 1655 50  0000 L CNN
F 2 "Br:C_0402" V 4580 1700 50  0001 C CNN
F 3 "" V 4750 1600 50  0000 C CNN
F 4 "C1523" V 4850 1700 50  0001 C CNN "LCSC"
	1    4650 1700
	1    0    0    -1  
$EndComp
Wire Wire Line
	4750 1400 4650 1400
Wire Wire Line
	4650 1400 4650 1550
Wire Wire Line
	4650 1850 4650 1900
Wire Wire Line
	4550 1900 4650 1900
Connection ~ 4650 1900
Wire Wire Line
	4550 2200 4650 2200
$Comp
L Br:GND #PWR0136
U 1 1 605B13FB
P 4650 2250
F 0 "#PWR0136" H 4650 2000 50  0001 C CNN
F 1 "GND" H 4655 2077 50  0000 C CNN
F 2 "" H 4650 2250 50  0000 C CNN
F 3 "" H 4650 2250 50  0000 C CNN
	1    4650 2250
	-1   0    0    -1  
$EndComp
Wire Wire Line
	4650 2250 4650 2200
Connection ~ 4650 2200
$Comp
L Br:C_47pF_0402_50V_0 C11
U 1 1 605CA3C9
P 4400 1700
F 0 "C11" H 4200 1450 50  0000 L CNN
F 1 "47pF" H 4200 1900 50  0000 L CNN
F 2 "Br:C_0402" V 4330 1700 50  0001 C CNN
F 3 "" V 4500 1600 50  0000 C CNN
F 4 "C1567" V 4600 1700 50  0001 C CNN "LCSC"
	1    4400 1700
	1    0    0    -1  
$EndComp
Wire Wire Line
	4400 1550 4400 1400
Wire Wire Line
	4400 1400 4650 1400
Connection ~ 4650 1400
$Comp
L Br:GND #PWR0139
U 1 1 605CF641
P 4400 2250
F 0 "#PWR0139" H 4400 2000 50  0001 C CNN
F 1 "GND" H 4405 2077 50  0000 C CNN
F 2 "" H 4400 2250 50  0000 C CNN
F 3 "" H 4400 2250 50  0000 C CNN
	1    4400 2250
	-1   0    0    -1  
$EndComp
Wire Wire Line
	4400 2250 4400 1850
$Comp
L Br:C_100N_0402_16V C13
U 1 1 605D4779
P 5800 1000
F 0 "C13" H 5915 1046 50  0000 L CNN
F 1 "100nF" H 5915 955 50  0000 L CNN
F 2 "Br:C_0402" V 5730 1000 50  0001 C CNN
F 3 "" V 5900 900 50  0000 C CNN
F 4 "C1525" H 5915 909 50  0001 L CNN "LCSC"
	1    5800 1000
	0    1    1    0   
$EndComp
Wire Wire Line
	5450 850  6050 850 
Wire Wire Line
	6050 850  6050 1000
Wire Wire Line
	6050 1000 5950 1000
Wire Wire Line
	5650 1000 5450 1000
$Comp
L Br:D_SCHOTTKY_SS54 D1
U 1 1 605DEE5F
P 6250 1200
F 0 "D1" V 6250 1278 50  0000 L CNN
F 1 "D_SCHOTTKY_SS54" V 6295 1278 50  0001 L CNN
F 2 "Br:DO214AC" H 6250 1200 50  0001 C CNN
F 3 "" H 6250 1300 50  0000 C CNN
F 4 "C22452" H 6350 1400 50  0001 C CNN "LCSC"
	1    6250 1200
	0    1    1    0   
$EndComp
Wire Wire Line
	6250 1050 6250 850 
Wire Wire Line
	6250 850  6050 850 
Connection ~ 6050 850 
$Comp
L Br:GND #PWR0140
U 1 1 605E43E7
P 6250 1450
F 0 "#PWR0140" H 6250 1200 50  0001 C CNN
F 1 "GND" H 6255 1277 50  0000 C CNN
F 2 "" H 6250 1450 50  0000 C CNN
F 3 "" H 6250 1450 50  0000 C CNN
	1    6250 1450
	-1   0    0    -1  
$EndComp
Wire Wire Line
	6250 1450 6250 1350
Wire Wire Line
	7100 850  7100 1050
$Comp
L Br:GND #PWR0141
U 1 1 605F4D43
P 7100 1500
F 0 "#PWR0141" H 7100 1250 50  0001 C CNN
F 1 "GND" H 7105 1327 50  0000 C CNN
F 2 "" H 7100 1500 50  0000 C CNN
F 3 "" H 7100 1500 50  0000 C CNN
	1    7100 1500
	-1   0    0    -1  
$EndComp
Wire Wire Line
	7100 1500 7100 1350
$Comp
L Br:5V #PWR0142
U 1 1 6060009B
P 7800 750
F 0 "#PWR0142" H 7800 600 50  0001 C CNN
F 1 "5V" H 7815 923 50  0000 C CNN
F 2 "" H 7800 750 50  0000 C CNN
F 3 "" H 7800 750 50  0000 C CNN
	1    7800 750 
	1    0    0    -1  
$EndComp
$Comp
L Br:GND #PWR0143
U 1 1 60600287
P 7450 1500
F 0 "#PWR0143" H 7450 1250 50  0001 C CNN
F 1 "GND" H 7455 1327 50  0000 C CNN
F 2 "" H 7450 1500 50  0000 C CNN
F 3 "" H 7450 1500 50  0000 C CNN
	1    7450 1500
	-1   0    0    -1  
$EndComp
$Comp
L Br:GND #PWR0144
U 1 1 606002EA
P 7800 1500
F 0 "#PWR0144" H 7800 1250 50  0001 C CNN
F 1 "GND" H 7805 1327 50  0000 C CNN
F 2 "" H 7800 1500 50  0000 C CNN
F 3 "" H 7800 1500 50  0000 C CNN
	1    7800 1500
	-1   0    0    -1  
$EndComp
Wire Wire Line
	7800 1500 7800 1350
Wire Wire Line
	7450 1500 7450 1350
$Comp
L Br:L_6.8uH_4A_0.066Ohm L1
U 1 1 60619F7E
P 6550 850
F 0 "L1" H 6525 1075 50  0000 C CNN
F 1 "6.8uH/4A" H 6525 984 50  0000 C CNN
F 2 "Br:L_SMD_5.4x5.2x3mm_SLO0530H6R8MTT" H 6550 850 50  0001 C CNN
F 3 "" H 6600 800 50  0001 C CNN
F 4 "C325965" H 6525 984 50  0001 C CNN "LCSC"
	1    6550 850 
	1    0    0    -1  
$EndComp
Wire Wire Line
	6250 850  6350 850 
Connection ~ 6250 850 
Wire Wire Line
	7100 850  7450 850 
Wire Wire Line
	7450 850  7450 1050
Connection ~ 7100 850 
Wire Wire Line
	7450 850  7800 850 
Wire Wire Line
	7800 850  7800 1050
Connection ~ 7450 850 
Wire Wire Line
	7800 850  7800 750 
Connection ~ 7800 850 
$Comp
L Br:5V #PWR0145
U 1 1 60630B87
P 7950 4650
F 0 "#PWR0145" H 7950 4500 50  0001 C CNN
F 1 "5V" H 7965 4823 50  0000 C CNN
F 2 "" H 7950 4650 50  0000 C CNN
F 3 "" H 7950 4650 50  0000 C CNN
	1    7950 4650
	1    0    0    -1  
$EndComp
Text Label 6250 5350 0    50   ~ 0
VBAT_MEAS
$Comp
L Br:R_10K_0402_1% R12
U 1 1 60631A0F
P 6850 1100
F 0 "R12" H 6650 1250 50  0000 L CNN
F 1 "10k" V 6850 1050 50  0000 L CNN
F 2 "Br:R_0402" V 6780 1100 50  0001 C CNN
F 3 "" H 6850 1100 50  0000 C CNN
F 4 "C25744" V 7030 1200 50  0001 C CNN "LCSC"
	1    6850 1100
	1    0    0    -1  
$EndComp
Wire Wire Line
	6850 950  6850 850 
Wire Wire Line
	6850 850  6700 850 
Wire Wire Line
	6850 850  7100 850 
Connection ~ 6850 850 
$Comp
L Br:R_1k_0402_1% R13
U 1 1 60640617
P 6850 1450
F 0 "R13" V 6750 1550 50  0000 C CNN
F 1 "1k" V 6850 1450 50  0000 C CNN
F 2 "Br:R_0402" V 6780 1450 50  0001 C CNN
F 3 "" H 6850 1450 50  0000 C CNN
F 4 "C11702" V 7030 1550 50  0001 C CNN "LCSC"
	1    6850 1450
	-1   0    0    1   
$EndComp
$Comp
L Br:R_1k_0402_1% R15
U 1 1 60640895
P 6850 1800
F 0 "R15" V 6750 1900 50  0000 C CNN
F 1 "1k" V 6850 1800 50  0000 C CNN
F 2 "Br:R_0402" V 6780 1800 50  0001 C CNN
F 3 "" H 6850 1800 50  0000 C CNN
F 4 "C11702" V 7030 1900 50  0001 C CNN "LCSC"
	1    6850 1800
	-1   0    0    1   
$EndComp
$Comp
L Br:R_1k_0402_1% R16
U 1 1 60640911
P 7150 1950
F 0 "R16" V 7050 2050 50  0000 C CNN
F 1 "1k" V 7150 1950 50  0000 C CNN
F 2 "Br:R_0402" V 7080 1950 50  0001 C CNN
F 3 "" H 7150 1950 50  0000 C CNN
F 4 "C11702" V 7330 2050 50  0001 C CNN "LCSC"
	1    7150 1950
	0    -1   -1   0   
$EndComp
$Comp
L Br:R_1k_0402_1% R17
U 1 1 6064098B
P 7500 1950
F 0 "R17" V 7400 2050 50  0000 C CNN
F 1 "1k" V 7500 1950 50  0000 C CNN
F 2 "Br:R_0402" V 7430 1950 50  0001 C CNN
F 3 "" H 7500 1950 50  0000 C CNN
F 4 "C11702" V 7680 2050 50  0001 C CNN "LCSC"
	1    7500 1950
	0    -1   -1   0   
$EndComp
Wire Wire Line
	6850 1250 6850 1300
Wire Wire Line
	6850 1600 6850 1650
$Comp
L Br:GND #PWR0146
U 1 1 60654971
P 7700 1950
F 0 "#PWR0146" H 7700 1700 50  0001 C CNN
F 1 "GND" H 7705 1777 50  0000 C CNN
F 2 "" H 7700 1950 50  0000 C CNN
F 3 "" H 7700 1950 50  0000 C CNN
	1    7700 1950
	0    -1   1    0   
$EndComp
Wire Wire Line
	6850 1950 5600 1950
Wire Wire Line
	5600 1950 5600 1300
Wire Wire Line
	5600 1300 5450 1300
Text Notes 5700 1850 0    50   ~ 0
Vsense = 0.8V\n
Text Notes 5350 2100 0    50   ~ 0
Top-12k, bot-2k -> Vout = 5.6V\n
Wire Wire Line
	6200 5350 6650 5350
Wire Wire Line
	8100 1050 8100 850 
Wire Wire Line
	8100 850  7800 850 
$Comp
L Br:GND #PWR0147
U 1 1 6066AADD
P 8100 1500
F 0 "#PWR0147" H 8100 1250 50  0001 C CNN
F 1 "GND" H 8105 1327 50  0000 C CNN
F 2 "" H 8100 1500 50  0000 C CNN
F 3 "" H 8100 1500 50  0000 C CNN
	1    8100 1500
	-1   0    0    -1  
$EndComp
Wire Wire Line
	8100 1500 8100 1350
$Comp
L Br:5V #PWR0148
U 1 1 606705F9
P 9050 2000
F 0 "#PWR0148" H 9050 1850 50  0001 C CNN
F 1 "5V" H 9065 2173 50  0000 C CNN
F 2 "" H 9050 2000 50  0000 C CNN
F 3 "" H 9050 2000 50  0000 C CNN
	1    9050 2000
	1    0    0    -1  
$EndComp
Wire Wire Line
	9050 2000 9050 2050
Wire Wire Line
	9050 2050 9700 2050
Connection ~ 9700 2050
Wire Wire Line
	3850 6900 3850 6800
Wire Wire Line
	3850 7300 3850 7200
Text Label 3650 6800 0    50   ~ 0
VBAT_5V
$Comp
L Br:GND #PWR0149
U 1 1 6067C7BF
P 3850 7300
F 0 "#PWR0149" H 3850 7050 50  0001 C CNN
F 1 "GND" H 3855 7127 50  0000 C CNN
F 2 "" H 3850 7300 50  0000 C CNN
F 3 "" H 3850 7300 50  0000 C CNN
	1    3850 7300
	-1   0    0    -1  
$EndComp
Wire Wire Line
	3600 6800 3600 6750
Wire Wire Line
	3850 6800 3600 6800
Wire Wire Line
	3600 7300 3600 7200
$Comp
L Br:GND #PWR0150
U 1 1 6067C7C8
P 3600 7300
F 0 "#PWR0150" H 3600 7050 50  0001 C CNN
F 1 "GND" H 3605 7127 50  0000 C CNN
F 2 "" H 3600 7300 50  0000 C CNN
F 3 "" H 3600 7300 50  0000 C CNN
	1    3600 7300
	-1   0    0    -1  
$EndComp
Connection ~ 3600 6800
Wire Wire Line
	3600 6900 3600 6800
$Comp
L Br:R_100K_0402_1%_0 R18
U 1 1 6067C7D1
P 3600 6600
F 0 "R18" H 3670 6646 50  0000 L CNN
F 1 "100k" V 3600 6500 50  0000 L CNN
F 2 "Br:R_0402" V 3530 6600 50  0001 C CNN
F 3 "" H 3600 6600 50  0000 C CNN
F 4 "C25741" H 3670 6509 50  0001 L CNN "LCSC"
	1    3600 6600
	1    0    0    -1  
$EndComp
$Comp
L Br:C_1N_0402_50V C18
U 1 1 6067C7D8
P 3850 7050
F 0 "C18" H 3965 7096 50  0000 L CNN
F 1 "1nF" H 3965 7005 50  0000 L CNN
F 2 "Br:C_0402" V 3780 7050 50  0001 C CNN
F 3 "" V 3950 6950 50  0000 C CNN
F 4 "C1523" V 4050 7050 50  0001 C CNN "LCSC"
	1    3850 7050
	1    0    0    -1  
$EndComp
$Comp
L Br:R_100K_0402_1%_0 R19
U 1 1 60682E9C
P 3600 7050
F 0 "R19" H 3400 7200 50  0000 L CNN
F 1 "100k" V 3600 6950 50  0000 L CNN
F 2 "Br:R_0402" V 3530 7050 50  0001 C CNN
F 3 "" H 3600 7050 50  0000 C CNN
F 4 "C25741" H 3670 6959 50  0001 L CNN "LCSC"
	1    3600 7050
	1    0    0    -1  
$EndComp
$Comp
L Br:5V #PWR0151
U 1 1 606830C7
P 3600 6350
F 0 "#PWR0151" H 3600 6200 50  0001 C CNN
F 1 "5V" H 3615 6523 50  0000 C CNN
F 2 "" H 3600 6350 50  0000 C CNN
F 3 "" H 3600 6350 50  0000 C CNN
	1    3600 6350
	1    0    0    -1  
$EndComp
Wire Wire Line
	3600 6450 3600 6350
Text Label 6250 5550 0    50   ~ 0
VBAT_5V
Wire Wire Line
	6200 5550 6650 5550
NoConn ~ 6200 5050
Wire Wire Line
	3650 1300 3950 1300
Wire Wire Line
	3950 1550 3950 1300
Connection ~ 3950 1300
Wire Wire Line
	3950 1300 4750 1300
Wire Wire Line
	3650 1550 3650 1300
Wire Wire Line
	3650 1850 3650 2250
Wire Wire Line
	3950 1850 3950 2250
$Comp
L Br:C_22U_0805_10%_25V C5
U 1 1 606CF2A2
P 2950 3600
F 0 "C5" H 3065 3646 50  0000 L CNN
F 1 "22uF" H 3000 3500 50  0000 L CNN
F 2 "Br:C_0805" V 2880 3600 50  0001 C CNN
F 3 "" V 3050 3500 50  0000 C CNN
F 4 "C45783" V 3150 3600 50  0001 C CNN "LCSC"
	1    2950 3600
	1    0    0    -1  
$EndComp
$Comp
L Br:C_22U_0805_10%_25V C4
U 1 1 606CF719
P 1600 3600
F 0 "C4" H 1715 3646 50  0000 L CNN
F 1 "22uF" H 1650 3500 50  0000 L CNN
F 2 "Br:C_0805" V 1530 3600 50  0001 C CNN
F 3 "" V 1700 3500 50  0000 C CNN
F 4 "C45783" V 1800 3600 50  0001 C CNN "LCSC"
	1    1600 3600
	1    0    0    -1  
$EndComp
$Comp
L Br:C_22U_0805_10%_25V C20
U 1 1 606CFAD8
P 7100 1200
F 0 "C20" H 7215 1246 50  0000 L CNN
F 1 "22uF" H 7150 1100 50  0000 L CNN
F 2 "Br:C_0805" V 7030 1200 50  0001 C CNN
F 3 "" V 7200 1100 50  0000 C CNN
F 4 "C45783" V 7300 1200 50  0001 C CNN "LCSC"
	1    7100 1200
	1    0    0    -1  
$EndComp
$Comp
L Br:C_22U_0805_10%_25V C22
U 1 1 606D00FA
P 7450 1200
F 0 "C22" H 7565 1246 50  0000 L CNN
F 1 "22uF" H 7500 1100 50  0000 L CNN
F 2 "Br:C_0805" V 7380 1200 50  0001 C CNN
F 3 "" V 7550 1100 50  0000 C CNN
F 4 "C45783" V 7650 1200 50  0001 C CNN "LCSC"
	1    7450 1200
	1    0    0    -1  
$EndComp
$Comp
L Br:C_22U_0805_10%_25V C24
U 1 1 606D0176
P 7800 1200
F 0 "C24" H 7915 1246 50  0000 L CNN
F 1 "22uF" H 7850 1100 50  0000 L CNN
F 2 "Br:C_0805" V 7730 1200 50  0001 C CNN
F 3 "" V 7900 1100 50  0000 C CNN
F 4 "C45783" V 8000 1200 50  0001 C CNN "LCSC"
	1    7800 1200
	1    0    0    -1  
$EndComp
$Comp
L Br:C_22U_0805_10%_25V C26
U 1 1 606D01F6
P 8100 1200
F 0 "C26" H 8215 1246 50  0000 L CNN
F 1 "22uF" H 8150 1100 50  0000 L CNN
F 2 "Br:C_0805" V 8030 1200 50  0001 C CNN
F 3 "" V 8200 1100 50  0000 C CNN
F 4 "C45783" V 8300 1200 50  0001 C CNN "LCSC"
	1    8100 1200
	1    0    0    -1  
$EndComp
Text Label 4650 850  2    50   ~ 0
V_in
$Comp
L Br:C_22U_0805_10%_25V C9
U 1 1 605B28E1
P 3950 850
F 0 "C9" H 3750 1000 50  0000 L CNN
F 1 "22uF" H 3700 700 50  0000 L CNN
F 2 "Br:C_0805" V 3880 850 50  0001 C CNN
F 3 "" V 4050 750 50  0000 C CNN
F 4 "C45783" V 4150 850 50  0001 C CNN "LCSC"
	1    3950 850 
	0    1    1    0   
$EndComp
$Comp
L Br:GND #PWR0123
U 1 1 605B29C6
P 3750 850
F 0 "#PWR0123" H 3750 600 50  0001 C CNN
F 1 "GND" H 3755 677 50  0000 C CNN
F 2 "" H 3750 850 50  0000 C CNN
F 3 "" H 3750 850 50  0000 C CNN
	1    3750 850 
	0    1    -1   0   
$EndComp
Wire Wire Line
	3750 850  3800 850 
Wire Wire Line
	4100 850  4750 850 
Wire Wire Line
	7000 1950 6850 1950
Connection ~ 6850 1950
Wire Wire Line
	7700 1950 7650 1950
Wire Wire Line
	7350 1950 7300 1950
$Comp
L Br:ICP_STEP_DOWN_TPS54331DR U5
U 1 1 605D9899
P 5150 3250
F 0 "U5" H 5150 3965 50  0000 C CNN
F 1 "ICP_STEP_DOWN_TPS54331DR" H 5150 3874 50  0000 C CNN
F 2 "Br:SOIC-8-1EP_3.9x4.9mm_P1.27mm_EP2.35x2.35mm" H 5050 3050 50  0001 C CNN
F 3 "" H 5050 3050 50  0001 C CNN
F 4 "C9865" H 5350 3000 50  0001 C CNN "LCSC"
	1    5150 3250
	1    0    0    -1  
$EndComp
$Comp
L Br:GND #PWR0125
U 1 1 605D98A1
P 5550 3400
F 0 "#PWR0125" H 5550 3150 50  0001 C CNN
F 1 "GND" H 5555 3227 50  0000 C CNN
F 2 "" H 5550 3400 50  0000 C CNN
F 3 "" H 5550 3400 50  0000 C CNN
	1    5550 3400
	-1   0    0    -1  
$EndComp
Wire Wire Line
	5550 3400 5550 3350
Wire Wire Line
	5550 3350 5500 3350
$Comp
L Br:C_1N_0402_50V C14
U 1 1 605D98AA
P 4000 3650
F 0 "C14" H 4050 3750 50  0000 L CNN
F 1 "1nF" H 4050 3550 50  0000 L CNN
F 2 "Br:C_0402" V 3930 3650 50  0001 C CNN
F 3 "" V 4100 3550 50  0000 C CNN
F 4 "C1523" V 4200 3650 50  0001 C CNN "LCSC"
	1    4000 3650
	1    0    0    -1  
$EndComp
$Comp
L Br:C_1N_0402_50V C8
U 1 1 605D98B1
P 3700 3650
F 0 "C8" H 3750 3750 50  0000 L CNN
F 1 "1nF" H 3750 3550 50  0000 L CNN
F 2 "Br:C_0402" V 3630 3650 50  0001 C CNN
F 3 "" V 3800 3550 50  0000 C CNN
F 4 "C1523" V 3900 3650 50  0001 C CNN "LCSC"
	1    3700 3650
	1    0    0    -1  
$EndComp
$Comp
L Br:GND #PWR0126
U 1 1 605D98B7
P 3700 4200
F 0 "#PWR0126" H 3700 3950 50  0001 C CNN
F 1 "GND" H 3705 4027 50  0000 C CNN
F 2 "" H 3700 4200 50  0000 C CNN
F 3 "" H 3700 4200 50  0000 C CNN
	1    3700 4200
	-1   0    0    -1  
$EndComp
$Comp
L Br:GND #PWR0127
U 1 1 605D98BD
P 4000 4200
F 0 "#PWR0127" H 4000 3950 50  0001 C CNN
F 1 "GND" H 4005 4027 50  0000 C CNN
F 2 "" H 4000 4200 50  0000 C CNN
F 3 "" H 4000 4200 50  0000 C CNN
	1    4000 4200
	-1   0    0    -1  
$EndComp
$Comp
L Br:R_100K_0402_1%_0 R21
U 1 1 605D98C4
P 4600 4000
F 0 "R21" H 4550 4200 50  0000 L CNN
F 1 "100k" V 4600 3900 50  0000 L CNN
F 2 "Br:R_0402" V 4530 4000 50  0001 C CNN
F 3 "" H 4600 4000 50  0000 C CNN
F 4 "C25741" H 4670 3909 50  0001 L CNN "LCSC"
	1    4600 4000
	1    0    0    -1  
$EndComp
$Comp
L Br:R_100K_0402_1%_0 R22
U 1 1 605D98CB
P 4700 4000
F 0 "R22" H 4750 4200 50  0000 L CNN
F 1 "100k" V 4700 3900 50  0000 L CNN
F 2 "Br:R_0402" V 4630 4000 50  0001 C CNN
F 3 "" H 4700 4000 50  0000 C CNN
F 4 "C25741" H 4770 3909 50  0001 L CNN "LCSC"
	1    4700 4000
	1    0    0    -1  
$EndComp
$Comp
L Br:C_1N_0402_50V C17
U 1 1 605D98D2
P 4700 3650
F 0 "C17" H 4815 3696 50  0000 L CNN
F 1 "1nF" H 4815 3605 50  0000 L CNN
F 2 "Br:C_0402" V 4630 3650 50  0001 C CNN
F 3 "" V 4800 3550 50  0000 C CNN
F 4 "C1523" V 4900 3650 50  0001 C CNN "LCSC"
	1    4700 3650
	1    0    0    -1  
$EndComp
Wire Wire Line
	4800 3350 4700 3350
Wire Wire Line
	4700 3350 4700 3500
Wire Wire Line
	4700 3800 4700 3850
Wire Wire Line
	4600 3850 4700 3850
Connection ~ 4700 3850
Wire Wire Line
	4600 4150 4700 4150
$Comp
L Br:GND #PWR0128
U 1 1 605D98DE
P 4700 4200
F 0 "#PWR0128" H 4700 3950 50  0001 C CNN
F 1 "GND" H 4705 4027 50  0000 C CNN
F 2 "" H 4700 4200 50  0000 C CNN
F 3 "" H 4700 4200 50  0000 C CNN
	1    4700 4200
	-1   0    0    -1  
$EndComp
Wire Wire Line
	4700 4200 4700 4150
Connection ~ 4700 4150
$Comp
L Br:C_47pF_0402_50V_0 C15
U 1 1 605D98E7
P 4450 3650
F 0 "C15" H 4250 3400 50  0000 L CNN
F 1 "47pF" H 4250 3850 50  0000 L CNN
F 2 "Br:C_0402" V 4380 3650 50  0001 C CNN
F 3 "" V 4550 3550 50  0000 C CNN
F 4 "C1567" V 4650 3650 50  0001 C CNN "LCSC"
	1    4450 3650
	1    0    0    -1  
$EndComp
Wire Wire Line
	4450 3500 4450 3350
Wire Wire Line
	4450 3350 4700 3350
Connection ~ 4700 3350
$Comp
L Br:GND #PWR0132
U 1 1 605D98F0
P 4450 4200
F 0 "#PWR0132" H 4450 3950 50  0001 C CNN
F 1 "GND" H 4455 4027 50  0000 C CNN
F 2 "" H 4450 4200 50  0000 C CNN
F 3 "" H 4450 4200 50  0000 C CNN
	1    4450 4200
	-1   0    0    -1  
$EndComp
Wire Wire Line
	4450 4200 4450 3800
$Comp
L Br:C_100N_0402_16V C19
U 1 1 605D98F8
P 5850 2950
F 0 "C19" H 5965 2996 50  0000 L CNN
F 1 "100nF" H 5965 2905 50  0000 L CNN
F 2 "Br:C_0402" V 5780 2950 50  0001 C CNN
F 3 "" V 5950 2850 50  0000 C CNN
F 4 "C1525" H 5965 2859 50  0001 L CNN "LCSC"
	1    5850 2950
	0    1    1    0   
$EndComp
Wire Wire Line
	5500 2800 6100 2800
Wire Wire Line
	6100 2800 6100 2950
Wire Wire Line
	6100 2950 6000 2950
Wire Wire Line
	5700 2950 5500 2950
$Comp
L Br:D_SCHOTTKY_SS54 D2
U 1 1 605D9903
P 6300 3150
F 0 "D2" V 6300 3228 50  0000 L CNN
F 1 "D_SCHOTTKY_SS54" V 6345 3228 50  0001 L CNN
F 2 "Br:DO214AC" H 6300 3150 50  0001 C CNN
F 3 "" H 6300 3250 50  0000 C CNN
F 4 "C22452" H 6400 3350 50  0001 C CNN "LCSC"
	1    6300 3150
	0    1    1    0   
$EndComp
Wire Wire Line
	6300 3000 6300 2800
Wire Wire Line
	6300 2800 6100 2800
Connection ~ 6100 2800
$Comp
L Br:GND #PWR0152
U 1 1 605D990C
P 6300 3400
F 0 "#PWR0152" H 6300 3150 50  0001 C CNN
F 1 "GND" H 6305 3227 50  0000 C CNN
F 2 "" H 6300 3400 50  0000 C CNN
F 3 "" H 6300 3400 50  0000 C CNN
	1    6300 3400
	-1   0    0    -1  
$EndComp
Wire Wire Line
	6300 3400 6300 3300
Wire Wire Line
	7150 2800 7150 3000
$Comp
L Br:GND #PWR0153
U 1 1 605D9914
P 7150 3450
F 0 "#PWR0153" H 7150 3200 50  0001 C CNN
F 1 "GND" H 7155 3277 50  0000 C CNN
F 2 "" H 7150 3450 50  0000 C CNN
F 3 "" H 7150 3450 50  0000 C CNN
	1    7150 3450
	-1   0    0    -1  
$EndComp
Wire Wire Line
	7150 3450 7150 3300
$Comp
L Br:GND #PWR0154
U 1 1 605D9921
P 7500 3450
F 0 "#PWR0154" H 7500 3200 50  0001 C CNN
F 1 "GND" H 7505 3277 50  0000 C CNN
F 2 "" H 7500 3450 50  0000 C CNN
F 3 "" H 7500 3450 50  0000 C CNN
	1    7500 3450
	-1   0    0    -1  
$EndComp
$Comp
L Br:GND #PWR0155
U 1 1 605D9927
P 7850 3450
F 0 "#PWR0155" H 7850 3200 50  0001 C CNN
F 1 "GND" H 7855 3277 50  0000 C CNN
F 2 "" H 7850 3450 50  0000 C CNN
F 3 "" H 7850 3450 50  0000 C CNN
	1    7850 3450
	-1   0    0    -1  
$EndComp
Wire Wire Line
	7850 3450 7850 3300
Wire Wire Line
	7500 3450 7500 3300
$Comp
L Br:L_6.8uH_4A_0.066Ohm L2
U 1 1 605D9930
P 6600 2800
F 0 "L2" H 6575 3025 50  0000 C CNN
F 1 "6.8uH/4A" H 6575 2934 50  0000 C CNN
F 2 "Br:L_SMD_5.4x5.2x3mm_SLO0530H6R8MTT" H 6600 2800 50  0001 C CNN
F 3 "" H 6650 2750 50  0001 C CNN
F 4 "C325965" H 6575 2934 50  0001 C CNN "LCSC"
	1    6600 2800
	1    0    0    -1  
$EndComp
Wire Wire Line
	6300 2800 6400 2800
Connection ~ 6300 2800
Wire Wire Line
	7150 2800 7500 2800
Wire Wire Line
	7500 2800 7500 3000
Connection ~ 7150 2800
Wire Wire Line
	7500 2800 7850 2800
Wire Wire Line
	7850 2800 7850 3000
Connection ~ 7500 2800
Wire Wire Line
	7850 2800 7850 2700
Connection ~ 7850 2800
$Comp
L Br:R_10K_0402_1% R26
U 1 1 605D9941
P 7200 3900
F 0 "R26" V 7300 4000 50  0000 L CNN
F 1 "10k" V 7200 3850 50  0000 L CNN
F 2 "Br:R_0402" V 7130 3900 50  0001 C CNN
F 3 "" H 7200 3900 50  0000 C CNN
F 4 "C25744" V 7380 4000 50  0001 C CNN "LCSC"
	1    7200 3900
	0    1    1    0   
$EndComp
Wire Wire Line
	6900 2800 6750 2800
Wire Wire Line
	6900 2800 7150 2800
Connection ~ 6900 2800
$Comp
L Br:GND #PWR0156
U 1 1 605D9969
P 7400 3900
F 0 "#PWR0156" H 7400 3650 50  0001 C CNN
F 1 "GND" H 7405 3727 50  0000 C CNN
F 2 "" H 7400 3900 50  0000 C CNN
F 3 "" H 7400 3900 50  0000 C CNN
	1    7400 3900
	0    -1   1    0   
$EndComp
Wire Wire Line
	5650 3900 5650 3250
Wire Wire Line
	5650 3250 5500 3250
Text Notes 5750 3800 0    50   ~ 0
Vsense = 0.8V\n
Text Notes 5400 4050 0    50   ~ 0
Top-150k, bot-10k -> Vout = 12.8V\n
Wire Wire Line
	8150 3000 8150 2800
Wire Wire Line
	8150 2800 7850 2800
$Comp
L Br:GND #PWR0157
U 1 1 605D9976
P 8150 3450
F 0 "#PWR0157" H 8150 3200 50  0001 C CNN
F 1 "GND" H 8155 3277 50  0000 C CNN
F 2 "" H 8150 3450 50  0000 C CNN
F 3 "" H 8150 3450 50  0000 C CNN
	1    8150 3450
	-1   0    0    -1  
$EndComp
Wire Wire Line
	8150 3450 8150 3300
Wire Wire Line
	3700 3250 4000 3250
Wire Wire Line
	4000 3500 4000 3250
Connection ~ 4000 3250
Wire Wire Line
	4000 3250 4800 3250
Wire Wire Line
	3700 3500 3700 3250
Wire Wire Line
	3700 3800 3700 4200
Wire Wire Line
	4000 3800 4000 4200
$Comp
L Br:C_22U_0805_10%_25V C21
U 1 1 605D9985
P 7150 3150
F 0 "C21" H 7265 3196 50  0000 L CNN
F 1 "22uF" H 7200 3050 50  0000 L CNN
F 2 "Br:C_0805" V 7080 3150 50  0001 C CNN
F 3 "" V 7250 3050 50  0000 C CNN
F 4 "C45783" V 7350 3150 50  0001 C CNN "LCSC"
	1    7150 3150
	1    0    0    -1  
$EndComp
$Comp
L Br:C_22U_0805_10%_25V C23
U 1 1 605D998C
P 7500 3150
F 0 "C23" H 7615 3196 50  0000 L CNN
F 1 "22uF" H 7550 3050 50  0000 L CNN
F 2 "Br:C_0805" V 7430 3150 50  0001 C CNN
F 3 "" V 7600 3050 50  0000 C CNN
F 4 "C45783" V 7700 3150 50  0001 C CNN "LCSC"
	1    7500 3150
	1    0    0    -1  
$EndComp
$Comp
L Br:C_22U_0805_10%_25V C25
U 1 1 605D9993
P 7850 3150
F 0 "C25" H 7965 3196 50  0000 L CNN
F 1 "22uF" H 7900 3050 50  0000 L CNN
F 2 "Br:C_0805" V 7780 3150 50  0001 C CNN
F 3 "" V 7950 3050 50  0000 C CNN
F 4 "C45783" V 8050 3150 50  0001 C CNN "LCSC"
	1    7850 3150
	1    0    0    -1  
$EndComp
$Comp
L Br:C_22U_0805_10%_25V C27
U 1 1 605D999A
P 8150 3150
F 0 "C27" H 8265 3196 50  0000 L CNN
F 1 "22uF" H 8200 3050 50  0000 L CNN
F 2 "Br:C_0805" V 8080 3150 50  0001 C CNN
F 3 "" V 8250 3050 50  0000 C CNN
F 4 "C45783" V 8350 3150 50  0001 C CNN "LCSC"
	1    8150 3150
	1    0    0    -1  
$EndComp
Text Label 4700 2800 2    50   ~ 0
V_in
$Comp
L Br:C_22U_0805_10%_25V C10
U 1 1 605D99A2
P 4000 2800
F 0 "C10" H 3850 2900 50  0000 L CNN
F 1 "22uF" H 3800 2700 50  0000 L CNN
F 2 "Br:C_0805" V 3930 2800 50  0001 C CNN
F 3 "" V 4100 2700 50  0000 C CNN
F 4 "C45783" V 4200 2800 50  0001 C CNN "LCSC"
	1    4000 2800
	0    1    1    0   
$EndComp
$Comp
L Br:GND #PWR0158
U 1 1 605D99A8
P 3800 2800
F 0 "#PWR0158" H 3800 2550 50  0001 C CNN
F 1 "GND" H 3805 2627 50  0000 C CNN
F 2 "" H 3800 2800 50  0000 C CNN
F 3 "" H 3800 2800 50  0000 C CNN
	1    3800 2800
	0    1    -1   0   
$EndComp
Wire Wire Line
	3800 2800 3850 2800
Wire Wire Line
	4150 2800 4800 2800
Text Label 4500 1000 0    50   ~ 0
EN_5V
$Comp
L Br:R_100K_0402_1%_0 R2
U 1 1 605E2F96
P 4300 1000
F 0 "R2" H 4350 1200 50  0000 L CNN
F 1 "100k" V 4300 900 50  0000 L CNN
F 2 "Br:R_0402" V 4230 1000 50  0001 C CNN
F 3 "" H 4300 1000 50  0000 C CNN
F 4 "C25741" H 4370 909 50  0001 L CNN "LCSC"
	1    4300 1000
	0    1    1    0   
$EndComp
Wire Wire Line
	4450 1000 4750 1000
$Comp
L Br:GND #PWR0159
U 1 1 605EC431
P 3750 1000
F 0 "#PWR0159" H 3750 750 50  0001 C CNN
F 1 "GND" H 3755 827 50  0000 C CNN
F 2 "" H 3750 1000 50  0000 C CNN
F 3 "" H 3750 1000 50  0000 C CNN
	1    3750 1000
	0    1    -1   0   
$EndComp
Wire Wire Line
	3750 1000 4150 1000
$Comp
L Br:R_100K_0402_1%_0 R20
U 1 1 605F5944
P 4350 2950
F 0 "R20" H 4400 3150 50  0000 L CNN
F 1 "100k" V 4350 2850 50  0000 L CNN
F 2 "Br:R_0402" V 4280 2950 50  0001 C CNN
F 3 "" H 4350 2950 50  0000 C CNN
F 4 "C25741" H 4420 2859 50  0001 L CNN "LCSC"
	1    4350 2950
	0    1    1    0   
$EndComp
$Comp
L Br:GND #PWR0160
U 1 1 605F594A
P 3800 2950
F 0 "#PWR0160" H 3800 2700 50  0001 C CNN
F 1 "GND" H 3805 2777 50  0000 C CNN
F 2 "" H 3800 2950 50  0000 C CNN
F 3 "" H 3800 2950 50  0000 C CNN
	1    3800 2950
	0    1    -1   0   
$EndComp
Wire Wire Line
	3800 2950 4200 2950
Wire Wire Line
	4500 2950 4800 2950
Text Label 6250 5150 0    50   ~ 0
EN_12V
Text Label 6250 5250 0    50   ~ 0
EN_5V
Text Label 4500 2950 0    50   ~ 0
EN_12V
Wire Wire Line
	6200 5250 6650 5250
Wire Wire Line
	6200 5150 6650 5150
Wire Wire Line
	4550 6900 4550 6800
Wire Wire Line
	4550 7300 4550 7200
Text Label 4350 6800 0    50   ~ 0
VBAT_12V
$Comp
L Br:GND #PWR0161
U 1 1 6061D216
P 4550 7300
F 0 "#PWR0161" H 4550 7050 50  0001 C CNN
F 1 "GND" H 4555 7127 50  0000 C CNN
F 2 "" H 4550 7300 50  0000 C CNN
F 3 "" H 4550 7300 50  0000 C CNN
	1    4550 7300
	-1   0    0    -1  
$EndComp
Wire Wire Line
	4300 6800 4300 6750
Wire Wire Line
	4550 6800 4300 6800
Wire Wire Line
	4300 7300 4300 7200
$Comp
L Br:GND #PWR0162
U 1 1 6061D21F
P 4300 7300
F 0 "#PWR0162" H 4300 7050 50  0001 C CNN
F 1 "GND" H 4305 7127 50  0000 C CNN
F 2 "" H 4300 7300 50  0000 C CNN
F 3 "" H 4300 7300 50  0000 C CNN
	1    4300 7300
	-1   0    0    -1  
$EndComp
Connection ~ 4300 6800
Wire Wire Line
	4300 6900 4300 6800
$Comp
L Br:R_100K_0402_1%_0 R4
U 1 1 6061D228
P 4300 6600
F 0 "R4" H 4370 6646 50  0000 L CNN
F 1 "100k" V 4300 6500 50  0000 L CNN
F 2 "Br:R_0402" V 4230 6600 50  0001 C CNN
F 3 "" H 4300 6600 50  0000 C CNN
F 4 "C25741" H 4370 6509 50  0001 L CNN "LCSC"
	1    4300 6600
	1    0    0    -1  
$EndComp
$Comp
L Br:C_1N_0402_50V C16
U 1 1 6061D22F
P 4550 7050
F 0 "C16" H 4665 7096 50  0000 L CNN
F 1 "1nF" H 4665 7005 50  0000 L CNN
F 2 "Br:C_0402" V 4480 7050 50  0001 C CNN
F 3 "" V 4650 6950 50  0000 C CNN
F 4 "C1523" V 4750 7050 50  0001 C CNN "LCSC"
	1    4550 7050
	1    0    0    -1  
$EndComp
Wire Wire Line
	4300 6450 4300 6350
Text Label 6250 5450 0    50   ~ 0
VBAT_12V
Wire Wire Line
	6200 5450 6650 5450
$Comp
L Br:12V #PWR0163
U 1 1 6063D64F
P 4300 6350
F 0 "#PWR0163" H 4300 6200 50  0001 C CNN
F 1 "12V" H 4315 6523 50  0000 C CNN
F 2 "" H 4300 6350 50  0000 C CNN
F 3 "" H 4300 6350 50  0000 C CNN
	1    4300 6350
	1    0    0    -1  
$EndComp
$Comp
L Br:12V #PWR0164
U 1 1 6063E31D
P 7850 2700
F 0 "#PWR0164" H 7850 2550 50  0001 C CNN
F 1 "12V" H 7800 2900 50  0000 L CNN
F 2 "" H 7850 2700 50  0000 C CNN
F 3 "" H 7850 2700 50  0000 C CNN
	1    7850 2700
	1    0    0    -1  
$EndComp
Wire Wire Line
	7400 3900 7350 3900
Wire Wire Line
	5650 3900 6900 3900
$Comp
L Br:R_100K_0402_1%_0 R23
U 1 1 60649D67
P 6800 3250
F 0 "R23" H 6750 3450 50  0000 L CNN
F 1 "100k" V 6800 3150 50  0000 L CNN
F 2 "Br:R_0402" V 6730 3250 50  0001 C CNN
F 3 "" H 6800 3250 50  0000 C CNN
F 4 "C25741" H 6870 3159 50  0001 L CNN "LCSC"
	1    6800 3250
	1    0    0    -1  
$EndComp
$Comp
L Br:R_100K_0402_1%_0 R24
U 1 1 60649D6E
P 6900 3250
F 0 "R24" H 6950 3450 50  0000 L CNN
F 1 "100k" V 6900 3150 50  0000 L CNN
F 2 "Br:R_0402" V 6830 3250 50  0001 C CNN
F 3 "" H 6900 3250 50  0000 C CNN
F 4 "C25741" H 6970 3159 50  0001 L CNN "LCSC"
	1    6900 3250
	1    0    0    -1  
$EndComp
Wire Wire Line
	6800 3100 6900 3100
Connection ~ 6900 3100
Wire Wire Line
	6800 3400 6900 3400
Connection ~ 6900 3400
$Comp
L Br:R_100K_0402_1%_0 R25
U 1 1 60654382
P 6900 3650
F 0 "R25" H 6750 3800 50  0000 L CNN
F 1 "100k" V 6900 3550 50  0000 L CNN
F 2 "Br:R_0402" V 6830 3650 50  0001 C CNN
F 3 "" H 6900 3650 50  0000 C CNN
F 4 "C25741" H 6970 3559 50  0001 L CNN "LCSC"
	1    6900 3650
	1    0    0    -1  
$EndComp
Wire Wire Line
	6900 3400 6900 3500
Wire Wire Line
	6900 2800 6900 3100
Wire Wire Line
	6900 3800 6900 3900
Connection ~ 6900 3900
Wire Wire Line
	6900 3900 7050 3900
$Comp
L Br:R_10K_0402_1% R14
U 1 1 60674756
P 4300 7050
F 0 "R14" H 4100 7200 50  0000 L CNN
F 1 "10k" V 4300 7000 50  0000 L CNN
F 2 "Br:R_0402" V 4230 7050 50  0001 C CNN
F 3 "" H 4300 7050 50  0000 C CNN
F 4 "C25744" V 4480 7150 50  0001 C CNN "LCSC"
	1    4300 7050
	1    0    0    -1  
$EndComp
NoConn ~ 6200 5650
Wire Wire Line
	2550 1300 2750 1300
Wire Wire Line
	2750 950  2750 1300
$Comp
L Br:R_10K_0402_1% R27
U 1 1 60603B7F
P 2000 1600
F 0 "R27" H 1800 1750 50  0000 L CNN
F 1 "10k" V 2000 1550 50  0000 L CNN
F 2 "Br:R_0402" V 1930 1600 50  0001 C CNN
F 3 "" H 2000 1600 50  0000 C CNN
F 4 "C25744" V 2180 1700 50  0001 C CNN "LCSC"
	1    2000 1600
	1    0    0    -1  
$EndComp
Wire Wire Line
	1550 1200 2100 1200
Wire Wire Line
	2350 1800 2350 1550
$Comp
L Br:GND #PWR0107
U 1 1 6061950D
P 2000 1800
F 0 "#PWR0107" H 2000 1550 50  0001 C CNN
F 1 "GND" H 2005 1627 50  0000 C CNN
F 2 "" H 2000 1800 50  0000 C CNN
F 3 "" H 2000 1800 50  0000 C CNN
	1    2000 1800
	-1   0    0    -1  
$EndComp
Wire Wire Line
	2000 1800 2000 1750
Wire Wire Line
	2000 1450 2000 1400
Wire Wire Line
	2000 1400 2100 1400
$Comp
L Br:D_LED_RED_SMD_0603 D6
U 1 1 5EB32DA3
P 7400 5650
F 0 "D6" H 7548 5671 50  0000 L CNN
F 1 "RED" H 7548 5580 50  0000 L CNN
F 2 "Br:LED_0603" H 7400 5650 50  0001 C CNN
F 3 "" H 7400 5650 50  0001 C CNN
F 4 "C2286" H 7548 5534 50  0001 L CNN "LCSC"
	1    7400 5650
	1    0    0    -1  
$EndComp
Wire Wire Line
	7400 5500 7400 5450
$EndSCHEMATC
