EESchema Schematic File Version 4
LIBS:015_4x4_4xSinWaveGen-cache
EELAYER 26 0
EELAYER END
$Descr A4 11693 8268
encoding utf-8
Sheet 1 1
Title ""
Date ""
Rev ""
Comp ""
Comment1 ""
Comment2 ""
Comment3 ""
Comment4 ""
$EndDescr
$Comp
L Br:Br_CN_IN J1
U 1 1 5D978D2E
P 1650 1800
F 0 "J1" H 1272 1747 60  0000 R CNN
F 1 "Br_CN_IN" H 1272 1853 60  0000 R CNN
F 2 "Br:Br_CN_IN" H 1525 1900 60  0001 C CNN
F 3 "" H 1525 1900 60  0001 C CNN
	1    1650 1800
	1    0    0    1   
$EndComp
$Comp
L Br:GND #PWR0101
U 1 1 5D979092
P 2300 2500
F 0 "#PWR0101" H 2300 2250 50  0001 C CNN
F 1 "GND" H 2305 2327 50  0000 C CNN
F 2 "" H 2300 2500 50  0000 C CNN
F 3 "" H 2300 2500 50  0000 C CNN
	1    2300 2500
	1    0    0    -1  
$EndComp
$Comp
L Br:5V #PWR0102
U 1 1 5D97912B
P 2000 2100
F 0 "#PWR0102" H 2000 1950 50  0001 C CNN
F 1 "5V" V 2015 2228 50  0000 L CNN
F 2 "" H 2000 2100 50  0000 C CNN
F 3 "" H 2000 2100 50  0000 C CNN
	1    2000 2100
	0    1    1    0   
$EndComp
Text Notes 3400 1200 0    50   ~ 0
Female\n
Text Notes 1400 1200 0    50   ~ 0
Male\n
Text Label 1850 1800 0    50   ~ 0
UART_RX
Text Label 1850 1600 0    50   ~ 0
SPARE_IN
Wire Wire Line
	1750 2100 1900 2100
Wire Wire Line
	1750 2000 1900 2000
Wire Wire Line
	1900 2000 1900 2100
Connection ~ 1900 2100
Wire Wire Line
	1900 2100 2000 2100
Wire Wire Line
	1750 1600 2200 1600
Text Label 7700 1950 0    50   ~ 0
UART_RX
Text Label 10600 1950 0    50   ~ 0
UART_TX
$Comp
L Br:Br_CN_OUT J3
U 1 1 5D9C46C3
P 3650 1800
F 0 "J3" H 3827 1846 50  0000 L CNN
F 1 "Br_CN_OUT" H 3827 1755 50  0000 L CNN
F 2 "Br:Br_CN_OUT" H 3650 2350 50  0001 C CNN
F 3 "" H 3650 2350 50  0001 C CNN
	1    3650 1800
	1    0    0    -1  
$EndComp
$Comp
L Br:Hole3mm H1
U 1 1 5D9D377A
P 5600 6600
F 0 "H1" H 5677 6651 50  0000 L CNN
F 1 "Hole3mm" H 5677 6560 50  0000 L CNN
F 2 "Br:Hole3mm" H 5600 6600 50  0001 C CNN
F 3 "" H 5600 6600 50  0001 C CNN
	1    5600 6600
	1    0    0    -1  
$EndComp
$Comp
L Br:Hole3mm H3
U 1 1 5D9D37B0
P 6300 6600
F 0 "H3" H 6377 6651 50  0000 L CNN
F 1 "Hole3mm" H 6377 6560 50  0000 L CNN
F 2 "Br:Hole3mm" H 6300 6600 50  0001 C CNN
F 3 "" H 6300 6600 50  0001 C CNN
	1    6300 6600
	1    0    0    -1  
$EndComp
$Comp
L Br:Hole3mm H2
U 1 1 5D9D6260
P 5600 6850
F 0 "H2" H 5677 6901 50  0000 L CNN
F 1 "Hole3mm" H 5677 6810 50  0000 L CNN
F 2 "Br:Hole3mm" H 5600 6850 50  0001 C CNN
F 3 "" H 5600 6850 50  0001 C CNN
	1    5600 6850
	1    0    0    -1  
$EndComp
$Comp
L Br:Hole3mm H4
U 1 1 5D9D6266
P 6300 6850
F 0 "H4" H 6377 6901 50  0000 L CNN
F 1 "Hole3mm" H 6377 6810 50  0000 L CNN
F 2 "Br:Hole3mm" H 6300 6850 50  0001 C CNN
F 3 "" H 6300 6850 50  0001 C CNN
	1    6300 6850
	1    0    0    -1  
$EndComp
Wire Wire Line
	2300 1900 2300 2200
Wire Wire Line
	1750 1900 2300 1900
Wire Wire Line
	2300 1900 2300 1700
Wire Wire Line
	1750 1700 2300 1700
Wire Wire Line
	1750 1800 2200 1800
Connection ~ 2300 1900
Wire Wire Line
	1750 2200 2300 2200
Connection ~ 2300 2200
Wire Wire Line
	2300 2200 2300 2500
$Comp
L Br:GND #PWR0104
U 1 1 5D9E7626
P 2750 2500
F 0 "#PWR0104" H 2750 2250 50  0001 C CNN
F 1 "GND" H 2755 2327 50  0000 C CNN
F 2 "" H 2750 2500 50  0000 C CNN
F 3 "" H 2750 2500 50  0000 C CNN
	1    2750 2500
	-1   0    0    -1  
$EndComp
$Comp
L Br:5V #PWR0105
U 1 1 5D9E762C
P 3100 2100
F 0 "#PWR0105" H 3100 1950 50  0001 C CNN
F 1 "5V" V 3115 2228 50  0000 L CNN
F 2 "" H 3100 2100 50  0000 C CNN
F 3 "" H 3100 2100 50  0000 C CNN
	1    3100 2100
	0    -1   1    0   
$EndComp
$Comp
L Br:12V #PWR0106
U 1 1 5D9E7632
P 3100 1400
F 0 "#PWR0106" H 3100 1250 50  0001 C CNN
F 1 "12V" V 3115 1528 50  0000 L CNN
F 2 "" H 3100 1400 50  0000 C CNN
F 3 "" H 3100 1400 50  0000 C CNN
	1    3100 1400
	0    -1   1    0   
$EndComp
Text Label 3250 1800 2    50   ~ 0
UART_TX
Text Label 3250 1600 2    50   ~ 0
SPARE_OUT
Wire Wire Line
	3350 2100 3200 2100
Wire Wire Line
	3350 2000 3200 2000
Wire Wire Line
	3200 2000 3200 2100
Connection ~ 3200 2100
Wire Wire Line
	3200 2100 3100 2100
Wire Wire Line
	3200 1500 3200 1400
Connection ~ 3200 1400
Wire Wire Line
	3200 1400 3100 1400
Wire Wire Line
	3350 1500 3200 1500
Wire Wire Line
	3350 1400 3200 1400
Wire Wire Line
	3350 1600 2900 1600
Wire Wire Line
	2750 1700 2750 1900
Wire Wire Line
	2750 1700 3350 1700
Wire Wire Line
	2900 1800 3350 1800
Wire Wire Line
	3350 1900 2750 1900
Connection ~ 2750 1900
Wire Wire Line
	2750 1900 2750 2200
Wire Wire Line
	3350 2200 2750 2200
Connection ~ 2750 2200
Wire Wire Line
	2750 2200 2750 2500
$Comp
L Br:D_BAV99.215 D1
U 1 1 5D9CB918
P 5550 1950
F 0 "D1" H 5628 1996 50  0000 L CNN
F 1 "D_BAV99.215" H 5628 1905 50  0000 L CNN
F 2 "Br:SOT23" V 5550 2100 50  0001 C CNN
F 3 "../library_doc/D_BAV99.215.pdf" H 5628 1905 50  0001 L CNN
F 4 "C2500" H 5627 1859 50  0001 L CNN "LCSC"
	1    5550 1950
	-1   0    0    -1  
$EndComp
$Comp
L Br:5V #PWR0107
U 1 1 5D9CBEE0
P 5550 1550
F 0 "#PWR0107" H 5550 1400 50  0001 C CNN
F 1 "5V" V 5565 1678 50  0000 L CNN
F 2 "" H 5550 1550 50  0000 C CNN
F 3 "" H 5550 1550 50  0000 C CNN
	1    5550 1550
	1    0    0    -1  
$EndComp
Wire Wire Line
	5550 1650 5550 1550
$Comp
L Br:D_BAV99.215 D2
U 1 1 5D9CDB0F
P 8850 1950
F 0 "D2" H 8927 1904 50  0000 L CNN
F 1 "D_BAV99.215" H 8300 2250 50  0000 L CNN
F 2 "Br:SOT23" V 8850 2100 50  0001 C CNN
F 3 "../library_doc/D_BAV99.215.pdf" H 8928 1905 50  0001 L CNN
F 4 "C2500" H 8927 1859 50  0001 L CNN "LCSC"
	1    8850 1950
	1    0    0    1   
$EndComp
$Comp
L Br:R_1K_0603_1% R1
U 1 1 5D9CE50E
P 8250 1950
F 0 "R1" V 8150 1850 50  0000 C CNN
F 1 "R_1K_0603_1%" V 8350 1950 50  0000 C CNN
F 2 "Br:R_0603" V 8180 1950 50  0001 C CNN
F 3 "" H 8250 1950 50  0000 C CNN
F 4 "C21190" V 8135 1950 50  0001 C CNN "LCSC"
	1    8250 1950
	0    1    1    0   
$EndComp
Wire Wire Line
	7700 1950 8100 1950
$Comp
L Br:GND #PWR0108
U 1 1 5D9CF159
P 8850 2300
F 0 "#PWR0108" H 8850 2050 50  0001 C CNN
F 1 "GND" H 8855 2127 50  0000 C CNN
F 2 "" H 8850 2300 50  0000 C CNN
F 3 "" H 8850 2300 50  0000 C CNN
	1    8850 2300
	-1   0    0    -1  
$EndComp
Wire Wire Line
	8850 2300 8850 2250
$Comp
L Br:D_BAV99.215 D3
U 1 1 5D9CF778
P 9800 1950
F 0 "D3" H 9878 1904 50  0000 L CNN
F 1 "D_BAV99.215" H 9250 2200 50  0000 L CNN
F 2 "Br:SOT23" V 9800 2100 50  0001 C CNN
F 3 "../library_doc/D_BAV99.215.pdf" H 9878 1905 50  0001 L CNN
F 4 "C2500" H 9877 1859 50  0001 L CNN "LCSC"
	1    9800 1950
	-1   0    0    1   
$EndComp
$Comp
L Br:R_1K_0603_1% R2
U 1 1 5D9CF786
P 10350 1950
F 0 "R2" V 10250 1850 50  0000 C CNN
F 1 "R_1K_0603_1%" V 10450 1850 50  0000 C CNN
F 2 "Br:R_0603" V 10280 1950 50  0001 C CNN
F 3 "" H 10350 1950 50  0000 C CNN
F 4 "C21190" V 10235 1950 50  0001 C CNN "LCSC"
	1    10350 1950
	0    -1   1    0   
$EndComp
Wire Wire Line
	10900 1950 10500 1950
$Comp
L Br:GND #PWR0109
U 1 1 5D9CF78E
P 9800 2300
F 0 "#PWR0109" H 9800 2050 50  0001 C CNN
F 1 "GND" H 9805 2127 50  0000 C CNN
F 2 "" H 9800 2300 50  0000 C CNN
F 3 "" H 9800 2300 50  0000 C CNN
	1    9800 2300
	1    0    0    -1  
$EndComp
Wire Wire Line
	9800 2300 9800 2250
$Comp
L Br:3V3 #PWR0110
U 1 1 5D9D1287
P 9800 1550
F 0 "#PWR0110" H 9800 1400 50  0001 C CNN
F 1 "3V3" H 9815 1723 50  0000 C CNN
F 2 "" H 9800 1550 50  0000 C CNN
F 3 "" H 9800 1550 50  0000 C CNN
	1    9800 1550
	1    0    0    -1  
$EndComp
$Comp
L Br:3V3 #PWR0111
U 1 1 5D9D12BD
P 8850 1550
F 0 "#PWR0111" H 8850 1400 50  0001 C CNN
F 1 "3V3" H 8865 1723 50  0000 C CNN
F 2 "" H 8850 1550 50  0000 C CNN
F 3 "" H 8850 1550 50  0000 C CNN
	1    8850 1550
	1    0    0    -1  
$EndComp
Wire Wire Line
	8850 1550 8850 1650
Wire Wire Line
	9800 1550 9800 1650
Text Notes 8900 1150 0    50   ~ 0
UART protection
$Comp
L Br:3V3 #PWR0112
U 1 1 5D9D2D75
P 7300 1500
F 0 "#PWR0112" H 7300 1350 50  0001 C CNN
F 1 "3V3" H 7315 1673 50  0000 C CNN
F 2 "" H 7300 1500 50  0000 C CNN
F 3 "" H 7300 1500 50  0000 C CNN
	1    7300 1500
	1    0    0    -1  
$EndComp
Text Notes 5800 1150 0    50   ~ 0
Power regulator
$Comp
L Br:ICD_STM8L051F3P6 U1
U 1 1 5D9D4765
P 4950 3350
F 0 "U1" H 4475 3637 60  0000 C CNN
F 1 "ICD_STM8L051F3P6" H 4475 3531 60  0000 C CNN
F 2 "Br:TSSOP20" H 2550 3450 60  0001 C CNN
F 3 "" H 2550 3450 60  0000 C CNN
F 4 "C18088" H 4475 3523 50  0001 C CNN "LCSC"
	1    4950 3350
	1    0    0    -1  
$EndComp
$Comp
L Br:GND #PWR0113
U 1 1 5D9D4876
P 1600 4450
F 0 "#PWR0113" H 1600 4200 50  0001 C CNN
F 1 "GND" H 1605 4277 50  0000 C CNN
F 2 "" H 1600 4450 50  0000 C CNN
F 3 "" H 1600 4450 50  0000 C CNN
	1    1600 4450
	-1   0    0    -1  
$EndComp
Wire Wire Line
	2150 3350 2550 3350
Wire Wire Line
	2150 3450 2550 3450
Text Label 2150 3550 0    50   ~ 0
SWIM
Text Label 2150 3650 0    50   ~ 0
NRST
Wire Wire Line
	2150 3550 2550 3550
Text Label 1000 3150 0    50   ~ 0
SWIM
Text Label 1000 2950 0    50   ~ 0
NRST
$Comp
L Br:3V3 #PWR0114
U 1 1 5D9D7743
P 2050 4050
F 0 "#PWR0114" H 2050 3900 50  0001 C CNN
F 1 "3V3" V 2065 4178 50  0000 L CNN
F 2 "" H 2050 4050 50  0000 C CNN
F 3 "" H 2050 4050 50  0000 C CNN
	1    2050 4050
	0    -1   -1   0   
$EndComp
Wire Wire Line
	1600 3950 2550 3950
$Comp
L Br:GND #PWR0115
U 1 1 5D9D82DF
P 1000 3050
F 0 "#PWR0115" H 1000 2800 50  0001 C CNN
F 1 "GND" H 1005 2877 50  0000 C CNN
F 2 "" H 1000 3050 50  0000 C CNN
F 3 "" H 1000 3050 50  0000 C CNN
	1    1000 3050
	0    1    -1   0   
$EndComp
$Comp
L Br:3V3 #PWR0116
U 1 1 5D9D8302
P 1050 3250
F 0 "#PWR0116" H 1050 3100 50  0001 C CNN
F 1 "3V3" V 1065 3378 50  0000 L CNN
F 2 "" H 1050 3250 50  0000 C CNN
F 3 "" H 1050 3250 50  0000 C CNN
	1    1050 3250
	0    -1   -1   0   
$EndComp
$Comp
L Br:CN_P_01x04_1.27MM_STRAIGHT_ZL319-4P J2
U 1 1 5D9D92B3
P 1400 3100
F 0 "J2" H 1478 3105 50  0000 L CNN
F 1 "CN_P_01x04_1.27MM_STRAIGHT_ZL319-4P" H 1477 3060 50  0001 L CNN
F 2 "Br:CN_P_01x04_1.27MM_STRAIGHT_ZL319-4P" H 1350 3150 50  0001 C CNN
F 3 "" H 1350 3150 50  0001 C CNN
	1    1400 3100
	1    0    0    -1  
$EndComp
Wire Wire Line
	1000 2950 1250 2950
Wire Wire Line
	1000 3050 1250 3050
Wire Wire Line
	1000 3150 1250 3150
Wire Wire Line
	1050 3250 1250 3250
$Comp
L Br:C_100N_0603_10%_50V_X7R C2
U 1 1 5D9DE095
P 2150 4250
F 0 "C2" H 1900 4300 50  0000 L CNN
F 1 "100nF" H 1900 4150 50  0000 L CNN
F 2 "Br:C_0603" V 2080 4250 50  0001 C CNN
F 3 "" V 2250 4150 50  0000 C CNN
F 4 "C14663" H 2265 4159 50  0001 L CNN "LCSC"
	1    2150 4250
	1    0    0    -1  
$EndComp
Wire Wire Line
	2150 4100 2150 4050
Wire Wire Line
	2150 4050 2050 4050
Wire Wire Line
	2550 4050 2150 4050
Connection ~ 2150 4050
$Comp
L Br:GND #PWR0117
U 1 1 5D9DFBBB
P 2150 4450
F 0 "#PWR0117" H 2150 4200 50  0001 C CNN
F 1 "GND" H 2155 4277 50  0000 C CNN
F 2 "" H 2150 4450 50  0000 C CNN
F 3 "" H 2150 4450 50  0000 C CNN
	1    2150 4450
	-1   0    0    -1  
$EndComp
Wire Wire Line
	2150 4450 2150 4400
Wire Wire Line
	1600 3950 1600 4450
$Comp
L Br:C_100N_0603_10%_50V_X7R C1
U 1 1 5D9E1885
P 1150 4250
F 0 "C1" H 1265 4296 50  0000 L CNN
F 1 "100nF" H 1265 4205 50  0000 L CNN
F 2 "Br:C_0603" V 1080 4250 50  0001 C CNN
F 3 "" V 1250 4150 50  0000 C CNN
F 4 "C14663" H 1265 4159 50  0001 L CNN "LCSC"
	1    1150 4250
	1    0    0    -1  
$EndComp
Wire Wire Line
	1150 3650 2550 3650
$Comp
L Br:GND #PWR0118
U 1 1 5D9E54AE
P 1150 4450
F 0 "#PWR0118" H 1150 4200 50  0001 C CNN
F 1 "GND" H 1155 4277 50  0000 C CNN
F 2 "" H 1150 4450 50  0000 C CNN
F 3 "" H 1150 4450 50  0000 C CNN
	1    1150 4450
	-1   0    0    -1  
$EndComp
Wire Wire Line
	1150 3650 1150 4100
Wire Wire Line
	1150 4400 1150 4450
$Comp
L Br:C_1U_0603_10%_50V_X5R C3
U 1 1 5D9EACB1
P 5950 2200
F 0 "C3" H 6065 2246 50  0000 L CNN
F 1 "1uF" H 6065 2155 50  0000 L CNN
F 2 "Br:C_0603" V 5880 2200 50  0001 C CNN
F 3 "" V 6050 2100 50  0000 C CNN
F 4 "C15849" H 6065 2109 50  0001 L CNN "LCSC"
	1    5950 2200
	1    0    0    -1  
$EndComp
$Comp
L Br:GND #PWR0119
U 1 1 5D9EADC4
P 5950 2500
F 0 "#PWR0119" H 5950 2250 50  0001 C CNN
F 1 "GND" H 5955 2327 50  0000 C CNN
F 2 "" H 5950 2500 50  0000 C CNN
F 3 "" H 5950 2500 50  0000 C CNN
	1    5950 2500
	-1   0    0    -1  
$EndComp
Wire Wire Line
	5950 2500 5950 2350
Wire Wire Line
	5600 1950 5950 1950
Wire Wire Line
	5950 1950 5950 2050
$Comp
L Br:ICP_HT7533-1 U2
U 1 1 5D9C8DBA
P 6650 1950
F 0 "U2" H 6675 2306 50  0000 C CNN
F 1 "ICP_HT7533-1" H 6675 2215 50  0000 C CNN
F 2 "Br:SOT-89-3" H 6650 1950 50  0001 C CNN
F 3 "" H 6650 1950 50  0001 C CNN
F 4 "C14289" H 6675 2124 50  0001 C CNN "LCSC"
	1    6650 1950
	1    0    0    -1  
$EndComp
Wire Wire Line
	7050 1950 7300 1950
Wire Wire Line
	7300 1950 7300 2050
Wire Wire Line
	7300 1950 7300 1500
Connection ~ 7300 1950
$Comp
L Br:GND #PWR0120
U 1 1 5D9CB24A
P 6650 2500
F 0 "#PWR0120" H 6650 2250 50  0001 C CNN
F 1 "GND" H 6655 2327 50  0000 C CNN
F 2 "" H 6650 2500 50  0000 C CNN
F 3 "" H 6650 2500 50  0000 C CNN
	1    6650 2500
	-1   0    0    -1  
$EndComp
Wire Wire Line
	6650 2500 6650 2250
Wire Wire Line
	6300 1950 5950 1950
Connection ~ 5950 1950
$Comp
L Br:GND #PWR0121
U 1 1 5D9CD6CE
P 7300 2500
F 0 "#PWR0121" H 7300 2250 50  0001 C CNN
F 1 "GND" H 7305 2327 50  0000 C CNN
F 2 "" H 7300 2500 50  0000 C CNN
F 3 "" H 7300 2500 50  0000 C CNN
	1    7300 2500
	-1   0    0    -1  
$EndComp
Wire Wire Line
	7300 2500 7300 2350
NoConn ~ 5550 2250
Wire Wire Line
	5950 1550 5950 1950
NoConn ~ 5500 6600
NoConn ~ 5500 6850
NoConn ~ 6200 6850
NoConn ~ 6200 6600
$Comp
L Br:12V #PWR0129
U 1 1 5D9E7FDB
P 4450 1000
F 0 "#PWR0129" H 4450 850 50  0001 C CNN
F 1 "12V" H 4400 1200 50  0000 L CNN
F 2 "" H 4450 1000 50  0000 C CNN
F 3 "" H 4450 1000 50  0000 C CNN
	1    4450 1000
	1    0    0    -1  
$EndComp
$Comp
L Br:5V #PWR0130
U 1 1 5D9E801C
P 4650 1000
F 0 "#PWR0130" H 4650 850 50  0001 C CNN
F 1 "5V" H 4600 1200 50  0000 L CNN
F 2 "" H 4650 1000 50  0000 C CNN
F 3 "" H 4650 1000 50  0000 C CNN
	1    4650 1000
	1    0    0    -1  
$EndComp
$Comp
L Br:GND #PWR0131
U 1 1 5D9E816B
P 4250 1150
F 0 "#PWR0131" H 4250 900 50  0001 C CNN
F 1 "GND" H 4255 977 50  0000 C CNN
F 2 "" H 4250 1150 50  0000 C CNN
F 3 "" H 4250 1150 50  0000 C CNN
	1    4250 1150
	-1   0    0    -1  
$EndComp
$Comp
L Br:PWR #FLG0101
U 1 1 5D9E856C
P 4250 1000
F 0 "#FLG0101" H 4250 1095 50  0001 C CNN
F 1 "PWR" H 4250 1224 50  0000 C CNN
F 2 "" H 4250 1000 50  0000 C CNN
F 3 "" H 4250 1000 50  0000 C CNN
	1    4250 1000
	1    0    0    -1  
$EndComp
$Comp
L Br:PWR #FLG0102
U 1 1 5D9E85C4
P 4450 1150
F 0 "#FLG0102" H 4450 1245 50  0001 C CNN
F 1 "PWR" H 4450 1373 50  0000 C CNN
F 2 "" H 4450 1150 50  0000 C CNN
F 3 "" H 4450 1150 50  0000 C CNN
	1    4450 1150
	-1   0    0    1   
$EndComp
$Comp
L Br:PWR #FLG0103
U 1 1 5D9E8649
P 4650 1150
F 0 "#FLG0103" H 4650 1245 50  0001 C CNN
F 1 "PWR" H 4650 1373 50  0000 C CNN
F 2 "" H 4650 1150 50  0000 C CNN
F 3 "" H 4650 1150 50  0000 C CNN
	1    4650 1150
	-1   0    0    1   
$EndComp
Wire Wire Line
	4650 1150 4650 1000
Wire Wire Line
	4450 1150 4450 1000
Wire Wire Line
	4250 1150 4250 1000
Text Label 5950 1750 1    50   ~ 0
5V_In
Wire Wire Line
	9850 1950 10200 1950
Text Label 2200 3350 0    50   ~ 0
CPU_TX
Text Label 2200 3450 0    50   ~ 0
CPU_RX
Text Label 9900 1950 0    50   ~ 0
CPU_TX
Text Label 8450 1950 0    50   ~ 0
CPU_RX
Wire Wire Line
	8400 1950 8800 1950
Text Label 4850 1000 1    50   ~ 0
5V_In
$Comp
L Br:PWR #FLG0104
U 1 1 5DA0B14B
P 4850 1150
F 0 "#FLG0104" H 4850 1245 50  0001 C CNN
F 1 "PWR" H 4850 1373 50  0000 C CNN
F 2 "" H 4850 1150 50  0000 C CNN
F 3 "" H 4850 1150 50  0000 C CNN
	1    4850 1150
	-1   0    0    1   
$EndComp
Wire Wire Line
	4850 1150 4850 800 
$Comp
L Br:R_180R_0603_1% R7
U 1 1 5E677308
P 1450 6250
F 0 "R7" H 1520 6296 50  0000 L CNN
F 1 "180R" V 1450 6150 50  0000 L CNN
F 2 "Br:R_0603" V 1380 6250 50  0001 C CNN
F 3 "" H 1450 6250 50  0000 C CNN
F 4 "C22828" H 1520 6159 50  0001 L CNN "LCSC"
	1    1450 6250
	1    0    0    -1  
$EndComp
Text Label 6450 4000 0    50   ~ 0
LED1
Text Label 6450 4100 0    50   ~ 0
LED2
Text Label 6450 4200 0    50   ~ 0
LED3
Text Label 6450 4300 0    50   ~ 0
LED4
Text Label 1450 6650 1    50   ~ 0
LED1
Wire Wire Line
	1450 6400 1450 6750
Wire Wire Line
	1450 6050 1450 6100
NoConn ~ 2550 4150
NoConn ~ 6400 3500
NoConn ~ 6400 3600
$Comp
L Br:R_180R_0603_1% R8
U 1 1 5E68FA23
P 1700 6250
F 0 "R8" H 1770 6296 50  0000 L CNN
F 1 "180R" V 1700 6150 50  0000 L CNN
F 2 "Br:R_0603" V 1630 6250 50  0001 C CNN
F 3 "" H 1700 6250 50  0000 C CNN
F 4 "C22828" H 1770 6159 50  0001 L CNN "LCSC"
	1    1700 6250
	1    0    0    -1  
$EndComp
Text Label 1700 6650 1    50   ~ 0
LED2
Wire Wire Line
	1700 6400 1700 6750
Wire Wire Line
	1700 6050 1700 6100
$Comp
L Br:R_180R_0603_1% R9
U 1 1 5E692E3E
P 1950 6250
F 0 "R9" H 2020 6296 50  0000 L CNN
F 1 "180R" V 1950 6150 50  0000 L CNN
F 2 "Br:R_0603" V 1880 6250 50  0001 C CNN
F 3 "" H 1950 6250 50  0000 C CNN
F 4 "C22828" H 2020 6159 50  0001 L CNN "LCSC"
	1    1950 6250
	1    0    0    -1  
$EndComp
Text Label 1950 6650 1    50   ~ 0
LED3
Wire Wire Line
	1950 6400 1950 6750
Wire Wire Line
	1950 6050 1950 6100
$Comp
L Br:R_180R_0603_1% R10
U 1 1 5E692E56
P 2200 6250
F 0 "R10" H 2270 6296 50  0000 L CNN
F 1 "180R" V 2200 6150 50  0000 L CNN
F 2 "Br:R_0603" V 2130 6250 50  0001 C CNN
F 3 "" H 2200 6250 50  0000 C CNN
F 4 "C22828" H 2270 6159 50  0001 L CNN "LCSC"
	1    2200 6250
	1    0    0    -1  
$EndComp
Text Label 2200 6650 1    50   ~ 0
LED4
Wire Wire Line
	2200 6400 2200 6750
Wire Wire Line
	2200 6050 2200 6100
Wire Wire Line
	6400 4000 6650 4000
Wire Wire Line
	6400 4100 6650 4100
Wire Wire Line
	6400 4200 6650 4200
Wire Wire Line
	6400 4300 6650 4300
Wire Wire Line
	2400 4250 2400 4600
Text Label 2400 4600 1    50   ~ 0
TIM2_CH1
Wire Wire Line
	2550 4250 2400 4250
Wire Wire Line
	6800 5950 6700 5950
Wire Wire Line
	6800 6050 6800 5950
$Comp
L Br:GND #PWR0137
U 1 1 5E6AF626
P 6800 6050
F 0 "#PWR0137" H 6800 5800 50  0001 C CNN
F 1 "GND" H 6805 5877 50  0000 C CNN
F 2 "" H 6800 6050 50  0000 C CNN
F 3 "" H 6800 6050 50  0000 C CNN
	1    6800 6050
	1    0    0    -1  
$EndComp
Wire Wire Line
	6950 5850 6700 5850
Text Notes 6850 5650 2    50   ~ 0
Speaker output
$Comp
L Br:C_10U_0805_10%_25V C7
U 1 1 5E6A96E3
P 7100 5850
F 0 "C7" V 6950 5750 50  0000 C CNN
F 1 "10uF" V 7000 6000 50  0000 C CNN
F 2 "Br:C_0805" V 7030 5850 50  0001 C CNN
F 3 "" V 7200 5750 50  0000 C CNN
F 4 "C15850" V 6940 5850 50  0001 C CNN "LCSC"
	1    7100 5850
	0    -1   1    0   
$EndComp
$Comp
L Br:CN_P_01x02_2.54MM_HEADER J4
U 1 1 5E6A9482
P 6500 5950
F 0 "J4" H 6678 6005 60  0000 L CNN
F 1 "CN_P_01x02_2.54MM_HEADER" H 6678 5952 60  0001 L CNN
F 2 "Br:CN_P_01x02_2.54MM_HEADER" H 6550 5650 60  0001 C CNN
F 3 "" H 6550 5650 60  0001 C CNN
	1    6500 5950
	-1   0    0    -1  
$EndComp
$Comp
L Br:R_1K_0603_1% R11
U 1 1 5E69770B
P 9750 5350
F 0 "R11" V 9650 5400 50  0000 C CNN
F 1 "1k" V 9750 5350 50  0000 C CNN
F 2 "Br:R_0603" V 9680 5350 50  0001 C CNN
F 3 "" H 9750 5350 50  0000 C CNN
F 4 "C21190" V 9635 5350 50  0001 C CNN "LCSC"
	1    9750 5350
	0    -1   1    0   
$EndComp
$Comp
L Br:C_100N_0603_10%_50V_X7R C5
U 1 1 5E697D64
P 9450 5600
F 0 "C5" H 9200 5650 50  0000 L CNN
F 1 "100nF" H 9200 5500 50  0000 L CNN
F 2 "Br:C_0603" V 9380 5600 50  0001 C CNN
F 3 "" V 9550 5500 50  0000 C CNN
F 4 "C14663" H 9565 5509 50  0001 L CNN "LCSC"
	1    9450 5600
	-1   0    0    -1  
$EndComp
$Comp
L Br:C_100N_0603_10%_50V_X7R C8
U 1 1 5E697EC6
P 8900 5600
F 0 "C8" H 8650 5650 50  0000 L CNN
F 1 "100nF" H 8650 5500 50  0000 L CNN
F 2 "Br:C_0603" V 8830 5600 50  0001 C CNN
F 3 "" V 9000 5500 50  0000 C CNN
F 4 "C14663" H 9015 5509 50  0001 L CNN "LCSC"
	1    8900 5600
	-1   0    0    -1  
$EndComp
$Comp
L Br:R_1K_0603_1% R12
U 1 1 5E697F32
P 9200 5350
F 0 "R12" V 9100 5400 50  0000 C CNN
F 1 "1k" V 9200 5350 50  0000 C CNN
F 2 "Br:R_0603" V 9130 5350 50  0001 C CNN
F 3 "" H 9200 5350 50  0000 C CNN
F 4 "C21190" V 9085 5350 50  0001 C CNN "LCSC"
	1    9200 5350
	0    -1   1    0   
$EndComp
Wire Wire Line
	9600 5350 9450 5350
Wire Wire Line
	9450 5450 9450 5350
Connection ~ 9450 5350
Wire Wire Line
	9450 5350 9350 5350
Wire Wire Line
	8900 5350 8900 5450
Wire Wire Line
	9050 5350 8900 5350
$Comp
L Br:GND #PWR0134
U 1 1 5E6A9501
P 9450 5850
F 0 "#PWR0134" H 9450 5600 50  0001 C CNN
F 1 "GND" H 9455 5677 50  0000 C CNN
F 2 "" H 9450 5850 50  0000 C CNN
F 3 "" H 9450 5850 50  0000 C CNN
	1    9450 5850
	1    0    0    -1  
$EndComp
Wire Wire Line
	9450 5850 9450 5750
$Comp
L Br:GND #PWR0135
U 1 1 5E6AD221
P 8900 5850
F 0 "#PWR0135" H 8900 5600 50  0001 C CNN
F 1 "GND" H 8905 5677 50  0000 C CNN
F 2 "" H 8900 5850 50  0000 C CNN
F 3 "" H 8900 5850 50  0000 C CNN
	1    8900 5850
	1    0    0    -1  
$EndComp
Wire Wire Line
	8900 5850 8900 5750
$Comp
L Br:ICA_LMV321IDBVR U3
U 1 1 5E69CE7F
P 8300 5450
F 0 "U3" H 8550 5300 50  0000 L CNN
F 1 "ICA_LMV321IDBVR" H 8741 5405 50  0001 L CNN
F 2 "Br:SOT23-5" H 8300 5450 50  0001 C CNN
F 3 "" H 8300 5450 50  0001 C CNN
F 4 "C7972" H 8741 5359 50  0001 L CNN "LCSC"
	1    8300 5450
	-1   0    0    -1  
$EndComp
$Comp
L Br:GND #PWR0136
U 1 1 5E69CFD4
P 8150 5800
F 0 "#PWR0136" H 8150 5550 50  0001 C CNN
F 1 "GND" H 8155 5627 50  0000 C CNN
F 2 "" H 8150 5800 50  0000 C CNN
F 3 "" H 8150 5800 50  0000 C CNN
	1    8150 5800
	1    0    0    -1  
$EndComp
Wire Wire Line
	8150 5800 8150 5650
Wire Wire Line
	8400 5350 8900 5350
Connection ~ 8900 5350
Wire Wire Line
	8400 5550 8550 5550
Wire Wire Line
	8550 5550 8550 6150
Wire Wire Line
	8550 6150 7800 6150
Wire Wire Line
	7800 6150 7800 5850
Wire Wire Line
	7800 5450 7900 5450
$Comp
L Br:D_LED_BLUE_SMD_0603 D4
U 1 1 5EBE6653
P 1450 5850
F 0 "D4" H 1500 5700 50  0000 L CNN
F 1 "D_LED_BLUE_SMD_0603" H 1598 5780 50  0001 L CNN
F 2 "Br:LED_0603" H 1450 5850 50  0001 C CNN
F 3 "" H 1450 5850 50  0001 C CNN
F 4 "C72041" H 1598 5734 50  0001 L CNN "LCSC"
	1    1450 5850
	1    0    0    -1  
$EndComp
$Comp
L Br:D_LED_BLUE_SMD_0603 D5
U 1 1 5EBE67CB
P 1700 5850
F 0 "D5" H 1750 5700 50  0000 L CNN
F 1 "D_LED_BLUE_SMD_0603" H 1848 5780 50  0001 L CNN
F 2 "Br:LED_0603" H 1700 5850 50  0001 C CNN
F 3 "" H 1700 5850 50  0001 C CNN
F 4 "C72041" H 1848 5734 50  0001 L CNN "LCSC"
	1    1700 5850
	1    0    0    -1  
$EndComp
$Comp
L Br:D_LED_BLUE_SMD_0603 D6
U 1 1 5EBE6823
P 1950 5850
F 0 "D6" H 2000 5700 50  0000 L CNN
F 1 "D_LED_BLUE_SMD_0603" H 2098 5780 50  0001 L CNN
F 2 "Br:LED_0603" H 1950 5850 50  0001 C CNN
F 3 "" H 1950 5850 50  0001 C CNN
F 4 "C72041" H 2098 5734 50  0001 L CNN "LCSC"
	1    1950 5850
	1    0    0    -1  
$EndComp
$Comp
L Br:D_LED_BLUE_SMD_0603 D7
U 1 1 5EBE687D
P 2200 5850
F 0 "D7" H 2250 5700 50  0000 L CNN
F 1 "D_LED_BLUE_SMD_0603" H 2348 5780 50  0001 L CNN
F 2 "Br:LED_0603" H 2200 5850 50  0001 C CNN
F 3 "" H 2200 5850 50  0001 C CNN
F 4 "C72041" H 2348 5734 50  0001 L CNN "LCSC"
	1    2200 5850
	1    0    0    -1  
$EndComp
$Comp
L Br:3V3 #PWR0122
U 1 1 5EBE69AA
P 1450 5550
F 0 "#PWR0122" H 1450 5400 50  0001 C CNN
F 1 "3V3" H 1465 5723 50  0000 C CNN
F 2 "" H 1450 5550 50  0000 C CNN
F 3 "" H 1450 5550 50  0000 C CNN
	1    1450 5550
	1    0    0    -1  
$EndComp
$Comp
L Br:3V3 #PWR0123
U 1 1 5EBE6ACD
P 1700 5550
F 0 "#PWR0123" H 1700 5400 50  0001 C CNN
F 1 "3V3" H 1715 5723 50  0000 C CNN
F 2 "" H 1700 5550 50  0000 C CNN
F 3 "" H 1700 5550 50  0000 C CNN
	1    1700 5550
	1    0    0    -1  
$EndComp
$Comp
L Br:3V3 #PWR0124
U 1 1 5EBE6B1E
P 1950 5550
F 0 "#PWR0124" H 1950 5400 50  0001 C CNN
F 1 "3V3" H 1965 5723 50  0000 C CNN
F 2 "" H 1950 5550 50  0000 C CNN
F 3 "" H 1950 5550 50  0000 C CNN
	1    1950 5550
	1    0    0    -1  
$EndComp
$Comp
L Br:3V3 #PWR0125
U 1 1 5EBE6B6F
P 2200 5550
F 0 "#PWR0125" H 2200 5400 50  0001 C CNN
F 1 "3V3" H 2215 5723 50  0000 C CNN
F 2 "" H 2200 5550 50  0000 C CNN
F 3 "" H 2200 5550 50  0000 C CNN
	1    2200 5550
	1    0    0    -1  
$EndComp
Wire Wire Line
	2200 5550 2200 5700
Wire Wire Line
	1950 5550 1950 5700
Wire Wire Line
	1700 5550 1700 5700
Wire Wire Line
	1450 5550 1450 5700
Text Notes 1650 5150 0    50   ~ 0
Blue LEDS\n
$Comp
L Br:D_VOLT_REFERENCE_2V5_CJ431 D8
U 1 1 5EC0E1CA
P 7450 3900
F 0 "D8" H 7578 3900 50  0000 L CNN
F 1 "D_VOLT_REFERENCE_2V5_CJ431" H 7578 3855 50  0001 L CNN
F 2 "Br:SOT23" V 7550 3300 50  0001 C CNN
F 3 "" V 7600 3900 50  0000 C CNN
F 4 "C3113" H 7578 3809 50  0001 L CNN "LCSC"
	1    7450 3900
	1    0    0    -1  
$EndComp
Text Notes 7650 3400 0    50   ~ 0
Make 2V5 voltage reference
$Comp
L Br:3V3 #PWR0126
U 1 1 5EC0E446
P 7450 3200
F 0 "#PWR0126" H 7450 3050 50  0001 C CNN
F 1 "3V3" H 7465 3373 50  0000 C CNN
F 2 "" H 7450 3200 50  0000 C CNN
F 3 "" H 7450 3200 50  0000 C CNN
	1    7450 3200
	1    0    0    -1  
$EndComp
$Comp
L Br:R_1K_0603_1% R3
U 1 1 5EC12976
P 7450 3400
F 0 "R3" V 7350 3300 50  0000 C CNN
F 1 "1k" V 7450 3400 50  0000 C CNN
F 2 "Br:R_0603" V 7380 3400 50  0001 C CNN
F 3 "" H 7450 3400 50  0000 C CNN
F 4 "C21190" V 7335 3400 50  0001 C CNN "LCSC"
	1    7450 3400
	-1   0    0    1   
$EndComp
Wire Wire Line
	7450 3750 7450 3650
Wire Wire Line
	7450 3650 7250 3650
Wire Wire Line
	7200 3650 7200 3900
Wire Wire Line
	7200 3900 7250 3900
Connection ~ 7450 3650
Wire Wire Line
	7450 3650 7450 3550
$Comp
L Br:GND #PWR0127
U 1 1 5EC192FD
P 7450 4150
F 0 "#PWR0127" H 7450 3900 50  0001 C CNN
F 1 "GND" H 7455 3977 50  0000 C CNN
F 2 "" H 7450 4150 50  0000 C CNN
F 3 "" H 7450 4150 50  0000 C CNN
	1    7450 4150
	-1   0    0    -1  
$EndComp
Wire Wire Line
	7450 4150 7450 4050
Wire Wire Line
	7450 3250 7450 3200
$Comp
L Br:C_10U_0805_10%_25V C12
U 1 1 5EC201CA
P 7850 3900
F 0 "C12" H 7700 3800 50  0000 C CNN
F 1 "10uF" H 7750 4050 50  0000 C CNN
F 2 "Br:C_0805" V 7780 3900 50  0001 C CNN
F 3 "" V 7950 3800 50  0000 C CNN
F 4 "C15850" V 7690 3900 50  0001 C CNN "LCSC"
	1    7850 3900
	-1   0    0    1   
$EndComp
Wire Wire Line
	7850 3750 7850 3650
Wire Wire Line
	7850 3650 7450 3650
$Comp
L Br:GND #PWR0128
U 1 1 5EC23AC5
P 7850 4150
F 0 "#PWR0128" H 7850 3900 50  0001 C CNN
F 1 "GND" H 7855 3977 50  0000 C CNN
F 2 "" H 7850 4150 50  0000 C CNN
F 3 "" H 7850 4150 50  0000 C CNN
	1    7850 4150
	-1   0    0    -1  
$EndComp
Wire Wire Line
	7850 4150 7850 4050
$Comp
L Br:ICA_LMV321IDBVR U4
U 1 1 5EC2774D
P 9600 3750
F 0 "U4" H 9850 3600 50  0000 L CNN
F 1 "ICA_LMV321IDBVR" H 10041 3705 50  0001 L CNN
F 2 "Br:SOT23-5" H 9600 3750 50  0001 C CNN
F 3 "" H 9600 3750 50  0001 C CNN
F 4 "C7972" H 10041 3659 50  0001 L CNN "LCSC"
	1    9600 3750
	1    0    0    -1  
$EndComp
$Comp
L Br:3V3 #PWR0132
U 1 1 5EC277C0
P 8150 5200
F 0 "#PWR0132" H 8150 5050 50  0001 C CNN
F 1 "3V3" H 8165 5373 50  0000 C CNN
F 2 "" H 8150 5200 50  0000 C CNN
F 3 "" H 8150 5200 50  0000 C CNN
	1    8150 5200
	-1   0    0    -1  
$EndComp
Wire Wire Line
	8150 5250 8150 5200
$Comp
L Br:C_100N_0603_10%_50V_X7R C4
U 1 1 5EC2B43D
P 4700 6250
F 0 "C4" H 4450 6300 50  0000 L CNN
F 1 "100nF" H 4450 6150 50  0000 L CNN
F 2 "Br:C_0603" V 4630 6250 50  0001 C CNN
F 3 "" V 4800 6150 50  0000 C CNN
F 4 "C14663" H 4815 6159 50  0001 L CNN "LCSC"
	1    4700 6250
	1    0    0    -1  
$EndComp
$Comp
L Br:C_100N_0603_10%_50V_X7R C6
U 1 1 5EC2B6B7
P 5050 6250
F 0 "C6" H 4800 6300 50  0000 L CNN
F 1 "100nF" H 4800 6150 50  0000 L CNN
F 2 "Br:C_0603" V 4980 6250 50  0001 C CNN
F 3 "" V 5150 6150 50  0000 C CNN
F 4 "C14663" H 5165 6159 50  0001 L CNN "LCSC"
	1    5050 6250
	1    0    0    -1  
$EndComp
$Comp
L Br:TR_NMOS_0.36A_60V_2N7002P Q1
U 1 1 5EC2B8CB
P 8800 4050
F 0 "Q1" H 9035 4050 50  0000 L CNN
F 1 "TR_NMOS_0.36A_60V_2N7002P" H 9035 4005 50  0001 L CNN
F 2 "Br:SOT23" H 9000 4150 50  0001 C CNN
F 3 "" H 9100 4100 50  0000 C CNN
F 4 "C8545" H 9035 3959 50  0001 L CNN "LCSC"
	1    8800 4050
	1    0    0    -1  
$EndComp
$Comp
L Br:R_10K_0603_1%_0 R4
U 1 1 5EC2BE0C
P 8450 3650
F 0 "R4" V 8350 3650 50  0000 C CNN
F 1 "10k" V 8450 3650 50  0000 C CNN
F 2 "Br:R_0603" V 8380 3650 50  0001 C CNN
F 3 "" H 8450 3650 50  0000 C CNN
F 4 "C25804" V 8335 3650 50  0001 C CNN "LCSC"
	1    8450 3650
	0    1    1    0   
$EndComp
Wire Wire Line
	8300 3650 7850 3650
Connection ~ 7850 3650
Text Label 8500 4050 2    50   ~ 0
TIM2_CH1
$Comp
L Br:R_100K_0402_1%_0 R5
U 1 1 5EC337AB
P 8550 4250
F 0 "R5" H 8620 4296 50  0000 L CNN
F 1 "100k" V 8550 4150 50  0000 L CNN
F 2 "Br:R_0402" V 8480 4250 50  0001 C CNN
F 3 "" H 8550 4250 50  0000 C CNN
F 4 "C25741" H 8620 4159 50  0001 L CNN "LCSC"
	1    8550 4250
	1    0    0    -1  
$EndComp
$Comp
L Br:GND #PWR0133
U 1 1 5EC339C2
P 8550 4450
F 0 "#PWR0133" H 8550 4200 50  0001 C CNN
F 1 "GND" H 8555 4277 50  0000 C CNN
F 2 "" H 8550 4450 50  0000 C CNN
F 3 "" H 8550 4450 50  0000 C CNN
	1    8550 4450
	-1   0    0    -1  
$EndComp
Wire Wire Line
	8550 4450 8550 4400
Wire Wire Line
	8550 4100 8550 4050
Connection ~ 8550 4050
Wire Wire Line
	8550 4050 8600 4050
Wire Wire Line
	8150 4050 8550 4050
Wire Wire Line
	8900 3850 8900 3650
Wire Wire Line
	8600 3650 8900 3650
$Comp
L Br:GND #PWR0138
U 1 1 5EC46FD1
P 8900 4450
F 0 "#PWR0138" H 8900 4200 50  0001 C CNN
F 1 "GND" H 8905 4277 50  0000 C CNN
F 2 "" H 8900 4450 50  0000 C CNN
F 3 "" H 8900 4450 50  0000 C CNN
	1    8900 4450
	-1   0    0    -1  
$EndComp
Wire Wire Line
	8900 4450 8900 4250
Wire Wire Line
	9500 3850 9400 3850
Wire Wire Line
	9400 3850 9400 4300
Wire Wire Line
	9400 4300 10200 4300
Wire Wire Line
	10200 3750 10000 3750
Wire Wire Line
	9500 3650 8900 3650
Connection ~ 8900 3650
$Comp
L Br:3V3 #PWR0139
U 1 1 5EC57AB8
P 9750 3500
F 0 "#PWR0139" H 9750 3350 50  0001 C CNN
F 1 "3V3" H 9765 3673 50  0000 C CNN
F 2 "" H 9750 3500 50  0000 C CNN
F 3 "" H 9750 3500 50  0000 C CNN
	1    9750 3500
	1    0    0    -1  
$EndComp
$Comp
L Br:GND #PWR0140
U 1 1 5EC57C3D
P 9750 4000
F 0 "#PWR0140" H 9750 3750 50  0001 C CNN
F 1 "GND" H 9755 3827 50  0000 C CNN
F 2 "" H 9750 4000 50  0000 C CNN
F 3 "" H 9750 4000 50  0000 C CNN
	1    9750 4000
	-1   0    0    -1  
$EndComp
Wire Wire Line
	9750 4000 9750 3950
Wire Wire Line
	9750 3550 9750 3500
Wire Wire Line
	10200 5350 9900 5350
Wire Wire Line
	10200 3750 10200 4300
Connection ~ 10200 4300
Wire Wire Line
	10200 4300 10200 5350
$Comp
L Br:3V3 #PWR0141
U 1 1 5EC6E8C5
P 4700 6000
F 0 "#PWR0141" H 4700 5850 50  0001 C CNN
F 1 "3V3" H 4715 6173 50  0000 C CNN
F 2 "" H 4700 6000 50  0000 C CNN
F 3 "" H 4700 6000 50  0000 C CNN
	1    4700 6000
	-1   0    0    -1  
$EndComp
$Comp
L Br:3V3 #PWR0142
U 1 1 5EC6E9CC
P 5050 6000
F 0 "#PWR0142" H 5050 5850 50  0001 C CNN
F 1 "3V3" H 5065 6173 50  0000 C CNN
F 2 "" H 5050 6000 50  0000 C CNN
F 3 "" H 5050 6000 50  0000 C CNN
	1    5050 6000
	-1   0    0    -1  
$EndComp
Wire Wire Line
	5050 6100 5050 6000
Wire Wire Line
	4700 6100 4700 6000
$Comp
L Br:GND #PWR0143
U 1 1 5EC77D41
P 5050 6500
F 0 "#PWR0143" H 5050 6250 50  0001 C CNN
F 1 "GND" H 5055 6327 50  0000 C CNN
F 2 "" H 5050 6500 50  0000 C CNN
F 3 "" H 5050 6500 50  0000 C CNN
	1    5050 6500
	-1   0    0    -1  
$EndComp
$Comp
L Br:GND #PWR0144
U 1 1 5EC77E48
P 4700 6500
F 0 "#PWR0144" H 4700 6250 50  0001 C CNN
F 1 "GND" H 4705 6327 50  0000 C CNN
F 2 "" H 4700 6500 50  0000 C CNN
F 3 "" H 4700 6500 50  0000 C CNN
	1    4700 6500
	-1   0    0    -1  
$EndComp
Wire Wire Line
	4700 6500 4700 6400
Wire Wire Line
	5050 6500 5050 6400
Text Notes 4550 5600 0    50   ~ 0
OP amp decoupling\n
Text Notes 8850 3100 0    50   ~ 0
Make PWM pulses from reference input
$Comp
L Br:GND #PWR0145
U 1 1 5EC90606
P 7300 4900
F 0 "#PWR0145" H 7300 4650 50  0001 C CNN
F 1 "GND" H 7305 4727 50  0000 C CNN
F 2 "" H 7300 4900 50  0000 C CNN
F 3 "" H 7300 4900 50  0000 C CNN
	1    7300 4900
	0    -1   -1   0   
$EndComp
Wire Wire Line
	7250 5850 7800 5850
Connection ~ 7800 5850
Wire Wire Line
	7800 5850 7800 5450
$Comp
L Br:C_1U_0603_10%_50V_X5R C9
U 1 1 5ECA475F
P 7050 4900
F 0 "C9" H 7165 4946 50  0000 L CNN
F 1 "1uF" H 7165 4855 50  0000 L CNN
F 2 "Br:C_0603" V 6980 4900 50  0001 C CNN
F 3 "" V 7150 4800 50  0000 C CNN
F 4 "C15849" H 7165 4809 50  0001 L CNN "LCSC"
	1    7050 4900
	0    1    1    0   
$EndComp
$Comp
L Br:C_1U_0603_10%_50V_X5R C10
U 1 1 5ECA98A3
P 7050 5300
F 0 "C10" H 7165 5346 50  0000 L CNN
F 1 "1uF" H 7165 5255 50  0000 L CNN
F 2 "Br:C_0603" V 6980 5300 50  0001 C CNN
F 3 "" V 7150 5200 50  0000 C CNN
F 4 "C15849" H 7165 5209 50  0001 L CNN "LCSC"
	1    7050 5300
	0    1    1    0   
$EndComp
$Comp
L Br:C_10U_0805_10%_25V C11
U 1 1 5ECA9A59
P 7300 2200
F 0 "C11" V 7150 2100 50  0000 C CNN
F 1 "10uF" V 7200 2350 50  0000 C CNN
F 2 "Br:C_0805" V 7230 2200 50  0001 C CNN
F 3 "" V 7400 2100 50  0000 C CNN
F 4 "C15850" V 7140 2200 50  0001 C CNN "LCSC"
	1    7300 2200
	-1   0    0    -1  
$EndComp
Text Label 6850 5300 2    50   ~ 0
SPARE_OUT
Wire Wire Line
	6900 5300 6400 5300
$Comp
L Br:12V #PWR0146
U 1 1 5ECB466B
P 6550 4900
F 0 "#PWR0146" H 6550 4750 50  0001 C CNN
F 1 "12V" V 6565 5028 50  0000 L CNN
F 2 "" H 6550 4900 50  0000 C CNN
F 3 "" H 6550 4900 50  0000 C CNN
	1    6550 4900
	0    -1   1    0   
$EndComp
Wire Wire Line
	6550 4900 6900 4900
Wire Wire Line
	7300 4900 7200 4900
Text Notes 4350 5050 0    50   ~ 0
Analog signals - use Spare signal for\n and 12V (as this is supposed not to be used\n that often - so it is better than GND
Wire Wire Line
	7800 5450 7800 5300
Wire Wire Line
	7800 5300 7200 5300
Connection ~ 7800 5450
NoConn ~ 2200 1600
NoConn ~ 6400 3400
NoConn ~ 6400 3900
NoConn ~ 6400 3800
NoConn ~ 6400 3700
$Comp
L Br:R_1K_0603_1% R6
U 1 1 5ECDE7ED
P 7250 3400
F 0 "R6" V 7150 3300 50  0000 C CNN
F 1 "1k" V 7250 3400 50  0000 C CNN
F 2 "Br:R_0603" V 7180 3400 50  0001 C CNN
F 3 "" H 7250 3400 50  0000 C CNN
F 4 "C21190" V 7135 3400 50  0001 C CNN "LCSC"
	1    7250 3400
	-1   0    0    1   
$EndComp
Wire Wire Line
	7250 3550 7250 3650
Connection ~ 7250 3650
Wire Wire Line
	7250 3650 7200 3650
$Comp
L Br:3V3 #PWR0103
U 1 1 5ECE3A17
P 7250 3200
F 0 "#PWR0103" H 7250 3050 50  0001 C CNN
F 1 "3V3" H 7265 3373 50  0000 C CNN
F 2 "" H 7250 3200 50  0000 C CNN
F 3 "" H 7250 3200 50  0000 C CNN
	1    7250 3200
	1    0    0    -1  
$EndComp
Wire Wire Line
	7250 3250 7250 3200
Text Notes 6850 2900 0    50   ~ 0
Current 3.3-2.5V / 500 = 1.6mA
NoConn ~ 1750 1400
Text Notes 1800 1000 0    50   ~ 0
After Audio blocks - it is not possible \nto connect devices at 12V
$Comp
L Br:CR_16MHZ_10PPM_X322516MLB4SI X1
U 1 1 5EBE3EAF
P 3250 5950
F 0 "X1" H 3250 6237 60  0000 C CNN
F 1 "16MHz" H 3250 6131 60  0000 C CNN
F 2 "Br:CR_16MHZ_X322516MLB4SI" H 3250 5950 60  0001 C CNN
F 3 "" H 3250 5950 60  0001 C CNN
F 4 "C13738" H 3250 6124 50  0001 C CNN "LCSC"
	1    3250 5950
	1    0    0    -1  
$EndComp
$Comp
L Br:C_4P7_0402_50V C13
U 1 1 5EBE420E
P 2900 6250
F 0 "C13" H 3015 6296 50  0000 L CNN
F 1 "4.7pF" H 3015 6205 50  0000 L CNN
F 2 "Br:C_0402" V 2830 6250 50  0001 C CNN
F 3 "" V 3000 6150 50  0000 C CNN
F 4 " C1569" H 3015 6159 50  0001 L CNN "LCSC"
	1    2900 6250
	1    0    0    -1  
$EndComp
$Comp
L Br:C_4P7_0402_50V C14
U 1 1 5EBE44E6
P 3600 6250
F 0 "C14" H 3715 6296 50  0000 L CNN
F 1 "4.7pF" H 3715 6205 50  0000 L CNN
F 2 "Br:C_0402" V 3530 6250 50  0001 C CNN
F 3 "" V 3700 6150 50  0000 C CNN
F 4 " C1569" H 3715 6159 50  0001 L CNN "LCSC"
	1    3600 6250
	1    0    0    -1  
$EndComp
$Comp
L Br:GND #PWR0147
U 1 1 5EBE455B
P 3600 6450
F 0 "#PWR0147" H 3600 6200 50  0001 C CNN
F 1 "GND" H 3605 6277 50  0000 C CNN
F 2 "" H 3600 6450 50  0000 C CNN
F 3 "" H 3600 6450 50  0000 C CNN
	1    3600 6450
	-1   0    0    -1  
$EndComp
$Comp
L Br:GND #PWR0148
U 1 1 5EBE45C6
P 2900 6450
F 0 "#PWR0148" H 2900 6200 50  0001 C CNN
F 1 "GND" H 2905 6277 50  0000 C CNN
F 2 "" H 2900 6450 50  0000 C CNN
F 3 "" H 2900 6450 50  0000 C CNN
	1    2900 6450
	-1   0    0    -1  
$EndComp
Wire Wire Line
	2900 6450 2900 6400
Wire Wire Line
	3600 6450 3600 6400
Wire Wire Line
	2900 6100 2900 5950
Wire Wire Line
	2900 5950 3100 5950
Wire Wire Line
	3400 5950 3600 5950
Wire Wire Line
	3600 5950 3600 6100
$Comp
L Br:GND #PWR0149
U 1 1 5EBFA951
P 3350 6450
F 0 "#PWR0149" H 3350 6200 50  0001 C CNN
F 1 "GND" H 3355 6277 50  0000 C CNN
F 2 "" H 3350 6450 50  0000 C CNN
F 3 "" H 3350 6450 50  0000 C CNN
	1    3350 6450
	-1   0    0    -1  
$EndComp
Wire Wire Line
	3350 6450 3350 6100
Text Label 2150 3750 0    50   ~ 0
HSE_IN
Text Label 2150 3850 0    50   ~ 0
HSE_OUT
Wire Wire Line
	2150 3750 2550 3750
Wire Wire Line
	2150 3850 2550 3850
Text Label 2600 5950 0    50   ~ 0
HSE_IN
Text Label 3650 5950 0    50   ~ 0
HSE_OUT
Connection ~ 3600 5950
Connection ~ 2900 5950
Wire Wire Line
	2600 5950 2900 5950
Wire Wire Line
	3600 5950 4000 5950
NoConn ~ 1750 1500
$EndSCHEMATC
