EESchema Schematic File Version 4
LIBS:018_4x4_NoiseDetector-cache
EELAYER 26 0
EELAYER END
$Descr A4 11693 8268
encoding utf-8
Sheet 1 1
Title ""
Date ""
Rev ""
Comp ""
Comment1 ""
Comment2 ""
Comment3 ""
Comment4 ""
$EndDescr
$Comp
L Br:Br_CN_IN J1
U 1 1 5D978D2E
P 1650 1800
F 0 "J1" H 1272 1747 60  0000 R CNN
F 1 "Br_CN_IN" H 1272 1853 60  0000 R CNN
F 2 "Br:Br_CN_IN" H 1525 1900 60  0001 C CNN
F 3 "" H 1525 1900 60  0001 C CNN
	1    1650 1800
	1    0    0    1   
$EndComp
$Comp
L Br:GND #PWR0101
U 1 1 5D979092
P 2300 2500
F 0 "#PWR0101" H 2300 2250 50  0001 C CNN
F 1 "GND" H 2305 2327 50  0000 C CNN
F 2 "" H 2300 2500 50  0000 C CNN
F 3 "" H 2300 2500 50  0000 C CNN
	1    2300 2500
	1    0    0    -1  
$EndComp
$Comp
L Br:5V #PWR0102
U 1 1 5D97912B
P 2000 2100
F 0 "#PWR0102" H 2000 1950 50  0001 C CNN
F 1 "5V" V 2015 2228 50  0000 L CNN
F 2 "" H 2000 2100 50  0000 C CNN
F 3 "" H 2000 2100 50  0000 C CNN
	1    2000 2100
	0    1    1    0   
$EndComp
$Comp
L Br:12V #PWR0103
U 1 1 5D97916E
P 1900 1400
F 0 "#PWR0103" H 1900 1250 50  0001 C CNN
F 1 "12V" V 1915 1528 50  0000 L CNN
F 2 "" H 1900 1400 50  0000 C CNN
F 3 "" H 1900 1400 50  0000 C CNN
	1    1900 1400
	0    1    1    0   
$EndComp
Text Notes 3400 1200 0    50   ~ 0
Female\n
Text Notes 1400 1200 0    50   ~ 0
Male\n
Text Label 1850 1800 0    50   ~ 0
UART_RX
Text Label 1850 1600 0    50   ~ 0
SPARE
Wire Wire Line
	1750 2100 1900 2100
Wire Wire Line
	1750 2000 1900 2000
Wire Wire Line
	1900 2000 1900 2100
Connection ~ 1900 2100
Wire Wire Line
	1900 2100 2000 2100
Wire Wire Line
	1800 1500 1800 1400
Wire Wire Line
	1800 1400 1900 1400
Wire Wire Line
	1750 1600 2200 1600
Text Label 7700 1950 0    50   ~ 0
UART_RX
Text Label 10600 1950 0    50   ~ 0
UART_TX
$Comp
L Br:Br_CN_OUT J3
U 1 1 5D9C46C3
P 3650 1800
F 0 "J3" H 3827 1846 50  0000 L CNN
F 1 "Br_CN_OUT" H 3827 1755 50  0000 L CNN
F 2 "Br:Br_CN_OUT" H 3650 2350 50  0001 C CNN
F 3 "" H 3650 2350 50  0001 C CNN
	1    3650 1800
	1    0    0    -1  
$EndComp
$Comp
L Br:Hole3mm H1
U 1 1 5D9D377A
P 5600 6600
F 0 "H1" H 5677 6651 50  0000 L CNN
F 1 "Hole3mm" H 5677 6560 50  0000 L CNN
F 2 "Br:Hole3mm" H 5600 6600 50  0001 C CNN
F 3 "" H 5600 6600 50  0001 C CNN
	1    5600 6600
	1    0    0    -1  
$EndComp
$Comp
L Br:Hole3mm H3
U 1 1 5D9D37B0
P 6300 6600
F 0 "H3" H 6377 6651 50  0000 L CNN
F 1 "Hole3mm" H 6377 6560 50  0000 L CNN
F 2 "Br:Hole3mm" H 6300 6600 50  0001 C CNN
F 3 "" H 6300 6600 50  0001 C CNN
	1    6300 6600
	1    0    0    -1  
$EndComp
$Comp
L Br:Hole3mm H2
U 1 1 5D9D6260
P 5600 6850
F 0 "H2" H 5677 6901 50  0000 L CNN
F 1 "Hole3mm" H 5677 6810 50  0000 L CNN
F 2 "Br:Hole3mm" H 5600 6850 50  0001 C CNN
F 3 "" H 5600 6850 50  0001 C CNN
	1    5600 6850
	1    0    0    -1  
$EndComp
$Comp
L Br:Hole3mm H4
U 1 1 5D9D6266
P 6300 6850
F 0 "H4" H 6377 6901 50  0000 L CNN
F 1 "Hole3mm" H 6377 6810 50  0000 L CNN
F 2 "Br:Hole3mm" H 6300 6850 50  0001 C CNN
F 3 "" H 6300 6850 50  0001 C CNN
	1    6300 6850
	1    0    0    -1  
$EndComp
Wire Wire Line
	1800 1500 1750 1500
Wire Wire Line
	1750 1400 1800 1400
Connection ~ 1800 1400
Wire Wire Line
	2300 1900 2300 2200
Wire Wire Line
	1750 1900 2300 1900
Wire Wire Line
	2300 1900 2300 1700
Wire Wire Line
	1750 1700 2300 1700
Wire Wire Line
	1750 1800 2200 1800
Connection ~ 2300 1900
Wire Wire Line
	1750 2200 2300 2200
Connection ~ 2300 2200
Wire Wire Line
	2300 2200 2300 2500
$Comp
L Br:GND #PWR0104
U 1 1 5D9E7626
P 2750 2500
F 0 "#PWR0104" H 2750 2250 50  0001 C CNN
F 1 "GND" H 2755 2327 50  0000 C CNN
F 2 "" H 2750 2500 50  0000 C CNN
F 3 "" H 2750 2500 50  0000 C CNN
	1    2750 2500
	-1   0    0    -1  
$EndComp
$Comp
L Br:5V #PWR0105
U 1 1 5D9E762C
P 3100 2100
F 0 "#PWR0105" H 3100 1950 50  0001 C CNN
F 1 "5V" V 3115 2228 50  0000 L CNN
F 2 "" H 3100 2100 50  0000 C CNN
F 3 "" H 3100 2100 50  0000 C CNN
	1    3100 2100
	0    -1   1    0   
$EndComp
$Comp
L Br:12V #PWR0106
U 1 1 5D9E7632
P 3100 1400
F 0 "#PWR0106" H 3100 1250 50  0001 C CNN
F 1 "12V" V 3115 1528 50  0000 L CNN
F 2 "" H 3100 1400 50  0000 C CNN
F 3 "" H 3100 1400 50  0000 C CNN
	1    3100 1400
	0    -1   1    0   
$EndComp
Text Label 3250 1800 2    50   ~ 0
UART_TX
Text Label 3250 1600 2    50   ~ 0
SPARE
Wire Wire Line
	3350 2100 3200 2100
Wire Wire Line
	3350 2000 3200 2000
Wire Wire Line
	3200 2000 3200 2100
Connection ~ 3200 2100
Wire Wire Line
	3200 2100 3100 2100
Wire Wire Line
	3200 1500 3200 1400
Connection ~ 3200 1400
Wire Wire Line
	3200 1400 3100 1400
Wire Wire Line
	3350 1500 3200 1500
Wire Wire Line
	3350 1400 3200 1400
Wire Wire Line
	3350 1600 2900 1600
Wire Wire Line
	2750 1700 2750 1900
Wire Wire Line
	2750 1700 3350 1700
Wire Wire Line
	2900 1800 3350 1800
Wire Wire Line
	3350 1900 2750 1900
Connection ~ 2750 1900
Wire Wire Line
	2750 1900 2750 2200
Wire Wire Line
	3350 2200 2750 2200
Connection ~ 2750 2200
Wire Wire Line
	2750 2200 2750 2500
$Comp
L Br:5V #PWR0107
U 1 1 5D9CBEE0
P 5550 1550
F 0 "#PWR0107" H 5550 1400 50  0001 C CNN
F 1 "5V" V 5565 1678 50  0000 L CNN
F 2 "" H 5550 1550 50  0000 C CNN
F 3 "" H 5550 1550 50  0000 C CNN
	1    5550 1550
	1    0    0    -1  
$EndComp
Wire Wire Line
	5550 1650 5550 1550
$Comp
L Br:D_BAV99.215 D2
U 1 1 5D9CDB0F
P 8850 1950
F 0 "D2" H 8927 1904 50  0000 L CNN
F 1 "D_BAV99.215" H 8300 2250 50  0000 L CNN
F 2 "Br:SOT23" V 8850 2100 50  0001 C CNN
F 3 "../library_doc/D_BAV99.215.pdf" H 8928 1905 50  0001 L CNN
F 4 "C2500" H 8927 1859 50  0001 L CNN "LCSC"
	1    8850 1950
	1    0    0    1   
$EndComp
Wire Wire Line
	7700 1950 8100 1950
$Comp
L Br:GND #PWR0108
U 1 1 5D9CF159
P 8850 2300
F 0 "#PWR0108" H 8850 2050 50  0001 C CNN
F 1 "GND" H 8855 2127 50  0000 C CNN
F 2 "" H 8850 2300 50  0000 C CNN
F 3 "" H 8850 2300 50  0000 C CNN
	1    8850 2300
	-1   0    0    -1  
$EndComp
Wire Wire Line
	8850 2300 8850 2250
$Comp
L Br:D_BAV99.215 D3
U 1 1 5D9CF778
P 9800 1950
F 0 "D3" H 9878 1904 50  0000 L CNN
F 1 "D_BAV99.215" H 9250 2200 50  0000 L CNN
F 2 "Br:SOT23" V 9800 2100 50  0001 C CNN
F 3 "../library_doc/D_BAV99.215.pdf" H 9878 1905 50  0001 L CNN
F 4 "C2500" H 9877 1859 50  0001 L CNN "LCSC"
	1    9800 1950
	-1   0    0    1   
$EndComp
Wire Wire Line
	10900 1950 10500 1950
$Comp
L Br:GND #PWR0109
U 1 1 5D9CF78E
P 9800 2300
F 0 "#PWR0109" H 9800 2050 50  0001 C CNN
F 1 "GND" H 9805 2127 50  0000 C CNN
F 2 "" H 9800 2300 50  0000 C CNN
F 3 "" H 9800 2300 50  0000 C CNN
	1    9800 2300
	1    0    0    -1  
$EndComp
Wire Wire Line
	9800 2300 9800 2250
$Comp
L Br:3V3 #PWR0110
U 1 1 5D9D1287
P 9800 1550
F 0 "#PWR0110" H 9800 1400 50  0001 C CNN
F 1 "3V3" H 9815 1723 50  0000 C CNN
F 2 "" H 9800 1550 50  0000 C CNN
F 3 "" H 9800 1550 50  0000 C CNN
	1    9800 1550
	1    0    0    -1  
$EndComp
$Comp
L Br:3V3 #PWR0111
U 1 1 5D9D12BD
P 8850 1550
F 0 "#PWR0111" H 8850 1400 50  0001 C CNN
F 1 "3V3" H 8865 1723 50  0000 C CNN
F 2 "" H 8850 1550 50  0000 C CNN
F 3 "" H 8850 1550 50  0000 C CNN
	1    8850 1550
	1    0    0    -1  
$EndComp
Wire Wire Line
	8850 1550 8850 1650
Wire Wire Line
	9800 1550 9800 1650
Text Notes 8900 1150 0    50   ~ 0
UART protection
$Comp
L Br:3V3 #PWR0112
U 1 1 5D9D2D75
P 7300 1500
F 0 "#PWR0112" H 7300 1350 50  0001 C CNN
F 1 "3V3" H 7315 1673 50  0000 C CNN
F 2 "" H 7300 1500 50  0000 C CNN
F 3 "" H 7300 1500 50  0000 C CNN
	1    7300 1500
	1    0    0    -1  
$EndComp
Text Notes 5800 1150 0    50   ~ 0
Power regulator
$Comp
L Br:GND #PWR0113
U 1 1 5D9D4876
P 1600 4450
F 0 "#PWR0113" H 1600 4200 50  0001 C CNN
F 1 "GND" H 1605 4277 50  0000 C CNN
F 2 "" H 1600 4450 50  0000 C CNN
F 3 "" H 1600 4450 50  0000 C CNN
	1    1600 4450
	-1   0    0    -1  
$EndComp
Wire Wire Line
	2150 3350 2550 3350
Wire Wire Line
	2150 3450 2550 3450
Text Label 2150 3550 0    50   ~ 0
SWIM
Text Label 2150 3650 0    50   ~ 0
NRST
Wire Wire Line
	2150 3550 2550 3550
Text Label 1000 3150 0    50   ~ 0
SWIM
Text Label 1000 2950 0    50   ~ 0
NRST
$Comp
L Br:3V3 #PWR0114
U 1 1 5D9D7743
P 2050 4050
F 0 "#PWR0114" H 2050 3900 50  0001 C CNN
F 1 "3V3" V 2065 4178 50  0000 L CNN
F 2 "" H 2050 4050 50  0000 C CNN
F 3 "" H 2050 4050 50  0000 C CNN
	1    2050 4050
	0    -1   -1   0   
$EndComp
Wire Wire Line
	1600 3950 2550 3950
$Comp
L Br:GND #PWR0115
U 1 1 5D9D82DF
P 1000 3050
F 0 "#PWR0115" H 1000 2800 50  0001 C CNN
F 1 "GND" H 1005 2877 50  0000 C CNN
F 2 "" H 1000 3050 50  0000 C CNN
F 3 "" H 1000 3050 50  0000 C CNN
	1    1000 3050
	0    1    -1   0   
$EndComp
$Comp
L Br:3V3 #PWR0116
U 1 1 5D9D8302
P 1050 3250
F 0 "#PWR0116" H 1050 3100 50  0001 C CNN
F 1 "3V3" V 1065 3378 50  0000 L CNN
F 2 "" H 1050 3250 50  0000 C CNN
F 3 "" H 1050 3250 50  0000 C CNN
	1    1050 3250
	0    -1   -1   0   
$EndComp
$Comp
L Br:CN_P_01x04_1.27MM_STRAIGHT_ZL319-4P J2
U 1 1 5D9D92B3
P 1400 3100
F 0 "J2" H 1478 3105 50  0000 L CNN
F 1 "CN_P_01x04_1.27MM_STRAIGHT_ZL319-4P" H 1477 3060 50  0001 L CNN
F 2 "Br:CN_P_01x04_1.27MM_STRAIGHT_ZL319-4P" H 1350 3150 50  0001 C CNN
F 3 "" H 1350 3150 50  0001 C CNN
	1    1400 3100
	1    0    0    -1  
$EndComp
Wire Wire Line
	1000 2950 1250 2950
Wire Wire Line
	1000 3050 1250 3050
Wire Wire Line
	1000 3150 1250 3150
Wire Wire Line
	1050 3250 1250 3250
Wire Wire Line
	2150 4100 2150 4050
Wire Wire Line
	2150 4050 2050 4050
Wire Wire Line
	2550 4050 2150 4050
Connection ~ 2150 4050
$Comp
L Br:GND #PWR0117
U 1 1 5D9DFBBB
P 2150 4450
F 0 "#PWR0117" H 2150 4200 50  0001 C CNN
F 1 "GND" H 2155 4277 50  0000 C CNN
F 2 "" H 2150 4450 50  0000 C CNN
F 3 "" H 2150 4450 50  0000 C CNN
	1    2150 4450
	-1   0    0    -1  
$EndComp
Wire Wire Line
	2150 4450 2150 4400
Wire Wire Line
	1600 3950 1600 4450
Wire Wire Line
	1150 3650 2550 3650
$Comp
L Br:GND #PWR0118
U 1 1 5D9E54AE
P 1150 4450
F 0 "#PWR0118" H 1150 4200 50  0001 C CNN
F 1 "GND" H 1155 4277 50  0000 C CNN
F 2 "" H 1150 4450 50  0000 C CNN
F 3 "" H 1150 4450 50  0000 C CNN
	1    1150 4450
	-1   0    0    -1  
$EndComp
Wire Wire Line
	1150 3650 1150 4100
Wire Wire Line
	1150 4400 1150 4450
$Comp
L Br:GND #PWR0119
U 1 1 5D9EADC4
P 5950 2500
F 0 "#PWR0119" H 5950 2250 50  0001 C CNN
F 1 "GND" H 5955 2327 50  0000 C CNN
F 2 "" H 5950 2500 50  0000 C CNN
F 3 "" H 5950 2500 50  0000 C CNN
	1    5950 2500
	-1   0    0    -1  
$EndComp
Wire Wire Line
	5950 2500 5950 2350
Wire Wire Line
	5950 1950 5950 2050
$Comp
L Br:ICP_HT7533-1 U2
U 1 1 5D9C8DBA
P 6650 1950
F 0 "U2" H 6675 2306 50  0000 C CNN
F 1 "ICP_HT7533-1" H 6675 2215 50  0000 C CNN
F 2 "Br:SOT-89-3" H 6650 1950 50  0001 C CNN
F 3 "" H 6650 1950 50  0001 C CNN
F 4 "C14289" H 6675 2124 50  0001 C CNN "LCSC"
	1    6650 1950
	1    0    0    -1  
$EndComp
Wire Wire Line
	7050 1950 7300 1950
Wire Wire Line
	7300 1950 7300 2050
Wire Wire Line
	7300 1950 7300 1500
Connection ~ 7300 1950
$Comp
L Br:GND #PWR0120
U 1 1 5D9CB24A
P 6650 2500
F 0 "#PWR0120" H 6650 2250 50  0001 C CNN
F 1 "GND" H 6655 2327 50  0000 C CNN
F 2 "" H 6650 2500 50  0000 C CNN
F 3 "" H 6650 2500 50  0000 C CNN
	1    6650 2500
	-1   0    0    -1  
$EndComp
Wire Wire Line
	6650 2500 6650 2250
Wire Wire Line
	6300 1950 5950 1950
Connection ~ 5950 1950
$Comp
L Br:GND #PWR0121
U 1 1 5D9CD6CE
P 7300 2500
F 0 "#PWR0121" H 7300 2250 50  0001 C CNN
F 1 "GND" H 7305 2327 50  0000 C CNN
F 2 "" H 7300 2500 50  0000 C CNN
F 3 "" H 7300 2500 50  0000 C CNN
	1    7300 2500
	-1   0    0    -1  
$EndComp
Wire Wire Line
	7300 2500 7300 2350
Wire Wire Line
	5950 1550 5950 1950
NoConn ~ 5500 6600
NoConn ~ 5500 6850
NoConn ~ 6200 6850
NoConn ~ 6200 6600
$Comp
L Br:12V #PWR0129
U 1 1 5D9E7FDB
P 4450 1000
F 0 "#PWR0129" H 4450 850 50  0001 C CNN
F 1 "12V" H 4400 1200 50  0000 L CNN
F 2 "" H 4450 1000 50  0000 C CNN
F 3 "" H 4450 1000 50  0000 C CNN
	1    4450 1000
	1    0    0    -1  
$EndComp
$Comp
L Br:5V #PWR0130
U 1 1 5D9E801C
P 4650 1000
F 0 "#PWR0130" H 4650 850 50  0001 C CNN
F 1 "5V" H 4600 1200 50  0000 L CNN
F 2 "" H 4650 1000 50  0000 C CNN
F 3 "" H 4650 1000 50  0000 C CNN
	1    4650 1000
	1    0    0    -1  
$EndComp
$Comp
L Br:GND #PWR0131
U 1 1 5D9E816B
P 4250 1150
F 0 "#PWR0131" H 4250 900 50  0001 C CNN
F 1 "GND" H 4255 977 50  0000 C CNN
F 2 "" H 4250 1150 50  0000 C CNN
F 3 "" H 4250 1150 50  0000 C CNN
	1    4250 1150
	-1   0    0    -1  
$EndComp
$Comp
L Br:PWR #FLG0101
U 1 1 5D9E856C
P 4250 1000
F 0 "#FLG0101" H 4250 1095 50  0001 C CNN
F 1 "PWR" H 4250 1224 50  0000 C CNN
F 2 "" H 4250 1000 50  0000 C CNN
F 3 "" H 4250 1000 50  0000 C CNN
	1    4250 1000
	1    0    0    -1  
$EndComp
$Comp
L Br:PWR #FLG0102
U 1 1 5D9E85C4
P 4450 1150
F 0 "#FLG0102" H 4450 1245 50  0001 C CNN
F 1 "PWR" H 4450 1373 50  0000 C CNN
F 2 "" H 4450 1150 50  0000 C CNN
F 3 "" H 4450 1150 50  0000 C CNN
	1    4450 1150
	-1   0    0    1   
$EndComp
$Comp
L Br:PWR #FLG0103
U 1 1 5D9E8649
P 4650 1150
F 0 "#FLG0103" H 4650 1245 50  0001 C CNN
F 1 "PWR" H 4650 1373 50  0000 C CNN
F 2 "" H 4650 1150 50  0000 C CNN
F 3 "" H 4650 1150 50  0000 C CNN
	1    4650 1150
	-1   0    0    1   
$EndComp
Wire Wire Line
	4650 1150 4650 1000
Wire Wire Line
	4450 1150 4450 1000
Wire Wire Line
	4250 1150 4250 1000
Text Label 5950 1750 1    50   ~ 0
5V_In
Wire Wire Line
	9850 1950 10200 1950
Text Label 2200 3350 0    50   ~ 0
CPU_TX
Text Label 2200 3450 0    50   ~ 0
CPU_RX
Text Label 9900 1950 0    50   ~ 0
CPU_TX
Text Label 8450 1950 0    50   ~ 0
CPU_RX
Wire Wire Line
	8400 1950 8800 1950
Text Label 4850 1000 1    50   ~ 0
5V_In
$Comp
L Br:PWR #FLG0104
U 1 1 5DA0B14B
P 4850 1150
F 0 "#FLG0104" H 4850 1245 50  0001 C CNN
F 1 "PWR" H 4850 1373 50  0000 C CNN
F 2 "" H 4850 1150 50  0000 C CNN
F 3 "" H 4850 1150 50  0000 C CNN
	1    4850 1150
	-1   0    0    1   
$EndComp
Wire Wire Line
	4850 1150 4850 800 
Text Notes 2450 4550 0    50   ~ 0
PB0 and PB4 pull up during reset
NoConn ~ 2550 4250
$Comp
L Br:ICD_STM8L051F3P6 U1
U 1 1 5D9D4765
P 4950 3350
F 0 "U1" H 4475 3637 60  0000 C CNN
F 1 "ICD_STM8L051F3P6" H 4475 3531 60  0000 C CNN
F 2 "Br:TSSOP20" H 2550 3450 60  0001 C CNN
F 3 "" H 2550 3450 60  0000 C CNN
F 4 "C18088" H 4475 3523 50  0001 C CNN "LCSC"
	1    4950 3350
	1    0    0    -1  
$EndComp
$Comp
L Br:D_SCHOTTKY_B5819W D4
U 1 1 5ED42E53
P 5550 1800
F 0 "D4" V 5550 1722 50  0000 R CNN
F 1 "D_SCHOTTKY_B5819W" V 5505 1722 50  0001 R CNN
F 2 "Br:D_SOD-123" H 5550 1800 50  0001 C CNN
F 3 "" H 5550 1900 50  0000 C CNN
F 4 "C8598" V 5459 1722 50  0001 R CNN "LCSC"
	1    5550 1800
	0    -1   -1   0   
$EndComp
Wire Wire Line
	5550 1950 5950 1950
NoConn ~ 2550 3850
NoConn ~ 2550 3750
NoConn ~ 2550 4150
NoConn ~ 6400 3800
NoConn ~ 6400 3700
NoConn ~ 6400 3400
$Comp
L Br:R_1k_0402_1% R1
U 1 1 5ED531C8
P 8250 1950
F 0 "R1" V 8150 2000 50  0000 C CNN
F 1 "1k" V 8250 1950 50  0000 C CNN
F 2 "Br:R_0402" V 8180 1950 50  0001 C CNN
F 3 "" H 8250 1950 50  0000 C CNN
F 4 "C11702" V 8135 1950 50  0001 C CNN "LCSC"
	1    8250 1950
	0    1    1    0   
$EndComp
$Comp
L Br:R_1k_0402_1% R2
U 1 1 5ED5332A
P 10350 1950
F 0 "R2" V 10250 2000 50  0000 C CNN
F 1 "1k" V 10350 1950 50  0000 C CNN
F 2 "Br:R_0402" V 10280 1950 50  0001 C CNN
F 3 "" H 10350 1950 50  0000 C CNN
F 4 "C11702" V 10235 1950 50  0001 C CNN "LCSC"
	1    10350 1950
	0    1    1    0   
$EndComp
$Comp
L Br:C_1U_0402_25V C3
U 1 1 5ED57D11
P 5950 2200
F 0 "C3" H 6065 2246 50  0000 L CNN
F 1 "1uf" H 6065 2155 50  0000 L CNN
F 2 "Br:C_0402" V 5880 2200 50  0001 C CNN
F 3 "" V 6050 2100 50  0000 C CNN
F 4 "C52923" H 6065 2109 50  0001 L CNN "LCSC"
	1    5950 2200
	1    0    0    -1  
$EndComp
$Comp
L Br:C_1U_0402_25V C4
U 1 1 5ED57DD9
P 7300 2200
F 0 "C4" H 7415 2246 50  0000 L CNN
F 1 "1uf" H 7415 2155 50  0000 L CNN
F 2 "Br:C_0402" V 7230 2200 50  0001 C CNN
F 3 "" V 7400 2100 50  0000 C CNN
F 4 "C52923" H 7415 2109 50  0001 L CNN "LCSC"
	1    7300 2200
	1    0    0    -1  
$EndComp
$Comp
L Br:C_100N_0402_16V C1
U 1 1 5ED5831A
P 1150 4250
F 0 "C1" H 1265 4296 50  0000 L CNN
F 1 "100nF" H 1265 4205 50  0000 L CNN
F 2 "Br:C_0402" V 1080 4250 50  0001 C CNN
F 3 "" V 1250 4150 50  0000 C CNN
F 4 "C1525" H 1265 4159 50  0001 L CNN "LCSC"
	1    1150 4250
	1    0    0    -1  
$EndComp
$Comp
L Br:C_100N_0402_16V C2
U 1 1 5ED583BE
P 2150 4250
F 0 "C2" H 2265 4296 50  0000 L CNN
F 1 "100nF" H 2265 4205 50  0000 L CNN
F 2 "Br:C_0402" V 2080 4250 50  0001 C CNN
F 3 "" V 2250 4150 50  0000 C CNN
F 4 "C1525" H 2265 4159 50  0001 L CNN "LCSC"
	1    2150 4250
	1    0    0    -1  
$EndComp
$Comp
L Br:ME_AUDIO_MICROPHONE_ELECRET_LD-MC-0905P U3
U 1 1 5EF6ED1F
P 2750 5800
F 0 "U3" H 2731 6173 50  0000 C CNN
F 1 "ME_AUDIO_MICROPHONE_ELECRET_LD-MC-0905P" H 2473 5845 50  0001 R CNN
F 2 "Br:ME_AUDIO_MICROPHONE_ELECRET_LD-MC-0905P" H 2750 5800 50  0001 C CNN
F 3 "" H 2750 5800 50  0001 C CNN
	1    2750 5800
	1    0    0    -1  
$EndComp
$Comp
L Br:R_1k_0402_1% R3
U 1 1 5EF704B7
P 1350 5300
F 0 "R3" V 1420 5346 50  0000 L CNN
F 1 "1k" V 1350 5250 50  0000 L CNN
F 2 "Br:R_0402" V 1280 5300 50  0001 C CNN
F 3 "" H 1350 5300 50  0000 C CNN
F 4 "C11702" H 1420 5209 50  0001 L CNN "LCSC"
	1    1350 5300
	0    -1   -1   0   
$EndComp
$Comp
L Br:R_1k_0402_1% R4
U 1 1 5EF7317D
P 1750 5300
F 0 "R4" V 1820 5346 50  0000 L CNN
F 1 "1k" V 1750 5250 50  0000 L CNN
F 2 "Br:R_0402" V 1680 5300 50  0001 C CNN
F 3 "" H 1750 5300 50  0000 C CNN
F 4 "C11702" H 1820 5209 50  0001 L CNN "LCSC"
	1    1750 5300
	0    -1   -1   0   
$EndComp
$Comp
L Br:R_1k_0402_1% R5
U 1 1 5EF731BF
P 2100 5300
F 0 "R5" V 2170 5346 50  0000 L CNN
F 1 "1k" V 2100 5250 50  0000 L CNN
F 2 "Br:R_0402" V 2030 5300 50  0001 C CNN
F 3 "" H 2100 5300 50  0000 C CNN
F 4 "C11702" H 2170 5209 50  0001 L CNN "LCSC"
	1    2100 5300
	0    -1   -1   0   
$EndComp
Wire Wire Line
	1950 5300 1900 5300
Wire Wire Line
	1550 5300 1500 5300
Wire Wire Line
	1100 5300 1200 5300
$Comp
L Br:GND #PWR0122
U 1 1 5EF7D91F
P 1550 5750
F 0 "#PWR0122" H 1550 5500 50  0001 C CNN
F 1 "GND" H 1555 5577 50  0000 C CNN
F 2 "" H 1550 5750 50  0000 C CNN
F 3 "" H 1550 5750 50  0000 C CNN
	1    1550 5750
	-1   0    0    -1  
$EndComp
$Comp
L Br:C_1U_0402_25V C5
U 1 1 5EF7DA33
P 1550 5550
F 0 "C5" H 1665 5596 50  0000 L CNN
F 1 "1uf" H 1665 5505 50  0000 L CNN
F 2 "Br:C_0402" V 1480 5550 50  0001 C CNN
F 3 "" V 1650 5450 50  0000 C CNN
F 4 "C52923" H 1665 5459 50  0001 L CNN "LCSC"
	1    1550 5550
	1    0    0    -1  
$EndComp
Wire Wire Line
	1550 5400 1550 5300
Wire Wire Line
	1550 5300 1600 5300
Connection ~ 1550 5300
Wire Wire Line
	1550 5750 1550 5700
Wire Wire Line
	3050 5300 3050 5700
Wire Wire Line
	3050 5700 2950 5700
Wire Wire Line
	2250 5300 3050 5300
Wire Wire Line
	2950 5900 3050 5900
$Comp
L Br:GND #PWR0123
U 1 1 5EF8803B
P 3050 6100
F 0 "#PWR0123" H 3050 5850 50  0001 C CNN
F 1 "GND" H 3055 5927 50  0000 C CNN
F 2 "" H 3050 6100 50  0000 C CNN
F 3 "" H 3050 6100 50  0000 C CNN
	1    3050 6100
	-1   0    0    -1  
$EndComp
Wire Wire Line
	3050 5900 3050 6100
$Comp
L Br:C_1U_0402_25V C6
U 1 1 5EF89EF7
P 3450 5300
F 0 "C6" H 3565 5346 50  0000 L CNN
F 1 "1uf" H 3565 5255 50  0000 L CNN
F 2 "Br:C_0402" V 3380 5300 50  0001 C CNN
F 3 "" V 3550 5200 50  0000 C CNN
F 4 "C52923" H 3565 5209 50  0001 L CNN "LCSC"
	1    3450 5300
	0    1    1    0   
$EndComp
Wire Wire Line
	3050 5300 3300 5300
Connection ~ 3050 5300
Text Notes 2550 5150 0    50   ~ 0
Microphone
$Comp
L Br:ICA_LMV321IDBVR U4
U 1 1 5EF8BF98
P 4550 5400
F 0 "U4" H 4900 5300 50  0000 L CNN
F 1 "ICA_LMV321IDBVR" H 4991 5400 50  0001 L CNN
F 2 "Br:SOT23-5" H 4550 5400 50  0001 C CNN
F 3 "" H 4550 5400 50  0001 C CNN
F 4 "C7972" H 4991 5355 50  0001 L CNN "LCSC"
	1    4550 5400
	1    0    0    -1  
$EndComp
$Comp
L Br:3V3 #PWR0124
U 1 1 5EF8C15A
P 4700 5000
F 0 "#PWR0124" H 4700 4850 50  0001 C CNN
F 1 "3V3" V 4715 5128 50  0000 L CNN
F 2 "" H 4700 5000 50  0000 C CNN
F 3 "" H 4700 5000 50  0000 C CNN
	1    4700 5000
	1    0    0    -1  
$EndComp
$Comp
L Br:GND #PWR0125
U 1 1 5EF8C22D
P 4700 5650
F 0 "#PWR0125" H 4700 5400 50  0001 C CNN
F 1 "GND" H 4705 5477 50  0000 C CNN
F 2 "" H 4700 5650 50  0000 C CNN
F 3 "" H 4700 5650 50  0000 C CNN
	1    4700 5650
	-1   0    0    -1  
$EndComp
Wire Wire Line
	4700 5650 4700 5600
$Comp
L Br:C_100N_0402_16V C8
U 1 1 5EF8E1FB
P 4900 5100
F 0 "C8" V 4950 5200 50  0000 L CNN
F 1 "100nF" V 4800 5200 50  0000 L CNN
F 2 "Br:C_0402" V 4830 5100 50  0001 C CNN
F 3 "" V 5000 5000 50  0000 C CNN
F 4 "C1525" H 5015 5009 50  0001 L CNN "LCSC"
	1    4900 5100
	0    1    1    0   
$EndComp
Wire Wire Line
	4750 5100 4700 5100
Wire Wire Line
	4700 5100 4700 5000
Wire Wire Line
	4700 5100 4700 5200
Connection ~ 4700 5100
$Comp
L Br:GND #PWR0126
U 1 1 5EF9261F
P 5150 5100
F 0 "#PWR0126" H 5150 4850 50  0001 C CNN
F 1 "GND" V 5155 4927 50  0000 C CNN
F 2 "" H 5150 5100 50  0000 C CNN
F 3 "" H 5150 5100 50  0000 C CNN
	1    5150 5100
	0    -1   1    0   
$EndComp
Wire Wire Line
	5150 5100 5050 5100
$Comp
L Br:R_100K_0402_1%_0 R6
U 1 1 5EF96B81
P 3700 4850
F 0 "R6" V 3800 4850 50  0000 L CNN
F 1 "100k" V 3700 4750 50  0000 L CNN
F 2 "Br:R_0402" V 3630 4850 50  0001 C CNN
F 3 "" H 3700 4850 50  0000 C CNN
F 4 "C25741" H 3770 4759 50  0001 L CNN "LCSC"
	1    3700 4850
	0    -1   -1   0   
$EndComp
$Comp
L Br:3V3 #PWR0127
U 1 1 5EF96D46
P 3500 4850
F 0 "#PWR0127" H 3500 4700 50  0001 C CNN
F 1 "3V3" V 3515 4978 50  0000 L CNN
F 2 "" H 3500 4850 50  0000 C CNN
F 3 "" H 3500 4850 50  0000 C CNN
	1    3500 4850
	0    -1   -1   0   
$EndComp
Wire Wire Line
	3550 4850 3500 4850
$Comp
L Br:R_100K_0402_1%_0 R7
U 1 1 5EF99094
P 4100 4850
F 0 "R7" V 4200 4850 50  0000 L CNN
F 1 "100k" V 4100 4750 50  0000 L CNN
F 2 "Br:R_0402" V 4030 4850 50  0001 C CNN
F 3 "" H 4100 4850 50  0000 C CNN
F 4 "C25741" H 4170 4759 50  0001 L CNN "LCSC"
	1    4100 4850
	0    -1   -1   0   
$EndComp
Wire Wire Line
	3850 4850 3900 4850
Connection ~ 3900 4850
Wire Wire Line
	3900 4850 3950 4850
$Comp
L Br:GND #PWR0128
U 1 1 5EF9D953
P 4300 4850
F 0 "#PWR0128" H 4300 4600 50  0001 C CNN
F 1 "GND" H 4305 4677 50  0000 C CNN
F 2 "" H 4300 4850 50  0000 C CNN
F 3 "" H 4300 4850 50  0000 C CNN
	1    4300 4850
	0    -1   1    0   
$EndComp
Wire Wire Line
	4300 4850 4250 4850
Text Label 5450 5400 0    50   ~ 0
SIGNAL
Text Label 6500 3900 0    50   ~ 0
SIGNAL
Wire Wire Line
	4950 5400 5250 5400
Wire Wire Line
	4450 5300 3900 5300
Wire Wire Line
	3900 4850 3900 5300
Wire Wire Line
	3600 5300 3750 5300
Wire Wire Line
	3750 5300 3750 5500
$Comp
L Br:R_1M_0402_1% R9
U 1 1 5EFB7A6D
P 5250 5650
F 0 "R9" H 5320 5696 50  0000 L CNN
F 1 "1M" V 5250 5600 50  0000 L CNN
F 2 "Br:R_0402" V 5180 5650 50  0001 C CNN
F 3 "" H 5250 5650 50  0000 C CNN
F 4 "C26083" H 5320 5559 50  0001 L CNN "LCSC"
	1    5250 5650
	1    0    0    -1  
$EndComp
Wire Wire Line
	5250 5500 5250 5400
Connection ~ 5250 5400
Wire Wire Line
	5250 5800 5250 6000
Wire Wire Line
	5250 6000 4350 6000
Wire Wire Line
	4350 6000 4350 5500
Wire Wire Line
	4350 5500 4450 5500
$Comp
L Br:R_10K_0402_1% R8
U 1 1 5EFBD47D
P 4100 5500
F 0 "R8" V 4200 5400 50  0000 C CNN
F 1 "10k" V 4100 5500 50  0000 C CNN
F 2 "Br:R_0402" V 4030 5500 50  0001 C CNN
F 3 "" H 4100 5500 50  0000 C CNN
F 4 "C25744" V 3985 5500 50  0001 C CNN "LCSC"
	1    4100 5500
	0    1    1    0   
$EndComp
Wire Wire Line
	3750 5500 3950 5500
Wire Wire Line
	4250 5500 4350 5500
Connection ~ 4350 5500
Text Notes 5400 4700 0    50   ~ 0
Amplification 100x
Text Notes 6750 4700 0    50   ~ 0
MAX detector
$Comp
L Br:D_SCHOTTKY_B5819W D1
U 1 1 5EFC3B26
P 6300 5400
F 0 "D1" V 6300 5322 50  0000 R CNN
F 1 "D_SCHOTTKY_B5819W" V 6255 5322 50  0001 R CNN
F 2 "Br:D_SOD-123" H 6300 5400 50  0001 C CNN
F 3 "" H 6300 5500 50  0000 C CNN
F 4 "C8598" V 6209 5322 50  0001 R CNN "LCSC"
	1    6300 5400
	-1   0    0    1   
$EndComp
Wire Wire Line
	5250 5400 5650 5400
$Comp
L Br:C_100N_0402_16V C9
U 1 1 5EFC6CC7
P 6700 5650
F 0 "C9" H 6900 5650 50  0000 L CNN
F 1 "100nF" V 6600 5750 50  0000 L CNN
F 2 "Br:C_0402" V 6630 5650 50  0001 C CNN
F 3 "" V 6800 5550 50  0000 C CNN
F 4 "C1525" H 6815 5559 50  0001 L CNN "LCSC"
	1    6700 5650
	-1   0    0    1   
$EndComp
$Comp
L Br:R_1M_0402_1% R10
U 1 1 5EFC6D6F
P 6950 5650
F 0 "R10" H 7020 5696 50  0000 L CNN
F 1 "1M" V 6950 5600 50  0000 L CNN
F 2 "Br:R_0402" V 6880 5650 50  0001 C CNN
F 3 "" H 6950 5650 50  0000 C CNN
F 4 "C26083" H 7020 5559 50  0001 L CNN "LCSC"
	1    6950 5650
	1    0    0    -1  
$EndComp
Wire Wire Line
	6700 5500 6700 5400
Wire Wire Line
	6700 5400 6450 5400
Wire Wire Line
	6700 5400 6950 5400
Wire Wire Line
	6950 5400 6950 5500
Connection ~ 6700 5400
$Comp
L Br:GND #PWR0132
U 1 1 5EFCCF35
P 6700 5950
F 0 "#PWR0132" H 6700 5700 50  0001 C CNN
F 1 "GND" H 6705 5777 50  0000 C CNN
F 2 "" H 6700 5950 50  0000 C CNN
F 3 "" H 6700 5950 50  0000 C CNN
	1    6700 5950
	-1   0    0    -1  
$EndComp
Wire Wire Line
	6700 5950 6700 5800
$Comp
L Br:GND #PWR0133
U 1 1 5EFD0140
P 6950 5950
F 0 "#PWR0133" H 6950 5700 50  0001 C CNN
F 1 "GND" H 6955 5777 50  0000 C CNN
F 2 "" H 6950 5950 50  0000 C CNN
F 3 "" H 6950 5950 50  0000 C CNN
	1    6950 5950
	-1   0    0    -1  
$EndComp
Wire Wire Line
	6950 5950 6950 5800
Text Label 6850 5400 0    50   ~ 0
MAX_VALUE
Text Label 6500 4200 0    50   ~ 0
MAX_VALUE
Text Label 1100 5250 1    50   ~ 0
EN_MIC
Wire Wire Line
	1100 5000 1100 5300
Text Label 6500 4300 0    50   ~ 0
EN_MIC
$Comp
L Br:ME_POTENCIOMETER_10K_RK09K1130081 U5
U 1 1 5EFD6D9A
P 8750 4550
F 0 "U5" H 8941 4621 50  0000 L CNN
F 1 "ME_POTENCIOMETER_10K_RK09K1130081" H 8941 4530 50  0000 L CNN
F 2 "Br:ME_POTENCIOMETER_10K_RK09K1130081" H 8750 4550 50  0001 C CNN
F 3 "" H 8750 4550 50  0001 C CNN
	1    8750 4550
	1    0    0    -1  
$EndComp
Text Label 8750 3950 3    50   ~ 0
EN_POT
Wire Wire Line
	8750 4250 8750 3950
$Comp
L Br:GND #PWR0134
U 1 1 5EFDA243
P 8750 4900
F 0 "#PWR0134" H 8750 4650 50  0001 C CNN
F 1 "GND" H 8755 4727 50  0000 C CNN
F 2 "" H 8750 4900 50  0000 C CNN
F 3 "" H 8750 4900 50  0000 C CNN
	1    8750 4900
	-1   0    0    -1  
$EndComp
Wire Wire Line
	8750 4900 8750 4850
Text Label 8350 4550 0    50   ~ 0
POT
Text Label 6500 4100 0    50   ~ 0
POT
Text Label 6500 4000 0    50   ~ 0
EN_POT
Wire Wire Line
	8550 4550 8300 4550
Wire Wire Line
	6950 5400 7250 5400
Connection ~ 6950 5400
$Comp
L Br:C_100N_0402_16V C10
U 1 1 5EFEB779
P 8300 4750
F 0 "C10" H 8150 4850 50  0000 L CNN
F 1 "100nF" H 8050 4650 50  0000 L CNN
F 2 "Br:C_0402" V 8230 4750 50  0001 C CNN
F 3 "" V 8400 4650 50  0000 C CNN
F 4 "C1525" H 8415 4659 50  0001 L CNN "LCSC"
	1    8300 4750
	-1   0    0    1   
$EndComp
Wire Wire Line
	8300 4600 8300 4550
$Comp
L Br:GND #PWR0135
U 1 1 5EFEEDEF
P 8300 4900
F 0 "#PWR0135" H 8300 4650 50  0001 C CNN
F 1 "GND" H 8305 4727 50  0000 C CNN
F 2 "" H 8300 4900 50  0000 C CNN
F 3 "" H 8300 4900 50  0000 C CNN
	1    8300 4900
	-1   0    0    -1  
$EndComp
$Comp
L Br:C_1U_0402_25V C7
U 1 1 5EF79B9F
P 4100 4550
F 0 "C7" V 4200 4650 50  0000 L CNN
F 1 "1uf" V 4000 4650 50  0000 L CNN
F 2 "Br:C_0402" V 4030 4550 50  0001 C CNN
F 3 "" V 4200 4450 50  0000 C CNN
F 4 "C52923" H 4215 4459 50  0001 L CNN "LCSC"
	1    4100 4550
	0    1    1    0   
$EndComp
Wire Wire Line
	3900 4850 3900 4550
Wire Wire Line
	3900 4550 3950 4550
$Comp
L Br:GND #PWR0136
U 1 1 5EF7D507
P 4300 4550
F 0 "#PWR0136" H 4300 4300 50  0001 C CNN
F 1 "GND" H 4305 4377 50  0000 C CNN
F 2 "" H 4300 4550 50  0000 C CNN
F 3 "" H 4300 4550 50  0000 C CNN
	1    4300 4550
	0    -1   1    0   
$EndComp
Wire Wire Line
	4300 4550 4250 4550
NoConn ~ 6400 3500
NoConn ~ 6400 3600
Wire Wire Line
	6400 3900 6900 3900
Wire Wire Line
	6400 4000 6900 4000
Wire Wire Line
	6400 4100 6900 4100
Wire Wire Line
	6400 4200 6900 4200
Wire Wire Line
	6400 4300 6900 4300
Wire Wire Line
	8900 4650 9000 4650
Wire Wire Line
	9000 4650 9000 4850
Wire Wire Line
	9000 4850 8750 4850
Connection ~ 8750 4850
Wire Wire Line
	8750 4850 8750 4800
$Comp
L Br:CN_P_01x02_2.54MM_HEADER J4
U 1 1 5EFA1140
P 5950 5700
F 0 "J4" H 6128 5755 60  0000 L CNN
F 1 "CN_P_01x02_2.54MM_HEADER" H 6128 5702 60  0001 L CNN
F 2 "Br:CN_P_01x02_2.54MM_HEADER" H 6000 5400 60  0001 C CNN
F 3 "" H 6000 5400 60  0001 C CNN
	1    5950 5700
	1    0    0    -1  
$EndComp
Wire Wire Line
	5750 5600 5650 5600
Wire Wire Line
	5650 5600 5650 5400
Connection ~ 5650 5400
Wire Wire Line
	5650 5400 6150 5400
Wire Wire Line
	5750 5700 5650 5700
$Comp
L Br:GND #PWR0137
U 1 1 5EFA9B09
P 5650 5950
F 0 "#PWR0137" H 5650 5700 50  0001 C CNN
F 1 "GND" H 5655 5777 50  0000 C CNN
F 2 "" H 5650 5950 50  0000 C CNN
F 3 "" H 5650 5950 50  0000 C CNN
	1    5650 5950
	-1   0    0    -1  
$EndComp
Wire Wire Line
	5650 5700 5650 5950
$Comp
L Br:CN_P_01x02_2.54MM_HEADER J5
U 1 1 5EFAE20F
P 7550 5700
F 0 "J5" H 7728 5755 60  0000 L CNN
F 1 "CN_P_01x02_2.54MM_HEADER" H 7728 5702 60  0001 L CNN
F 2 "Br:CN_P_01x02_2.54MM_HEADER" H 7600 5400 60  0001 C CNN
F 3 "" H 7600 5400 60  0001 C CNN
	1    7550 5700
	1    0    0    -1  
$EndComp
Wire Wire Line
	7350 5600 7250 5600
Wire Wire Line
	7250 5600 7250 5400
$Comp
L Br:GND #PWR0138
U 1 1 5EFB2A2D
P 7250 5950
F 0 "#PWR0138" H 7250 5700 50  0001 C CNN
F 1 "GND" H 7255 5777 50  0000 C CNN
F 2 "" H 7250 5950 50  0000 C CNN
F 3 "" H 7250 5950 50  0000 C CNN
	1    7250 5950
	-1   0    0    -1  
$EndComp
Wire Wire Line
	7250 5950 7250 5700
Wire Wire Line
	7250 5700 7350 5700
$EndSCHEMATC
