EESchema Schematic File Version 4
LIBS:009_5x6_2x_DC_motor-cache
EELAYER 26 0
EELAYER END
$Descr A4 11693 8268
encoding utf-8
Sheet 1 1
Title ""
Date ""
Rev ""
Comp ""
Comment1 ""
Comment2 ""
Comment3 ""
Comment4 ""
$EndDescr
$Comp
L Br:Br_CN_IN J1
U 1 1 5D978D2E
P 1650 1800
F 0 "J1" H 1272 1747 60  0000 R CNN
F 1 "Br_CN_IN" H 1272 1853 60  0000 R CNN
F 2 "Br:Br_CN_IN" H 1525 1900 60  0001 C CNN
F 3 "" H 1525 1900 60  0001 C CNN
	1    1650 1800
	1    0    0    1   
$EndComp
$Comp
L Br:GND #PWR0101
U 1 1 5D979092
P 2300 2500
F 0 "#PWR0101" H 2300 2250 50  0001 C CNN
F 1 "GND" H 2305 2327 50  0000 C CNN
F 2 "" H 2300 2500 50  0000 C CNN
F 3 "" H 2300 2500 50  0000 C CNN
	1    2300 2500
	1    0    0    -1  
$EndComp
$Comp
L Br:5V #PWR0102
U 1 1 5D97912B
P 2000 2100
F 0 "#PWR0102" H 2000 1950 50  0001 C CNN
F 1 "5V" V 2015 2228 50  0000 L CNN
F 2 "" H 2000 2100 50  0000 C CNN
F 3 "" H 2000 2100 50  0000 C CNN
	1    2000 2100
	0    1    1    0   
$EndComp
$Comp
L Br:12V #PWR0103
U 1 1 5D97916E
P 1900 1400
F 0 "#PWR0103" H 1900 1250 50  0001 C CNN
F 1 "12V" V 1915 1528 50  0000 L CNN
F 2 "" H 1900 1400 50  0000 C CNN
F 3 "" H 1900 1400 50  0000 C CNN
	1    1900 1400
	0    1    1    0   
$EndComp
Text Notes 3400 1200 0    50   ~ 0
Female\n
Text Notes 1400 1200 0    50   ~ 0
Male\n
Text Label 1850 1800 0    50   ~ 0
UART_RX
Text Label 1850 1600 0    50   ~ 0
SPARE
Wire Wire Line
	1750 2100 1900 2100
Wire Wire Line
	1750 2000 1900 2000
Wire Wire Line
	1900 2000 1900 2100
Connection ~ 1900 2100
Wire Wire Line
	1900 2100 2000 2100
Wire Wire Line
	1800 1500 1800 1400
Wire Wire Line
	1800 1400 1900 1400
Wire Wire Line
	1750 1600 2200 1600
Text Label 7700 1950 0    50   ~ 0
UART_RX
Text Label 10600 1950 0    50   ~ 0
UART_TX
$Comp
L Br:Br_CN_OUT J3
U 1 1 5D9C46C3
P 3650 1800
F 0 "J3" H 3827 1846 50  0000 L CNN
F 1 "Br_CN_OUT" H 3827 1755 50  0000 L CNN
F 2 "Br:Br_CN_OUT" H 3650 2350 50  0001 C CNN
F 3 "" H 3650 2350 50  0001 C CNN
	1    3650 1800
	1    0    0    -1  
$EndComp
$Comp
L Br:Hole3mm H1
U 1 1 5D9D377A
P 5600 6600
F 0 "H1" H 5677 6651 50  0000 L CNN
F 1 "Hole3mm" H 5677 6560 50  0000 L CNN
F 2 "Br:Hole3mm" H 5600 6600 50  0001 C CNN
F 3 "" H 5600 6600 50  0001 C CNN
	1    5600 6600
	1    0    0    -1  
$EndComp
$Comp
L Br:Hole3mm H2
U 1 1 5D9D6260
P 5600 6850
F 0 "H2" H 5677 6901 50  0000 L CNN
F 1 "Hole3mm" H 5677 6810 50  0000 L CNN
F 2 "Br:Hole3mm" H 5600 6850 50  0001 C CNN
F 3 "" H 5600 6850 50  0001 C CNN
	1    5600 6850
	1    0    0    -1  
$EndComp
$Comp
L Br:Hole3mm H4
U 1 1 5D9D6266
P 6300 6850
F 0 "H4" H 6377 6901 50  0000 L CNN
F 1 "Hole3mm" H 6377 6810 50  0000 L CNN
F 2 "Br:Hole3mm" H 6300 6850 50  0001 C CNN
F 3 "" H 6300 6850 50  0001 C CNN
	1    6300 6850
	1    0    0    -1  
$EndComp
Wire Wire Line
	1800 1500 1750 1500
Wire Wire Line
	1750 1400 1800 1400
Connection ~ 1800 1400
Wire Wire Line
	2300 1900 2300 2200
Wire Wire Line
	1750 1900 2300 1900
Wire Wire Line
	2300 1900 2300 1700
Wire Wire Line
	1750 1700 2300 1700
Wire Wire Line
	1750 1800 2200 1800
Connection ~ 2300 1900
Wire Wire Line
	1750 2200 2300 2200
Connection ~ 2300 2200
Wire Wire Line
	2300 2200 2300 2500
$Comp
L Br:GND #PWR0104
U 1 1 5D9E7626
P 2750 2500
F 0 "#PWR0104" H 2750 2250 50  0001 C CNN
F 1 "GND" H 2755 2327 50  0000 C CNN
F 2 "" H 2750 2500 50  0000 C CNN
F 3 "" H 2750 2500 50  0000 C CNN
	1    2750 2500
	-1   0    0    -1  
$EndComp
$Comp
L Br:5V #PWR0105
U 1 1 5D9E762C
P 3100 2100
F 0 "#PWR0105" H 3100 1950 50  0001 C CNN
F 1 "5V" V 3115 2228 50  0000 L CNN
F 2 "" H 3100 2100 50  0000 C CNN
F 3 "" H 3100 2100 50  0000 C CNN
	1    3100 2100
	0    -1   1    0   
$EndComp
$Comp
L Br:12V #PWR0106
U 1 1 5D9E7632
P 3100 1400
F 0 "#PWR0106" H 3100 1250 50  0001 C CNN
F 1 "12V" V 3115 1528 50  0000 L CNN
F 2 "" H 3100 1400 50  0000 C CNN
F 3 "" H 3100 1400 50  0000 C CNN
	1    3100 1400
	0    -1   1    0   
$EndComp
Text Label 3250 1800 2    50   ~ 0
UART_TX
Text Label 3250 1600 2    50   ~ 0
SPARE
Wire Wire Line
	3350 2100 3200 2100
Wire Wire Line
	3350 2000 3200 2000
Wire Wire Line
	3200 2000 3200 2100
Connection ~ 3200 2100
Wire Wire Line
	3200 2100 3100 2100
Wire Wire Line
	3200 1500 3200 1400
Connection ~ 3200 1400
Wire Wire Line
	3200 1400 3100 1400
Wire Wire Line
	3350 1500 3200 1500
Wire Wire Line
	3350 1400 3200 1400
Wire Wire Line
	3350 1600 2900 1600
Wire Wire Line
	2750 1700 2750 1900
Wire Wire Line
	2750 1700 3350 1700
Wire Wire Line
	2900 1800 3350 1800
Wire Wire Line
	3350 1900 2750 1900
Connection ~ 2750 1900
Wire Wire Line
	2750 1900 2750 2200
Wire Wire Line
	3350 2200 2750 2200
Connection ~ 2750 2200
Wire Wire Line
	2750 2200 2750 2500
$Comp
L Br:D_BAV99.215 D1
U 1 1 5D9CB918
P 5550 1950
F 0 "D1" H 5628 1996 50  0000 L CNN
F 1 "D_BAV99.215" H 5628 1905 50  0000 L CNN
F 2 "Br:SOT23" V 5550 2100 50  0001 C CNN
F 3 "../library_doc/D_BAV99.215.pdf" H 5628 1905 50  0001 L CNN
F 4 "C2500" H 5627 1859 50  0001 L CNN "LCSC"
	1    5550 1950
	-1   0    0    -1  
$EndComp
$Comp
L Br:5V #PWR0107
U 1 1 5D9CBEE0
P 5550 1550
F 0 "#PWR0107" H 5550 1400 50  0001 C CNN
F 1 "5V" V 5565 1678 50  0000 L CNN
F 2 "" H 5550 1550 50  0000 C CNN
F 3 "" H 5550 1550 50  0000 C CNN
	1    5550 1550
	1    0    0    -1  
$EndComp
Wire Wire Line
	5550 1650 5550 1550
$Comp
L Br:D_BAV99.215 D2
U 1 1 5D9CDB0F
P 8850 1950
F 0 "D2" H 8927 1904 50  0000 L CNN
F 1 "D_BAV99.215" H 8300 2250 50  0000 L CNN
F 2 "Br:SOT23" V 8850 2100 50  0001 C CNN
F 3 "../library_doc/D_BAV99.215.pdf" H 8928 1905 50  0001 L CNN
F 4 "C2500" H 8927 1859 50  0001 L CNN "LCSC"
	1    8850 1950
	1    0    0    1   
$EndComp
$Comp
L Br:R_1K_0603_1% R1
U 1 1 5D9CE50E
P 8250 1950
F 0 "R1" V 8150 1850 50  0000 C CNN
F 1 "R_1K_0603_1%" V 8350 1950 50  0000 C CNN
F 2 "Br:R_0603" V 8180 1950 50  0001 C CNN
F 3 "" H 8250 1950 50  0000 C CNN
F 4 "C21190" V 8135 1950 50  0001 C CNN "LCSC"
	1    8250 1950
	0    1    1    0   
$EndComp
Wire Wire Line
	7700 1950 8100 1950
$Comp
L Br:GND #PWR0108
U 1 1 5D9CF159
P 8850 2300
F 0 "#PWR0108" H 8850 2050 50  0001 C CNN
F 1 "GND" H 8855 2127 50  0000 C CNN
F 2 "" H 8850 2300 50  0000 C CNN
F 3 "" H 8850 2300 50  0000 C CNN
	1    8850 2300
	-1   0    0    -1  
$EndComp
Wire Wire Line
	8850 2300 8850 2250
$Comp
L Br:D_BAV99.215 D3
U 1 1 5D9CF778
P 9800 1950
F 0 "D3" H 9878 1904 50  0000 L CNN
F 1 "D_BAV99.215" H 9250 2200 50  0000 L CNN
F 2 "Br:SOT23" V 9800 2100 50  0001 C CNN
F 3 "../library_doc/D_BAV99.215.pdf" H 9878 1905 50  0001 L CNN
F 4 "C2500" H 9877 1859 50  0001 L CNN "LCSC"
	1    9800 1950
	-1   0    0    1   
$EndComp
$Comp
L Br:R_1K_0603_1% R2
U 1 1 5D9CF786
P 10350 1950
F 0 "R2" V 10250 1850 50  0000 C CNN
F 1 "R_1K_0603_1%" V 10450 1850 50  0000 C CNN
F 2 "Br:R_0603" V 10280 1950 50  0001 C CNN
F 3 "" H 10350 1950 50  0000 C CNN
F 4 "C21190" V 10235 1950 50  0001 C CNN "LCSC"
	1    10350 1950
	0    -1   1    0   
$EndComp
Wire Wire Line
	10900 1950 10500 1950
$Comp
L Br:GND #PWR0109
U 1 1 5D9CF78E
P 9800 2300
F 0 "#PWR0109" H 9800 2050 50  0001 C CNN
F 1 "GND" H 9805 2127 50  0000 C CNN
F 2 "" H 9800 2300 50  0000 C CNN
F 3 "" H 9800 2300 50  0000 C CNN
	1    9800 2300
	1    0    0    -1  
$EndComp
Wire Wire Line
	9800 2300 9800 2250
$Comp
L Br:3V3 #PWR0110
U 1 1 5D9D1287
P 9800 1550
F 0 "#PWR0110" H 9800 1400 50  0001 C CNN
F 1 "3V3" H 9815 1723 50  0000 C CNN
F 2 "" H 9800 1550 50  0000 C CNN
F 3 "" H 9800 1550 50  0000 C CNN
	1    9800 1550
	1    0    0    -1  
$EndComp
$Comp
L Br:3V3 #PWR0111
U 1 1 5D9D12BD
P 8850 1550
F 0 "#PWR0111" H 8850 1400 50  0001 C CNN
F 1 "3V3" H 8865 1723 50  0000 C CNN
F 2 "" H 8850 1550 50  0000 C CNN
F 3 "" H 8850 1550 50  0000 C CNN
	1    8850 1550
	1    0    0    -1  
$EndComp
Wire Wire Line
	8850 1550 8850 1650
Wire Wire Line
	9800 1550 9800 1650
Text Notes 8900 1150 0    50   ~ 0
UART protection
$Comp
L Br:3V3 #PWR0112
U 1 1 5D9D2D75
P 7300 1500
F 0 "#PWR0112" H 7300 1350 50  0001 C CNN
F 1 "3V3" H 7315 1673 50  0000 C CNN
F 2 "" H 7300 1500 50  0000 C CNN
F 3 "" H 7300 1500 50  0000 C CNN
	1    7300 1500
	1    0    0    -1  
$EndComp
Text Notes 5800 1150 0    50   ~ 0
Power regulator
$Comp
L Br:ICD_STM8L051F3P6 U1
U 1 1 5D9D4765
P 5150 4800
F 0 "U1" H 4675 5087 60  0000 C CNN
F 1 "ICD_STM8L051F3P6" H 4675 4981 60  0000 C CNN
F 2 "Br:TSSOP20" H 2750 4900 60  0001 C CNN
F 3 "" H 2750 4900 60  0000 C CNN
F 4 "C18088" H 4675 4973 50  0001 C CNN "LCSC"
	1    5150 4800
	1    0    0    -1  
$EndComp
$Comp
L Br:GND #PWR0113
U 1 1 5D9D4876
P 1800 5900
F 0 "#PWR0113" H 1800 5650 50  0001 C CNN
F 1 "GND" H 1805 5727 50  0000 C CNN
F 2 "" H 1800 5900 50  0000 C CNN
F 3 "" H 1800 5900 50  0000 C CNN
	1    1800 5900
	-1   0    0    -1  
$EndComp
Wire Wire Line
	2350 4800 2750 4800
Wire Wire Line
	2350 4900 2750 4900
Text Label 2350 5000 0    50   ~ 0
SWIM
Text Label 2350 5100 0    50   ~ 0
NRST
Wire Wire Line
	2350 5000 2750 5000
Text Label 1350 6600 0    50   ~ 0
SWIM
Text Label 1350 6400 0    50   ~ 0
NRST
$Comp
L Br:3V3 #PWR0114
U 1 1 5D9D7743
P 2150 5500
F 0 "#PWR0114" H 2150 5350 50  0001 C CNN
F 1 "3V3" V 2165 5628 50  0000 L CNN
F 2 "" H 2150 5500 50  0000 C CNN
F 3 "" H 2150 5500 50  0000 C CNN
	1    2150 5500
	0    -1   -1   0   
$EndComp
Wire Wire Line
	1800 5400 2750 5400
$Comp
L Br:GND #PWR0115
U 1 1 5D9D82DF
P 1350 6500
F 0 "#PWR0115" H 1350 6250 50  0001 C CNN
F 1 "GND" H 1355 6327 50  0000 C CNN
F 2 "" H 1350 6500 50  0000 C CNN
F 3 "" H 1350 6500 50  0000 C CNN
	1    1350 6500
	0    1    -1   0   
$EndComp
$Comp
L Br:3V3 #PWR0116
U 1 1 5D9D8302
P 1400 6700
F 0 "#PWR0116" H 1400 6550 50  0001 C CNN
F 1 "3V3" V 1415 6828 50  0000 L CNN
F 2 "" H 1400 6700 50  0000 C CNN
F 3 "" H 1400 6700 50  0000 C CNN
	1    1400 6700
	0    -1   -1   0   
$EndComp
$Comp
L Br:CN_P_01x04_1.27MM_STRAIGHT_ZL319-4P J2
U 1 1 5D9D92B3
P 1750 6550
F 0 "J2" H 1828 6555 50  0000 L CNN
F 1 "CN_P_01x04_1.27MM_STRAIGHT_ZL319-4P" H 1827 6510 50  0001 L CNN
F 2 "Br:CN_P_01x04_1.27MM_STRAIGHT_ZL319-4P" H 1700 6600 50  0001 C CNN
F 3 "" H 1700 6600 50  0001 C CNN
	1    1750 6550
	1    0    0    -1  
$EndComp
Wire Wire Line
	1350 6400 1600 6400
Wire Wire Line
	1350 6500 1600 6500
Wire Wire Line
	1350 6600 1600 6600
Wire Wire Line
	1400 6700 1600 6700
$Comp
L Br:C_100N_0603_10%_50V_X7R C2
U 1 1 5D9DE095
P 2250 5700
F 0 "C2" H 2100 5800 50  0000 L CNN
F 1 "100nF" H 2000 5600 50  0000 L CNN
F 2 "Br:C_0603" V 2180 5700 50  0001 C CNN
F 3 "" V 2350 5600 50  0000 C CNN
F 4 "C14663" H 2365 5609 50  0001 L CNN "LCSC"
	1    2250 5700
	1    0    0    -1  
$EndComp
Wire Wire Line
	2250 5550 2250 5500
Wire Wire Line
	2250 5500 2150 5500
Connection ~ 2250 5500
$Comp
L Br:GND #PWR0117
U 1 1 5D9DFBBB
P 2250 5900
F 0 "#PWR0117" H 2250 5650 50  0001 C CNN
F 1 "GND" H 2255 5727 50  0000 C CNN
F 2 "" H 2250 5900 50  0000 C CNN
F 3 "" H 2250 5900 50  0000 C CNN
	1    2250 5900
	-1   0    0    -1  
$EndComp
Wire Wire Line
	2250 5900 2250 5850
Wire Wire Line
	1800 5400 1800 5900
$Comp
L Br:C_100N_0603_10%_50V_X7R C1
U 1 1 5D9E1885
P 1350 5700
F 0 "C1" H 1465 5746 50  0000 L CNN
F 1 "100nF" H 1465 5655 50  0000 L CNN
F 2 "Br:C_0603" V 1280 5700 50  0001 C CNN
F 3 "" V 1450 5600 50  0000 C CNN
F 4 "C14663" H 1465 5609 50  0001 L CNN "LCSC"
	1    1350 5700
	1    0    0    -1  
$EndComp
Wire Wire Line
	1350 5100 2750 5100
$Comp
L Br:GND #PWR0118
U 1 1 5D9E54AE
P 1350 5900
F 0 "#PWR0118" H 1350 5650 50  0001 C CNN
F 1 "GND" H 1355 5727 50  0000 C CNN
F 2 "" H 1350 5900 50  0000 C CNN
F 3 "" H 1350 5900 50  0000 C CNN
	1    1350 5900
	-1   0    0    -1  
$EndComp
Wire Wire Line
	1350 5100 1350 5550
Wire Wire Line
	1350 5850 1350 5900
$Comp
L Br:C_1U_0603_10%_50V_X5R C3
U 1 1 5D9EACB1
P 5950 2200
F 0 "C3" H 6065 2246 50  0000 L CNN
F 1 "1uF" H 6065 2155 50  0000 L CNN
F 2 "Br:C_0603" V 5880 2200 50  0001 C CNN
F 3 "" V 6050 2100 50  0000 C CNN
F 4 "C15849" H 6065 2109 50  0001 L CNN "LCSC"
	1    5950 2200
	1    0    0    -1  
$EndComp
$Comp
L Br:GND #PWR0119
U 1 1 5D9EADC4
P 5950 2500
F 0 "#PWR0119" H 5950 2250 50  0001 C CNN
F 1 "GND" H 5955 2327 50  0000 C CNN
F 2 "" H 5950 2500 50  0000 C CNN
F 3 "" H 5950 2500 50  0000 C CNN
	1    5950 2500
	-1   0    0    -1  
$EndComp
Wire Wire Line
	5950 2500 5950 2350
Wire Wire Line
	5600 1950 5950 1950
Wire Wire Line
	5950 1950 5950 2050
$Comp
L Br:ICP_HT7533-1 U2
U 1 1 5D9C8DBA
P 6650 1950
F 0 "U2" H 6675 2306 50  0000 C CNN
F 1 "ICP_HT7533-1" H 6675 2215 50  0000 C CNN
F 2 "Br:SOT-89-3" H 6650 1950 50  0001 C CNN
F 3 "" H 6650 1950 50  0001 C CNN
F 4 "C14289" H 6675 2124 50  0001 C CNN "LCSC"
	1    6650 1950
	1    0    0    -1  
$EndComp
$Comp
L Br:C_1U_0603_10%_50V_X5R C4
U 1 1 5D9C8EED
P 7300 2200
F 0 "C4" H 7415 2246 50  0000 L CNN
F 1 "1uF" H 7415 2155 50  0000 L CNN
F 2 "Br:C_0603" V 7230 2200 50  0001 C CNN
F 3 "" V 7400 2100 50  0000 C CNN
F 4 "C15849" H 7415 2109 50  0001 L CNN "LCSC"
	1    7300 2200
	1    0    0    -1  
$EndComp
Wire Wire Line
	7050 1950 7300 1950
Wire Wire Line
	7300 1950 7300 2050
Wire Wire Line
	7300 1950 7300 1500
Connection ~ 7300 1950
$Comp
L Br:GND #PWR0120
U 1 1 5D9CB24A
P 6650 2500
F 0 "#PWR0120" H 6650 2250 50  0001 C CNN
F 1 "GND" H 6655 2327 50  0000 C CNN
F 2 "" H 6650 2500 50  0000 C CNN
F 3 "" H 6650 2500 50  0000 C CNN
	1    6650 2500
	-1   0    0    -1  
$EndComp
Wire Wire Line
	6650 2500 6650 2250
Wire Wire Line
	6300 1950 5950 1950
Connection ~ 5950 1950
$Comp
L Br:GND #PWR0121
U 1 1 5D9CD6CE
P 7300 2500
F 0 "#PWR0121" H 7300 2250 50  0001 C CNN
F 1 "GND" H 7305 2327 50  0000 C CNN
F 2 "" H 7300 2500 50  0000 C CNN
F 3 "" H 7300 2500 50  0000 C CNN
	1    7300 2500
	-1   0    0    -1  
$EndComp
Wire Wire Line
	7300 2500 7300 2350
NoConn ~ 5550 2250
Wire Wire Line
	5950 1550 5950 1950
NoConn ~ 6600 5350
NoConn ~ 6600 5250
NoConn ~ 6600 5150
NoConn ~ 6600 5050
NoConn ~ 6600 4950
NoConn ~ 6600 4850
NoConn ~ 2750 5300
NoConn ~ 2750 5200
NoConn ~ 5500 6600
NoConn ~ 5500 6850
NoConn ~ 6200 6850
$Comp
L Br:12V #PWR0129
U 1 1 5D9E7FDB
P 4450 1000
F 0 "#PWR0129" H 4450 850 50  0001 C CNN
F 1 "12V" H 4400 1200 50  0000 L CNN
F 2 "" H 4450 1000 50  0000 C CNN
F 3 "" H 4450 1000 50  0000 C CNN
	1    4450 1000
	1    0    0    -1  
$EndComp
$Comp
L Br:5V #PWR0130
U 1 1 5D9E801C
P 4650 1000
F 0 "#PWR0130" H 4650 850 50  0001 C CNN
F 1 "5V" H 4600 1200 50  0000 L CNN
F 2 "" H 4650 1000 50  0000 C CNN
F 3 "" H 4650 1000 50  0000 C CNN
	1    4650 1000
	1    0    0    -1  
$EndComp
$Comp
L Br:GND #PWR0131
U 1 1 5D9E816B
P 4250 1150
F 0 "#PWR0131" H 4250 900 50  0001 C CNN
F 1 "GND" H 4255 977 50  0000 C CNN
F 2 "" H 4250 1150 50  0000 C CNN
F 3 "" H 4250 1150 50  0000 C CNN
	1    4250 1150
	-1   0    0    -1  
$EndComp
$Comp
L Br:PWR #FLG0101
U 1 1 5D9E856C
P 4250 1000
F 0 "#FLG0101" H 4250 1095 50  0001 C CNN
F 1 "PWR" H 4250 1224 50  0000 C CNN
F 2 "" H 4250 1000 50  0000 C CNN
F 3 "" H 4250 1000 50  0000 C CNN
	1    4250 1000
	1    0    0    -1  
$EndComp
$Comp
L Br:PWR #FLG0102
U 1 1 5D9E85C4
P 4450 1150
F 0 "#FLG0102" H 4450 1245 50  0001 C CNN
F 1 "PWR" H 4450 1373 50  0000 C CNN
F 2 "" H 4450 1150 50  0000 C CNN
F 3 "" H 4450 1150 50  0000 C CNN
	1    4450 1150
	-1   0    0    1   
$EndComp
$Comp
L Br:PWR #FLG0103
U 1 1 5D9E8649
P 4650 1150
F 0 "#FLG0103" H 4650 1245 50  0001 C CNN
F 1 "PWR" H 4650 1373 50  0000 C CNN
F 2 "" H 4650 1150 50  0000 C CNN
F 3 "" H 4650 1150 50  0000 C CNN
	1    4650 1150
	-1   0    0    1   
$EndComp
Wire Wire Line
	4650 1150 4650 1000
Wire Wire Line
	4450 1150 4450 1000
Wire Wire Line
	4250 1150 4250 1000
Text Label 5950 1750 1    50   ~ 0
5V_In
Wire Wire Line
	9850 1950 10200 1950
Text Label 2400 4800 0    50   ~ 0
CPU_TX
Text Label 2400 4900 0    50   ~ 0
CPU_RX
Text Label 9900 1950 0    50   ~ 0
CPU_TX
Text Label 8450 1950 0    50   ~ 0
CPU_RX
Wire Wire Line
	8400 1950 8800 1950
Text Label 4850 1000 1    50   ~ 0
5V_In
$Comp
L Br:PWR #FLG0104
U 1 1 5DA0B14B
P 4850 1150
F 0 "#FLG0104" H 4850 1245 50  0001 C CNN
F 1 "PWR" H 4850 1373 50  0000 C CNN
F 2 "" H 4850 1150 50  0000 C CNN
F 3 "" H 4850 1150 50  0000 C CNN
	1    4850 1150
	-1   0    0    1   
$EndComp
Wire Wire Line
	4850 1150 4850 800 
Wire Wire Line
	2250 5500 2750 5500
Text Label 2400 5700 0    50   ~ 0
M1_PWM1
Text Label 6650 5650 0    50   ~ 0
M1_PWM2
Text Label 6650 5750 0    50   ~ 0
M2_PWM1
Text Label 2400 5600 0    50   ~ 0
M2_PWM2
Text Label 9300 3550 0    50   ~ 0
M1_PWM2
Wire Wire Line
	2400 5600 2750 5600
Wire Wire Line
	2400 5700 2750 5700
Wire Wire Line
	6600 5650 7000 5650
Wire Wire Line
	6600 5750 7000 5750
$Comp
L Br:ICP_DRV8837CDSGR U3
U 1 1 5E10DE57
P 8700 3500
F 0 "U3" H 8775 4056 50  0000 C CNN
F 1 "ICP_DRV8837CDSGR" H 8775 3965 50  0000 C CNN
F 2 "Br:WSON-8-1EP_2x2mm_P0.5mm_EP0.9x1.6mm_ThermalVias" H 8700 3500 50  0001 C CNN
F 3 "" H 8700 3500 50  0001 C CNN
F 4 "C191000" V 8700 3600 50  0001 C CNN "LCSC"
	1    8700 3500
	1    0    0    -1  
$EndComp
$Comp
L Br:D_SCHOTTKY_SS54 D4
U 1 1 5E10E07F
P 3550 3150
F 0 "D4" V 3596 3072 50  0000 R CNN
F 1 "D_SCHOTTKY_SS54" V 3505 3072 50  0000 R CNN
F 2 "Br:DO214AC" H 3550 3150 50  0001 C CNN
F 3 "" H 3550 3250 50  0000 C CNN
F 4 "C22452" V 3459 3072 50  0001 R CNN "LCSC"
	1    3550 3150
	0    -1   -1   0   
$EndComp
Text Label 6650 5550 0    50   ~ 0
M1_nSleep
Text Label 6650 5450 0    50   ~ 0
M2_nSleep
Wire Wire Line
	6600 5450 7050 5450
Wire Wire Line
	6600 5550 7050 5550
$Comp
L Br:5V #PWR0122
U 1 1 5E1115B6
P 3550 2900
F 0 "#PWR0122" H 3550 2750 50  0001 C CNN
F 1 "5V" V 3565 3028 50  0000 L CNN
F 2 "" H 3550 2900 50  0000 C CNN
F 3 "" H 3550 2900 50  0000 C CNN
	1    3550 2900
	1    0    0    -1  
$EndComp
Wire Wire Line
	3550 3000 3550 2900
$Comp
L Br:D_TRANS_VOLT_SUPPRESSOR_6.5V D5
U 1 1 5E112F7D
P 3550 3700
F 0 "D5" V 3550 3828 50  0000 L CNN
F 1 "D_VOLT_SUPPRESSOR" V 3595 3828 50  0001 L CNN
F 2 "Br:DO214AA" H 3550 3700 50  0001 C CNN
F 3 "" H 3550 3850 50  0000 C CNN
F 4 "C78395" V 3641 3828 50  0001 L CNN "LCSC"
	1    3550 3700
	0    1    1    0   
$EndComp
$Comp
L Br:GND #PWR0123
U 1 1 5E113059
P 3550 3950
F 0 "#PWR0123" H 3550 3700 50  0001 C CNN
F 1 "GND" H 3555 3777 50  0000 C CNN
F 2 "" H 3550 3950 50  0000 C CNN
F 3 "" H 3550 3950 50  0000 C CNN
	1    3550 3950
	-1   0    0    -1  
$EndComp
Wire Wire Line
	3550 3950 3550 3850
Wire Wire Line
	3550 3550 3550 3400
Connection ~ 3550 3400
Wire Wire Line
	3550 3400 3550 3300
$Comp
L Br:C_10U_0805_10%_25V C5
U 1 1 5E117DE0
P 4050 3650
F 0 "C5" H 4165 3696 50  0000 L CNN
F 1 "10uF" H 4165 3605 50  0000 L CNN
F 2 "Br:C_0805" V 3980 3650 50  0001 C CNN
F 3 "" V 4150 3550 50  0000 C CNN
F 4 "C15850" H 4165 3559 50  0001 L CNN "LCSC"
	1    4050 3650
	1    0    0    -1  
$EndComp
$Comp
L Br:C_10U_0805_10%_25V C6
U 1 1 5E117F1F
P 4500 3650
F 0 "C6" H 4615 3696 50  0000 L CNN
F 1 "10uF" H 4615 3605 50  0000 L CNN
F 2 "Br:C_0805" V 4430 3650 50  0001 C CNN
F 3 "" V 4600 3550 50  0000 C CNN
F 4 "C15850" H 4615 3559 50  0001 L CNN "LCSC"
	1    4500 3650
	1    0    0    -1  
$EndComp
Wire Wire Line
	4500 3500 4500 3400
Wire Wire Line
	3550 3400 4050 3400
Wire Wire Line
	4050 3500 4050 3400
Connection ~ 4050 3400
Wire Wire Line
	4050 3400 4500 3400
$Comp
L Br:GND #PWR0124
U 1 1 5E11B6C0
P 4050 3950
F 0 "#PWR0124" H 4050 3700 50  0001 C CNN
F 1 "GND" H 4055 3777 50  0000 C CNN
F 2 "" H 4050 3950 50  0000 C CNN
F 3 "" H 4050 3950 50  0000 C CNN
	1    4050 3950
	-1   0    0    -1  
$EndComp
$Comp
L Br:GND #PWR0125
U 1 1 5E11B6F9
P 4500 3950
F 0 "#PWR0125" H 4500 3700 50  0001 C CNN
F 1 "GND" H 4505 3777 50  0000 C CNN
F 2 "" H 4500 3950 50  0000 C CNN
F 3 "" H 4500 3950 50  0000 C CNN
	1    4500 3950
	-1   0    0    -1  
$EndComp
Wire Wire Line
	4500 3950 4500 3800
Wire Wire Line
	4050 3950 4050 3800
Connection ~ 4500 3400
$Comp
L Br:PWR #FLG0105
U 1 1 5E120FEA
P 4500 2950
F 0 "#FLG0105" H 4500 3045 50  0001 C CNN
F 1 "PWR" H 4500 3173 50  0000 C CNN
F 2 "" H 4500 2950 50  0000 C CNN
F 3 "" H 4500 2950 50  0000 C CNN
	1    4500 2950
	1    0    0    -1  
$EndComp
Wire Wire Line
	4500 3400 4500 2950
Text Label 5750 3400 0    50   ~ 0
5V_motor
$Comp
L Br:GND #PWR0126
U 1 1 5E128D27
P 8800 3900
F 0 "#PWR0126" H 8800 3650 50  0001 C CNN
F 1 "GND" H 8805 3727 50  0000 C CNN
F 2 "" H 8800 3900 50  0000 C CNN
F 3 "" H 8800 3900 50  0000 C CNN
	1    8800 3900
	-1   0    0    -1  
$EndComp
Wire Wire Line
	8800 3900 8800 3800
$Comp
L Br:GND #PWR0127
U 1 1 5E12AC6D
P 8150 3900
F 0 "#PWR0127" H 8150 3650 50  0001 C CNN
F 1 "GND" H 8155 3727 50  0000 C CNN
F 2 "" H 8150 3900 50  0000 C CNN
F 3 "" H 8150 3900 50  0000 C CNN
	1    8150 3900
	-1   0    0    -1  
$EndComp
Wire Wire Line
	8150 3900 8150 3550
Wire Wire Line
	8150 3550 8250 3550
Text Label 7900 3250 0    50   ~ 0
5V_motor
$Comp
L Br:C_100N_0603_10%_50V_X7R C7
U 1 1 5E12EF78
P 5000 3650
F 0 "C7" H 5115 3696 50  0000 L CNN
F 1 "100nF" H 5115 3605 50  0000 L CNN
F 2 "Br:C_0603" V 4930 3650 50  0001 C CNN
F 3 "" V 5100 3550 50  0000 C CNN
F 4 "C14663" H 5115 3559 50  0001 L CNN "LCSC"
	1    5000 3650
	1    0    0    -1  
$EndComp
$Comp
L Br:C_100N_0603_10%_50V_X7R C8
U 1 1 5E12F0A0
P 5500 3650
F 0 "C8" H 5615 3696 50  0000 L CNN
F 1 "100nF" H 5615 3605 50  0000 L CNN
F 2 "Br:C_0603" V 5430 3650 50  0001 C CNN
F 3 "" V 5600 3550 50  0000 C CNN
F 4 "C14663" H 5615 3559 50  0001 L CNN "LCSC"
	1    5500 3650
	1    0    0    -1  
$EndComp
$Comp
L Br:GND #PWR0128
U 1 1 5E12F119
P 5000 3950
F 0 "#PWR0128" H 5000 3700 50  0001 C CNN
F 1 "GND" H 5005 3777 50  0000 C CNN
F 2 "" H 5000 3950 50  0000 C CNN
F 3 "" H 5000 3950 50  0000 C CNN
	1    5000 3950
	-1   0    0    -1  
$EndComp
Wire Wire Line
	5000 3950 5000 3800
$Comp
L Br:GND #PWR0132
U 1 1 5E1311F1
P 5500 3950
F 0 "#PWR0132" H 5500 3700 50  0001 C CNN
F 1 "GND" H 5505 3777 50  0000 C CNN
F 2 "" H 5500 3950 50  0000 C CNN
F 3 "" H 5500 3950 50  0000 C CNN
	1    5500 3950
	-1   0    0    -1  
$EndComp
Wire Wire Line
	5500 3950 5500 3800
Wire Wire Line
	5000 3400 5000 3500
Wire Wire Line
	4500 3400 5000 3400
Wire Wire Line
	5000 3400 5500 3400
Wire Wire Line
	5500 3400 5500 3500
Connection ~ 5000 3400
Wire Wire Line
	5500 3400 6100 3400
Connection ~ 5500 3400
Text Label 9300 3350 0    50   ~ 0
M1_nSleep
Text Label 9300 3450 0    50   ~ 0
M1_PWM1
Wire Wire Line
	9300 3350 9700 3350
Wire Wire Line
	9300 3450 9700 3450
Wire Wire Line
	9300 3550 9700 3550
Wire Wire Line
	7900 3250 8250 3250
$Comp
L Br:3V3 #PWR0133
U 1 1 5E1434AD
P 9450 3150
F 0 "#PWR0133" H 9450 3000 50  0001 C CNN
F 1 "3V3" V 9465 3278 50  0000 L CNN
F 2 "" H 9450 3150 50  0000 C CNN
F 3 "" H 9450 3150 50  0000 C CNN
	1    9450 3150
	1    0    0    -1  
$EndComp
Wire Wire Line
	9450 3250 9450 3150
Text Notes 4900 3050 0    50   ~ 0
Motor driver decoupling
$Comp
L Br:C_100N_0603_10%_50V_X7R C9
U 1 1 5E145FE0
P 10250 3450
F 0 "C9" H 10365 3496 50  0000 L CNN
F 1 "100nF" H 10365 3405 50  0000 L CNN
F 2 "Br:C_0603" V 10180 3450 50  0001 C CNN
F 3 "" V 10350 3350 50  0000 C CNN
F 4 "C14663" H 10365 3359 50  0001 L CNN "LCSC"
	1    10250 3450
	-1   0    0    -1  
$EndComp
$Comp
L Br:GND #PWR0135
U 1 1 5E1488A5
P 10250 3650
F 0 "#PWR0135" H 10250 3400 50  0001 C CNN
F 1 "GND" H 10255 3477 50  0000 C CNN
F 2 "" H 10250 3650 50  0000 C CNN
F 3 "" H 10250 3650 50  0000 C CNN
	1    10250 3650
	-1   0    0    -1  
$EndComp
$Comp
L Br:C_100N_0603_10%_50V_X7R C10
U 1 1 5E15AABF
P 10300 5250
F 0 "C10" H 10415 5296 50  0000 L CNN
F 1 "100nF" H 10415 5205 50  0000 L CNN
F 2 "Br:C_0603" V 10230 5250 50  0001 C CNN
F 3 "" V 10400 5150 50  0000 C CNN
F 4 "C14663" H 10415 5159 50  0001 L CNN "LCSC"
	1    10300 5250
	-1   0    0    1   
$EndComp
$Comp
L Br:GND #PWR0137
U 1 1 5E15AAC6
P 10300 5450
F 0 "#PWR0137" H 10300 5200 50  0001 C CNN
F 1 "GND" H 10305 5277 50  0000 C CNN
F 2 "" H 10300 5450 50  0000 C CNN
F 3 "" H 10300 5450 50  0000 C CNN
	1    10300 5450
	-1   0    0    -1  
$EndComp
Wire Wire Line
	10300 5450 10300 5400
Text Label 7900 3350 0    50   ~ 0
M1_OUT1
Text Label 7900 3450 0    50   ~ 0
M1_OUT2
Wire Wire Line
	8250 3350 7900 3350
Wire Wire Line
	7900 3450 8250 3450
Text Label 9250 5300 0    50   ~ 0
M2_PWM2
$Comp
L Br:ICP_DRV8837CDSGR U4
U 1 1 5E1657AB
P 8650 5250
F 0 "U4" H 8725 5806 50  0000 C CNN
F 1 "ICP_DRV8837CDSGR" H 8725 5715 50  0000 C CNN
F 2 "Br:WSON-8-1EP_2x2mm_P0.5mm_EP0.9x1.6mm_ThermalVias" H 8650 5250 50  0001 C CNN
F 3 "" H 8650 5250 50  0001 C CNN
F 4 "C191000" V 8650 5350 50  0001 C CNN "LCSC"
	1    8650 5250
	1    0    0    -1  
$EndComp
$Comp
L Br:GND #PWR0138
U 1 1 5E1657B1
P 8750 5650
F 0 "#PWR0138" H 8750 5400 50  0001 C CNN
F 1 "GND" H 8755 5477 50  0000 C CNN
F 2 "" H 8750 5650 50  0000 C CNN
F 3 "" H 8750 5650 50  0000 C CNN
	1    8750 5650
	-1   0    0    -1  
$EndComp
Wire Wire Line
	8750 5650 8750 5550
$Comp
L Br:GND #PWR0139
U 1 1 5E1657B8
P 8100 5650
F 0 "#PWR0139" H 8100 5400 50  0001 C CNN
F 1 "GND" H 8105 5477 50  0000 C CNN
F 2 "" H 8100 5650 50  0000 C CNN
F 3 "" H 8100 5650 50  0000 C CNN
	1    8100 5650
	-1   0    0    -1  
$EndComp
Wire Wire Line
	8100 5650 8100 5300
Wire Wire Line
	8100 5300 8200 5300
Text Label 7850 5000 0    50   ~ 0
5V_motor
Text Label 9250 5100 0    50   ~ 0
M2_nSleep
Text Label 9250 5200 0    50   ~ 0
M2_PWM1
Wire Wire Line
	9250 5100 9650 5100
Wire Wire Line
	9250 5200 9650 5200
Wire Wire Line
	9250 5300 9650 5300
Wire Wire Line
	7850 5000 8200 5000
$Comp
L Br:3V3 #PWR0140
U 1 1 5E1657C7
P 9400 4900
F 0 "#PWR0140" H 9400 4750 50  0001 C CNN
F 1 "3V3" V 9415 5028 50  0000 L CNN
F 2 "" H 9400 4900 50  0000 C CNN
F 3 "" H 9400 4900 50  0000 C CNN
	1    9400 4900
	1    0    0    -1  
$EndComp
Wire Wire Line
	9250 5000 9400 5000
Wire Wire Line
	9400 5000 9400 4900
Text Label 7850 5100 0    50   ~ 0
M2_OUT1
Text Label 7850 5200 0    50   ~ 0
M2_OUT2
Wire Wire Line
	8200 5100 7850 5100
Wire Wire Line
	7850 5200 8200 5200
$Comp
L Br:CN_P_01x02_2.54MM_HEADER J4
U 1 1 5E16C1C5
P 10550 4250
F 0 "J4" H 10728 4305 60  0000 L CNN
F 1 "CN_P_01x02_2.54MM_HEADER" H 10728 4252 60  0001 L CNN
F 2 "Br:CN_P_01x02_2.54MM_HEADER" H 10600 3950 60  0001 C CNN
F 3 "" H 10600 3950 60  0001 C CNN
	1    10550 4250
	1    0    0    -1  
$EndComp
Text Label 10000 4150 0    50   ~ 0
M1_OUT1
Text Label 10000 4250 0    50   ~ 0
M1_OUT2
Wire Wire Line
	10000 4150 10350 4150
Wire Wire Line
	10000 4250 10350 4250
$Comp
L Br:CN_P_01x02_2.54MM_HEADER J5
U 1 1 5E172EC2
P 10550 6000
F 0 "J5" H 10728 6055 60  0000 L CNN
F 1 "CN_P_01x02_2.54MM_HEADER" H 10728 6002 60  0001 L CNN
F 2 "Br:CN_P_01x02_2.54MM_HEADER" H 10600 5700 60  0001 C CNN
F 3 "" H 10600 5700 60  0001 C CNN
	1    10550 6000
	1    0    0    -1  
$EndComp
Text Label 10000 5900 0    50   ~ 0
M2_OUT1
Text Label 10000 6000 0    50   ~ 0
M2_OUT2
Wire Wire Line
	10000 5900 10350 5900
Wire Wire Line
	10000 6000 10350 6000
Wire Wire Line
	10250 3650 10250 3600
Wire Wire Line
	10250 3250 10250 3300
Connection ~ 9450 3250
Wire Wire Line
	9400 5000 10300 5000
Wire Wire Line
	10300 5000 10300 5100
Connection ~ 9400 5000
Wire Wire Line
	9450 3250 10250 3250
Wire Wire Line
	9400 3250 9450 3250
Wire Wire Line
	9300 3250 9450 3250
$EndSCHEMATC
