(module CN_P_01x05_2.54MM_HEADER (layer F.Cu) (tedit 5862ED52)
  (descr "Through hole straight pin header, 1x03, 2.54mm pitch, single row")
  (tags "Through hole pin header THT 1x03 2.54mm single row")
  (fp_text reference REF** (at 0 -2.39) (layer F.SilkS)
    (effects (font (size 1 1) (thickness 0.15)))
  )
  (fp_text value CN_P_01x05_2.54MM_HEADER (at 0 7.47) (layer F.Fab)
    (effects (font (size 1 1) (thickness 0.15)))
  )
  (fp_line (start -1.27 -1.27) (end -1.27 6.35) (layer F.Fab) (width 0.1))
  (fp_line (start -1.27 6.35) (end 1.27 6.35) (layer F.Fab) (width 0.1))
  (fp_line (start 1.27 6.35) (end 1.27 -1.27) (layer F.Fab) (width 0.1))
  (fp_line (start 1.27 -1.27) (end -1.27 -1.27) (layer F.Fab) (width 0.1))
  (fp_line (start -1.39 1.27) (end -1.39 6.47) (layer F.SilkS) (width 0.12))
  (fp_line (start -1.39 6.47) (end 1.39 6.47) (layer F.SilkS) (width 0.12))
  (fp_line (start 1.39 6.47) (end 1.39 1.27) (layer F.SilkS) (width 0.12))
  (fp_line (start 1.39 1.27) (end -1.39 1.27) (layer F.SilkS) (width 0.12))
  (fp_line (start -1.39 0) (end -1.39 -1.39) (layer F.SilkS) (width 0.12))
  (fp_line (start -1.39 -1.39) (end 0 -1.39) (layer F.SilkS) (width 0.12))
  (fp_line (start -1.6 -1.6) (end -1.6 6.6) (layer F.CrtYd) (width 0.05))
  (fp_line (start -1.6 6.6) (end 1.6 6.6) (layer F.CrtYd) (width 0.05))
  (fp_line (start 1.6 6.6) (end 1.6 -1.6) (layer F.CrtYd) (width 0.05))
  (fp_line (start 1.6 -1.6) (end -1.6 -1.6) (layer F.CrtYd) (width 0.05))
  (pad 1 thru_hole rect (at 0 0) (size 1.7 1.7) (drill 1.0) (layers *.Cu *.Mask))
  (pad 2 thru_hole oval (at 0 2.54) (size 1.7 1.7) (drill 1.0) (layers *.Cu *.Mask))
  (pad 3 thru_hole oval (at 0 5.08) (size 1.7 1.7) (drill 1.0) (layers *.Cu *.Mask))
  (model connectors.3dshapes/CN_P_01x03_2.54MM_HEADER.wrl
    (at (xyz 0 -0.1 0))
    (scale (xyz 1 1 1))
    (rotate (xyz 0 0 90))
  )
)