(module CN_USB_MICRO_10118193-0001LF_AMPHENOL (layer F.Cu) (tedit 5FAEFC97)
  (fp_text reference REF** (at 2.05 2.8) (layer F.SilkS)
    (effects (font (size 1 1) (thickness 0.15)))
  )
  (fp_text value CN_USB_MICRO_10118193-0001LF_AMPHENOL (at 0 -5.15) (layer F.Fab)
    (effects (font (size 1 1) (thickness 0.15)))
  )
  (fp_line (start -3.85 1.45) (end 3.85 1.45) (layer F.SilkS) (width 0.15))
  (fp_text user "PCB EDGE" (at 8.3 1.35) (layer F.SilkS)
    (effects (font (size 1 1) (thickness 0.15)))
  )
  (fp_line (start -3.5 -3.5) (end -3.5 1.45) (layer F.SilkS) (width 0.15))
  (fp_line (start 3.5 -3.5) (end 3.5 1.45) (layer F.SilkS) (width 0.15))
  (fp_line (start -3.5 -3.5) (end 3.5 -3.5) (layer F.SilkS) (width 0.15))
  (pad 1 smd rect (at -1.3 -2.675) (size 0.4 1.35) (layers F.Cu F.Paste F.Mask))
  (pad 2 smd rect (at -0.65 -2.675) (size 0.4 1.35) (layers F.Cu F.Paste F.Mask))
  (pad 3 smd rect (at 0 -2.675) (size 0.4 1.35) (layers F.Cu F.Paste F.Mask))
  (pad 4 smd rect (at 0.65 -2.675) (size 0.4 1.35) (layers F.Cu F.Paste F.Mask))
  (pad 5 smd rect (at 1.3 -2.675) (size 0.4 1.35) (layers F.Cu F.Paste F.Mask))
  (pad 6 smd rect (at -3.2 -2.45) (size 1.6 1.4) (layers F.Cu F.Paste F.Mask))
  (pad 6 smd rect (at 3.2 -2.45) (size 1.6 1.4) (layers F.Cu F.Paste F.Mask))
  (pad 6 smd rect (at -1.45 0) (size 1.9 1.4) (layers F.Cu F.Paste F.Mask))
  (pad 6 smd rect (at 1.45 0) (size 1.9 1.4) (layers F.Cu F.Paste F.Mask))
  (pad 6 thru_hole oval (at -3.5 0) (size 0.9 1.6) (drill oval 0.5 1.2) (layers *.Cu *.Mask))
  (pad 6 thru_hole oval (at 3.5 0) (size 0.9 1.6) (drill oval 0.5 1.2) (layers *.Cu *.Mask))
)
