(module ME_AUDIO_BUZZER_LD_BZPN_1705 (layer F.Cu) (tedit 58AB0CCF)
  (fp_text reference REF** (at 0 9.4) (layer F.SilkS)
    (effects (font (size 1 1) (thickness 0.15)))
  )
  (fp_text value ME_AUDIO_BUZZER_LD_BZPN_1705 (at -0.3 -1.8) (layer F.Fab)
    (effects (font (size 1 1) (thickness 0.15)))
  )
  (fp_circle (center 0 0) (end 8.5 0) (layer F.SilkS) (width 0.15))
  (pad 1 thru_hole circle (at -5 0) (size 1.524 1.524) (drill 0.9) (layers *.Cu *.Mask))
  (pad 2 thru_hole circle (at 5 0) (size 1.524 1.524) (drill 0.9) (layers *.Cu *.Mask))
)
