(module SOT23 (layer F.Cu) (tedit 5DE6282D)
  (descr "SOT23, Standard")
  (tags SOT23)
  (attr smd)
  (fp_text reference REF** (at -2.25249 0.011692 90) (layer F.SilkS)
    (effects (font (size 1 1) (thickness 0.15)))
  )
  (fp_text value SOT23 (at 2.29751 0.011692 90) (layer F.Fab)
    (effects (font (size 1 1) (thickness 0.15)))
  )
  (fp_line (start -1.60249 1.661692) (end -1.60249 -1.638308) (layer F.CrtYd) (width 0.05))
  (fp_line (start -1.60249 -1.638308) (end 1.59751 -1.638308) (layer F.CrtYd) (width 0.05))
  (fp_line (start 1.59751 -1.638308) (end 1.59751 1.661692) (layer F.CrtYd) (width 0.05))
  (fp_line (start 1.59751 1.661692) (end -1.60249 1.661692) (layer F.CrtYd) (width 0.05))
  (fp_line (start -0.65273 -1.287468) (end -0.65273 -1.239208) (layer F.SilkS) (width 0.15))
  (fp_line (start 0.04831 1.511512) (end -0.65273 1.511512) (layer F.SilkS) (width 0.15))
  (fp_line (start -0.65273 1.511512) (end -0.65273 1.262592) (layer F.SilkS) (width 0.15))
  (fp_line (start -0.65273 -1.287468) (end -0.65273 -1.488128) (layer F.SilkS) (width 0.15))
  (fp_line (start -0.65273 -1.488128) (end 0.04831 -1.488128) (layer F.SilkS) (width 0.15))
  (pad 1 smd rect (at 0.99827 0.961692 90) (size 0.8001 0.8001) (layers F.Cu F.Paste F.Mask))
  (pad 2 smd rect (at 0.99827 -0.938308 90) (size 0.8001 0.8001) (layers F.Cu F.Paste F.Mask))
  (pad 3 smd rect (at -1.00071 0.011692 90) (size 0.8001 0.8001) (layers F.Cu F.Paste F.Mask))
  (model ${KISYS3DMOD}/SOT-23.wrl
    (at (xyz 0 0 0))
    (scale (xyz 1 1 1))
    (rotate (xyz 0 0 180))
  )
)
