(module SOT23-5 (layer F.Cu) (tedit 5E69528B)
  (descr "5-pin SOT-23 package")
  (tags SOT23-5)
  (attr smd)
  (fp_text reference REF** (at 0 2.9 180) (layer F.SilkS)
    (effects (font (size 1 1) (thickness 0.15)))
  )
  (fp_text value SOT23-5 (at 0 -2.9 180) (layer F.Fab)
    (effects (font (size 1 1) (thickness 0.15)))
  )
  (fp_circle (center 0.2 1.1) (end 0.1 1.1) (layer F.SilkS) (width 0.15))
  (fp_line (start -0.5 1.5) (end 0.5 1.5) (layer F.SilkS) (width 0.15))
  (fp_line (start -0.5 -1.45) (end -0.5 1.45) (layer F.SilkS) (width 0.15))
  (fp_line (start 0.5 -1.5) (end -0.5 -1.5) (layer F.SilkS) (width 0.15))
  (fp_line (start 0.5 1.45) (end 0.5 -1.45) (layer F.SilkS) (width 0.15))
  (pad 1 smd rect (at 1.1 0.95 180) (size 1.06 0.65) (layers F.Cu F.Paste F.Mask))
  (pad 2 smd rect (at 1.1 0 180) (size 1.06 0.65) (layers F.Cu F.Paste F.Mask))
  (pad 3 smd rect (at 1.1 -0.95 180) (size 1.06 0.65) (layers F.Cu F.Paste F.Mask))
  (pad 4 smd rect (at -1.1 -0.95 180) (size 1.06 0.65) (layers F.Cu F.Paste F.Mask))
  (pad 5 smd rect (at -1.1 0.95 180) (size 1.06 0.65) (layers F.Cu F.Paste F.Mask))
  (model sot.3dshapes/SOT23-5.wrl
    (at (xyz 0 0 0))
    (scale (xyz 1 1 1))
    (rotate (xyz 0 0 0))
  )
)
