EESchema Schematic File Version 4
LIBS:005_6x4_4xAA_power_supply_R4-cache
EELAYER 26 0
EELAYER END
$Descr A4 11693 8268
encoding utf-8
Sheet 1 1
Title ""
Date ""
Rev ""
Comp ""
Comment1 ""
Comment2 ""
Comment3 ""
Comment4 ""
$EndDescr
Text Notes 10150 1950 0    50   ~ 0
Female\n
Text Label 4500 1500 0    50   ~ 0
UART_TX
$Comp
L Br:Br_CN_OUT J3
U 1 1 5D9C46C3
P 10400 2550
F 0 "J3" H 10577 2596 50  0000 L CNN
F 1 "Br_CN_OUT" H 10577 2505 50  0000 L CNN
F 2 "Br:DSUB-9_Female_Vertical_P2.77x2.84mm" H 10400 3100 50  0001 C CNN
F 3 "" H 10400 3100 50  0001 C CNN
	1    10400 2550
	1    0    0    -1  
$EndComp
Text Label 9750 2550 2    50   ~ 0
UART_TX
Wire Wire Line
	10100 2850 9950 2850
Wire Wire Line
	10100 2750 9950 2750
Wire Wire Line
	9950 2750 9950 2850
Connection ~ 9950 2850
$Comp
L Br:D_BAV99.215 D3
U 1 1 5D9CF778
P 3700 1500
F 0 "D3" H 3778 1454 50  0000 L CNN
F 1 "D_BAV99.215" H 3150 1750 50  0000 L CNN
F 2 "Br:SOT23" V 3700 1650 50  0001 C CNN
F 3 "../library_doc/D_BAV99.215.pdf" H 3778 1455 50  0001 L CNN
F 4 "C2500" H 3777 1409 50  0001 L CNN "LCSC"
	1    3700 1500
	-1   0    0    1   
$EndComp
Wire Wire Line
	4800 1500 4400 1500
$Comp
L Br:GND #PWR0109
U 1 1 5D9CF78E
P 3700 1850
F 0 "#PWR0109" H 3700 1600 50  0001 C CNN
F 1 "GND" H 3705 1677 50  0000 C CNN
F 2 "" H 3700 1850 50  0000 C CNN
F 3 "" H 3700 1850 50  0000 C CNN
	1    3700 1850
	1    0    0    -1  
$EndComp
Wire Wire Line
	3700 1850 3700 1800
$Comp
L Br:3V3 #PWR0110
U 1 1 5D9D1287
P 3700 1100
F 0 "#PWR0110" H 3700 950 50  0001 C CNN
F 1 "3V3" H 3715 1273 50  0000 C CNN
F 2 "" H 3700 1100 50  0000 C CNN
F 3 "" H 3700 1100 50  0000 C CNN
	1    3700 1100
	1    0    0    -1  
$EndComp
Wire Wire Line
	3700 1100 3700 1200
Text Notes 4350 650  0    50   ~ 0
UART protection
$Comp
L Br:3V3 #PWR0112
U 1 1 5D9D2D75
P 3150 1150
F 0 "#PWR0112" H 3150 1000 50  0001 C CNN
F 1 "3V3" H 3165 1323 50  0000 C CNN
F 2 "" H 3150 1150 50  0000 C CNN
F 3 "" H 3150 1150 50  0000 C CNN
	1    3150 1150
	1    0    0    -1  
$EndComp
Text Notes 1650 800  0    50   ~ 0
Power regulator
$Comp
L Br:GND #PWR0113
U 1 1 5D9D4876
P 1400 5900
F 0 "#PWR0113" H 1400 5650 50  0001 C CNN
F 1 "GND" H 1405 5727 50  0000 C CNN
F 2 "" H 1400 5900 50  0000 C CNN
F 3 "" H 1400 5900 50  0000 C CNN
	1    1400 5900
	-1   0    0    -1  
$EndComp
Text Label 1950 5000 0    50   ~ 0
SWIM
Text Label 1950 5100 0    50   ~ 0
NRST
Wire Wire Line
	1950 5000 2350 5000
Text Label 1000 7000 0    50   ~ 0
SWIM
Text Label 1000 6800 0    50   ~ 0
NRST
$Comp
L Br:3V3 #PWR0114
U 1 1 5D9D7743
P 1850 5500
F 0 "#PWR0114" H 1850 5350 50  0001 C CNN
F 1 "3V3" V 1865 5628 50  0000 L CNN
F 2 "" H 1850 5500 50  0000 C CNN
F 3 "" H 1850 5500 50  0000 C CNN
	1    1850 5500
	0    -1   -1   0   
$EndComp
Wire Wire Line
	1400 5400 2350 5400
$Comp
L Br:GND #PWR0115
U 1 1 5D9D82DF
P 1000 6900
F 0 "#PWR0115" H 1000 6650 50  0001 C CNN
F 1 "GND" H 1005 6727 50  0000 C CNN
F 2 "" H 1000 6900 50  0000 C CNN
F 3 "" H 1000 6900 50  0000 C CNN
	1    1000 6900
	0    1    -1   0   
$EndComp
$Comp
L Br:3V3 #PWR0116
U 1 1 5D9D8302
P 1050 7100
F 0 "#PWR0116" H 1050 6950 50  0001 C CNN
F 1 "3V3" V 1065 7228 50  0000 L CNN
F 2 "" H 1050 7100 50  0000 C CNN
F 3 "" H 1050 7100 50  0000 C CNN
	1    1050 7100
	0    -1   -1   0   
$EndComp
$Comp
L Br:CN_P_01x04_1.27MM_STRAIGHT_ZL319-4P J2
U 1 1 5D9D92B3
P 1400 6950
F 0 "J2" H 1478 6955 50  0000 L CNN
F 1 "CN_P_01x04_1.27MM_STRAIGHT_ZL319-4P" H 1477 6910 50  0001 L CNN
F 2 "Br:CN_P_01x04_1.27MM_STRAIGHT_ZL319-4P" H 1350 7000 50  0001 C CNN
F 3 "" H 1350 7000 50  0001 C CNN
	1    1400 6950
	1    0    0    -1  
$EndComp
Wire Wire Line
	1000 6800 1250 6800
Wire Wire Line
	1000 6900 1250 6900
Wire Wire Line
	1000 7000 1250 7000
Wire Wire Line
	1050 7100 1250 7100
Wire Wire Line
	1950 5550 1950 5500
Wire Wire Line
	1950 5500 1850 5500
Wire Wire Line
	2350 5500 1950 5500
Connection ~ 1950 5500
$Comp
L Br:GND #PWR0117
U 1 1 5D9DFBBB
P 1950 5900
F 0 "#PWR0117" H 1950 5650 50  0001 C CNN
F 1 "GND" H 1955 5727 50  0000 C CNN
F 2 "" H 1950 5900 50  0000 C CNN
F 3 "" H 1950 5900 50  0000 C CNN
	1    1950 5900
	-1   0    0    -1  
$EndComp
Wire Wire Line
	1950 5900 1950 5850
Wire Wire Line
	1400 5400 1400 5900
Wire Wire Line
	950  5100 2350 5100
$Comp
L Br:GND #PWR0118
U 1 1 5D9E54AE
P 950 5900
F 0 "#PWR0118" H 950 5650 50  0001 C CNN
F 1 "GND" H 955 5727 50  0000 C CNN
F 2 "" H 950 5900 50  0000 C CNN
F 3 "" H 950 5900 50  0000 C CNN
	1    950  5900
	-1   0    0    -1  
$EndComp
Wire Wire Line
	950  5100 950  5550
Wire Wire Line
	950  5850 950  5900
$Comp
L Br:GND #PWR0119
U 1 1 5D9EADC4
P 1800 2150
F 0 "#PWR0119" H 1800 1900 50  0001 C CNN
F 1 "GND" H 1805 1977 50  0000 C CNN
F 2 "" H 1800 2150 50  0000 C CNN
F 3 "" H 1800 2150 50  0000 C CNN
	1    1800 2150
	-1   0    0    -1  
$EndComp
Wire Wire Line
	1800 2150 1800 2000
Wire Wire Line
	1800 1600 1800 1700
$Comp
L Br:ICP_HT7533-1 U2
U 1 1 5D9C8DBA
P 2500 1600
F 0 "U2" H 2525 1956 50  0000 C CNN
F 1 "ICP_HT7533-1" H 2525 1865 50  0000 C CNN
F 2 "Br:SOT-89-3" H 2500 1600 50  0001 C CNN
F 3 "" H 2500 1600 50  0001 C CNN
F 4 "C14289" H 2525 1774 50  0001 C CNN "LCSC"
	1    2500 1600
	1    0    0    -1  
$EndComp
Wire Wire Line
	2900 1600 3150 1600
Wire Wire Line
	3150 1600 3150 1700
Wire Wire Line
	3150 1600 3150 1150
Connection ~ 3150 1600
$Comp
L Br:GND #PWR0120
U 1 1 5D9CB24A
P 2500 2150
F 0 "#PWR0120" H 2500 1900 50  0001 C CNN
F 1 "GND" H 2505 1977 50  0000 C CNN
F 2 "" H 2500 2150 50  0000 C CNN
F 3 "" H 2500 2150 50  0000 C CNN
	1    2500 2150
	-1   0    0    -1  
$EndComp
Wire Wire Line
	2500 2150 2500 1900
Wire Wire Line
	2150 1600 1800 1600
$Comp
L Br:GND #PWR0121
U 1 1 5D9CD6CE
P 3150 2150
F 0 "#PWR0121" H 3150 1900 50  0001 C CNN
F 1 "GND" H 3155 1977 50  0000 C CNN
F 2 "" H 3150 2150 50  0000 C CNN
F 3 "" H 3150 2150 50  0000 C CNN
	1    3150 2150
	-1   0    0    -1  
$EndComp
Wire Wire Line
	3150 2150 3150 2000
NoConn ~ 6200 5250
NoConn ~ 6200 5150
NoConn ~ 6200 4850
NoConn ~ 2350 5700
$Comp
L Br:12V #PWR0129
U 1 1 5D9E7FDB
P 10300 1100
F 0 "#PWR0129" H 10300 950 50  0001 C CNN
F 1 "12V" H 10250 1300 50  0000 L CNN
F 2 "" H 10300 1100 50  0000 C CNN
F 3 "" H 10300 1100 50  0000 C CNN
	1    10300 1100
	1    0    0    -1  
$EndComp
$Comp
L Br:5V #PWR0130
U 1 1 5D9E801C
P 10500 1100
F 0 "#PWR0130" H 10500 950 50  0001 C CNN
F 1 "5V" H 10450 1300 50  0000 L CNN
F 2 "" H 10500 1100 50  0000 C CNN
F 3 "" H 10500 1100 50  0000 C CNN
	1    10500 1100
	1    0    0    -1  
$EndComp
$Comp
L Br:GND #PWR0131
U 1 1 5D9E816B
P 10100 1250
F 0 "#PWR0131" H 10100 1000 50  0001 C CNN
F 1 "GND" H 10105 1077 50  0000 C CNN
F 2 "" H 10100 1250 50  0000 C CNN
F 3 "" H 10100 1250 50  0000 C CNN
	1    10100 1250
	-1   0    0    -1  
$EndComp
$Comp
L Br:PWR #FLG0101
U 1 1 5D9E856C
P 10100 1100
F 0 "#FLG0101" H 10100 1195 50  0001 C CNN
F 1 "PWR" H 10100 1324 50  0000 C CNN
F 2 "" H 10100 1100 50  0000 C CNN
F 3 "" H 10100 1100 50  0000 C CNN
	1    10100 1100
	1    0    0    -1  
$EndComp
$Comp
L Br:PWR #FLG0102
U 1 1 5D9E85C4
P 10300 1250
F 0 "#FLG0102" H 10300 1345 50  0001 C CNN
F 1 "PWR" H 10300 1473 50  0000 C CNN
F 2 "" H 10300 1250 50  0000 C CNN
F 3 "" H 10300 1250 50  0000 C CNN
	1    10300 1250
	-1   0    0    1   
$EndComp
$Comp
L Br:PWR #FLG0103
U 1 1 5D9E8649
P 10500 1250
F 0 "#FLG0103" H 10500 1345 50  0001 C CNN
F 1 "PWR" H 10500 1473 50  0000 C CNN
F 2 "" H 10500 1250 50  0000 C CNN
F 3 "" H 10500 1250 50  0000 C CNN
	1    10500 1250
	-1   0    0    1   
$EndComp
Wire Wire Line
	10500 1250 10500 1100
Wire Wire Line
	10300 1250 10300 1100
Wire Wire Line
	10100 1250 10100 1100
Wire Wire Line
	3750 1500 4100 1500
Text Label 2000 4800 0    50   ~ 0
CPU_TX
Text Label 3800 1500 0    50   ~ 0
CPU_TX
$Comp
L Br:C_100N_0402_16V C1
U 1 1 5DCCDFE7
P 950 5700
F 0 "C1" H 1065 5746 50  0000 L CNN
F 1 "100nF" H 1065 5655 50  0000 L CNN
F 2 "Br:C_0402" V 880 5700 50  0001 C CNN
F 3 "" V 1050 5600 50  0000 C CNN
F 4 "C1525" H 1065 5609 50  0001 L CNN "LCSC"
	1    950  5700
	1    0    0    -1  
$EndComp
$Comp
L Br:C_100N_0402_16V C2
U 1 1 5DCCE0C4
P 1950 5700
F 0 "C2" H 2065 5746 50  0000 L CNN
F 1 "100nF" H 2065 5655 50  0000 L CNN
F 2 "Br:C_0402" V 1880 5700 50  0001 C CNN
F 3 "" V 2050 5600 50  0000 C CNN
F 4 "C1525" H 2065 5609 50  0001 L CNN "LCSC"
	1    1950 5700
	1    0    0    -1  
$EndComp
Text Notes 6500 2150 1    50   ~ 0
Input voltage 4.8 to 6.0V\n
Wire Wire Line
	1300 3150 1300 3050
Wire Wire Line
	1300 3550 1300 3450
Text Label 8050 2850 0    50   ~ 0
VOUT
NoConn ~ 10100 2250
NoConn ~ 10100 2150
$Comp
L Br:C_10U_0805_10%_25V C8
U 1 1 5DD208A7
P 3150 1850
F 0 "C8" H 3265 1896 50  0000 L CNN
F 1 "10uF" H 3265 1805 50  0000 L CNN
F 2 "Br:C_0805" V 3080 1850 50  0001 C CNN
F 3 "" V 3250 1750 50  0000 C CNN
F 4 "C15850" H 3265 1759 50  0001 L CNN "LCSC"
	1    3150 1850
	1    0    0    -1  
$EndComp
$Comp
L Br:ICD_STM8L051F3P6 U1
U 1 1 5D9D4765
P 4750 4800
F 0 "U1" H 4275 5087 60  0000 C CNN
F 1 "ICD_STM8L051F3P6" H 4275 4981 60  0000 C CNN
F 2 "Br:TSSOP20" H 2350 4900 60  0001 C CNN
F 3 "" H 2350 4900 60  0000 C CNN
F 4 "C18088" H 4275 4973 50  0001 C CNN "LCSC"
	1    4750 4800
	1    0    0    -1  
$EndComp
$Comp
L Br:CN_P_01x02_2.54MM_HEADER J1
U 1 1 5DD5889A
P 6700 1600
F 0 "J1" H 6669 1469 60  0000 C CNN
F 1 "CN_P_01x02_2.54MM_HEADER" H 6669 1469 60  0001 C CNN
F 2 "Br:CN_P_01x02_2.54MM_HEADER" H 6750 1300 60  0001 C CNN
F 3 "" H 6750 1300 60  0001 C CNN
	1    6700 1600
	-1   0    0    1   
$EndComp
$Comp
L Br:GND #PWR0125
U 1 1 5DD724B4
P 7100 2000
F 0 "#PWR0125" H 7100 1750 50  0001 C CNN
F 1 "GND" H 7105 1827 50  0000 C CNN
F 2 "" H 7100 2000 50  0000 C CNN
F 3 "" H 7100 2000 50  0000 C CNN
	1    7100 2000
	-1   0    0    -1  
$EndComp
Text Notes 6650 1350 0    50   ~ 0
PCB_right\n
Text Label 1100 3050 0    50   ~ 0
VBAT_MEAS
$Comp
L Br:GND #PWR0108
U 1 1 5DD0089F
P 1300 3550
F 0 "#PWR0108" H 1300 3300 50  0001 C CNN
F 1 "GND" H 1305 3377 50  0000 C CNN
F 2 "" H 1300 3550 50  0000 C CNN
F 3 "" H 1300 3550 50  0000 C CNN
	1    1300 3550
	-1   0    0    -1  
$EndComp
Wire Wire Line
	1050 3050 1050 3000
Wire Wire Line
	1300 3050 1050 3050
Wire Wire Line
	1050 3550 1050 3450
$Comp
L Br:GND #PWR0106
U 1 1 5DCF9C6A
P 1050 3550
F 0 "#PWR0106" H 1050 3300 50  0001 C CNN
F 1 "GND" H 1055 3377 50  0000 C CNN
F 2 "" H 1050 3550 50  0000 C CNN
F 3 "" H 1050 3550 50  0000 C CNN
	1    1050 3550
	-1   0    0    -1  
$EndComp
Connection ~ 1050 3050
Wire Wire Line
	1050 3150 1050 3050
$Comp
L Br:R_100K_0402_1%_0 R2
U 1 1 5DCF7C8D
P 1050 3300
F 0 "R2" H 1120 3346 50  0000 L CNN
F 1 "100k" V 1050 3200 50  0000 L CNN
F 2 "Br:R_0402" V 980 3300 50  0001 C CNN
F 3 "" H 1050 3300 50  0000 C CNN
F 4 "C25741" H 1120 3209 50  0001 L CNN "LCSC"
	1    1050 3300
	1    0    0    -1  
$EndComp
$Comp
L Br:R_100K_0402_1%_0 R1
U 1 1 5DCF2318
P 1050 2850
F 0 "R1" H 1120 2896 50  0000 L CNN
F 1 "100k" V 1050 2750 50  0000 L CNN
F 2 "Br:R_0402" V 980 2850 50  0001 C CNN
F 3 "" H 1050 2850 50  0000 C CNN
F 4 "C25741" H 1120 2759 50  0001 L CNN "LCSC"
	1    1050 2850
	1    0    0    -1  
$EndComp
$Comp
L Br:5V #PWR0126
U 1 1 5DD98F85
P 8300 1400
F 0 "#PWR0126" H 8300 1250 50  0001 C CNN
F 1 "5V" V 8315 1528 50  0000 L CNN
F 2 "" H 8300 1400 50  0000 C CNN
F 3 "" H 8300 1400 50  0000 C CNN
	1    8300 1400
	1    0    0    -1  
$EndComp
Wire Wire Line
	8300 1500 8300 1400
$Comp
L Br:GND #PWR0127
U 1 1 5DDD2C52
P 7450 2000
F 0 "#PWR0127" H 7450 1750 50  0001 C CNN
F 1 "GND" H 7455 1827 50  0000 C CNN
F 2 "" H 7450 2000 50  0000 C CNN
F 3 "" H 7450 2000 50  0000 C CNN
	1    7450 2000
	-1   0    0    -1  
$EndComp
Wire Wire Line
	6200 5550 6650 5550
NoConn ~ 2350 5600
$Comp
L Br:C_10U_0805_10%_25V C4
U 1 1 5EAC7934
P 9250 3150
F 0 "C4" H 9350 3250 50  0000 L CNN
F 1 "10uF" H 9300 3050 50  0000 L CNN
F 2 "Br:C_0805" V 9180 3150 50  0001 C CNN
F 3 "" V 9350 3050 50  0000 C CNN
F 4 "C15850" H 9365 3059 50  0001 L CNN "LCSC"
	1    9250 3150
	1    0    0    -1  
$EndComp
$Comp
L Br:C_10U_0805_10%_25V C9
U 1 1 5EAC7B00
P 8650 3150
F 0 "C9" H 8750 3250 50  0000 L CNN
F 1 "10uF" H 8700 3050 50  0000 L CNN
F 2 "Br:C_0805" V 8580 3150 50  0001 C CNN
F 3 "" V 8750 3050 50  0000 C CNN
F 4 "C15850" H 8765 3059 50  0001 L CNN "LCSC"
	1    8650 3150
	1    0    0    -1  
$EndComp
$Comp
L Br:C_10U_0805_10%_25V C10
U 1 1 5EAC7B46
P 8950 3150
F 0 "C10" H 9050 3250 50  0000 L CNN
F 1 "10uF" H 9000 3050 50  0000 L CNN
F 2 "Br:C_0805" V 8880 3150 50  0001 C CNN
F 3 "" V 9050 3050 50  0000 C CNN
F 4 "C15850" H 9065 3059 50  0001 L CNN "LCSC"
	1    8950 3150
	1    0    0    -1  
$EndComp
Wire Wire Line
	8650 3000 8650 2850
Wire Wire Line
	8950 3000 8950 2850
Wire Wire Line
	7450 2000 7450 1850
Wire Wire Line
	7100 2000 7100 1700
Wire Wire Line
	6900 1700 7100 1700
Text Label 6250 5550 0    50   ~ 0
VBAT_MEAS
$Comp
L Br:D_LED_GREEN_SMD_0603 D5
U 1 1 5EAF3CD5
P 7950 5300
F 0 "D5" H 8098 5321 50  0000 L CNN
F 1 "GREEN" H 8098 5230 50  0000 L CNN
F 2 "Br:LED_0603" H 7950 5300 50  0001 C CNN
F 3 "" H 7950 5300 50  0001 C CNN
F 4 "C72043" H 8098 5184 50  0001 L CNN "LCSC"
	1    7950 5300
	1    0    0    -1  
$EndComp
Text Label 6250 5050 0    50   ~ 0
V_EN
Text Label 8500 1950 0    50   ~ 0
V_EN
$Comp
L Br:D_LED_RED_SMD_0603 D6
U 1 1 5EB32DA3
P 7400 5300
F 0 "D6" H 7548 5321 50  0000 L CNN
F 1 "RED" H 7548 5230 50  0000 L CNN
F 2 "Br:LED_0603" H 7400 5300 50  0001 C CNN
F 3 "" H 7400 5300 50  0001 C CNN
F 4 "C2286" H 7548 5184 50  0001 L CNN "LCSC"
	1    7400 5300
	1    0    0    -1  
$EndComp
$Comp
L Br:R_180R_0603_1% R3
U 1 1 5EB38E73
P 7950 5700
F 0 "R3" H 8020 5746 50  0000 L CNN
F 1 "180R" V 7950 5600 50  0000 L CNN
F 2 "Br:R_0603" V 7880 5700 50  0001 C CNN
F 3 "" H 7950 5700 50  0000 C CNN
F 4 "C22828" H 8020 5609 50  0001 L CNN "LCSC"
	1    7950 5700
	1    0    0    -1  
$EndComp
$Comp
L Br:R_180R_0603_1% R5
U 1 1 5EB38ED3
P 7400 5700
F 0 "R5" H 7470 5746 50  0000 L CNN
F 1 "180R" V 7400 5600 50  0000 L CNN
F 2 "Br:R_0603" V 7330 5700 50  0001 C CNN
F 3 "" H 7400 5700 50  0000 C CNN
F 4 "C22828" H 7470 5609 50  0001 L CNN "LCSC"
	1    7400 5700
	1    0    0    -1  
$EndComp
Wire Wire Line
	7950 5550 7950 5500
Wire Wire Line
	8650 3300 8650 3600
Wire Wire Line
	8950 3300 8950 3600
Wire Wire Line
	7400 5550 7400 5500
Text Label 7400 5100 1    50   ~ 0
LED_RED
$Comp
L Br:5V #PWR0107
U 1 1 5ECB9FDD
P 950 1500
F 0 "#PWR0107" H 950 1350 50  0001 C CNN
F 1 "5V" V 965 1628 50  0000 L CNN
F 2 "" H 950 1500 50  0000 C CNN
F 3 "" H 950 1500 50  0000 C CNN
	1    950  1500
	1    0    0    -1  
$EndComp
Connection ~ 1800 1600
$Comp
L Br:PWR #FLG0104
U 1 1 5ECC7F17
P 1800 1450
F 0 "#FLG0104" H 1800 1545 50  0001 C CNN
F 1 "PWR" H 1800 1674 50  0000 C CNN
F 2 "" H 1800 1450 50  0000 C CNN
F 3 "" H 1800 1450 50  0000 C CNN
	1    1800 1450
	1    0    0    -1  
$EndComp
Wire Wire Line
	1800 1600 1800 1450
Wire Wire Line
	950  1600 950  1500
Wire Wire Line
	950  1600 1050 1600
$Comp
L Br:R_1k_0402_1% R6
U 1 1 5F3C9B84
P 4250 1500
F 0 "R6" V 4150 1600 50  0000 C CNN
F 1 "1k" V 4250 1500 50  0000 C CNN
F 2 "Br:R_0402" V 4180 1500 50  0001 C CNN
F 3 "" H 4250 1500 50  0000 C CNN
F 4 "C11702" V 4430 1600 50  0001 C CNN "LCSC"
	1    4250 1500
	0    1    1    0   
$EndComp
Connection ~ 8950 3600
Wire Wire Line
	8950 3600 9250 3600
$Comp
L Br:GND #PWR0101
U 1 1 5FAE3CB6
P 8950 3700
F 0 "#PWR0101" H 8950 3450 50  0001 C CNN
F 1 "GND" H 8955 3527 50  0000 C CNN
F 2 "" H 8950 3700 50  0000 C CNN
F 3 "" H 8950 3700 50  0000 C CNN
	1    8950 3700
	-1   0    0    -1  
$EndComp
Wire Wire Line
	8950 3700 8950 3600
Wire Wire Line
	1350 1600 1450 1600
$Comp
L Br:C_10U_0805_10%_25V C5
U 1 1 5FAEBE53
P 1800 1850
F 0 "C5" H 1915 1896 50  0000 L CNN
F 1 "10uF" H 1915 1805 50  0000 L CNN
F 2 "Br:C_0805" V 1730 1850 50  0001 C CNN
F 3 "" V 1900 1750 50  0000 C CNN
F 4 "C15850" H 1915 1759 50  0001 L CNN "LCSC"
	1    1800 1850
	1    0    0    -1  
$EndComp
$Comp
L Br:CN_USB_MICRO_10118193-0001LF_AMPHENOL J5
U 1 1 5FAF1A73
P 2500 3300
F 0 "J5" H 2650 2850 60  0000 C CNN
F 1 "Micro USB" H 2500 3750 60  0000 C CNN
F 2 "Br:CN_USB_MICRO_10118193-0001LF_AMPHENOL" H 2350 3550 60  0001 C CNN
F 3 "" H 2350 3550 60  0001 C CNN
	1    2500 3300
	-1   0    0    -1  
$EndComp
Wire Wire Line
	8650 1500 8300 1500
Connection ~ 8300 1500
Wire Wire Line
	8300 1600 8300 1500
Wire Wire Line
	8300 1900 8300 1950
Wire Wire Line
	8300 1950 8850 1950
Wire Wire Line
	8850 1950 8850 1800
$Comp
L Br:GND #PWR0102
U 1 1 5FB122E3
P 10050 2950
F 0 "#PWR0102" H 10050 2700 50  0001 C CNN
F 1 "GND" V 10050 2750 50  0000 C CNN
F 2 "" H 10050 2950 50  0000 C CNN
F 3 "" H 10050 2950 50  0000 C CNN
	1    10050 2950
	0    1    1    0   
$EndComp
$Comp
L Br:GND #PWR0103
U 1 1 5FB162F2
P 10050 2650
F 0 "#PWR0103" H 10050 2400 50  0001 C CNN
F 1 "GND" V 10050 2450 50  0000 C CNN
F 2 "" H 10050 2650 50  0000 C CNN
F 3 "" H 10050 2650 50  0000 C CNN
	1    10050 2650
	0    1    1    0   
$EndComp
$Comp
L Br:GND #PWR0104
U 1 1 5FB16335
P 10050 2450
F 0 "#PWR0104" H 10050 2200 50  0001 C CNN
F 1 "GND" V 10050 2250 50  0000 C CNN
F 2 "" H 10050 2450 50  0000 C CNN
F 3 "" H 10050 2450 50  0000 C CNN
	1    10050 2450
	0    1    1    0   
$EndComp
Wire Wire Line
	10050 2450 10100 2450
Wire Wire Line
	10050 2650 10100 2650
Wire Wire Line
	10050 2950 10100 2950
Wire Wire Line
	9450 2550 10100 2550
$Comp
L Br:GND #PWR0105
U 1 1 5FB1F32B
P 7950 5950
F 0 "#PWR0105" H 7950 5700 50  0001 C CNN
F 1 "GND" H 7955 5777 50  0000 C CNN
F 2 "" H 7950 5950 50  0000 C CNN
F 3 "" H 7950 5950 50  0000 C CNN
	1    7950 5950
	-1   0    0    -1  
$EndComp
Wire Wire Line
	7950 5950 7950 5850
Connection ~ 9250 2850
Wire Wire Line
	9250 2850 9950 2850
Wire Wire Line
	9050 1500 9250 1500
$Comp
L Br:GND #PWR0111
U 1 1 5FB33095
P 7400 5950
F 0 "#PWR0111" H 7400 5700 50  0001 C CNN
F 1 "GND" H 7405 5777 50  0000 C CNN
F 2 "" H 7400 5950 50  0000 C CNN
F 3 "" H 7400 5950 50  0000 C CNN
	1    7400 5950
	-1   0    0    -1  
$EndComp
Wire Wire Line
	7400 5950 7400 5850
Text Label 7950 5100 1    50   ~ 0
LED_GREEN
Wire Wire Line
	7950 5150 7950 4650
Text Label 6550 5750 2    50   ~ 0
LED_RED
Text Label 6650 5650 2    50   ~ 0
LED_GREEN
Wire Wire Line
	6200 5650 6650 5650
Wire Wire Line
	6200 5750 6700 5750
Connection ~ 8650 2850
Wire Wire Line
	8650 2850 8950 2850
Connection ~ 8950 2850
Wire Wire Line
	8950 2850 9250 2850
Wire Wire Line
	9250 1500 9250 2850
$Comp
L Br:CN_P_01x03_2.54MM_HEADER J4
U 1 1 5FB4B500
P 1000 4900
F 0 "J4" H 969 4669 60  0000 C CNN
F 1 "CN_P_01x03_2.54MM_HEADER" H 969 4669 60  0001 C CNN
F 2 "Br:CN_P_01x03_2.54MM_HEADER" H 1050 4600 60  0001 C CNN
F 3 "" H 1050 4600 60  0001 C CNN
	1    1000 4900
	-1   0    0    1   
$EndComp
Wire Wire Line
	2350 4900 1200 4900
Wire Wire Line
	1200 4800 2350 4800
$Comp
L Br:GND #PWR0122
U 1 1 5FB4F7A9
P 1250 5000
F 0 "#PWR0122" H 1250 4750 50  0001 C CNN
F 1 "GND" V 1250 4800 50  0000 C CNN
F 2 "" H 1250 5000 50  0000 C CNN
F 3 "" H 1250 5000 50  0000 C CNN
	1    1250 5000
	0    -1   1    0   
$EndComp
Wire Wire Line
	1250 5000 1200 5000
Text Notes 750  4600 0    50   ~ 0
Programming \nconnector\n
$Comp
L Br:GND #PWR0124
U 1 1 5FB51D41
P 3150 3650
F 0 "#PWR0124" H 3150 3400 50  0001 C CNN
F 1 "GND" H 3155 3477 50  0000 C CNN
F 2 "" H 3150 3650 50  0000 C CNN
F 3 "" H 3150 3650 50  0000 C CNN
	1    3150 3650
	-1   0    0    -1  
$EndComp
$Comp
L Br:R_1k_0402_1% R4
U 1 1 5FB541D6
P 2950 3600
F 0 "R4" V 2850 3700 50  0000 C CNN
F 1 "1k" V 2950 3600 50  0000 C CNN
F 2 "Br:R_0402" V 2880 3600 50  0001 C CNN
F 3 "" H 2950 3600 50  0000 C CNN
F 4 "C11702" V 3130 3700 50  0001 C CNN "LCSC"
	1    2950 3600
	0    1    1    0   
$EndComp
Wire Wire Line
	2800 3600 2750 3600
Wire Wire Line
	3150 3450 3150 3600
Wire Wire Line
	3100 3600 3150 3600
Connection ~ 3150 3600
Wire Wire Line
	3150 3600 3150 3650
Wire Wire Line
	2850 3450 3150 3450
NoConn ~ 2850 3350
NoConn ~ 2850 3250
NoConn ~ 2850 3150
$Comp
L Br:ICP_STEP_UP_AO4407A U4
U 1 1 5FB6BC92
P 4450 3250
F 0 "U4" H 4475 3715 50  0000 C CNN
F 1 "ICP_STEP_UP_AO4407A" H 4475 3624 50  0000 C CNN
F 2 "Br:SOT-23-6" H 4400 3250 50  0001 C CNN
F 3 "" H 4400 3250 50  0001 C CNN
F 4 "C18701" H 4600 2900 50  0001 C CNN "LCSC"
	1    4450 3250
	1    0    0    -1  
$EndComp
$Comp
L Br:GND #PWR0128
U 1 1 5FB6E576
P 4900 3250
F 0 "#PWR0128" H 4900 3000 50  0001 C CNN
F 1 "GND" H 4905 3077 50  0000 C CNN
F 2 "" H 4900 3250 50  0000 C CNN
F 3 "" H 4900 3250 50  0000 C CNN
	1    4900 3250
	0    -1   1    0   
$EndComp
Wire Wire Line
	4900 3250 4800 3250
Wire Wire Line
	3350 3050 3350 3250
Text Label 3750 3050 0    50   ~ 0
BOOST_EN
$Comp
L Br:R_100K_0402_1%_0 R8
U 1 1 5FB7B6B4
P 3550 3050
F 0 "R8" V 3650 3150 50  0000 L CNN
F 1 "100k" V 3550 2950 50  0000 L CNN
F 2 "Br:R_0402" V 3480 3050 50  0001 C CNN
F 3 "" H 3550 3050 50  0000 C CNN
F 4 "C25741" H 3620 2959 50  0001 L CNN "LCSC"
	1    3550 3050
	0    1    1    0   
$EndComp
Wire Wire Line
	3400 3050 3350 3050
Connection ~ 3350 3050
Wire Wire Line
	3700 3050 4150 3050
Wire Wire Line
	3350 3250 4150 3250
$Comp
L Br:R_100K_0402_1%_0 R9
U 1 1 5FB94DD9
P 3950 3450
F 0 "R9" V 4050 3500 50  0000 L CNN
F 1 "100k" V 3950 3350 50  0000 L CNN
F 2 "Br:R_0402" V 3880 3450 50  0001 C CNN
F 3 "" H 3950 3450 50  0000 C CNN
F 4 "C25741" H 4020 3359 50  0001 L CNN "LCSC"
	1    3950 3450
	0    -1   -1   0   
$EndComp
$Comp
L Br:GND #PWR0132
U 1 1 5FB94EEE
P 3750 3450
F 0 "#PWR0132" H 3750 3200 50  0001 C CNN
F 1 "GND" H 3755 3277 50  0000 C CNN
F 2 "" H 3750 3450 50  0000 C CNN
F 3 "" H 3750 3450 50  0000 C CNN
	1    3750 3450
	0    1    -1   0   
$EndComp
Text Notes 3900 3650 0    50   ~ 0
100k->0.5A
Wire Wire Line
	3750 3450 3800 3450
Wire Wire Line
	4100 3450 4150 3450
$Comp
L Br:C_10U_0805_10%_25V C6
U 1 1 5FBAD3B2
P 5650 3700
F 0 "C6" H 5765 3746 50  0000 L CNN
F 1 "10uF" H 5765 3655 50  0000 L CNN
F 2 "Br:C_0805" V 5580 3700 50  0001 C CNN
F 3 "" V 5750 3600 50  0000 C CNN
F 4 "C15850" H 5765 3609 50  0001 L CNN "LCSC"
	1    5650 3700
	1    0    0    -1  
$EndComp
Wire Wire Line
	5650 3550 5650 3450
Wire Wire Line
	5650 3450 5450 3450
$Comp
L Br:GND #PWR0133
U 1 1 5FBB03EC
P 5650 3950
F 0 "#PWR0133" H 5650 3700 50  0001 C CNN
F 1 "GND" H 5655 3777 50  0000 C CNN
F 2 "" H 5650 3950 50  0000 C CNN
F 3 "" H 5650 3950 50  0000 C CNN
	1    5650 3950
	-1   0    0    -1  
$EndComp
Wire Wire Line
	5650 3950 5650 3850
Wire Wire Line
	5150 3450 5000 3450
Wire Wire Line
	5000 3450 5000 3950
Connection ~ 5000 3450
Wire Wire Line
	5000 3450 4800 3450
Wire Wire Line
	3350 3950 3350 3250
Connection ~ 3350 3250
Wire Wire Line
	2850 3050 3150 3050
Text Notes 4500 2450 0    50   ~ 0
Vout = 0.6*(1+R1/R2)
Wire Wire Line
	1050 2700 1050 2600
$Comp
L Br:5V #PWR0123
U 1 1 5DD0F0FA
P 1050 2600
F 0 "#PWR0123" H 1050 2450 50  0001 C CNN
F 1 "5V" V 1065 2728 50  0000 L CNN
F 2 "" H 1050 2600 50  0000 C CNN
F 3 "" H 1050 2600 50  0000 C CNN
	1    1050 2600
	1    0    0    -1  
$EndComp
Wire Wire Line
	6500 3550 6500 3450
Wire Wire Line
	6500 3950 6500 3850
$Comp
L Br:C_100N_0402_16V C7
U 1 1 5FBD3A3E
P 6500 3700
F 0 "C7" H 6615 3746 50  0000 L CNN
F 1 "100nF" H 6615 3655 50  0000 L CNN
F 2 "Br:C_0402" V 6430 3700 50  0001 C CNN
F 3 "" V 6600 3600 50  0000 C CNN
F 4 "C1525" H 6615 3609 50  0001 L CNN "LCSC"
	1    6500 3700
	1    0    0    -1  
$EndComp
Text Label 6300 3450 0    50   ~ 0
CH_MEAS
$Comp
L Br:GND #PWR0134
U 1 1 5FBD3A45
P 6500 3950
F 0 "#PWR0134" H 6500 3700 50  0001 C CNN
F 1 "GND" H 6505 3777 50  0000 C CNN
F 2 "" H 6500 3950 50  0000 C CNN
F 3 "" H 6500 3950 50  0000 C CNN
	1    6500 3950
	-1   0    0    -1  
$EndComp
Wire Wire Line
	6250 3450 6250 3400
Wire Wire Line
	6500 3450 6250 3450
Wire Wire Line
	6250 3950 6250 3850
$Comp
L Br:GND #PWR0135
U 1 1 5FBD3A4E
P 6250 3950
F 0 "#PWR0135" H 6250 3700 50  0001 C CNN
F 1 "GND" H 6255 3777 50  0000 C CNN
F 2 "" H 6250 3950 50  0000 C CNN
F 3 "" H 6250 3950 50  0000 C CNN
	1    6250 3950
	-1   0    0    -1  
$EndComp
Connection ~ 6250 3450
Wire Wire Line
	6250 3550 6250 3450
$Comp
L Br:R_100K_0402_1%_0 R13
U 1 1 5FBD3A57
P 6250 3700
F 0 "R13" H 6320 3746 50  0000 L CNN
F 1 "100k" V 6250 3600 50  0000 L CNN
F 2 "Br:R_0402" V 6180 3700 50  0001 C CNN
F 3 "" H 6250 3700 50  0000 C CNN
F 4 "C25741" H 6320 3609 50  0001 L CNN "LCSC"
	1    6250 3700
	1    0    0    -1  
$EndComp
$Comp
L Br:R_100K_0402_1%_0 R12
U 1 1 5FBD3A5E
P 6250 3250
F 0 "R12" H 6320 3296 50  0000 L CNN
F 1 "100k" V 6250 3150 50  0000 L CNN
F 2 "Br:R_0402" V 6180 3250 50  0001 C CNN
F 3 "" H 6250 3250 50  0000 C CNN
F 4 "C25741" H 6320 3159 50  0001 L CNN "LCSC"
	1    6250 3250
	1    0    0    -1  
$EndComp
Wire Wire Line
	5650 3450 6000 3450
Wire Wire Line
	6000 3450 6000 3050
Connection ~ 5650 3450
Wire Wire Line
	6250 3100 6250 3050
Wire Wire Line
	6250 3050 6000 3050
Connection ~ 6000 3050
Wire Wire Line
	7150 1000 7150 1600
Wire Wire Line
	6900 1600 7150 1600
Connection ~ 7150 1600
Wire Wire Line
	7150 1600 7250 1600
Wire Wire Line
	6000 2750 6000 3050
Wire Wire Line
	7400 5150 7400 4650
Text Label 6250 5350 0    50   ~ 0
CH_MEAS
Wire Wire Line
	6200 5350 6700 5350
Text Label 6250 4950 0    50   ~ 0
BOOST_EN
$Comp
L Br:R_1k_0402_1% R11
U 1 1 5FAF9EE0
P 5500 3050
F 0 "R11" V 5400 3150 50  0000 C CNN
F 1 "1k" V 5500 3050 50  0000 C CNN
F 2 "Br:R_0402" V 5430 3050 50  0001 C CNN
F 3 "" H 5500 3050 50  0000 C CNN
F 4 "C11702" V 5680 3150 50  0001 C CNN "LCSC"
	1    5500 3050
	0    1    1    0   
$EndComp
Wire Wire Line
	5350 3250 5250 3250
Wire Wire Line
	5250 3250 5250 3050
Wire Wire Line
	5250 3050 5350 3050
Wire Wire Line
	5250 3050 4800 3050
Connection ~ 5250 3050
Wire Wire Line
	5650 3250 5650 3450
$Comp
L Br:GND #PWR0136
U 1 1 5FB0D2B7
P 5700 3050
F 0 "#PWR0136" H 5700 2800 50  0001 C CNN
F 1 "GND" H 5705 2877 50  0000 C CNN
F 2 "" H 5700 3050 50  0000 C CNN
F 3 "" H 5700 3050 50  0000 C CNN
	1    5700 3050
	0    -1   1    0   
$EndComp
Wire Wire Line
	5700 3050 5650 3050
Text Notes 4500 2600 0    50   ~ 0
Vout = 0.6*(1+10k/1k)=6.6V
Wire Wire Line
	1450 2100 1450 2650
Wire Wire Line
	1450 2650 3350 2650
Wire Wire Line
	3350 2650 3350 3050
Wire Wire Line
	1450 1800 1450 1600
Connection ~ 1450 1600
Wire Wire Line
	1450 1600 1800 1600
$Comp
L Br:D_SCHOTTKY_SS14 D1
U 1 1 5FB237A4
P 1200 1600
F 0 "D1" H 1200 1477 50  0000 C CNN
F 1 "D_SCHOTTKY_SS14" H 1200 1724 50  0001 C CNN
F 2 "Br:DO214AC" H 1200 1600 50  0001 C CNN
F 3 "" H 1200 1700 50  0000 C CNN
F 4 "C2480" H 1300 1800 50  0001 C CNN "LCSC"
	1    1200 1600
	-1   0    0    1   
$EndComp
$Comp
L Br:D_SCHOTTKY_SS14 D2
U 1 1 5FB23A55
P 1450 1950
F 0 "D2" V 1450 2028 50  0000 L CNN
F 1 "D_SCHOTTKY_SS14" H 1450 2074 50  0001 C CNN
F 2 "Br:DO214AC" H 1450 1950 50  0001 C CNN
F 3 "" H 1450 2050 50  0000 C CNN
F 4 "C2480" H 1550 2150 50  0001 C CNN "LCSC"
	1    1450 1950
	0    1    1    0   
$EndComp
$Comp
L Br:D_SCHOTTKY_SS14 D4
U 1 1 5FB23C7F
P 5300 3450
F 0 "D4" H 5300 3327 50  0000 C CNN
F 1 "D_SCHOTTKY_SS14" H 5300 3574 50  0001 C CNN
F 2 "Br:DO214AC" H 5300 3450 50  0001 C CNN
F 3 "" H 5300 3550 50  0000 C CNN
F 4 "C2480" H 5400 3650 50  0001 C CNN "LCSC"
	1    5300 3450
	-1   0    0    1   
$EndComp
$Comp
L Br:D_SCHOTTKY_SS14 D7
U 1 1 5FB23F3D
P 6000 2600
F 0 "D7" V 6000 2678 50  0000 L CNN
F 1 "D_SCHOTTKY_SS14" H 6000 2724 50  0001 C CNN
F 2 "Br:DO214AC" H 6000 2600 50  0001 C CNN
F 3 "" H 6000 2700 50  0000 C CNN
F 4 "C2480" H 6100 2800 50  0001 C CNN "LCSC"
	1    6000 2600
	0    1    1    0   
$EndComp
Wire Wire Line
	3350 3950 4300 3950
Wire Wire Line
	4650 3950 5000 3950
Text Notes 4300 4100 0    50   ~ 0
3.3uH, 0.9A
NoConn ~ 2350 5200
NoConn ~ 2350 5300
$Comp
L Br:R_10K_0402_1% R7
U 1 1 5FB28F63
P 5500 3250
F 0 "R7" V 5600 3400 50  0000 C CNN
F 1 "10k" V 5500 3250 50  0000 C CNN
F 2 "Br:R_0402" V 5430 3250 50  0001 C CNN
F 3 "" H 5500 3250 50  0000 C CNN
F 4 "C25744" V 5680 3350 50  0001 C CNN "LCSC"
	1    5500 3250
	0    1    1    0   
$EndComp
$Comp
L Br:R_100K_0402_1%_0 R14
U 1 1 5FB2F281
P 8300 1750
F 0 "R14" H 8370 1796 50  0000 L CNN
F 1 "100k" V 8300 1650 50  0000 L CNN
F 2 "Br:R_0402" V 8230 1750 50  0001 C CNN
F 3 "" H 8300 1750 50  0000 C CNN
F 4 "C25741" H 8370 1659 50  0001 L CNN "LCSC"
	1    8300 1750
	1    0    0    -1  
$EndComp
Text Label 5850 1500 0    50   ~ 0
UART_RX
$Comp
L Br:D_BAV99.215 D8
U 1 1 5FB34DB4
P 5050 1500
F 0 "D8" H 5128 1454 50  0000 L CNN
F 1 "D_BAV99.215" H 4500 1750 50  0000 L CNN
F 2 "Br:SOT23" V 5050 1650 50  0001 C CNN
F 3 "../library_doc/D_BAV99.215.pdf" H 5128 1455 50  0001 L CNN
F 4 "C2500" H 5127 1409 50  0001 L CNN "LCSC"
	1    5050 1500
	-1   0    0    1   
$EndComp
Wire Wire Line
	6150 1500 5750 1500
$Comp
L Br:GND #PWR0137
U 1 1 5FB34DBB
P 5050 1850
F 0 "#PWR0137" H 5050 1600 50  0001 C CNN
F 1 "GND" H 5055 1677 50  0000 C CNN
F 2 "" H 5050 1850 50  0000 C CNN
F 3 "" H 5050 1850 50  0000 C CNN
	1    5050 1850
	1    0    0    -1  
$EndComp
Wire Wire Line
	5050 1850 5050 1800
$Comp
L Br:3V3 #PWR0138
U 1 1 5FB34DC2
P 5050 1100
F 0 "#PWR0138" H 5050 950 50  0001 C CNN
F 1 "3V3" H 5065 1273 50  0000 C CNN
F 2 "" H 5050 1100 50  0000 C CNN
F 3 "" H 5050 1100 50  0000 C CNN
	1    5050 1100
	1    0    0    -1  
$EndComp
Wire Wire Line
	5050 1100 5050 1200
Wire Wire Line
	5100 1500 5450 1500
Text Label 5150 1500 0    50   ~ 0
CPU_RX
$Comp
L Br:R_1k_0402_1% R10
U 1 1 5FB34DCD
P 5600 1500
F 0 "R10" V 5500 1600 50  0000 C CNN
F 1 "1k" V 5600 1500 50  0000 C CNN
F 2 "Br:R_0402" V 5530 1500 50  0001 C CNN
F 3 "" H 5600 1500 50  0000 C CNN
F 4 "C11702" V 5780 1600 50  0001 C CNN "LCSC"
	1    5600 1500
	0    1    1    0   
$EndComp
Text Label 9450 2350 0    50   ~ 0
UART_RX
Wire Wire Line
	9450 2350 10100 2350
Text Label 2000 4900 0    50   ~ 0
CPU_RX
Wire Wire Line
	6000 2450 6000 2100
Wire Wire Line
	6000 2100 6400 2100
Wire Wire Line
	6400 2100 6400 1000
Wire Wire Line
	6400 1000 7150 1000
$Comp
L Br:M_SWITCH_5MS1S102AM6QE U3
U 1 1 5DDCEDDA
P 7450 1600
F 0 "U3" H 7475 1834 50  0000 C CNN
F 1 "M_SWITCH_5MS1S102AM6QE" H 7475 1834 50  0001 C CNN
F 2 "Br:M_SWITCH_5MS1S102AM6QE" H 7450 1600 50  0001 C CNN
F 3 "" H 7450 1600 50  0001 C CNN
	1    7450 1600
	1    0    0    -1  
$EndComp
Wire Wire Line
	7700 1500 8300 1500
NoConn ~ 7700 1700
$Comp
L Br:L_3.3uH_0.9A_0.29Ohm L1
U 1 1 5FB42D33
P 4500 3950
F 0 "L1" H 4475 4084 50  0000 C CNN
F 1 "L_3.3uH_0.9A_0.29Ohm" H 4475 4084 50  0001 C CNN
F 2 "Br:L_Axial_L9.5mm_D4.0mm_P12.70mm_Horizontal_Fastron_SMCC" H 4500 3950 50  0001 C CNN
F 3 "" H 4500 3950 50  0001 C CNN
	1    4500 3950
	1    0    0    -1  
$EndComp
Wire Wire Line
	9250 3300 9250 3600
Wire Wire Line
	9250 2850 9250 3000
Wire Wire Line
	8050 2850 8650 2850
Wire Wire Line
	8650 3600 8950 3600
$Comp
L Br:C_10U_0805_10%_25V C11
U 1 1 5FB4AB73
P 3150 3200
F 0 "C11" H 3250 3300 50  0000 L CNN
F 1 "10uF" H 3200 3100 50  0000 L CNN
F 2 "Br:C_0805" V 3080 3200 50  0001 C CNN
F 3 "" V 3250 3100 50  0000 C CNN
F 4 "C15850" H 3265 3109 50  0001 L CNN "LCSC"
	1    3150 3200
	-1   0    0    1   
$EndComp
Connection ~ 3150 3050
Wire Wire Line
	3150 3050 3350 3050
Wire Wire Line
	3150 3350 3150 3450
Connection ~ 3150 3450
Wire Wire Line
	6200 4950 6650 4950
Wire Wire Line
	6200 5050 6650 5050
NoConn ~ 6200 5450
$Comp
L Br:TR_PMOS_12A_30V_AO4407A Q1
U 1 1 5FC360FF
P 8850 1550
F 0 "Q1" V 9173 1550 50  0000 C CNN
F 1 "TR_PMOS_12A_30V_AO4407A" V 9082 1550 50  0000 C CNN
F 2 "Br:SOIC-8" H 9000 1450 50  0001 C CNN
F 3 "" H 8800 1550 50  0000 C CNN
F 4 "C16072" H 9200 1400 50  0001 C CNN "LCSC"
	1    8850 1550
	0    1    -1   0   
$EndComp
$Comp
L Br:C_1N_0402_50V C3
U 1 1 5FC42BC5
P 1300 3300
F 0 "C3" H 1415 3346 50  0000 L CNN
F 1 "1nF" H 1415 3255 50  0000 L CNN
F 2 "Br:C_0402" V 1230 3300 50  0001 C CNN
F 3 "" V 1400 3200 50  0000 C CNN
F 4 "C1523" V 1500 3300 50  0001 C CNN "LCSC"
	1    1300 3300
	1    0    0    -1  
$EndComp
$EndSCHEMATC
