EESchema Schematic File Version 4
EELAYER 26 0
EELAYER END
$Descr A4 11693 8268
encoding utf-8
Sheet 1 1
Title ""
Date ""
Rev ""
Comp ""
Comment1 ""
Comment2 ""
Comment3 ""
Comment4 ""
$EndDescr
Text Notes 10150 1950 0    50   ~ 0
Female\n
Text Label 4700 1600 0    50   ~ 0
UART_TX
$Comp
L Br:Br_CN_OUT J3
U 1 1 5D9C46C3
P 10400 2550
F 0 "J3" H 10577 2596 50  0000 L CNN
F 1 "Br_CN_OUT" H 10577 2505 50  0000 L CNN
F 2 "Br:DSUB-9_Female_Vertical_P2.77x2.84mm" H 10400 3100 50  0001 C CNN
F 3 "" H 10400 3100 50  0001 C CNN
	1    10400 2550
	1    0    0    -1  
$EndComp
Text Label 10000 2550 2    50   ~ 0
UART_TX
Wire Wire Line
	10100 2850 9950 2850
Wire Wire Line
	10100 2750 9950 2750
Wire Wire Line
	9950 2750 9950 2850
Connection ~ 9950 2850
Wire Wire Line
	9500 2450 9500 2650
Wire Wire Line
	9500 2450 10100 2450
Wire Wire Line
	9650 2550 10100 2550
Wire Wire Line
	10100 2650 9500 2650
Connection ~ 9500 2650
Wire Wire Line
	9500 2650 9500 2950
Wire Wire Line
	10100 2950 9500 2950
$Comp
L Br:D_BAV99.215 D3
U 1 1 5D9CF778
P 3900 1600
F 0 "D3" H 3978 1554 50  0000 L CNN
F 1 "D_BAV99.215" H 3350 1850 50  0000 L CNN
F 2 "Br:SOT23" V 3900 1750 50  0001 C CNN
F 3 "../library_doc/D_BAV99.215.pdf" H 3978 1555 50  0001 L CNN
F 4 "C2500" H 3977 1509 50  0001 L CNN "LCSC"
	1    3900 1600
	-1   0    0    1   
$EndComp
Wire Wire Line
	5000 1600 4600 1600
$Comp
L Br:GND #PWR0109
U 1 1 5D9CF78E
P 3900 1950
F 0 "#PWR0109" H 3900 1700 50  0001 C CNN
F 1 "GND" H 3905 1777 50  0000 C CNN
F 2 "" H 3900 1950 50  0000 C CNN
F 3 "" H 3900 1950 50  0000 C CNN
	1    3900 1950
	1    0    0    -1  
$EndComp
Wire Wire Line
	3900 1950 3900 1900
$Comp
L Br:3V3 #PWR0110
U 1 1 5D9D1287
P 3900 1200
F 0 "#PWR0110" H 3900 1050 50  0001 C CNN
F 1 "3V3" H 3915 1373 50  0000 C CNN
F 2 "" H 3900 1200 50  0000 C CNN
F 3 "" H 3900 1200 50  0000 C CNN
	1    3900 1200
	1    0    0    -1  
$EndComp
Wire Wire Line
	3900 1200 3900 1300
Text Notes 4300 1000 0    50   ~ 0
UART protection
$Comp
L Br:3V3 #PWR0112
U 1 1 5D9D2D75
P 3150 1150
F 0 "#PWR0112" H 3150 1000 50  0001 C CNN
F 1 "3V3" H 3165 1323 50  0000 C CNN
F 2 "" H 3150 1150 50  0000 C CNN
F 3 "" H 3150 1150 50  0000 C CNN
	1    3150 1150
	1    0    0    -1  
$EndComp
Text Notes 1650 800  0    50   ~ 0
Power regulator
$Comp
L Br:GND #PWR0113
U 1 1 5D9D4876
P 1350 5400
F 0 "#PWR0113" H 1350 5150 50  0001 C CNN
F 1 "GND" H 1355 5227 50  0000 C CNN
F 2 "" H 1350 5400 50  0000 C CNN
F 3 "" H 1350 5400 50  0000 C CNN
	1    1350 5400
	-1   0    0    -1  
$EndComp
Wire Wire Line
	1900 4300 2300 4300
Text Label 1900 4500 0    50   ~ 0
SWIM
Text Label 1900 4600 0    50   ~ 0
NRST
Wire Wire Line
	1900 4500 2300 4500
Text Label 950  6500 0    50   ~ 0
SWIM
Text Label 950  6300 0    50   ~ 0
NRST
$Comp
L Br:3V3 #PWR0114
U 1 1 5D9D7743
P 1800 5000
F 0 "#PWR0114" H 1800 4850 50  0001 C CNN
F 1 "3V3" V 1815 5128 50  0000 L CNN
F 2 "" H 1800 5000 50  0000 C CNN
F 3 "" H 1800 5000 50  0000 C CNN
	1    1800 5000
	0    -1   -1   0   
$EndComp
Wire Wire Line
	1350 4900 2300 4900
$Comp
L Br:GND #PWR0115
U 1 1 5D9D82DF
P 950 6400
F 0 "#PWR0115" H 950 6150 50  0001 C CNN
F 1 "GND" H 955 6227 50  0000 C CNN
F 2 "" H 950 6400 50  0000 C CNN
F 3 "" H 950 6400 50  0000 C CNN
	1    950  6400
	0    1    -1   0   
$EndComp
$Comp
L Br:3V3 #PWR0116
U 1 1 5D9D8302
P 1000 6600
F 0 "#PWR0116" H 1000 6450 50  0001 C CNN
F 1 "3V3" V 1015 6728 50  0000 L CNN
F 2 "" H 1000 6600 50  0000 C CNN
F 3 "" H 1000 6600 50  0000 C CNN
	1    1000 6600
	0    -1   -1   0   
$EndComp
$Comp
L Br:CN_P_01x04_1.27MM_STRAIGHT_ZL319-4P J2
U 1 1 5D9D92B3
P 1350 6450
F 0 "J2" H 1428 6455 50  0000 L CNN
F 1 "CN_P_01x04_1.27MM_STRAIGHT_ZL319-4P" H 1427 6410 50  0001 L CNN
F 2 "Br:CN_P_01x04_1.27MM_STRAIGHT_ZL319-4P" H 1300 6500 50  0001 C CNN
F 3 "" H 1300 6500 50  0001 C CNN
	1    1350 6450
	1    0    0    -1  
$EndComp
Wire Wire Line
	950  6300 1200 6300
Wire Wire Line
	950  6400 1200 6400
Wire Wire Line
	950  6500 1200 6500
Wire Wire Line
	1000 6600 1200 6600
Wire Wire Line
	1900 5050 1900 5000
Wire Wire Line
	1900 5000 1800 5000
Wire Wire Line
	2300 5000 1900 5000
Connection ~ 1900 5000
$Comp
L Br:GND #PWR0117
U 1 1 5D9DFBBB
P 1900 5400
F 0 "#PWR0117" H 1900 5150 50  0001 C CNN
F 1 "GND" H 1905 5227 50  0000 C CNN
F 2 "" H 1900 5400 50  0000 C CNN
F 3 "" H 1900 5400 50  0000 C CNN
	1    1900 5400
	-1   0    0    -1  
$EndComp
Wire Wire Line
	1900 5400 1900 5350
Wire Wire Line
	1350 4900 1350 5400
Wire Wire Line
	900  4600 2300 4600
$Comp
L Br:GND #PWR0118
U 1 1 5D9E54AE
P 900 5400
F 0 "#PWR0118" H 900 5150 50  0001 C CNN
F 1 "GND" H 905 5227 50  0000 C CNN
F 2 "" H 900 5400 50  0000 C CNN
F 3 "" H 900 5400 50  0000 C CNN
	1    900  5400
	-1   0    0    -1  
$EndComp
Wire Wire Line
	900  4600 900  5050
Wire Wire Line
	900  5350 900  5400
$Comp
L Br:GND #PWR0119
U 1 1 5D9EADC4
P 1800 2150
F 0 "#PWR0119" H 1800 1900 50  0001 C CNN
F 1 "GND" H 1805 1977 50  0000 C CNN
F 2 "" H 1800 2150 50  0000 C CNN
F 3 "" H 1800 2150 50  0000 C CNN
	1    1800 2150
	-1   0    0    -1  
$EndComp
Wire Wire Line
	1800 2150 1800 2000
Wire Wire Line
	1800 1600 1800 1700
$Comp
L Br:ICP_HT7533-1 U2
U 1 1 5D9C8DBA
P 2500 1600
F 0 "U2" H 2525 1956 50  0000 C CNN
F 1 "ICP_HT7533-1" H 2525 1865 50  0000 C CNN
F 2 "Br:SOT-89-3" H 2500 1600 50  0001 C CNN
F 3 "" H 2500 1600 50  0001 C CNN
F 4 "C14289" H 2525 1774 50  0001 C CNN "LCSC"
	1    2500 1600
	1    0    0    -1  
$EndComp
Wire Wire Line
	2900 1600 3150 1600
Wire Wire Line
	3150 1600 3150 1700
Wire Wire Line
	3150 1600 3150 1150
Connection ~ 3150 1600
$Comp
L Br:GND #PWR0120
U 1 1 5D9CB24A
P 2500 2150
F 0 "#PWR0120" H 2500 1900 50  0001 C CNN
F 1 "GND" H 2505 1977 50  0000 C CNN
F 2 "" H 2500 2150 50  0000 C CNN
F 3 "" H 2500 2150 50  0000 C CNN
	1    2500 2150
	-1   0    0    -1  
$EndComp
Wire Wire Line
	2500 2150 2500 1900
Wire Wire Line
	2150 1600 1800 1600
$Comp
L Br:GND #PWR0121
U 1 1 5D9CD6CE
P 3150 2150
F 0 "#PWR0121" H 3150 1900 50  0001 C CNN
F 1 "GND" H 3155 1977 50  0000 C CNN
F 2 "" H 3150 2150 50  0000 C CNN
F 3 "" H 3150 2150 50  0000 C CNN
	1    3150 2150
	-1   0    0    -1  
$EndComp
Wire Wire Line
	3150 2150 3150 2000
NoConn ~ 6150 4850
NoConn ~ 6150 4750
NoConn ~ 6150 4650
NoConn ~ 6150 4350
NoConn ~ 2300 5200
$Comp
L Br:12V #PWR0129
U 1 1 5D9E7FDB
P 5500 1150
F 0 "#PWR0129" H 5500 1000 50  0001 C CNN
F 1 "12V" H 5450 1350 50  0000 L CNN
F 2 "" H 5500 1150 50  0000 C CNN
F 3 "" H 5500 1150 50  0000 C CNN
	1    5500 1150
	1    0    0    -1  
$EndComp
$Comp
L Br:5V #PWR0130
U 1 1 5D9E801C
P 5700 1150
F 0 "#PWR0130" H 5700 1000 50  0001 C CNN
F 1 "5V" H 5650 1350 50  0000 L CNN
F 2 "" H 5700 1150 50  0000 C CNN
F 3 "" H 5700 1150 50  0000 C CNN
	1    5700 1150
	1    0    0    -1  
$EndComp
$Comp
L Br:GND #PWR0131
U 1 1 5D9E816B
P 5300 1300
F 0 "#PWR0131" H 5300 1050 50  0001 C CNN
F 1 "GND" H 5305 1127 50  0000 C CNN
F 2 "" H 5300 1300 50  0000 C CNN
F 3 "" H 5300 1300 50  0000 C CNN
	1    5300 1300
	-1   0    0    -1  
$EndComp
$Comp
L Br:PWR #FLG0101
U 1 1 5D9E856C
P 5300 1150
F 0 "#FLG0101" H 5300 1245 50  0001 C CNN
F 1 "PWR" H 5300 1374 50  0000 C CNN
F 2 "" H 5300 1150 50  0000 C CNN
F 3 "" H 5300 1150 50  0000 C CNN
	1    5300 1150
	1    0    0    -1  
$EndComp
$Comp
L Br:PWR #FLG0102
U 1 1 5D9E85C4
P 5500 1300
F 0 "#FLG0102" H 5500 1395 50  0001 C CNN
F 1 "PWR" H 5500 1523 50  0000 C CNN
F 2 "" H 5500 1300 50  0000 C CNN
F 3 "" H 5500 1300 50  0000 C CNN
	1    5500 1300
	-1   0    0    1   
$EndComp
$Comp
L Br:PWR #FLG0103
U 1 1 5D9E8649
P 5700 1300
F 0 "#FLG0103" H 5700 1395 50  0001 C CNN
F 1 "PWR" H 5700 1523 50  0000 C CNN
F 2 "" H 5700 1300 50  0000 C CNN
F 3 "" H 5700 1300 50  0000 C CNN
	1    5700 1300
	-1   0    0    1   
$EndComp
Wire Wire Line
	5700 1300 5700 1150
Wire Wire Line
	5500 1300 5500 1150
Wire Wire Line
	5300 1300 5300 1150
Wire Wire Line
	3950 1600 4300 1600
Text Label 1950 4300 0    50   ~ 0
CPU_TX
Text Label 4000 1600 0    50   ~ 0
CPU_TX
Text Label 1900 4700 0    50   ~ 0
HSE_IN
Text Label 1900 4800 0    50   ~ 0
HSE_OUT
Wire Wire Line
	1900 4700 2300 4700
Wire Wire Line
	1900 4800 2300 4800
Text Label 2800 6600 0    50   ~ 0
HSE_IN
Text Label 2100 6600 0    50   ~ 0
HSE_OUT
$Comp
L Br:CR_16MHZ_10PPM_X322516MLB4SI X1
U 1 1 5DCD4D2D
P 2550 6600
F 0 "X1" H 2550 6781 60  0000 C CNN
F 1 "CR_16MHZ_10PPM_X322516MLB4SI" H 2550 6872 60  0001 C CNN
F 2 "Br:CR_16MHZ_X322516MLB4SI" H 2550 6600 60  0001 C CNN
F 3 "" H 2550 6600 60  0001 C CNN
F 4 "C13738" H 2550 6774 50  0001 C CNN "LCSC"
	1    2550 6600
	1    0    0    -1  
$EndComp
Wire Wire Line
	2700 6600 3100 6600
$Comp
L Br:GND #PWR0101
U 1 1 5DCD68C4
P 2650 7050
F 0 "#PWR0101" H 2650 6800 50  0001 C CNN
F 1 "GND" H 2655 6877 50  0000 C CNN
F 2 "" H 2650 7050 50  0000 C CNN
F 3 "" H 2650 7050 50  0000 C CNN
	1    2650 7050
	-1   0    0    -1  
$EndComp
$Comp
L Br:C_4P7_0402_50V C5
U 1 1 5DCDA179
P 2050 6850
F 0 "C5" H 2165 6896 50  0000 L CNN
F 1 "4.7pF" H 2165 6805 50  0000 L CNN
F 2 "Br:C_0402" V 1980 6850 50  0001 C CNN
F 3 "" V 2150 6750 50  0000 C CNN
F 4 " C1569" H 2165 6759 50  0001 L CNN "LCSC"
	1    2050 6850
	1    0    0    -1  
$EndComp
Wire Wire Line
	2050 6700 2050 6600
Wire Wire Line
	2050 6600 2400 6600
$Comp
L Br:GND #PWR0102
U 1 1 5DCDB131
P 2050 7050
F 0 "#PWR0102" H 2050 6800 50  0001 C CNN
F 1 "GND" H 2055 6877 50  0000 C CNN
F 2 "" H 2050 7050 50  0000 C CNN
F 3 "" H 2050 7050 50  0000 C CNN
	1    2050 7050
	-1   0    0    -1  
$EndComp
Wire Wire Line
	2050 7050 2050 7000
Wire Wire Line
	2650 6750 2650 7050
$Comp
L Br:C_4P7_0402_50V C6
U 1 1 5DCDCFAE
P 3100 6850
F 0 "C6" H 3215 6896 50  0000 L CNN
F 1 "4.7pF" H 3215 6805 50  0000 L CNN
F 2 "Br:C_0402" V 3030 6850 50  0001 C CNN
F 3 "" V 3200 6750 50  0000 C CNN
F 4 " C1569" H 3215 6759 50  0001 L CNN "LCSC"
	1    3100 6850
	1    0    0    -1  
$EndComp
$Comp
L Br:GND #PWR0103
U 1 1 5DCDEDC3
P 3100 7050
F 0 "#PWR0103" H 3100 6800 50  0001 C CNN
F 1 "GND" H 3105 6877 50  0000 C CNN
F 2 "" H 3100 7050 50  0000 C CNN
F 3 "" H 3100 7050 50  0000 C CNN
	1    3100 7050
	-1   0    0    -1  
$EndComp
Wire Wire Line
	3100 7050 3100 7000
Wire Wire Line
	3100 6700 3100 6600
$Comp
L Br:C_100N_0402_16V C1
U 1 1 5DCCDFE7
P 900 5200
F 0 "C1" H 1015 5246 50  0000 L CNN
F 1 "100nF" H 1015 5155 50  0000 L CNN
F 2 "Br:C_0402" V 830 5200 50  0001 C CNN
F 3 "" V 1000 5100 50  0000 C CNN
F 4 "C1525" H 1015 5109 50  0001 L CNN "LCSC"
	1    900  5200
	1    0    0    -1  
$EndComp
$Comp
L Br:C_100N_0402_16V C2
U 1 1 5DCCE0C4
P 1900 5200
F 0 "C2" H 2015 5246 50  0000 L CNN
F 1 "100nF" H 2015 5155 50  0000 L CNN
F 2 "Br:C_0402" V 1830 5200 50  0001 C CNN
F 3 "" V 2000 5100 50  0000 C CNN
F 4 "C1525" H 2015 5109 50  0001 L CNN "LCSC"
	1    1900 5200
	1    0    0    -1  
$EndComp
$Comp
L Br:D_SCHOTTKY_SS54 D2
U 1 1 5DCCE7A5
P 8650 1500
F 0 "D2" H 8650 1377 50  0000 C CNN
F 1 "D_SCHOTTKY_SS54" H 8650 1376 50  0001 C CNN
F 2 "Br:DO214AC" H 8650 1500 50  0001 C CNN
F 3 "" H 8650 1600 50  0000 C CNN
F 4 "C22452" H 8650 1377 50  0001 C CNN "LCSC"
	1    8650 1500
	-1   0    0    1   
$EndComp
Text Notes 6250 2150 1    50   ~ 0
Input voltage 4.8 to 6.0V\n
$Comp
L Br:GND #PWR0104
U 1 1 5DCE2F9E
P 9500 4400
F 0 "#PWR0104" H 9500 4150 50  0001 C CNN
F 1 "GND" H 9505 4227 50  0000 C CNN
F 2 "" H 9500 4400 50  0000 C CNN
F 3 "" H 9500 4400 50  0000 C CNN
	1    9500 4400
	-1   0    0    -1  
$EndComp
Wire Wire Line
	1300 3150 1300 3050
Wire Wire Line
	1300 3550 1300 3450
Text Label 7600 2850 0    50   ~ 0
VOUT
NoConn ~ 10100 2250
NoConn ~ 10100 2150
$Comp
L Br:C_10U_0805_10%_25V C8
U 1 1 5DD208A7
P 3150 1850
F 0 "C8" H 3265 1896 50  0000 L CNN
F 1 "10uF" H 3265 1805 50  0000 L CNN
F 2 "Br:C_0805" V 3080 1850 50  0001 C CNN
F 3 "" V 3250 1750 50  0000 C CNN
F 4 "C15850" H 3265 1759 50  0001 L CNN "LCSC"
	1    3150 1850
	1    0    0    -1  
$EndComp
$Comp
L Br:ICD_STM8L051F3P6 U1
U 1 1 5D9D4765
P 4700 4300
F 0 "U1" H 4225 4587 60  0000 C CNN
F 1 "ICD_STM8L051F3P6" H 4225 4481 60  0000 C CNN
F 2 "Br:TSSOP20" H 2300 4400 60  0001 C CNN
F 3 "" H 2300 4400 60  0000 C CNN
F 4 "C18088" H 4225 4473 50  0001 C CNN "LCSC"
	1    4700 4300
	1    0    0    -1  
$EndComp
$Comp
L Br:CN_P_01x02_2.54MM_HEADER J1
U 1 1 5DD5889A
P 6450 1600
F 0 "J1" H 6419 1469 60  0000 C CNN
F 1 "CN_P_01x02_2.54MM_HEADER" H 6419 1469 60  0001 C CNN
F 2 "Br:CN_P_01x02_2.54MM_HEADER" H 6500 1300 60  0001 C CNN
F 3 "" H 6500 1300 60  0001 C CNN
	1    6450 1600
	-1   0    0    1   
$EndComp
$Comp
L Br:GND #PWR0125
U 1 1 5DD724B4
P 6850 2000
F 0 "#PWR0125" H 6850 1750 50  0001 C CNN
F 1 "GND" H 6855 1827 50  0000 C CNN
F 2 "" H 6850 2000 50  0000 C CNN
F 3 "" H 6850 2000 50  0000 C CNN
	1    6850 2000
	-1   0    0    -1  
$EndComp
Text Notes 6400 1350 0    50   ~ 0
PCB_right\n
$Comp
L Br:5V #PWR0123
U 1 1 5DD0F0FA
P 1050 2600
F 0 "#PWR0123" H 1050 2450 50  0001 C CNN
F 1 "5V" V 1065 2728 50  0000 L CNN
F 2 "" H 1050 2600 50  0000 C CNN
F 3 "" H 1050 2600 50  0000 C CNN
	1    1050 2600
	1    0    0    -1  
$EndComp
$Comp
L Br:C_100N_0402_16V C3
U 1 1 5DD0EB09
P 1300 3300
F 0 "C3" H 1415 3346 50  0000 L CNN
F 1 "100nF" H 1415 3255 50  0000 L CNN
F 2 "Br:C_0402" V 1230 3300 50  0001 C CNN
F 3 "" V 1400 3200 50  0000 C CNN
F 4 "C1525" H 1415 3209 50  0001 L CNN "LCSC"
	1    1300 3300
	1    0    0    -1  
$EndComp
Text Label 1100 3050 0    50   ~ 0
VBAT_MEAS
$Comp
L Br:GND #PWR0108
U 1 1 5DD0089F
P 1300 3550
F 0 "#PWR0108" H 1300 3300 50  0001 C CNN
F 1 "GND" H 1305 3377 50  0000 C CNN
F 2 "" H 1300 3550 50  0000 C CNN
F 3 "" H 1300 3550 50  0000 C CNN
	1    1300 3550
	-1   0    0    -1  
$EndComp
Wire Wire Line
	1050 3050 1050 3000
Wire Wire Line
	1300 3050 1050 3050
Wire Wire Line
	1050 3550 1050 3450
$Comp
L Br:GND #PWR0106
U 1 1 5DCF9C6A
P 1050 3550
F 0 "#PWR0106" H 1050 3300 50  0001 C CNN
F 1 "GND" H 1055 3377 50  0000 C CNN
F 2 "" H 1050 3550 50  0000 C CNN
F 3 "" H 1050 3550 50  0000 C CNN
	1    1050 3550
	-1   0    0    -1  
$EndComp
Connection ~ 1050 3050
Wire Wire Line
	1050 3150 1050 3050
$Comp
L Br:R_100K_0402_1%_0 R2
U 1 1 5DCF7C8D
P 1050 3300
F 0 "R2" H 1120 3346 50  0000 L CNN
F 1 "100k" V 1050 3200 50  0000 L CNN
F 2 "Br:R_0402" V 980 3300 50  0001 C CNN
F 3 "" H 1050 3300 50  0000 C CNN
F 4 "C25741" H 1120 3209 50  0001 L CNN "LCSC"
	1    1050 3300
	1    0    0    -1  
$EndComp
$Comp
L Br:R_100K_0402_1%_0 R1
U 1 1 5DCF2318
P 1050 2850
F 0 "R1" H 1120 2896 50  0000 L CNN
F 1 "100k" V 1050 2750 50  0000 L CNN
F 2 "Br:R_0402" V 980 2850 50  0001 C CNN
F 3 "" H 1050 2850 50  0000 C CNN
F 4 "C25741" H 1120 2759 50  0001 L CNN "LCSC"
	1    1050 2850
	1    0    0    -1  
$EndComp
$Comp
L Br:5V #PWR0126
U 1 1 5DD98F85
P 8300 1400
F 0 "#PWR0126" H 8300 1250 50  0001 C CNN
F 1 "5V" V 8315 1528 50  0000 L CNN
F 2 "" H 8300 1400 50  0000 C CNN
F 3 "" H 8300 1400 50  0000 C CNN
	1    8300 1400
	1    0    0    -1  
$EndComp
Wire Wire Line
	8500 1500 8450 1500
Wire Wire Line
	8300 1500 8300 1400
Wire Wire Line
	1050 2700 1050 2600
Wire Wire Line
	6650 1600 7000 1600
$Comp
L Br:M_SWITCH_5MS1S102AM6QE U3
U 1 1 5DDCEDDA
P 7200 1600
F 0 "U3" H 7225 1834 50  0000 C CNN
F 1 "M_SWITCH_5MS1S102AM6QE" H 7225 1834 50  0001 C CNN
F 2 "Br:M_SWITCH_5MS1S102AM6QE" H 7200 1600 50  0001 C CNN
F 3 "" H 7200 1600 50  0001 C CNN
	1    7200 1600
	1    0    0    -1  
$EndComp
$Comp
L Br:GND #PWR0127
U 1 1 5DDD2C52
P 7200 2000
F 0 "#PWR0127" H 7200 1750 50  0001 C CNN
F 1 "GND" H 7205 1827 50  0000 C CNN
F 2 "" H 7200 2000 50  0000 C CNN
F 3 "" H 7200 2000 50  0000 C CNN
	1    7200 2000
	-1   0    0    -1  
$EndComp
Wire Wire Line
	6150 5050 6600 5050
Wire Wire Line
	6150 5250 6600 5250
NoConn ~ 2300 5100
NoConn ~ 7450 1700
Wire Wire Line
	8800 1500 8850 1500
$Comp
L Br:C_10U_0805_10%_25V C4
U 1 1 5EAC7934
P 7850 3150
F 0 "C4" H 7965 3196 50  0000 L CNN
F 1 "10uF" H 7900 3050 50  0000 L CNN
F 2 "Br:C_0805" V 7780 3150 50  0001 C CNN
F 3 "" V 7950 3050 50  0000 C CNN
F 4 "C15850" H 7965 3059 50  0001 L CNN "LCSC"
	1    7850 3150
	1    0    0    -1  
$EndComp
$Comp
L Br:C_10U_0805_10%_25V C9
U 1 1 5EAC7B00
P 8150 3150
F 0 "C9" H 8265 3196 50  0000 L CNN
F 1 "10uF" H 8200 3050 50  0000 L CNN
F 2 "Br:C_0805" V 8080 3150 50  0001 C CNN
F 3 "" V 8250 3050 50  0000 C CNN
F 4 "C15850" H 8265 3059 50  0001 L CNN "LCSC"
	1    8150 3150
	1    0    0    -1  
$EndComp
$Comp
L Br:C_10U_0805_10%_25V C10
U 1 1 5EAC7B46
P 8450 3150
F 0 "C10" H 8565 3196 50  0000 L CNN
F 1 "10uF" H 8500 3050 50  0000 L CNN
F 2 "Br:C_0805" V 8380 3150 50  0001 C CNN
F 3 "" V 8550 3050 50  0000 C CNN
F 4 "C15850" H 8565 3059 50  0001 L CNN "LCSC"
	1    8450 3150
	1    0    0    -1  
$EndComp
$Comp
L Br:C_10U_0805_10%_25V C12
U 1 1 5EAC7C31
P 8750 3150
F 0 "C12" H 8865 3196 50  0000 L CNN
F 1 "10uF" H 8800 3050 50  0000 L CNN
F 2 "Br:C_0805" V 8680 3150 50  0001 C CNN
F 3 "" V 8850 3050 50  0000 C CNN
F 4 "C15850" H 8865 3059 50  0001 L CNN "LCSC"
	1    8750 3150
	1    0    0    -1  
$EndComp
Wire Wire Line
	7850 3000 7850 2850
Connection ~ 7850 2850
Wire Wire Line
	7850 2850 8150 2850
Wire Wire Line
	8150 3000 8150 2850
Connection ~ 8150 2850
Wire Wire Line
	8150 2850 8450 2850
Wire Wire Line
	8450 3000 8450 2850
Connection ~ 8450 2850
Wire Wire Line
	8450 2850 8750 2850
Wire Wire Line
	8750 3000 8750 2850
Connection ~ 8750 2850
Wire Wire Line
	8750 2850 9050 2850
Connection ~ 9050 2850
Wire Wire Line
	7200 2000 7200 1850
Wire Wire Line
	6850 2000 6850 1700
Wire Wire Line
	6650 1700 6850 1700
$Comp
L Br:CN_P_01x02_2.54MM_HEADER J4
U 1 1 5EAE6B01
P 8700 900
F 0 "J4" V 8669 822 60  0000 R CNN
F 1 "CN_P_01x02_2.54MM_HEADER" V 8616 822 60  0001 R CNN
F 2 "Br:CN_P_01x02_2.54MM_HEADER" H 8750 600 60  0001 C CNN
F 3 "" H 8750 600 60  0001 C CNN
	1    8700 900 
	0    -1   -1   0   
$EndComp
Wire Wire Line
	8450 1500 8450 1200
Wire Wire Line
	8450 1200 8600 1200
Wire Wire Line
	8600 1200 8600 1100
Connection ~ 8450 1500
Wire Wire Line
	8450 1500 8300 1500
Wire Wire Line
	8700 1100 8700 1200
Wire Wire Line
	8700 1200 8850 1200
Wire Wire Line
	8850 1200 8850 1500
Text Label 6200 5050 0    50   ~ 0
VBAT_MEAS
$Comp
L Br:D_LED_GREEN_SMD_0603 D5
U 1 1 5EAF3CD5
P 6600 3050
F 0 "D5" H 6748 3071 50  0000 L CNN
F 1 "GREEN" H 6748 2980 50  0000 L CNN
F 2 "Br:LED_0603" H 6600 3050 50  0001 C CNN
F 3 "" H 6600 3050 50  0001 C CNN
F 4 "C72043" H 6748 2934 50  0001 L CNN "LCSC"
	1    6600 3050
	1    0    0    -1  
$EndComp
Wire Wire Line
	9050 2850 9950 2850
$Comp
L Br:TR_NMOS_5.7A_30V_AO3400A Q1
U 1 1 5EB1E5B7
P 9400 4000
F 0 "Q1" H 9635 4000 50  0000 L CNN
F 1 "TR_NMOS_5.7A_30V_AO3400A" H 9635 4000 50  0001 L CNN
F 2 "Br:SOT23" H 9600 4100 50  0001 C CNN
F 3 "" H 9700 4050 50  0000 C CNN
F 4 "C20917" H 9635 3955 50  0001 L CNN "LCSC"
	1    9400 4000
	1    0    0    -1  
$EndComp
Connection ~ 9500 2950
$Comp
L Br:R_100K_0402_1%_0 R7
U 1 1 5EB27DB2
P 9050 4200
F 0 "R7" H 9120 4246 50  0000 L CNN
F 1 "100k" V 9050 4100 50  0000 L CNN
F 2 "Br:R_0402" V 8980 4200 50  0001 C CNN
F 3 "" H 9050 4200 50  0000 C CNN
F 4 "C25741" H 9120 4109 50  0001 L CNN "LCSC"
	1    9050 4200
	1    0    0    -1  
$EndComp
$Comp
L Br:GND #PWR0105
U 1 1 5EB27F49
P 9050 4400
F 0 "#PWR0105" H 9050 4150 50  0001 C CNN
F 1 "GND" H 9055 4227 50  0000 C CNN
F 2 "" H 9050 4400 50  0000 C CNN
F 3 "" H 9050 4400 50  0000 C CNN
	1    9050 4400
	-1   0    0    -1  
$EndComp
Wire Wire Line
	9050 4400 9050 4350
Wire Wire Line
	9500 4200 9500 4400
Wire Wire Line
	9050 4050 9050 4000
Wire Wire Line
	9050 4000 9200 4000
Wire Wire Line
	9050 4000 8800 4000
Connection ~ 9050 4000
Text Label 6200 5250 0    50   ~ 0
V_EN
Text Label 8800 4000 0    50   ~ 0
V_EN
$Comp
L Br:D_LED_RED_SMD_0603 D6
U 1 1 5EB32DA3
P 5800 2850
F 0 "D6" H 5948 2871 50  0000 L CNN
F 1 "RED" H 5948 2780 50  0000 L CNN
F 2 "Br:LED_0603" H 5800 2850 50  0001 C CNN
F 3 "" H 5800 2850 50  0001 C CNN
F 4 "C2286" H 5948 2734 50  0001 L CNN "LCSC"
	1    5800 2850
	0    1    1    0   
$EndComp
$Comp
L Br:R_180R_0603_1% R3
U 1 1 5EB38E73
P 6600 3450
F 0 "R3" H 6670 3496 50  0000 L CNN
F 1 "180R" V 6600 3350 50  0000 L CNN
F 2 "Br:R_0603" V 6530 3450 50  0001 C CNN
F 3 "" H 6600 3450 50  0000 C CNN
F 4 "C22828" H 6670 3359 50  0001 L CNN "LCSC"
	1    6600 3450
	1    0    0    -1  
$EndComp
$Comp
L Br:R_180R_0603_1% R5
U 1 1 5EB38ED3
P 5400 2850
F 0 "R5" H 5470 2896 50  0000 L CNN
F 1 "180R" V 5400 2750 50  0000 L CNN
F 2 "Br:R_0603" V 5330 2850 50  0001 C CNN
F 3 "" H 5400 2850 50  0000 C CNN
F 4 "C22828" H 5470 2759 50  0001 L CNN "LCSC"
	1    5400 2850
	0    1    1    0   
$EndComp
Wire Wire Line
	6600 2850 6600 2900
Wire Wire Line
	6600 3300 6600 3250
Wire Wire Line
	7850 3300 7850 3600
Wire Wire Line
	9500 3800 9500 3600
Connection ~ 7850 3600
Wire Wire Line
	8150 3300 8150 3600
Connection ~ 8150 3600
Wire Wire Line
	8150 3600 7850 3600
Wire Wire Line
	8450 3300 8450 3600
Connection ~ 8450 3600
Wire Wire Line
	8450 3600 8150 3600
Wire Wire Line
	8750 3300 8750 3600
Connection ~ 8750 3600
Wire Wire Line
	8750 3600 8450 3600
Wire Wire Line
	8850 1500 9050 1500
Wire Wire Line
	9050 1500 9050 2850
Connection ~ 8850 1500
Wire Wire Line
	9500 2950 9500 3600
Connection ~ 9500 3600
Wire Wire Line
	5550 2850 5600 2850
Text Label 6300 4550 0    50   ~ 0
LED_RED
Text Label 4800 2850 0    50   ~ 0
LED_RED
NoConn ~ 6150 4450
NoConn ~ 6150 4950
Wire Wire Line
	5250 2850 4800 2850
Connection ~ 6600 2850
Wire Wire Line
	6150 4550 6600 4550
NoConn ~ 6150 5150
Wire Wire Line
	8750 3600 9500 3600
Wire Wire Line
	6600 3600 7850 3600
Text Notes 5800 2650 0    50   ~ 0
Assemble either SMD or THT
$Comp
L Br:5V #PWR0107
U 1 1 5ECB9FDD
P 950 1500
F 0 "#PWR0107" H 950 1350 50  0001 C CNN
F 1 "5V" V 965 1628 50  0000 L CNN
F 2 "" H 950 1500 50  0000 C CNN
F 3 "" H 950 1500 50  0000 C CNN
	1    950  1500
	1    0    0    -1  
$EndComp
Wire Wire Line
	1800 1600 1550 1600
Connection ~ 1800 1600
$Comp
L Br:PWR #FLG0104
U 1 1 5ECC7F17
P 1800 1450
F 0 "#FLG0104" H 1800 1545 50  0001 C CNN
F 1 "PWR" H 1800 1674 50  0000 C CNN
F 2 "" H 1800 1450 50  0000 C CNN
F 3 "" H 1800 1450 50  0000 C CNN
	1    1800 1450
	1    0    0    -1  
$EndComp
Wire Wire Line
	1800 1600 1800 1450
Wire Wire Line
	950  1600 950  1500
Wire Wire Line
	5950 2850 6600 2850
Wire Wire Line
	6600 2850 7850 2850
Wire Wire Line
	7650 1500 7450 1500
Wire Wire Line
	7950 1500 8300 1500
Connection ~ 8300 1500
$Comp
L Br:F_3.15A_15mOhm F1
U 1 1 5ED15EFE
P 7800 1500
F 0 "F1" V 7900 1400 50  0000 C CNN
F 1 "F_3.15A_15mOhm" V 7700 1550 50  0000 C CNN
F 2 "Br:R_0603" V 7730 1500 50  0001 C CNN
F 3 "" H 7800 1500 50  0000 C CNN
F 4 "C182718" H 7685 1500 50  0001 C CNN "LCSC"
	1    7800 1500
	0    1    1    0   
$EndComp
$Comp
L Br:D_SCHOTTKY_SS54 D1
U 1 1 5EDD7CE3
P 1200 1600
F 0 "D1" H 1200 1477 50  0000 C CNN
F 1 "D_SCHOTTKY_SS54" H 1200 1476 50  0001 C CNN
F 2 "Br:DO214AC" H 1200 1600 50  0001 C CNN
F 3 "" H 1200 1700 50  0000 C CNN
F 4 "C22452" H 1200 1477 50  0001 C CNN "LCSC"
	1    1200 1600
	-1   0    0    1   
$EndComp
Wire Wire Line
	950  1600 1050 1600
$Comp
L Br:C_1U_0402_25V C11
U 1 1 5EDDB6AF
P 1800 1850
F 0 "C11" H 1900 1950 50  0000 L CNN
F 1 "1uF" H 1850 1750 50  0000 L CNN
F 2 "Br:C_0402" V 1730 1850 50  0001 C CNN
F 3 "" V 1900 1750 50  0000 C CNN
F 4 "C52923" H 1915 1759 50  0001 L CNN "LCSC"
	1    1800 1850
	1    0    0    -1  
$EndComp
$Comp
L Br:C_1U_0402_25V C7
U 1 1 5EDDB926
P 1550 1850
F 0 "C7" H 1600 1950 50  0000 L CNN
F 1 "1uF" H 1600 1750 50  0000 L CNN
F 2 "Br:C_0402" V 1480 1850 50  0001 C CNN
F 3 "" V 1650 1750 50  0000 C CNN
F 4 "C52923" H 1665 1759 50  0001 L CNN "LCSC"
	1    1550 1850
	1    0    0    -1  
$EndComp
Wire Wire Line
	1550 1700 1550 1600
Connection ~ 1550 1600
Wire Wire Line
	1550 1600 1350 1600
$Comp
L Br:GND #PWR0111
U 1 1 5EDDEE24
P 1550 2150
F 0 "#PWR0111" H 1550 1900 50  0001 C CNN
F 1 "GND" H 1555 1977 50  0000 C CNN
F 2 "" H 1550 2150 50  0000 C CNN
F 3 "" H 1550 2150 50  0000 C CNN
	1    1550 2150
	-1   0    0    -1  
$EndComp
Wire Wire Line
	1550 2150 1550 2000
Text Notes 6300 5850 0    50   ~ 0
TODO - use pin 2 as input tu UART .... so that we can update the power board by UART..
Text Label 1950 4400 0    50   ~ 0
CPU_RX
Wire Wire Line
	1950 4400 2300 4400
Text Label 3850 750  0    50   ~ 0
CPU_RX
$Comp
L Br:R_1k_0402_1% R6
U 1 1 5F3C9B84
P 4450 1600
F 0 "R6" V 4350 1700 50  0000 C CNN
F 1 "1k" V 4450 1600 50  0000 C CNN
F 2 "Br:R_0402" V 4380 1600 50  0001 C CNN
F 3 "" H 4450 1600 50  0000 C CNN
F 4 "C11702" V 4630 1700 50  0001 C CNN "LCSC"
	1    4450 1600
	0    1    1    0   
$EndComp
Text Label 4200 3100 0    50   ~ 0
UART_RX
$Comp
L Br:D_BAV99.215 D4
U 1 1 5F3CA41A
P 3400 3100
F 0 "D4" H 3478 3054 50  0000 L CNN
F 1 "D_BAV99.215" H 2850 3350 50  0000 L CNN
F 2 "Br:SOT23" V 3400 3250 50  0001 C CNN
F 3 "../library_doc/D_BAV99.215.pdf" H 3478 3055 50  0001 L CNN
F 4 "C2500" H 3477 3009 50  0001 L CNN "LCSC"
	1    3400 3100
	-1   0    0    1   
$EndComp
Wire Wire Line
	4500 3100 4100 3100
$Comp
L Br:GND #PWR0122
U 1 1 5F3CA422
P 3400 3450
F 0 "#PWR0122" H 3400 3200 50  0001 C CNN
F 1 "GND" H 3405 3277 50  0000 C CNN
F 2 "" H 3400 3450 50  0000 C CNN
F 3 "" H 3400 3450 50  0000 C CNN
	1    3400 3450
	1    0    0    -1  
$EndComp
Wire Wire Line
	3400 3450 3400 3400
$Comp
L Br:3V3 #PWR0124
U 1 1 5F3CA429
P 3400 2700
F 0 "#PWR0124" H 3400 2550 50  0001 C CNN
F 1 "3V3" H 3415 2873 50  0000 C CNN
F 2 "" H 3400 2700 50  0000 C CNN
F 3 "" H 3400 2700 50  0000 C CNN
	1    3400 2700
	1    0    0    -1  
$EndComp
Wire Wire Line
	3400 2700 3400 2800
Text Notes 3800 2500 0    50   ~ 0
UART protection
Wire Wire Line
	3450 3100 3800 3100
Text Label 3500 3100 0    50   ~ 0
CPU_RX
Text Label 9650 2350 0    50   ~ 0
UART_RX
Wire Wire Line
	9650 2350 10100 2350
$Comp
L Br:R_10K_0402_1% R4
U 1 1 5F3DD485
P 3950 3100
F 0 "R4" V 3850 3200 50  0000 C CNN
F 1 "10k" V 3950 3100 50  0000 C CNN
F 2 "Br:R_0402" V 3880 3100 50  0001 C CNN
F 3 "" H 3950 3100 50  0000 C CNN
F 4 "C25744" V 4130 3200 50  0001 C CNN "LCSC"
	1    3950 3100
	0    1    1    0   
$EndComp
Text Notes 4050 3400 0    50   ~ 0
This way is normally not used \n- use higher protective resistor 
$EndSCHEMATC
